﻿<?xml version="1.0" encoding="utf-8"?>
<report
	progress="">
	<activity
		result="Failed"
		duration="1.1m"
		durationms="65854"
		type="root"
		rid="1232bd0e4432fe0e"
		totalerrorcount="1"
		totalwarningcount="1"
		totalsuccesstestcasecount="0"
		totalfailedtestcasecount="0"
		totalblockedtestcasecount="0"
		childsuccesscount="0"
		childfailedcount="0"
		childblockedcount="0"
		totalsuccesscount="0"
		totalfailedcount="0"
		totalblockedcount="0"
		totalmaintenancemodecount="0"
		user="JohnPloumis"
		rxversion="8.2.1.0"
		host="LAPTOP-5EO8DNU1"
		osversion="Windows 10 64bit"
		runtimeversion="4.0.30319.42000"
		procarch="32bit"
		oslanguage="en-US"
		dtnlanguage="en-US"
		screenresolution="1366x768"
		timestamp="10/17/2018 4:13:33 PM"
		timestampiso="2018-10-17T20:13:33"
		endtime="10/17/2018 4:14:39 PM"
		timeoutfactor="1"
		module="Add_NPI_Verify_Fax">
		<detail>
			Add_NPI_Verify_Fax
		</detail>
		<varbindings>
		</varbindings>
		<item
			timeRelativeToTestSuiteStartTime="00:02.684"
			timeRelativeToTestModuleStartTime="00:02.686"
			timeWallClock="16:13:36"
			time="00:02.684"
			level="Info"
			category="Mouse">
			<message>
				Mouse Left Click item 'MadaketHealth.MedicalGroupNavv.NPIs' at Center.
			</message>
			<metainfo
				type="repoitem"
				path="/dom[@caption='Madaket Health']//ul[#'medicalGroupNavv']/?/?/a[@innertext='NPIs']"
				itempath="?/?/a[@innertext='NPIs']"
				fullname="madaket_XP001Repository.MadaketHealth.MedicalGroupNavv.NPIs"
				id="bb38266320864a588feb61fa315250d0"
				timeout="90000"
				codefile="c:\Users\JohnPloumis\Documents\Ranorex\RanorexStudio Projects\ranorex_testautomation\madaket_XP001\Add_NPI_Verify_Fax.cs"
				codeline="82"
				itemindex="0"
				loglvl="Info">
			</metainfo>
		</item>
		<item
			timeRelativeToTestSuiteStartTime="00:06.673"
			timeRelativeToTestModuleStartTime="00:06.675"
			timeWallClock="16:13:40"
			time="00:06.673"
			level="Info"
			category="Mouse">
			<message>
				Mouse Left Click item 'MadaketHealth.AddNpi' at Center.
			</message>
			<metainfo
				type="repoitem"
				path="/dom[@caption='Madaket Health']//a[#'add-npi']"
				itempath=".//a[#'add-npi']"
				fullname="madaket_XP001Repository.MadaketHealth.AddNpi"
				id="d5e0079b942b4d93be477c9a0bcf892d"
				timeout="60000"
				codefile="c:\Users\JohnPloumis\Documents\Ranorex\RanorexStudio Projects\ranorex_testautomation\madaket_XP001\Add_NPI_Verify_Fax.cs"
				codeline="85"
				itemindex="1"
				loglvl="Info">
			</metainfo>
		</item>
		<item
			timeRelativeToTestSuiteStartTime="00:08.372"
			timeRelativeToTestModuleStartTime="00:08.374"
			timeWallClock="16:13:42"
			time="00:08.372"
			level="Info"
			category="Mouse">
			<message>
				Mouse Left Click item 'MadaketHealth.InputTagNpi' at Center.
			</message>
			<metainfo
				type="repoitem"
				path="/dom[@caption='Madaket Health']//input[#'npi']"
				itempath=".//input[#'npi']"
				fullname="madaket_XP001Repository.MadaketHealth.InputTagNpi"
				id="78e00a5b5909422aaf26bd4ff0ca78ff"
				timeout="60000"
				codefile="c:\Users\JohnPloumis\Documents\Ranorex\RanorexStudio Projects\ranorex_testautomation\madaket_XP001\Add_NPI_Verify_Fax.cs"
				codeline="88"
				itemindex="2"
				loglvl="Info">
			</metainfo>
		</item>
		<item
			timeRelativeToTestSuiteStartTime="00:10.635"
			timeRelativeToTestModuleStartTime="00:10.637"
			timeWallClock="16:13:44"
			time="00:10.635"
			level="Info"
			category="Mouse">
			<message>
				Mouse Left Click item 'MadaketHealth.AddMedicalGroupNpiNext' at 70;15.
			</message>
			<metainfo
				type="repoitem"
				path="/dom[@caption='Madaket Health']//button[#'add-medical-Group-npi-next']"
				itempath=".//button[#'add-medical-Group-npi-next']"
				fullname="madaket_XP001Repository.MadaketHealth.AddMedicalGroupNpiNext"
				id="07e94518f11143c382e70b407781ce76"
				timeout="60000"
				codefile="c:\Users\JohnPloumis\Documents\Ranorex\RanorexStudio Projects\ranorex_testautomation\madaket_XP001\Add_NPI_Verify_Fax.cs"
				codeline="93"
				itemindex="4"
				loglvl="Info">
			</metainfo>
		</item>
		<item
			timeRelativeToTestSuiteStartTime="00:11.505"
			timeRelativeToTestModuleStartTime="00:11.507"
			timeWallClock="16:13:45"
			time="00:11.505"
			level="Info"
			category="Mouse">
			<message>
				Mouse Left Click item 'MadaketHealth.AddMedicalGroupNpiNext' at 48;12.
			</message>
			<metainfo
				type="repoitem"
				path="/dom[@caption='Madaket Health']//button[#'add-medical-Group-npi-next']"
				itempath=".//button[#'add-medical-Group-npi-next']"
				fullname="madaket_XP001Repository.MadaketHealth.AddMedicalGroupNpiNext"
				id="07e94518f11143c382e70b407781ce76"
				timeout="60000"
				codefile="c:\Users\JohnPloumis\Documents\Ranorex\RanorexStudio Projects\ranorex_testautomation\madaket_XP001\Add_NPI_Verify_Fax.cs"
				codeline="105"
				itemindex="8"
				loglvl="Info">
			</metainfo>
		</item>
		<item
			timeRelativeToTestSuiteStartTime="00:12.513"
			timeRelativeToTestModuleStartTime="00:12.515"
			timeWallClock="16:13:46"
			time="00:12.513"
			level="Info"
			category="Set value">
			<message>
				Setting attribute TagValue to 'ONE' on item 'MadaketHealth.NpiType'.
			</message>
			<metainfo
				type="repoitem"
				path="/dom[@caption='Madaket Health']//select[#'npi-type']"
				itempath=".//select[#'npi-type']"
				fullname="madaket_XP001Repository.MadaketHealth.NpiType"
				id="7be3414a861a495eb4a3f0bc62d41934"
				timeout="60000"
				codefile="c:\Users\JohnPloumis\Documents\Ranorex\RanorexStudio Projects\ranorex_testautomation\madaket_XP001\Add_NPI_Verify_Fax.cs"
				codeline="108"
				itemindex="9"
				loglvl="Info">
			</metainfo>
		</item>
		<item
			timeRelativeToTestSuiteStartTime="00:12.880"
			timeRelativeToTestModuleStartTime="00:12.882"
			timeWallClock="16:13:46"
			time="00:12.880"
			level="Info"
			category="Mouse">
			<message>
				Mouse Left Click item 'MadaketHealth.NewMedicalGroupNpiNext' at 66;15.
			</message>
			<metainfo
				type="repoitem"
				path="/dom[@caption='Madaket Health']//button[#'new-medical-Group-npi-next']"
				itempath=".//button[#'new-medical-Group-npi-next']"
				fullname="madaket_XP001Repository.MadaketHealth.NewMedicalGroupNpiNext"
				id="0b4f6e700acc40278f395c9a4aa54b0b"
				timeout="60000"
				codefile="c:\Users\JohnPloumis\Documents\Ranorex\RanorexStudio Projects\ranorex_testautomation\madaket_XP001\Add_NPI_Verify_Fax.cs"
				codeline="111"
				itemindex="10"
				loglvl="Info">
			</metainfo>
		</item>
		<item
			timeRelativeToTestSuiteStartTime="00:13.293"
			timeRelativeToTestModuleStartTime="00:13.295"
			timeWallClock="16:13:47"
			time="00:13.293"
			level="Warn"
			category="Click">
			<message>
				The mouse action was performed outside the boundaries of the assigned UI element.<br/>(null)
			</message>
			<metainfo
				codefile="c:\Users\JohnPloumis\Documents\Ranorex\RanorexStudio Projects\ranorex_testautomation\madaket_XP001\Add_NPI_Verify_Fax.cs"
				codeline="112"
				loglvl="Warn">
			</metainfo>
		</item>
		<item
			timeRelativeToTestSuiteStartTime="00:13.777"
			timeRelativeToTestModuleStartTime="00:13.779"
			timeWallClock="16:13:47"
			time="00:13.777"
			level="Info"
			category="Mouse">
			<message>
				Mouse Left Click item 'MadaketHealth.NpiInformationSection.FirstName1' at 27;5.
			</message>
			<metainfo
				type="repoitem"
				path="/dom[@caption='Madaket Health']//div[#'npi-information-section']//span[@innertext='First Name']"
				itempath=".//span[@innertext='First Name']"
				fullname="madaket_XP001Repository.MadaketHealth.NpiInformationSection.FirstName1"
				id="99cd024ead5b4442a536651035f9889b"
				timeout="90000"
				codefile="c:\Users\JohnPloumis\Documents\Ranorex\RanorexStudio Projects\ranorex_testautomation\madaket_XP001\Add_NPI_Verify_Fax.cs"
				codeline="114"
				itemindex="11"
				loglvl="Info">
			</metainfo>
		</item>
		<item
			timeRelativeToTestSuiteStartTime="00:14.681"
			timeRelativeToTestModuleStartTime="00:14.683"
			timeWallClock="16:13:48"
			time="00:14.681"
			level="Info"
			category="Mouse">
			<message>
				Mouse Left Click item 'MadaketHealth.ProviderFirstName' at 55;10.
			</message>
			<metainfo
				type="repoitem"
				path="/dom[@caption='Madaket Health']//input[#'provider-firstName']"
				itempath=".//input[#'provider-firstName']"
				fullname="madaket_XP001Repository.MadaketHealth.ProviderFirstName"
				id="fbd944ee65ed408585c62cc8ef47b0a3"
				timeout="60000"
				codefile="c:\Users\JohnPloumis\Documents\Ranorex\RanorexStudio Projects\ranorex_testautomation\madaket_XP001\Add_NPI_Verify_Fax.cs"
				codeline="117"
				itemindex="12"
				loglvl="Info">
			</metainfo>
		</item>
		<item
			timeRelativeToTestSuiteStartTime="00:15.493"
			timeRelativeToTestModuleStartTime="00:15.495"
			timeWallClock="16:13:49"
			time="00:15.493"
			level="Info"
			category="Keyboard">
			<message>
				Key sequence 'test' with focus on 'MadaketHealth.ProviderFirstName'.
			</message>
			<metainfo
				type="repoitem"
				path="/dom[@caption='Madaket Health']//input[#'provider-firstName']"
				itempath=".//input[#'provider-firstName']"
				fullname="madaket_XP001Repository.MadaketHealth.ProviderFirstName"
				id="fbd944ee65ed408585c62cc8ef47b0a3"
				timeout="60000"
				codefile="c:\Users\JohnPloumis\Documents\Ranorex\RanorexStudio Projects\ranorex_testautomation\madaket_XP001\Add_NPI_Verify_Fax.cs"
				codeline="120"
				itemindex="13"
				loglvl="Info">
			</metainfo>
		</item>
		<item
			timeRelativeToTestSuiteStartTime="00:16.452"
			timeRelativeToTestModuleStartTime="00:16.454"
			timeWallClock="16:13:50"
			time="00:16.452"
			level="Info"
			category="Mouse">
			<message>
				Mouse Left Click item 'MadaketHealth.NpiInformationSection.LastName1' at 23;4.
			</message>
			<metainfo
				type="repoitem"
				path="/dom[@caption='Madaket Health']//div[#'npi-information-section']//span[@innertext='Last Name']"
				itempath=".//span[@innertext='Last Name']"
				fullname="madaket_XP001Repository.MadaketHealth.NpiInformationSection.LastName1"
				id="fd83dba819a74ee29b7d5b18475ab7a8"
				timeout="90000"
				codefile="c:\Users\JohnPloumis\Documents\Ranorex\RanorexStudio Projects\ranorex_testautomation\madaket_XP001\Add_NPI_Verify_Fax.cs"
				codeline="123"
				itemindex="14"
				loglvl="Info">
			</metainfo>
		</item>
		<item
			timeRelativeToTestSuiteStartTime="00:17.355"
			timeRelativeToTestModuleStartTime="00:17.357"
			timeWallClock="16:13:51"
			time="00:17.355"
			level="Info"
			category="Mouse">
			<message>
				Mouse Left Click item 'MadaketHealth.ProviderLastName' at 33;12.
			</message>
			<metainfo
				type="repoitem"
				path="/dom[@caption='Madaket Health']//input[#'provider-lastName']"
				itempath=".//input[#'provider-lastName']"
				fullname="madaket_XP001Repository.MadaketHealth.ProviderLastName"
				id="3e8ad430b4ac4a0785236eab14543606"
				timeout="60000"
				codefile="c:\Users\JohnPloumis\Documents\Ranorex\RanorexStudio Projects\ranorex_testautomation\madaket_XP001\Add_NPI_Verify_Fax.cs"
				codeline="126"
				itemindex="15"
				loglvl="Info">
			</metainfo>
		</item>
		<item
			timeRelativeToTestSuiteStartTime="00:18.193"
			timeRelativeToTestModuleStartTime="00:18.195"
			timeWallClock="16:13:52"
			time="00:18.193"
			level="Info"
			category="Keyboard">
			<message>
				Key sequence 'automation' with focus on 'MadaketHealth.ProviderLastName'.
			</message>
			<metainfo
				type="repoitem"
				path="/dom[@caption='Madaket Health']//input[#'provider-lastName']"
				itempath=".//input[#'provider-lastName']"
				fullname="madaket_XP001Repository.MadaketHealth.ProviderLastName"
				id="3e8ad430b4ac4a0785236eab14543606"
				timeout="60000"
				codefile="c:\Users\JohnPloumis\Documents\Ranorex\RanorexStudio Projects\ranorex_testautomation\madaket_XP001\Add_NPI_Verify_Fax.cs"
				codeline="129"
				itemindex="16"
				loglvl="Info">
			</metainfo>
		</item>
		<item
			timeRelativeToTestSuiteStartTime="00:19.333"
			timeRelativeToTestModuleStartTime="00:19.335"
			timeWallClock="16:13:53"
			time="00:19.333"
			level="Info"
			category="Set value">
			<message>
				Setting attribute TagValue to 'MALE' on item 'MadaketHealth.NpiInformationSection.GenderEdit'.
			</message>
			<metainfo
				type="repoitem"
				path="/dom[@caption='Madaket Health']//div[#'npi-information-section']//select[@id='genderEdit']"
				itempath=".//select[@id='genderEdit']"
				fullname="madaket_XP001Repository.MadaketHealth.NpiInformationSection.GenderEdit"
				id="262b42a43c6f44f18f0bb4163b439c87"
				timeout="90000"
				codefile="c:\Users\JohnPloumis\Documents\Ranorex\RanorexStudio Projects\ranorex_testautomation\madaket_XP001\Add_NPI_Verify_Fax.cs"
				codeline="132"
				itemindex="17"
				loglvl="Info">
			</metainfo>
		</item>
		<item
			timeRelativeToTestSuiteStartTime="00:19.708"
			timeRelativeToTestModuleStartTime="00:19.710"
			timeWallClock="16:13:53"
			time="00:19.708"
			level="Info"
			category="Mouse">
			<message>
				Mouse Left Click item 'MadaketHealth.Street1' at Center.
			</message>
			<metainfo
				type="repoitem"
				path="/dom[@caption='Madaket Health']//div[#'address-section']/?/?/?/input[@id='street1']"
				itempath=".//div[#'address-section']/?/?/?/input[@id='street1']"
				fullname="madaket_XP001Repository.MadaketHealth.Street1"
				id="a7663cf55f2e4afdae9568c52ce4128e"
				timeout="60000"
				codefile="c:\Users\JohnPloumis\Documents\Ranorex\RanorexStudio Projects\ranorex_testautomation\madaket_XP001\Add_NPI_Verify_Fax.cs"
				codeline="135"
				itemindex="18"
				loglvl="Info">
			</metainfo>
		</item>
		<item
			timeRelativeToTestSuiteStartTime="00:20.593"
			timeRelativeToTestModuleStartTime="00:20.595"
			timeWallClock="16:13:54"
			time="00:20.593"
			level="Info"
			category="Keyboard">
			<message>
				Key sequence '101 atlantic ave' with focus on 'MadaketHealth.Street1'.
			</message>
			<metainfo
				type="repoitem"
				path="/dom[@caption='Madaket Health']//div[#'address-section']/?/?/?/input[@id='street1']"
				itempath=".//div[#'address-section']/?/?/?/input[@id='street1']"
				fullname="madaket_XP001Repository.MadaketHealth.Street1"
				id="a7663cf55f2e4afdae9568c52ce4128e"
				timeout="60000"
				codefile="c:\Users\JohnPloumis\Documents\Ranorex\RanorexStudio Projects\ranorex_testautomation\madaket_XP001\Add_NPI_Verify_Fax.cs"
				codeline="138"
				itemindex="19"
				loglvl="Info">
			</metainfo>
		</item>
		<item
			timeRelativeToTestSuiteStartTime="00:22.030"
			timeRelativeToTestModuleStartTime="00:22.032"
			timeWallClock="16:13:55"
			time="00:22.030"
			level="Info"
			category="Mouse">
			<message>
				Mouse Left Click item 'MadaketHealth.City' at Center.
			</message>
			<metainfo
				type="repoitem"
				path="/dom[@caption='Madaket Health']//div[#'address-section']/?/?/?/input[@id='city']"
				itempath=".//div[#'address-section']/?/?/?/input[@id='city']"
				fullname="madaket_XP001Repository.MadaketHealth.City"
				id="9e3518c95609497194d0bf4ee213d6d3"
				timeout="60000"
				codefile="c:\Users\JohnPloumis\Documents\Ranorex\RanorexStudio Projects\ranorex_testautomation\madaket_XP001\Add_NPI_Verify_Fax.cs"
				codeline="141"
				itemindex="20"
				loglvl="Info">
			</metainfo>
		</item>
		<item
			timeRelativeToTestSuiteStartTime="00:22.995"
			timeRelativeToTestModuleStartTime="00:22.997"
			timeWallClock="16:13:56"
			time="00:22.995"
			level="Info"
			category="Keyboard">
			<message>
				Key sequence 'boston' with focus on 'MadaketHealth.City'.
			</message>
			<metainfo
				type="repoitem"
				path="/dom[@caption='Madaket Health']//div[#'address-section']/?/?/?/input[@id='city']"
				itempath=".//div[#'address-section']/?/?/?/input[@id='city']"
				fullname="madaket_XP001Repository.MadaketHealth.City"
				id="9e3518c95609497194d0bf4ee213d6d3"
				timeout="60000"
				codefile="c:\Users\JohnPloumis\Documents\Ranorex\RanorexStudio Projects\ranorex_testautomation\madaket_XP001\Add_NPI_Verify_Fax.cs"
				codeline="144"
				itemindex="21"
				loglvl="Info">
			</metainfo>
		</item>
		<item
			timeRelativeToTestSuiteStartTime="00:24.003"
			timeRelativeToTestModuleStartTime="00:24.005"
			timeWallClock="16:13:57"
			time="00:24.003"
			level="Info"
			category="Mouse">
			<message>
				Mouse Left Click item 'MadaketHealth.InputTagZip' at Center.
			</message>
			<metainfo
				type="repoitem"
				path="/dom[@caption='Madaket Health']//div[#'address-section']/?/div/div/?/input[@id='zip']"
				itempath=".//div[#'address-section']/?/div/div/?/input[@id='zip']"
				fullname="madaket_XP001Repository.MadaketHealth.InputTagZip"
				id="6a242eb88e6d4f6592e458527898ffdb"
				timeout="60000"
				codefile="c:\Users\JohnPloumis\Documents\Ranorex\RanorexStudio Projects\ranorex_testautomation\madaket_XP001\Add_NPI_Verify_Fax.cs"
				codeline="147"
				itemindex="22"
				loglvl="Info">
			</metainfo>
		</item>
		<item
			timeRelativeToTestSuiteStartTime="00:24.883"
			timeRelativeToTestModuleStartTime="00:24.885"
			timeWallClock="16:13:58"
			time="00:24.883"
			level="Info"
			category="Keyboard">
			<message>
				Key sequence '02111' with focus on 'MadaketHealth.InputTagZip'.
			</message>
			<metainfo
				type="repoitem"
				path="/dom[@caption='Madaket Health']//div[#'address-section']/?/div/div/?/input[@id='zip']"
				itempath=".//div[#'address-section']/?/div/div/?/input[@id='zip']"
				fullname="madaket_XP001Repository.MadaketHealth.InputTagZip"
				id="6a242eb88e6d4f6592e458527898ffdb"
				timeout="60000"
				codefile="c:\Users\JohnPloumis\Documents\Ranorex\RanorexStudio Projects\ranorex_testautomation\madaket_XP001\Add_NPI_Verify_Fax.cs"
				codeline="150"
				itemindex="23"
				loglvl="Info">
			</metainfo>
		</item>
		<item
			timeRelativeToTestSuiteStartTime="00:25.853"
			timeRelativeToTestModuleStartTime="00:25.855"
			timeWallClock="16:13:59"
			time="00:25.853"
			level="Info"
			category="Mouse">
			<message>
				Mouse Left Click item 'MadaketHealth.AddContactDiv.PracticeLocationContactFirstName' at Center.
			</message>
			<metainfo
				type="repoitem"
				path="/dom[@caption='Madaket Health']//div[#'addContactDiv']//input[@name='practiceLocation.contact.firstName']"
				itempath=".//input[@name='practiceLocation.contact.firstName']"
				fullname="madaket_XP001Repository.MadaketHealth.AddContactDiv.PracticeLocationContactFirstName"
				id="5f82f4f245a94146afdd1e8225a2c936"
				timeout="90000"
				codefile="c:\Users\JohnPloumis\Documents\Ranorex\RanorexStudio Projects\ranorex_testautomation\madaket_XP001\Add_NPI_Verify_Fax.cs"
				codeline="153"
				itemindex="24"
				loglvl="Info">
			</metainfo>
		</item>
		<item
			timeRelativeToTestSuiteStartTime="00:26.703"
			timeRelativeToTestModuleStartTime="00:26.705"
			timeWallClock="16:14:00"
			time="00:26.703"
			level="Info"
			category="Keyboard">
			<message>
				Key sequence 'test' with focus on 'MadaketHealth.AddContactDiv.PracticeLocationContactFirstName'.
			</message>
			<metainfo
				type="repoitem"
				path="/dom[@caption='Madaket Health']//div[#'addContactDiv']//input[@name='practiceLocation.contact.firstName']"
				itempath=".//input[@name='practiceLocation.contact.firstName']"
				fullname="madaket_XP001Repository.MadaketHealth.AddContactDiv.PracticeLocationContactFirstName"
				id="5f82f4f245a94146afdd1e8225a2c936"
				timeout="90000"
				codefile="c:\Users\JohnPloumis\Documents\Ranorex\RanorexStudio Projects\ranorex_testautomation\madaket_XP001\Add_NPI_Verify_Fax.cs"
				codeline="156"
				itemindex="25"
				loglvl="Info">
			</metainfo>
		</item>
		<item
			timeRelativeToTestSuiteStartTime="00:27.632"
			timeRelativeToTestModuleStartTime="00:27.634"
			timeWallClock="16:14:01"
			time="00:27.632"
			level="Info"
			category="Mouse">
			<message>
				Mouse Left Click item 'MadaketHealth.AddContactDiv.PracticeLocationContactLastName' at 47;10.
			</message>
			<metainfo
				type="repoitem"
				path="/dom[@caption='Madaket Health']//div[#'addContactDiv']//input[@name='practiceLocation.contact.lastName']"
				itempath=".//input[@name='practiceLocation.contact.lastName']"
				fullname="madaket_XP001Repository.MadaketHealth.AddContactDiv.PracticeLocationContactLastName"
				id="6ba3c73c14284b7ea11b1e22a9a2f0fe"
				timeout="90000"
				codefile="c:\Users\JohnPloumis\Documents\Ranorex\RanorexStudio Projects\ranorex_testautomation\madaket_XP001\Add_NPI_Verify_Fax.cs"
				codeline="159"
				itemindex="26"
				loglvl="Info">
			</metainfo>
		</item>
		<item
			timeRelativeToTestSuiteStartTime="00:28.532"
			timeRelativeToTestModuleStartTime="00:28.534"
			timeWallClock="16:14:02"
			time="00:28.532"
			level="Info"
			category="Keyboard">
			<message>
				Key sequence 'automation' with focus on 'MadaketHealth.AddContactDiv.PracticeLocationContactLastName'.
			</message>
			<metainfo
				type="repoitem"
				path="/dom[@caption='Madaket Health']//div[#'addContactDiv']//input[@name='practiceLocation.contact.lastName']"
				itempath=".//input[@name='practiceLocation.contact.lastName']"
				fullname="madaket_XP001Repository.MadaketHealth.AddContactDiv.PracticeLocationContactLastName"
				id="6ba3c73c14284b7ea11b1e22a9a2f0fe"
				timeout="90000"
				codefile="c:\Users\JohnPloumis\Documents\Ranorex\RanorexStudio Projects\ranorex_testautomation\madaket_XP001\Add_NPI_Verify_Fax.cs"
				codeline="162"
				itemindex="27"
				loglvl="Info">
			</metainfo>
		</item>
		<item
			timeRelativeToTestSuiteStartTime="00:29.733"
			timeRelativeToTestModuleStartTime="00:29.735"
			timeWallClock="16:14:03"
			time="00:29.733"
			level="Info"
			category="Mouse">
			<message>
				Mouse Left Click item 'MadaketHealth.AddContactDiv.PracticeLocationContactTitle' at 36;7.
			</message>
			<metainfo
				type="repoitem"
				path="/dom[@caption='Madaket Health']//div[#'addContactDiv']//input[@name='practiceLocation.contact.title']"
				itempath=".//input[@name='practiceLocation.contact.title']"
				fullname="madaket_XP001Repository.MadaketHealth.AddContactDiv.PracticeLocationContactTitle"
				id="924190e17fad4318a49ab4809d7df1f6"
				timeout="90000"
				codefile="c:\Users\JohnPloumis\Documents\Ranorex\RanorexStudio Projects\ranorex_testautomation\madaket_XP001\Add_NPI_Verify_Fax.cs"
				codeline="165"
				itemindex="28"
				loglvl="Info">
			</metainfo>
		</item>
		<item
			timeRelativeToTestSuiteStartTime="00:30.692"
			timeRelativeToTestModuleStartTime="00:30.695"
			timeWallClock="16:14:04"
			time="00:30.692"
			level="Info"
			category="Keyboard">
			<message>
				Key sequence 'automation' with focus on 'MadaketHealth.AddContactDiv.PracticeLocationContactTitle'.
			</message>
			<metainfo
				type="repoitem"
				path="/dom[@caption='Madaket Health']//div[#'addContactDiv']//input[@name='practiceLocation.contact.title']"
				itempath=".//input[@name='practiceLocation.contact.title']"
				fullname="madaket_XP001Repository.MadaketHealth.AddContactDiv.PracticeLocationContactTitle"
				id="924190e17fad4318a49ab4809d7df1f6"
				timeout="90000"
				codefile="c:\Users\JohnPloumis\Documents\Ranorex\RanorexStudio Projects\ranorex_testautomation\madaket_XP001\Add_NPI_Verify_Fax.cs"
				codeline="168"
				itemindex="29"
				loglvl="Info">
			</metainfo>
		</item>
		<item
			timeRelativeToTestSuiteStartTime="00:31.932"
			timeRelativeToTestModuleStartTime="00:31.934"
			timeWallClock="16:14:05"
			time="00:31.932"
			level="Info"
			category="Mouse">
			<message>
				Mouse Left Click item 'MadaketHealth.AddContactDiv.PracticeLocationContactEmail' at 45;6.
			</message>
			<metainfo
				type="repoitem"
				path="/dom[@caption='Madaket Health']//div[#'addContactDiv']//input[@name='practiceLocation.contact.email']"
				itempath=".//input[@name='practiceLocation.contact.email']"
				fullname="madaket_XP001Repository.MadaketHealth.AddContactDiv.PracticeLocationContactEmail"
				id="42028583e2f84a5789a94053272839f0"
				timeout="90000"
				codefile="c:\Users\JohnPloumis\Documents\Ranorex\RanorexStudio Projects\ranorex_testautomation\madaket_XP001\Add_NPI_Verify_Fax.cs"
				codeline="171"
				itemindex="30"
				loglvl="Info">
			</metainfo>
		</item>
		<item
			timeRelativeToTestSuiteStartTime="00:32.823"
			timeRelativeToTestModuleStartTime="00:32.825"
			timeWallClock="16:14:06"
			time="00:32.823"
			level="Info"
			category="Keyboard">
			<message>
				Key sequence 'quality{LShiftKey down}{@ down}{LShiftKey up}quality.com' with focus on 'MadaketHealth.AddContactDiv.PracticeLocationContactEmail'.
			</message>
			<metainfo
				type="repoitem"
				path="/dom[@caption='Madaket Health']//div[#'addContactDiv']//input[@name='practiceLocation.contact.email']"
				itempath=".//input[@name='practiceLocation.contact.email']"
				fullname="madaket_XP001Repository.MadaketHealth.AddContactDiv.PracticeLocationContactEmail"
				id="42028583e2f84a5789a94053272839f0"
				timeout="90000"
				codefile="c:\Users\JohnPloumis\Documents\Ranorex\RanorexStudio Projects\ranorex_testautomation\madaket_XP001\Add_NPI_Verify_Fax.cs"
				codeline="174"
				itemindex="31"
				loglvl="Info">
			</metainfo>
		</item>
		<item
			timeRelativeToTestSuiteStartTime="00:34.403"
			timeRelativeToTestModuleStartTime="00:34.405"
			timeWallClock="16:14:08"
			time="00:34.403"
			level="Info"
			category="Keyboard">
			<message>
				Key sequence '{Tab}' with focus on 'MadaketHealth.AddContactDiv.PracticeLocationContactEmail'.
			</message>
			<metainfo
				type="repoitem"
				path="/dom[@caption='Madaket Health']//div[#'addContactDiv']//input[@name='practiceLocation.contact.email']"
				itempath=".//input[@name='practiceLocation.contact.email']"
				fullname="madaket_XP001Repository.MadaketHealth.AddContactDiv.PracticeLocationContactEmail"
				id="42028583e2f84a5789a94053272839f0"
				timeout="90000"
				codefile="c:\Users\JohnPloumis\Documents\Ranorex\RanorexStudio Projects\ranorex_testautomation\madaket_XP001\Add_NPI_Verify_Fax.cs"
				codeline="177"
				itemindex="32"
				loglvl="Info">
			</metainfo>
		</item>
		<item
			timeRelativeToTestSuiteStartTime="00:35.398"
			timeRelativeToTestModuleStartTime="00:35.400"
			timeWallClock="16:14:09"
			time="00:35.398"
			level="Info"
			category="Keyboard">
			<message>
				Key sequence '617555432110101{Tab}{Tab}'.
			</message>
			<metainfo
				itemindex="33"
				codefile="c:\Users\JohnPloumis\Documents\Ranorex\RanorexStudio Projects\ranorex_testautomation\madaket_XP001\Add_NPI_Verify_Fax.cs"
				codeline="180"
				loglvl="Info">
			</metainfo>
		</item>
		<item
			timeRelativeToTestSuiteStartTime="00:36.160"
			timeRelativeToTestModuleStartTime="00:36.162"
			timeWallClock="16:14:10"
			time="00:36.160"
			level="Info"
			category="Mouse">
			<message>
				Mouse Left Click item 'MadaketHealth' at 1037;445.
			</message>
			<metainfo
				type="repoitem"
				path="/dom[@caption='Madaket Health']"
				itempath="/dom[@caption='Madaket Health']"
				fullname="madaket_XP001Repository.MadaketHealth.Self"
				id="4332fd4a9edf411eb75ed5d962b8010b"
				timeout="30000"
				codefile="c:\Users\JohnPloumis\Documents\Ranorex\RanorexStudio Projects\ranorex_testautomation\madaket_XP001\Add_NPI_Verify_Fax.cs"
				codeline="183"
				itemindex="34"
				loglvl="Info">
			</metainfo>
		</item>
		<item
			timeRelativeToTestSuiteStartTime="00:36.913"
			timeRelativeToTestModuleStartTime="00:36.915"
			timeWallClock="16:14:10"
			time="00:36.913"
			level="Info"
			category="Mouse">
			<message>
				Mouse Left Click item 'MadaketHealth' at 1037;445.
			</message>
			<metainfo
				type="repoitem"
				path="/dom[@caption='Madaket Health']"
				itempath="/dom[@caption='Madaket Health']"
				fullname="madaket_XP001Repository.MadaketHealth.Self"
				id="4332fd4a9edf411eb75ed5d962b8010b"
				timeout="30000"
				codefile="c:\Users\JohnPloumis\Documents\Ranorex\RanorexStudio Projects\ranorex_testautomation\madaket_XP001\Add_NPI_Verify_Fax.cs"
				codeline="186"
				itemindex="35"
				loglvl="Info">
			</metainfo>
		</item>
		<item
			timeRelativeToTestSuiteStartTime="00:37.621"
			timeRelativeToTestModuleStartTime="00:37.623"
			timeWallClock="16:14:11"
			time="00:37.621"
			level="Info"
			category="Mouse">
			<message>
				Mouse Left Click item 'MadaketHealth.ContactSection' at 6;333.
			</message>
			<metainfo
				type="repoitem"
				path="/dom[@caption='Madaket Health']//div[#'contact-section']"
				itempath=".//div[#'contact-section']"
				fullname="madaket_XP001Repository.MadaketHealth.ContactSection"
				id="e3f022e259b94d549f2b400543ff9603"
				timeout="60000"
				codefile="c:\Users\JohnPloumis\Documents\Ranorex\RanorexStudio Projects\ranorex_testautomation\madaket_XP001\Add_NPI_Verify_Fax.cs"
				codeline="189"
				itemindex="36"
				loglvl="Info">
			</metainfo>
		</item>
		<item
			timeRelativeToTestSuiteStartTime="00:38.503"
			timeRelativeToTestModuleStartTime="00:38.505"
			timeWallClock="16:14:12"
			time="00:38.503"
			level="Info"
			category="Keyboard">
			<message>
				Key 'Ctrl+End' Press with focus on 'MadaketHealth.ContactSection'.
			</message>
			<metainfo
				type="repoitem"
				path="/dom[@caption='Madaket Health']//div[#'contact-section']"
				itempath=".//div[#'contact-section']"
				fullname="madaket_XP001Repository.MadaketHealth.ContactSection"
				id="e3f022e259b94d549f2b400543ff9603"
				timeout="60000"
				codefile="c:\Users\JohnPloumis\Documents\Ranorex\RanorexStudio Projects\ranorex_testautomation\madaket_XP001\Add_NPI_Verify_Fax.cs"
				codeline="192"
				itemindex="37"
				loglvl="Info">
			</metainfo>
		</item>
		<item
			timeRelativeToTestSuiteStartTime="00:38.906"
			timeRelativeToTestModuleStartTime="00:38.908"
			timeWallClock="16:14:12"
			time="00:38.906"
			level="Info"
			category="Mouse">
			<message>
				Mouse Left Click item 'MadaketHealth.AddContactDiv.PracticeLocationContactFax' at 64;13.
			</message>
			<metainfo
				type="repoitem"
				path="/dom[@caption='Madaket Health']//div[#'addContactDiv']//input[@name='practiceLocation.contact.fax']"
				itempath=".//input[@name='practiceLocation.contact.fax']"
				fullname="madaket_XP001Repository.MadaketHealth.AddContactDiv.PracticeLocationContactFax"
				id="a7f71ed664e141e0abbd8a5bb1c8fa7b"
				timeout="90000"
				codefile="c:\Users\JohnPloumis\Documents\Ranorex\RanorexStudio Projects\ranorex_testautomation\madaket_XP001\Add_NPI_Verify_Fax.cs"
				codeline="196"
				itemindex="38"
				loglvl="Info">
			</metainfo>
		</item>
		<item
			timeRelativeToTestSuiteStartTime="00:39.835"
			timeRelativeToTestModuleStartTime="00:39.837"
			timeWallClock="16:14:13"
			time="00:39.835"
			level="Info"
			category="Keyboard">
			<message>
				Key sequence '6175559876' with focus on 'MadaketHealth.AddContactDiv.PracticeLocationContactFax'.
			</message>
			<metainfo
				type="repoitem"
				path="/dom[@caption='Madaket Health']//div[#'addContactDiv']//input[@name='practiceLocation.contact.fax']"
				itempath=".//input[@name='practiceLocation.contact.fax']"
				fullname="madaket_XP001Repository.MadaketHealth.AddContactDiv.PracticeLocationContactFax"
				id="a7f71ed664e141e0abbd8a5bb1c8fa7b"
				timeout="90000"
				codefile="c:\Users\JohnPloumis\Documents\Ranorex\RanorexStudio Projects\ranorex_testautomation\madaket_XP001\Add_NPI_Verify_Fax.cs"
				codeline="199"
				itemindex="39"
				loglvl="Info">
			</metainfo>
		</item>
		<item
			timeRelativeToTestSuiteStartTime="00:41.102"
			timeRelativeToTestModuleStartTime="00:41.104"
			timeWallClock="16:14:14"
			time="00:41.102"
			level="Info"
			category="Invoke action">
			<message>
				Invoking Focus() on item 'MadaketHealth.AddNewType1Npi'.
			</message>
			<metainfo
				type="repoitem"
				path="/dom[@caption='Madaket Health']//button[#'add-new-type1-npi']"
				itempath=".//button[#'add-new-type1-npi']"
				fullname="madaket_XP001Repository.MadaketHealth.AddNewType1Npi"
				id="8901a93abac74366aa72efad0fbfbc40"
				timeout="60000"
				codefile="c:\Users\JohnPloumis\Documents\Ranorex\RanorexStudio Projects\ranorex_testautomation\madaket_XP001\Add_NPI_Verify_Fax.cs"
				codeline="202"
				itemindex="40"
				loglvl="Info">
			</metainfo>
		</item>
		<item
			timeRelativeToTestSuiteStartTime="00:41.453"
			timeRelativeToTestModuleStartTime="00:41.455"
			timeWallClock="16:14:15"
			time="00:41.453"
			level="Info"
			category="Mouse">
			<message>
				Mouse Left Click item 'MadaketHealth.AddNewType1Npi' at Center.
			</message>
			<metainfo
				type="repoitem"
				path="/dom[@caption='Madaket Health']//button[#'add-new-type1-npi']"
				itempath=".//button[#'add-new-type1-npi']"
				fullname="madaket_XP001Repository.MadaketHealth.AddNewType1Npi"
				id="8901a93abac74366aa72efad0fbfbc40"
				timeout="60000"
				codefile="c:\Users\JohnPloumis\Documents\Ranorex\RanorexStudio Projects\ranorex_testautomation\madaket_XP001\Add_NPI_Verify_Fax.cs"
				codeline="205"
				itemindex="41"
				loglvl="Info">
			</metainfo>
		</item>
		<item
			timeRelativeToTestSuiteStartTime="00:42.305"
			timeRelativeToTestModuleStartTime="00:42.307"
			timeWallClock="16:14:16"
			time="00:42.305"
			level="Info"
			category="Mouse">
			<message>
				Mouse Left Click item 'MadaketHealth.SpanTagTestAutomation' at 59;5.
			</message>
			<metainfo
				type="repoitem"
				path="/dom[@caption='Madaket Health']//a[#'multilineSelect-button']/?/?/span[@innertext='test automation']"
				itempath=".//a[#'multilineSelect-button']/?/?/span[@innertext='test automation']"
				fullname="madaket_XP001Repository.MadaketHealth.SpanTagTestAutomation"
				id="f9b38156eb2f4c41a85d080561aa2070"
				timeout="60000"
				codefile="c:\Users\JohnPloumis\Documents\Ranorex\RanorexStudio Projects\ranorex_testautomation\madaket_XP001\Add_NPI_Verify_Fax.cs"
				codeline="208"
				itemindex="42"
				loglvl="Info">
			</metainfo>
		</item>
		<item
			timeRelativeToTestSuiteStartTime="01:05.854"
			timeRelativeToTestModuleStartTime="01:05.856"
			timeWallClock="16:14:39"
			time="01:05.854"
			level="Error"
			category="Module">
			<message>
				The test run has been aborted by the user.
			</message>
			<metainfo
				loglvl="Error">
			</metainfo>
		</item>
	</activity>
</report>
