﻿<?xml version="1.0" encoding="utf-8"?>
<report
	progress="">
	<activity
		result="Success"
		duration="0ms"
		durationms="0"
		type="root"
		rid="250caf8aec3b4c17"
		totalerrorcount="0"
		totalwarningcount="0"
		totalsuccesstestcasecount="0"
		totalfailedtestcasecount="0"
		totalblockedtestcasecount="0"
		childsuccesscount="0"
		childfailedcount="0"
		childblockedcount="0"
		totalsuccesscount="0"
		totalfailedcount="0"
		totalblockedcount="0"
		totalmaintenancemodecount="0"
		user="JohnPloumis"
		rxversion="8.2.1.0"
		host="LAPTOP-5EO8DNU1"
		osversion="Windows 10 64bit"
		runtimeversion="4.0.30319.42000"
		procarch="32bit"
		oslanguage="en-US"
		dtnlanguage="en-US"
		screenresolution="1366x768"
		timestamp="11/15/2018 3:41:18 PM"
		timestampiso="2018-11-15T20:41:18"
		endtime="11/15/2018 3:41:46 PM"
		timeoutfactor="1"
		module="Add_New_File_To_library">
		<detail>
			Add_New_File_To_library
		</detail>
		<varbindings>
		</varbindings>
		<item
			timeRelativeToTestSuiteStartTime="00:02.160"
			timeRelativeToTestModuleStartTime="00:02.175"
			timeWallClock="15:41:20"
			time="00:02.160"
			level="Info"
			category="Mouse">
			<message>
				Mouse Left Click item 'NewGroupAddress.DivTagLibrary' at 20;29.
			</message>
			<metainfo
				type="repoitem"
				path="/dom[@domain='edi-alpha.madakethealth.com']//nav[#'mainNav']/ul//div[@innertext='Library']"
				itempath=".//nav[#'mainNav']/ul//div[@innertext='Library']"
				fullname="madaket_XP001Repository.NewGroupAddress.DivTagLibrary"
				id="517bbb2e0d5e430e828e1db2df1c849c"
				timeout="60000"
				codefile="c:\Users\JohnPloumis\Documents\Ranorex\RanorexStudio Projects\ranorex_testautomation\madaket_XP001\Add_New_File_To_library.UserCode.cs"
				codeline="38"
				itemindex="0"
				loglvl="Info">
			</metainfo>
		</item>
		<item
			timeRelativeToTestSuiteStartTime="00:06.011"
			timeRelativeToTestModuleStartTime="00:06.027"
			timeWallClock="15:41:24"
			time="00:06.011"
			level="Info"
			category="Mouse">
			<message>
				Mouse Left Click item 'NewGroupAddress.NewLibraryFile' at 32;12.
			</message>
			<metainfo
				type="repoitem"
				path="/dom[@domain='edi-alpha.madakethealth.com']//a[#'newLibraryFile']"
				itempath=".//a[#'newLibraryFile']"
				fullname="madaket_XP001Repository.NewGroupAddress.NewLibraryFile"
				id="027d7bec465d4af4a87812c98d405059"
				timeout="60000"
				codefile="c:\Users\JohnPloumis\Documents\Ranorex\RanorexStudio Projects\ranorex_testautomation\madaket_XP001\Add_New_File_To_library.UserCode.cs"
				codeline="42"
				itemindex="1"
				loglvl="Info">
			</metainfo>
		</item>
		<item
			timeRelativeToTestSuiteStartTime="00:07.747"
			timeRelativeToTestModuleStartTime="00:07.763"
			timeWallClock="15:41:26"
			time="00:07.747"
			level="Info"
			category="Mouse">
			<message>
				Mouse Left Click item 'NewGroupAddress.OwnerTypeTradingPartner' at 5;7.
			</message>
			<metainfo
				type="repoitem"
				path="/dom[@domain='edi-alpha.madakethealth.com']//input[#'ownerTypeTradingPartner']"
				itempath=".//input[#'ownerTypeTradingPartner']"
				fullname="madaket_XP001Repository.NewGroupAddress.OwnerTypeTradingPartner"
				id="a80f99e623d643ff975adb64883d8e36"
				timeout="60000"
				codefile="c:\Users\JohnPloumis\Documents\Ranorex\RanorexStudio Projects\ranorex_testautomation\madaket_XP001\Add_New_File_To_library.UserCode.cs"
				codeline="46"
				itemindex="2"
				loglvl="Info">
			</metainfo>
		</item>
		<item
			timeRelativeToTestSuiteStartTime="00:09.284"
			timeRelativeToTestModuleStartTime="00:09.299"
			timeWallClock="15:41:27"
			time="00:09.284"
			level="Info"
			category="Set value">
			<message>
				Setting attribute TagValue to '6cc2a2b5-b4b3-4166-b2e6-eb7a9809fe07' on item 'NewGroupAddress.FileOwner'.
			</message>
			<metainfo
				type="repoitem"
				path="/dom[@domain='edi-alpha.madakethealth.com']//select[#'fileOwner']"
				itempath=".//select[#'fileOwner']"
				fullname="madaket_XP001Repository.NewGroupAddress.FileOwner"
				id="bb5b08716f3e4d178371896020d65b2d"
				timeout="60000"
				codefile="c:\Users\JohnPloumis\Documents\Ranorex\RanorexStudio Projects\ranorex_testautomation\madaket_XP001\Add_New_File_To_library.UserCode.cs"
				codeline="50"
				itemindex="3"
				loglvl="Info">
			</metainfo>
		</item>
		<item
			timeRelativeToTestSuiteStartTime="00:09.700"
			timeRelativeToTestModuleStartTime="00:09.716"
			timeWallClock="15:41:28"
			time="00:09.700"
			level="Info"
			category="Mouse">
			<message>
				Mouse Left Click item 'NewGroupAddress.FileName' at 74;7.
			</message>
			<metainfo
				type="repoitem"
				path="/dom[@domain='edi-alpha.madakethealth.com']//input[#'fileName']"
				itempath=".//input[#'fileName']"
				fullname="madaket_XP001Repository.NewGroupAddress.FileName"
				id="c5aa8c09d5a347dd824390528967c79d"
				timeout="60000"
				codefile="c:\Users\JohnPloumis\Documents\Ranorex\RanorexStudio Projects\ranorex_testautomation\madaket_XP001\Add_New_File_To_library.UserCode.cs"
				codeline="54"
				itemindex="4"
				loglvl="Info">
			</metainfo>
		</item>
		<item
			timeRelativeToTestSuiteStartTime="00:11.077"
			timeRelativeToTestModuleStartTime="00:11.092"
			timeWallClock="15:41:29"
			time="00:11.077"
			level="Info"
			category="Mouse">
			<message>
				Mouse Left Click item 'Dropdown' at 62;29.
			</message>
			<metainfo
				type="repoitem"
				path="/container[@caption='dropdown']"
				itempath="/container[@caption='dropdown']"
				fullname="madaket_XP001Repository.Dropdown.Self"
				id="8872d26f3420440c9b55cde11d95b844"
				timeout="30000"
				codefile="c:\Users\JohnPloumis\Documents\Ranorex\RanorexStudio Projects\ranorex_testautomation\madaket_XP001\Add_New_File_To_library.UserCode.cs"
				codeline="58"
				itemindex="5"
				loglvl="Info">
			</metainfo>
		</item>
		<item
			timeRelativeToTestSuiteStartTime="00:12.019"
			timeRelativeToTestModuleStartTime="00:12.035"
			timeWallClock="15:41:30"
			time="00:12.019"
			level="Info"
			category="Mouse">
			<message>
				Mouse Left Click item 'NewGroupAddress.TableLayoutPaddedTables.EnterDescription1' at 71;21.
			</message>
			<metainfo
				type="repoitem"
				path="/dom[@domain='edi-alpha.madakethealth.com']//form[#'libraryFileForm']/div[1]/div/div[7]/?/?/textarea[@placeholder='Enter description']"
				itempath="div[7]/?/?/textarea[@placeholder='Enter description']"
				fullname="madaket_XP001Repository.NewGroupAddress.TableLayoutPaddedTables.EnterDescription1"
				id="c07c0460096b4b01ba61fbaaa01c2c65"
				timeout="90000"
				codefile="c:\Users\JohnPloumis\Documents\Ranorex\RanorexStudio Projects\ranorex_testautomation\madaket_XP001\Add_New_File_To_library.UserCode.cs"
				codeline="62"
				itemindex="6"
				loglvl="Info">
			</metainfo>
		</item>
		<item
			timeRelativeToTestSuiteStartTime="00:13.517"
			timeRelativeToTestModuleStartTime="00:13.533"
			timeWallClock="15:41:31"
			time="00:13.517"
			level="Info"
			category="Keyboard">
			<message>
				Key sequence 'test' with focus on 'NewGroupAddress.TableLayoutPaddedTables.EnterDescription1'.
			</message>
			<metainfo
				type="repoitem"
				path="/dom[@domain='edi-alpha.madakethealth.com']//form[#'libraryFileForm']/div[1]/div/div[7]/?/?/textarea[@placeholder='Enter description']"
				itempath="div[7]/?/?/textarea[@placeholder='Enter description']"
				fullname="madaket_XP001Repository.NewGroupAddress.TableLayoutPaddedTables.EnterDescription1"
				id="c07c0460096b4b01ba61fbaaa01c2c65"
				timeout="90000"
				codefile="c:\Users\JohnPloumis\Documents\Ranorex\RanorexStudio Projects\ranorex_testautomation\madaket_XP001\Add_New_File_To_library.UserCode.cs"
				codeline="66"
				itemindex="7"
				loglvl="Info">
			</metainfo>
		</item>
		<item
			timeRelativeToTestSuiteStartTime="00:14.821"
			timeRelativeToTestModuleStartTime="00:14.837"
			timeWallClock="15:41:33"
			time="00:14.821"
			level="Info"
			category="Mouse">
			<message>
				Mouse Left Click item 'NewGroupAddress.CSISelect' at 9;6.
			</message>
			<metainfo
				type="repoitem"
				path="/dom[@domain='edi-alpha.madakethealth.com']//div[#'transactiontypeComboMasterList']/?/?/input[@name='transactions[1]']"
				itempath=".//div[#'transactiontypeComboMasterList']/?/?/input[@name='transactions[1]']"
				fullname="madaket_XP001Repository.NewGroupAddress.CSISelect"
				id="245d3614300d4924956102ea8b2fdea3"
				timeout="60000"
				codefile="c:\Users\JohnPloumis\Documents\Ranorex\RanorexStudio Projects\ranorex_testautomation\madaket_XP001\Add_New_File_To_library.UserCode.cs"
				codeline="70"
				itemindex="8"
				loglvl="Info">
			</metainfo>
		</item>
		<item
			timeRelativeToTestSuiteStartTime="00:16.482"
			timeRelativeToTestModuleStartTime="00:16.497"
			timeWallClock="15:41:34"
			time="00:16.482"
			level="Info"
			category="Mouse">
			<message>
				Mouse Left Click item 'NewGroupAddress.SomeLabelTag' at 93;0.
			</message>
			<metainfo
				type="repoitem"
				path="/dom[@domain='edi-alpha.madakethealth.com']//div[#'fileInputContainerCell']/label"
				itempath=".//div[#'fileInputContainerCell']/label"
				fullname="madaket_XP001Repository.NewGroupAddress.SomeLabelTag"
				id="3fb64ba0264a46b69d7477259877de89"
				timeout="60000"
				codefile="c:\Users\JohnPloumis\Documents\Ranorex\RanorexStudio Projects\ranorex_testautomation\madaket_XP001\Add_New_File_To_library.UserCode.cs"
				codeline="74"
				itemindex="9"
				loglvl="Info">
			</metainfo>
		</item>
		<item
			timeRelativeToTestSuiteStartTime="00:17.939"
			timeRelativeToTestModuleStartTime="00:17.954"
			timeWallClock="15:41:36"
			time="00:17.939"
			level="Info"
			category="Mouse">
			<message>
				Mouse Left Click item 'NewGroupAddress.SomeLabelTag' at 93;0.
			</message>
			<metainfo
				type="repoitem"
				path="/dom[@domain='edi-alpha.madakethealth.com']//div[#'fileInputContainerCell']/label"
				itempath=".//div[#'fileInputContainerCell']/label"
				fullname="madaket_XP001Repository.NewGroupAddress.SomeLabelTag"
				id="3fb64ba0264a46b69d7477259877de89"
				timeout="60000"
				codefile="c:\Users\JohnPloumis\Documents\Ranorex\RanorexStudio Projects\ranorex_testautomation\madaket_XP001\Add_New_File_To_library.UserCode.cs"
				codeline="78"
				itemindex="10"
				loglvl="Info">
			</metainfo>
		</item>
		<item
			timeRelativeToTestSuiteStartTime="00:19.669"
			timeRelativeToTestModuleStartTime="00:19.684"
			timeWallClock="15:41:38"
			time="00:19.669"
			level="Info"
			category="Mouse">
			<message>
				Mouse Left Click item 'Open.SystemItemNameDisplay' at 38;7.
			</message>
			<metainfo
				type="repoitem"
				path="/form[@title='Open']/element[@class='DUIViewWndClassName']//container[@caption='ShellView']/?/?/listitem[@automationid='1']/text[@automationid='System.ItemNameDisplay']"
				itempath="element[@class='DUIViewWndClassName']//container[@caption='ShellView']/?/?/listitem[@automationid='1']/text[@automationid='System.ItemNameDisplay']"
				fullname="madaket_XP001Repository.Open.SystemItemNameDisplay"
				id="92969c86c4034bc3947fbf348f2ff4ee"
				timeout="60000"
				codefile="c:\Users\JohnPloumis\Documents\Ranorex\RanorexStudio Projects\ranorex_testautomation\madaket_XP001\Add_New_File_To_library.UserCode.cs"
				codeline="82"
				itemindex="11"
				loglvl="Info">
			</metainfo>
		</item>
		<item
			timeRelativeToTestSuiteStartTime="00:22.250"
			timeRelativeToTestModuleStartTime="00:22.265"
			timeWallClock="15:41:40"
			time="00:22.250"
			level="Info"
			category="Mouse">
			<message>
				Mouse Left Click item 'Open.ButtonOpen' at 29;18.
			</message>
			<metainfo
				type="repoitem"
				path="/form[@title='Open']/button[@text='&amp;Open']"
				itempath="button[@text='&amp;Open']"
				fullname="madaket_XP001Repository.Open.ButtonOpen"
				id="f18fed822abb4b4eb4012be932b79315"
				timeout="60000"
				codefile="c:\Users\JohnPloumis\Documents\Ranorex\RanorexStudio Projects\ranorex_testautomation\madaket_XP001\Add_New_File_To_library.UserCode.cs"
				codeline="86"
				itemindex="12"
				loglvl="Info">
			</metainfo>
		</item>
		<item
			timeRelativeToTestSuiteStartTime="00:23.067"
			timeRelativeToTestModuleStartTime="00:23.083"
			timeWallClock="15:41:41"
			time="00:23.067"
			level="Info"
			category="Mouse">
			<message>
				Mouse Left Click item 'NewGroupAddress.PopupScrollContainer1' at 593;491.
			</message>
			<metainfo
				type="repoitem"
				path="/dom[@domain='edi-alpha.madakethealth.com']//div[#'libraryFilePopupContainer']/div[2]"
				itempath=".//div[#'libraryFilePopupContainer']/div[2]"
				fullname="madaket_XP001Repository.NewGroupAddress.PopupScrollContainer1"
				id="b8a6ab86a2be470dbe5ea74da8a8a29a"
				timeout="60000"
				codefile="c:\Users\JohnPloumis\Documents\Ranorex\RanorexStudio Projects\ranorex_testautomation\madaket_XP001\Add_New_File_To_library.UserCode.cs"
				codeline="90"
				itemindex="13"
				loglvl="Info">
			</metainfo>
		</item>
		<item
			timeRelativeToTestSuiteStartTime="00:24.222"
			timeRelativeToTestModuleStartTime="00:24.238"
			timeWallClock="15:41:42"
			time="00:24.222"
			level="Info"
			category="Mouse">
			<message>
				Mouse Left Click item 'NewGroupAddress.FormType' at 4;5.
			</message>
			<metainfo
				type="repoitem"
				path="/dom[@domain='edi-alpha.madakethealth.com']//form[#'libraryFileForm']/div[1]/div/div[10]/?/?/input[@name='formType']"
				itempath=".//form[#'libraryFileForm']/div[1]/div/div[10]/?/?/input[@name='formType']"
				fullname="madaket_XP001Repository.NewGroupAddress.FormType"
				id="0935acff0c2b4130ad3dabe0adc1be4e"
				timeout="60000"
				codefile="c:\Users\JohnPloumis\Documents\Ranorex\RanorexStudio Projects\ranorex_testautomation\madaket_XP001\Add_New_File_To_library.UserCode.cs"
				codeline="94"
				itemindex="14"
				loglvl="Info">
			</metainfo>
		</item>
		<item
			timeRelativeToTestSuiteStartTime="00:25.598"
			timeRelativeToTestModuleStartTime="00:25.613"
			timeWallClock="15:41:44"
			time="00:25.598"
			level="Info"
			category="Mouse">
			<message>
				Mouse Left Click item 'NewGroupAddress.TableLayoutPaddedTables.WatermarkPosition' at 6;12.
			</message>
			<metainfo
				type="repoitem"
				path="/dom[@domain='edi-alpha.madakethealth.com']//form[#'libraryFileForm']/div[1]/div/div[14]/?/?/input[@type='radio' and @value='TOP_CENTER']"
				itempath="div[14]/?/?/input[@type='radio' and @value='TOP_CENTER']"
				fullname="madaket_XP001Repository.NewGroupAddress.TableLayoutPaddedTables.WatermarkPosition"
				id="b6fe229916404819b6f35c19ebb09621"
				timeout="90000"
				codefile="c:\Users\JohnPloumis\Documents\Ranorex\RanorexStudio Projects\ranorex_testautomation\madaket_XP001\Add_New_File_To_library.UserCode.cs"
				codeline="98"
				itemindex="15"
				loglvl="Info">
			</metainfo>
		</item>
		<item
			timeRelativeToTestSuiteStartTime="00:27.081"
			timeRelativeToTestModuleStartTime="00:27.097"
			timeWallClock="15:41:45"
			time="00:27.081"
			level="Info"
			category="Mouse">
			<message>
				Mouse Left Click item 'NewGroupAddress.SubmitLibraryFile' at 47;12.
			</message>
			<metainfo
				type="repoitem"
				path="/dom[@domain='edi-alpha.madakethealth.com']//button[#'submitLibraryFile']"
				itempath=".//button[#'submitLibraryFile']"
				fullname="madaket_XP001Repository.NewGroupAddress.SubmitLibraryFile"
				id="fc8f26314cff471e9d2dc11e948b00f0"
				timeout="60000"
				codefile="c:\Users\JohnPloumis\Documents\Ranorex\RanorexStudio Projects\ranorex_testautomation\madaket_XP001\Add_New_File_To_library.UserCode.cs"
				codeline="102"
				itemindex="16"
				loglvl="Info">
			</metainfo>
		</item>
	</activity>
</report>
