﻿<?xml version="1.0" encoding="utf-8"?>
<report
	progress="">
	<activity
		result="Success"
		duration="0ms"
		durationms="0"
		type="root"
		rid="f08ad7fa0cc1f8"
		totalerrorcount="0"
		totalwarningcount="0"
		totalsuccesstestcasecount="0"
		totalfailedtestcasecount="0"
		totalblockedtestcasecount="0"
		childsuccesscount="0"
		childfailedcount="0"
		childblockedcount="0"
		totalsuccesscount="0"
		totalfailedcount="0"
		totalblockedcount="0"
		totalmaintenancemodecount="0"
		user="JohnPloumis"
		rxversion="8.2.1.0"
		host="LAPTOP-5EO8DNU1"
		osversion="Windows 10 64bit"
		runtimeversion="4.0.30319.42000"
		procarch="32bit"
		oslanguage="en-US"
		dtnlanguage="en-US"
		screenresolution="1366x768"
		timestamp="10/19/2018 3:24:17 PM"
		timestampiso="2018-10-19T19:24:17"
		endtime="10/19/2018 3:24:29 PM"
		timeoutfactor="1"
		module="Admin_Workflow_NewNode">
		<detail>
			Admin_Workflow_NewNode
		</detail>
		<varbindings>
		</varbindings>
		<item
			timeRelativeToTestSuiteStartTime="00:02.192"
			timeRelativeToTestModuleStartTime="00:02.194"
			timeWallClock="15:24:19"
			time="00:02.192"
			level="Info"
			category="Mouse">
			<message>
				Mouse Left Click item 'NewGroupAddress.BodyContent.TestAutomation002' at 66;8.
			</message>
			<metainfo
				type="repoitem"
				path="/dom[@domain='edi-alpha.madakethealth.com']//div[#'bodyContent']//table/tbody/tr[3]/?/?/span[@innertext='test_automation002']"
				itempath=".//table/tbody/tr[3]/?/?/span[@innertext='test_automation002']"
				fullname="madaket_XP001Repository.NewGroupAddress.BodyContent.TestAutomation002"
				id="52a4fe0df96546709e5702ab6dd985e8"
				timeout="90000"
				codefile="c:\Users\JohnPloumis\Documents\Ranorex\RanorexStudio Projects\ranorex_testautomation\madaket_XP001\Admin_Workflow_NewNode.cs"
				codeline="82"
				itemindex="20"
				loglvl="Info">
			</metainfo>
		</item>
		<item
			timeRelativeToTestSuiteStartTime="00:06.129"
			timeRelativeToTestModuleStartTime="00:06.131"
			timeWallClock="15:24:23"
			time="00:06.129"
			level="Info"
			category="Mouse">
			<message>
				Mouse Right Click item 'NewGroupAddress.BodyContent.DivTagProviderFollowUp' at 30;6.
			</message>
			<metainfo
				type="repoitem"
				path="/dom[@domain='edi-alpha.madakethealth.com']//div[#'bodyContent']/div[2]/div[5]/table/tbody/tr[3]/td[1]//div[@innertext~'^Provider\ Follow-up']"
				itempath="div[2]/div[5]/table/tbody/tr[3]/td[1]//div[@innertext~'^Provider\ Follow-up']"
				fullname="madaket_XP001Repository.NewGroupAddress.BodyContent.DivTagProviderFollowUp"
				id="e87b610769324c7ca68ba017c20dd42b"
				timeout="90000"
				codefile="c:\Users\JohnPloumis\Documents\Ranorex\RanorexStudio Projects\ranorex_testautomation\madaket_XP001\Admin_Workflow_NewNode.cs"
				codeline="85"
				itemindex="21"
				loglvl="Info">
			</metainfo>
		</item>
		<item
			timeRelativeToTestSuiteStartTime="00:07.169"
			timeRelativeToTestModuleStartTime="00:07.171"
			timeWallClock="15:24:24"
			time="00:07.169"
			level="Info"
			category="Mouse">
			<message>
				Mouse Left Click item 'NewGroupAddress.BodyContent.DivTagProviderFollowUp' at 30;6.
			</message>
			<metainfo
				type="repoitem"
				path="/dom[@domain='edi-alpha.madakethealth.com']//div[#'bodyContent']/div[2]/div[5]/table/tbody/tr[3]/td[1]//div[@innertext~'^Provider\ Follow-up']"
				itempath="div[2]/div[5]/table/tbody/tr[3]/td[1]//div[@innertext~'^Provider\ Follow-up']"
				fullname="madaket_XP001Repository.NewGroupAddress.BodyContent.DivTagProviderFollowUp"
				id="e87b610769324c7ca68ba017c20dd42b"
				timeout="90000"
				codefile="c:\Users\JohnPloumis\Documents\Ranorex\RanorexStudio Projects\ranorex_testautomation\madaket_XP001\Admin_Workflow_NewNode.cs"
				codeline="88"
				itemindex="22"
				loglvl="Info">
			</metainfo>
		</item>
		<item
			timeRelativeToTestSuiteStartTime="00:08.379"
			timeRelativeToTestModuleStartTime="00:08.381"
			timeWallClock="15:24:25"
			time="00:08.379"
			level="Info"
			category="Mouse">
			<message>
				Mouse Left Click item 'NewGroupAddress.BodyContent.HttpsEdiAlphaMadakethealthComServ1' at 5;10.
			</message>
			<metainfo
				type="repoitem"
				path="/dom[@domain='edi-alpha.madakethealth.com']//div[#'bodyContent']/div[2]/div[5]/table/tbody/tr[3]//img[@src='https://edi-alpha.madakethealth.com/services/static/135b/img/icons/trash.svg']"
				itempath="div[2]/div[5]/table/tbody/tr[3]//img[@src='https://edi-alpha.madakethealth.com/services/static/135b/img/icons/trash.svg']"
				fullname="madaket_XP001Repository.NewGroupAddress.BodyContent.HttpsEdiAlphaMadakethealthComServ1"
				id="068eaf0483c44edda48594c8154e0de7"
				timeout="90000"
				codefile="c:\Users\JohnPloumis\Documents\Ranorex\RanorexStudio Projects\ranorex_testautomation\madaket_XP001\Admin_Workflow_NewNode.cs"
				codeline="91"
				itemindex="23"
				loglvl="Info">
			</metainfo>
		</item>
		<item
			timeRelativeToTestSuiteStartTime="00:09.399"
			timeRelativeToTestModuleStartTime="00:09.401"
			timeWallClock="15:24:26"
			time="00:09.399"
			level="Info"
			category="Mouse">
			<message>
				Mouse Left Click item 'NewGroupAddress.ConfirmDeleteNode' at 119;12.
			</message>
			<metainfo
				type="repoitem"
				path="/dom[@domain='edi-alpha.madakethealth.com']//div[#'deleteNodePopup']/div[@innertext='Confirm Delete Node']"
				itempath=".//div[#'deleteNodePopup']/div[@innertext='Confirm Delete Node']"
				fullname="madaket_XP001Repository.NewGroupAddress.ConfirmDeleteNode"
				id="94812486d41245bfa6b7bb857c4c50dd"
				timeout="60000"
				codefile="c:\Users\JohnPloumis\Documents\Ranorex\RanorexStudio Projects\ranorex_testautomation\madaket_XP001\Admin_Workflow_NewNode.cs"
				codeline="94"
				itemindex="24"
				loglvl="Info">
			</metainfo>
		</item>
		<item
			timeRelativeToTestSuiteStartTime="00:10.680"
			timeRelativeToTestModuleStartTime="00:10.682"
			timeWallClock="15:24:28"
			time="00:10.680"
			level="Info"
			category="Mouse">
			<message>
				Mouse Left Click item 'NewGroupAddress.DeleteNodeTypeButton' at 44;14.
			</message>
			<metainfo
				type="repoitem"
				path="/dom[@domain='edi-alpha.madakethealth.com']//button[#'deleteNodeTypeButton']"
				itempath=".//button[#'deleteNodeTypeButton']"
				fullname="madaket_XP001Repository.NewGroupAddress.DeleteNodeTypeButton"
				id="4ebdae9bd9f84a8e9af569b05df48f74"
				timeout="60000"
				codefile="c:\Users\JohnPloumis\Documents\Ranorex\RanorexStudio Projects\ranorex_testautomation\madaket_XP001\Admin_Workflow_NewNode.cs"
				codeline="97"
				itemindex="25"
				loglvl="Info">
			</metainfo>
		</item>
	</activity>
</report>
