﻿<?xml version="1.0" encoding="utf-8"?>
<report
	progress="">
	<activity
		result="Success"
		duration="0ms"
		durationms="0"
		type="root"
		rid="3d9bedc965a43dc"
		totalerrorcount="0"
		totalwarningcount="0"
		totalsuccesstestcasecount="0"
		totalfailedtestcasecount="0"
		totalblockedtestcasecount="0"
		childsuccesscount="0"
		childfailedcount="0"
		childblockedcount="0"
		totalsuccesscount="0"
		totalfailedcount="0"
		totalblockedcount="0"
		totalmaintenancemodecount="0"
		user="JohnPloumis"
		rxversion="8.2.1.0"
		host="LAPTOP-5EO8DNU1"
		osversion="Windows 10 64bit"
		runtimeversion="4.0.30319.42000"
		procarch="32bit"
		oslanguage="en-US"
		dtnlanguage="en-US"
		screenresolution="1366x768"
		timestamp="10/29/2018 2:25:11 PM"
		timestampiso="2018-10-29T18:25:11"
		endtime="10/29/2018 2:25:17 PM"
		timeoutfactor="1"
		module="Delete_Plan">
		<detail>
			Delete_Plan
		</detail>
		<varbindings>
		</varbindings>
		<item
			timeRelativeToTestSuiteStartTime="00:01.892"
			timeRelativeToTestModuleStartTime="00:01.892"
			timeWallClock="14:25:12"
			time="00:01.892"
			level="Info"
			category="Mouse">
			<message>
				Mouse Left Click item 'MadaketHealth.TestAutomationPlanXP001_Institution' at 74;12.
			</message>
			<metainfo
				type="repoitem"
				path="/dom[@caption='Madaket Health']//table[#'planList']/tbody/tr[1]/td[@innertext~'^test_automation_plan_XP00']"
				itempath=".//table[#'planList']/tbody/tr[1]/td[@innertext~'^test_automation_plan_XP00']"
				fullname="madaket_XP001Repository.MadaketHealth.TestAutomationPlanXP001_Institution"
				id="15b3b41911ae4498ae2121306fe1696c"
				timeout="60000"
				codefile="c:\Users\JohnPloumis\Documents\Ranorex\RanorexStudio Projects\ranorex_testautomation\madaket_XP001\Delete_Plan.cs"
				codeline="82"
				itemindex="7"
				loglvl="Info">
			</metainfo>
		</item>
		<item
			timeRelativeToTestSuiteStartTime="00:05.174"
			timeRelativeToTestModuleStartTime="00:05.174"
			timeWallClock="14:25:16"
			time="00:05.174"
			level="Info"
			category="Keyboard">
			<message>
				Key sequence '{Right}{Right}' with focus on 'MadaketHealth.TestAutomationPlanXP001_Profession'.
			</message>
			<metainfo
				type="repoitem"
				path="/dom[@caption='Madaket Health']//table[#'planList']/tbody/tr[1]/td[@innertext~'^test_automation_plan_XP00']"
				itempath=".//table[#'planList']/tbody/tr[1]/td[@innertext~'^test_automation_plan_XP00']"
				fullname="madaket_XP001Repository.MadaketHealth.TestAutomationPlanXP001_Profession"
				id="8fcaf071e4c1432fa865e86ba672ef59"
				timeout="60000"
				codefile="c:\Users\JohnPloumis\Documents\Ranorex\RanorexStudio Projects\ranorex_testautomation\madaket_XP001\Delete_Plan.cs"
				codeline="86"
				itemindex="8"
				loglvl="Info">
			</metainfo>
		</item>
	</activity>
</report>
