﻿<?xml version="1.0" encoding="utf-8"?>
<report
	progress="">
	<activity
		result="Success"
		duration="0ms"
		durationms="0"
		type="root"
		rid="981450ca872a5d0"
		totalerrorcount="0"
		totalwarningcount="0"
		totalsuccesstestcasecount="0"
		totalfailedtestcasecount="0"
		totalblockedtestcasecount="0"
		childsuccesscount="0"
		childfailedcount="0"
		childblockedcount="0"
		totalsuccesscount="0"
		totalfailedcount="0"
		totalblockedcount="0"
		totalmaintenancemodecount="0"
		user="JohnPloumis"
		rxversion="8.2.1.0"
		host="LAPTOP-5EO8DNU1"
		osversion="Windows 10 64bit"
		runtimeversion="4.0.30319.42000"
		procarch="32bit"
		oslanguage="en-US"
		dtnlanguage="en-US"
		screenresolution="1366x768"
		timestamp="10/17/2018 4:52:05 PM"
		timestampiso="2018-10-17T20:52:05"
		endtime="10/17/2018 4:52:37 PM"
		timeoutfactor="1"
		module="Delete_New_MedicalGroup">
		<detail>
			Delete_New_MedicalGroup
		</detail>
		<varbindings>
		</varbindings>
		<item
			timeRelativeToTestSuiteStartTime="00:02.586"
			timeRelativeToTestModuleStartTime="00:02.590"
			timeWallClock="16:52:07"
			time="00:02.586"
			level="Info"
			category="Mouse">
			<message>
				Mouse Left Click item 'MadaketHealth.DivTagMedicalGroups' at 40;15.
			</message>
			<metainfo
				type="repoitem"
				path="/dom[@caption='Madaket Health']//nav[#'mainNav']/ul//div[@innertext~'^Medical\ Groups']"
				itempath=".//nav[#'mainNav']/ul//div[@innertext~'^Medical\ Groups']"
				fullname="madaket_XP001Repository.MadaketHealth.DivTagMedicalGroups"
				id="b009e8773a4e4780a7cf8148c07c9d21"
				timeout="60000"
				codefile="c:\Users\JohnPloumis\Documents\Ranorex\RanorexStudio Projects\ranorex_testautomation\madaket_XP001\Delete_New_MedicalGroup.cs"
				codeline="82"
				itemindex="0"
				loglvl="Info">
			</metainfo>
		</item>
		<item
			timeRelativeToTestSuiteStartTime="00:06.645"
			timeRelativeToTestModuleStartTime="00:06.649"
			timeWallClock="16:52:11"
			time="00:06.645"
			level="Info"
			category="Mouse">
			<message>
				Mouse Left Click item 'MadaketHealth.MgSearch' at 159;13.
			</message>
			<metainfo
				type="repoitem"
				path="/dom[@caption='Madaket Health']//input[#'mgSearch']"
				itempath=".//input[#'mgSearch']"
				fullname="madaket_XP001Repository.MadaketHealth.MgSearch"
				id="3da9031bc93e4979b020b5ef64b419f3"
				timeout="60000"
				codefile="c:\Users\JohnPloumis\Documents\Ranorex\RanorexStudio Projects\ranorex_testautomation\madaket_XP001\Delete_New_MedicalGroup.cs"
				codeline="85"
				itemindex="1"
				loglvl="Info">
			</metainfo>
		</item>
		<item
			timeRelativeToTestSuiteStartTime="00:08.509"
			timeRelativeToTestModuleStartTime="00:08.513"
			timeWallClock="16:52:13"
			time="00:08.509"
			level="Info"
			category="Set value">
			<message>
				Setting attribute Value to 'test_automation_XP001' on item 'MadaketHealth.MgSearch'.
			</message>
			<metainfo
				type="repoitem"
				path="/dom[@caption='Madaket Health']//input[#'mgSearch']"
				itempath=".//input[#'mgSearch']"
				fullname="madaket_XP001Repository.MadaketHealth.MgSearch"
				id="3da9031bc93e4979b020b5ef64b419f3"
				timeout="60000"
				codefile="c:\Users\JohnPloumis\Documents\Ranorex\RanorexStudio Projects\ranorex_testautomation\madaket_XP001\Delete_New_MedicalGroup.cs"
				codeline="88"
				itemindex="2"
				loglvl="Info">
			</metainfo>
		</item>
		<item
			timeRelativeToTestSuiteStartTime="00:08.854"
			timeRelativeToTestModuleStartTime="00:08.858"
			timeWallClock="16:52:13"
			time="00:08.854"
			level="Info"
			category="Mouse">
			<message>
				Mouse Left Click item 'MadaketHealth.SearchSubmitIcon' at 0;12.
			</message>
			<metainfo
				type="repoitem"
				path="/dom[@caption='Madaket Health']//div[#'medicalGroupSearchDiv']/?/?/span"
				itempath=".//div[#'medicalGroupSearchDiv']/?/?/span"
				fullname="madaket_XP001Repository.MadaketHealth.SearchSubmitIcon"
				id="72908b0b1da94363b2aff84059a3691a"
				timeout="60000"
				codefile="c:\Users\JohnPloumis\Documents\Ranorex\RanorexStudio Projects\ranorex_testautomation\madaket_XP001\Delete_New_MedicalGroup.cs"
				codeline="91"
				itemindex="3"
				loglvl="Info">
			</metainfo>
		</item>
		<item
			timeRelativeToTestSuiteStartTime="00:09.696"
			timeRelativeToTestModuleStartTime="00:09.700"
			timeWallClock="16:52:14"
			time="00:09.696"
			level="Info"
			category="Mouse">
			<message>
				Mouse Left Click item 'MadaketHealth.DataTablesScrollBody' at 725;222.
			</message>
			<metainfo
				type="repoitem"
				path="/dom[@caption='Madaket Health']//div[#'medicalGroupList_wrapper']/div[3]/div[2]"
				itempath=".//div[#'medicalGroupList_wrapper']/div[3]/div[2]"
				fullname="madaket_XP001Repository.MadaketHealth.DataTablesScrollBody"
				id="4284e41af6d74bed8f6142ae17ec9c1a"
				timeout="60000"
				codefile="c:\Users\JohnPloumis\Documents\Ranorex\RanorexStudio Projects\ranorex_testautomation\madaket_XP001\Delete_New_MedicalGroup.cs"
				codeline="94"
				itemindex="4"
				loglvl="Info">
			</metainfo>
		</item>
		<item
			timeRelativeToTestSuiteStartTime="00:10.616"
			timeRelativeToTestModuleStartTime="00:10.620"
			timeWallClock="16:52:15"
			time="00:10.616"
			level="Info"
			category="Keyboard">
			<message>
				Key sequence '{Right}{Right}' with focus on 'MadaketHealth.DataTablesScrollBody'.
			</message>
			<metainfo
				type="repoitem"
				path="/dom[@caption='Madaket Health']//div[#'medicalGroupList_wrapper']/div[3]/div[2]"
				itempath=".//div[#'medicalGroupList_wrapper']/div[3]/div[2]"
				fullname="madaket_XP001Repository.MadaketHealth.DataTablesScrollBody"
				id="4284e41af6d74bed8f6142ae17ec9c1a"
				timeout="60000"
				codefile="c:\Users\JohnPloumis\Documents\Ranorex\RanorexStudio Projects\ranorex_testautomation\madaket_XP001\Delete_New_MedicalGroup.cs"
				codeline="97"
				itemindex="5"
				loglvl="Info">
			</metainfo>
		</item>
		<item
			timeRelativeToTestSuiteStartTime="00:11.396"
			timeRelativeToTestModuleStartTime="00:11.400"
			timeWallClock="16:52:16"
			time="00:11.396"
			level="Info"
			category="Mouse">
			<message>
				Mouse Left Click item 'MadaketHealth.HttpsEdiAlphaMadakethealthComServ3' at 3;12.
			</message>
			<metainfo
				type="repoitem"
				path="/dom[@caption='Madaket Health']//table[#'medicalGroupList']/tbody/tr/?/img[@src&lt;'img/icons/trash.svg']"
				itempath=".//table[#'medicalGroupList']/tbody/tr/?/img[@src&lt;'img/icons/trash.svg']"
				fullname="madaket_XP001Repository.MadaketHealth.HttpsEdiAlphaMadakethealthComServ3"
				id="44ce5e37a07748acb602c4a5403200c1"
				timeout="60000"
				codefile="c:\Users\JohnPloumis\Documents\Ranorex\RanorexStudio Projects\ranorex_testautomation\madaket_XP001\Delete_New_MedicalGroup.cs"
				codeline="100"
				itemindex="6"
				loglvl="Info">
			</metainfo>
		</item>
		<item
			timeRelativeToTestSuiteStartTime="00:12.226"
			timeRelativeToTestModuleStartTime="00:12.230"
			timeWallClock="16:52:17"
			time="00:12.226"
			level="Info"
			category="Mouse">
			<message>
				Mouse Left Click item 'MadaketHealth.OverlayEffect' at 1072;302.
			</message>
			<metainfo
				type="repoitem"
				path="/dom[@caption='Madaket Health']//div[#'overlayEffect']"
				itempath=".//div[#'overlayEffect']"
				fullname="madaket_XP001Repository.MadaketHealth.OverlayEffect"
				id="82b37714031f40b7a846fef8bb746074"
				timeout="60000"
				codefile="c:\Users\JohnPloumis\Documents\Ranorex\RanorexStudio Projects\ranorex_testautomation\madaket_XP001\Delete_New_MedicalGroup.cs"
				codeline="103"
				itemindex="7"
				loglvl="Info">
			</metainfo>
		</item>
		<item
			timeRelativeToTestSuiteStartTime="00:13.146"
			timeRelativeToTestModuleStartTime="00:13.150"
			timeWallClock="16:52:18"
			time="00:13.146"
			level="Info"
			category="Mouse">
			<message>
				Mouse Left Click item 'MadaketHealth.ConfirmValue' at 82;5.
			</message>
			<metainfo
				type="repoitem"
				path="/dom[@caption='Madaket Health']//div[#'confirmValue']"
				itempath=".//div[#'confirmValue']"
				fullname="madaket_XP001Repository.MadaketHealth.ConfirmValue"
				id="e877efec3c15423f8702f735410bc518"
				timeout="60000"
				codefile="c:\Users\JohnPloumis\Documents\Ranorex\RanorexStudio Projects\ranorex_testautomation\madaket_XP001\Delete_New_MedicalGroup.cs"
				codeline="106"
				itemindex="8"
				loglvl="Info">
			</metainfo>
		</item>
		<item
			timeRelativeToTestSuiteStartTime="00:13.973"
			timeRelativeToTestModuleStartTime="00:13.977"
			timeWallClock="16:52:19"
			time="00:13.973"
			level="Info"
			category="Mouse">
			<message>
				Mouse Left Click item 'MadaketHealth.ConfirmAction' at 51;9.
			</message>
			<metainfo
				type="repoitem"
				path="/dom[@caption='Madaket Health']//button[#'confirmAction']"
				itempath=".//button[#'confirmAction']"
				fullname="madaket_XP001Repository.MadaketHealth.ConfirmAction"
				id="28531a41a1a0462cbe717edc8beb634f"
				timeout="60000"
				codefile="c:\Users\JohnPloumis\Documents\Ranorex\RanorexStudio Projects\ranorex_testautomation\madaket_XP001\Delete_New_MedicalGroup.cs"
				codeline="109"
				itemindex="9"
				loglvl="Info">
			</metainfo>
		</item>
		<item
			timeRelativeToTestSuiteStartTime="00:14.806"
			timeRelativeToTestModuleStartTime="00:14.810"
			timeWallClock="16:52:19"
			time="00:14.806"
			level="Info"
			category="Mouse">
			<message>
				Mouse Left Click item 'MadaketHealth.SearchSubmitIcon' at 11;3.
			</message>
			<metainfo
				type="repoitem"
				path="/dom[@caption='Madaket Health']//div[#'medicalGroupSearchDiv']/?/?/span"
				itempath=".//div[#'medicalGroupSearchDiv']/?/?/span"
				fullname="madaket_XP001Repository.MadaketHealth.SearchSubmitIcon"
				id="72908b0b1da94363b2aff84059a3691a"
				timeout="60000"
				codefile="c:\Users\JohnPloumis\Documents\Ranorex\RanorexStudio Projects\ranorex_testautomation\madaket_XP001\Delete_New_MedicalGroup.cs"
				codeline="112"
				itemindex="10"
				loglvl="Info">
			</metainfo>
		</item>
		<item
			timeRelativeToTestSuiteStartTime="00:17.216"
			timeRelativeToTestModuleStartTime="00:17.220"
			timeWallClock="16:52:22"
			time="00:17.216"
			level="Info"
			category="Mouse">
			<message>
				Mouse Left Click item 'MadaketHealth.NoDataAvailableInTable' at 484;18.
			</message>
			<metainfo
				type="repoitem"
				path="/dom[@caption='Madaket Health']//table[#'medicalGroupList']//td[@innertext~'^No\ data\ available\ in\ tabl']"
				itempath=".//table[#'medicalGroupList']//td[@innertext~'^No\ data\ available\ in\ tabl']"
				fullname="madaket_XP001Repository.MadaketHealth.NoDataAvailableInTable"
				id="a3c74a25517849278924326f5db1d817"
				timeout="60000"
				codefile="c:\Users\JohnPloumis\Documents\Ranorex\RanorexStudio Projects\ranorex_testautomation\madaket_XP001\Delete_New_MedicalGroup.cs"
				codeline="115"
				itemindex="11"
				loglvl="Info">
			</metainfo>
		</item>
	</activity>
</report>
