﻿<?xml version="1.0" encoding="utf-8"?>
<report
	progress="">
	<activity
		result="Failed"
		duration="0ms"
		durationms="0"
		type="root"
		rid="1368c9f4d01bc63"
		totalerrorcount="1"
		totalwarningcount="0"
		totalsuccesstestcasecount="0"
		totalfailedtestcasecount="0"
		totalblockedtestcasecount="0"
		childsuccesscount="0"
		childfailedcount="0"
		childblockedcount="0"
		totalsuccesscount="0"
		totalfailedcount="0"
		totalblockedcount="0"
		totalmaintenancemodecount="0"
		user="JohnPloumis"
		rxversion="8.3.1.0"
		host="LAPTOP-5EO8DNU1"
		osversion="Windows 10 64bit"
		runtimeversion="4.0.30319.42000"
		procarch="32bit"
		oslanguage="en-US"
		dtnlanguage="en-US"
		screenresolution="1366x768"
		timestamp="12/10/2018 12:22:07 PM"
		timestampiso="2018-12-10T17:22:07"
		endtime="12/10/2018 12:23:42 PM"
		timeoutfactor="1"
		module="Endpoints">
		<detail>
			Endpoints
		</detail>
		<errormessage>
			Failed to find item 'madaket_XP001Repository.NewGroupAddress.PleaseEnterName'.
		</errormessage>
		<varbindings>
		</varbindings>
		<item
			timeRelativeToTestSuiteStartTime="00:04.798"
			timeRelativeToTestModuleStartTime="00:04.799"
			timeWallClock="12:22:12"
			time="00:04.798"
			level="Info"
			category="Delay">
			<message>
				Waiting for 500ms.
			</message>
			<metainfo
				itemindex="0"
				codefile="c:\Users\JohnPloumis\Documents\Ranorex\RanorexStudio Projects\ranorex_testautomation\madaket_XP001\Endpoints.cs"
				codeline="82"
				loglvl="Info">
			</metainfo>
		</item>
		<item
			timeRelativeToTestSuiteStartTime="00:05.339"
			timeRelativeToTestModuleStartTime="00:05.340"
			timeWallClock="12:22:12"
			time="00:05.339"
			level="Info"
			category="Invoke action">
			<message>
				Invoking Focus() on item 'NewGroupAddress.DivTagEndpoints'.
			</message>
			<metainfo
				type="repoitem"
				path="/dom[@domain='edi-alpha.madakethealth.com']//nav[#'mainNav']/ul//div[@innertext='Endpoints']"
				itempath=".//nav[#'mainNav']/ul//div[@innertext='Endpoints']"
				fullname="madaket_XP001Repository.NewGroupAddress.DivTagEndpoints"
				id="0d5130f2adcf49349dadeca4ea0ef3a9"
				timeout="60000"
				codefile="c:\Users\JohnPloumis\Documents\Ranorex\RanorexStudio Projects\ranorex_testautomation\madaket_XP001\Endpoints.cs"
				codeline="85"
				itemindex="1"
				loglvl="Info">
			</metainfo>
		</item>
		<item
			timeRelativeToTestSuiteStartTime="00:09.681"
			timeRelativeToTestModuleStartTime="00:09.682"
			timeWallClock="12:22:17"
			time="00:09.681"
			level="Info"
			category="Delay">
			<message>
				Waiting for 500ms.
			</message>
			<metainfo
				itemindex="2"
				codefile="c:\Users\JohnPloumis\Documents\Ranorex\RanorexStudio Projects\ranorex_testautomation\madaket_XP001\Endpoints.cs"
				codeline="89"
				loglvl="Info">
			</metainfo>
		</item>
		<item
			timeRelativeToTestSuiteStartTime="00:10.196"
			timeRelativeToTestModuleStartTime="00:10.197"
			timeWallClock="12:22:17"
			time="00:10.196"
			level="Info"
			category="Mouse">
			<message>
				Mouse Left Click item 'NewGroupAddress.DivTagEndpoints' at Center.
			</message>
			<metainfo
				type="repoitem"
				path="/dom[@domain='edi-alpha.madakethealth.com']//nav[#'mainNav']/ul//div[@innertext='Endpoints']"
				itempath=".//nav[#'mainNav']/ul//div[@innertext='Endpoints']"
				fullname="madaket_XP001Repository.NewGroupAddress.DivTagEndpoints"
				id="0d5130f2adcf49349dadeca4ea0ef3a9"
				timeout="60000"
				codefile="c:\Users\JohnPloumis\Documents\Ranorex\RanorexStudio Projects\ranorex_testautomation\madaket_XP001\Endpoints.cs"
				codeline="92"
				itemindex="3"
				loglvl="Info">
			</metainfo>
		</item>
		<item
			timeRelativeToTestSuiteStartTime="00:12.816"
			timeRelativeToTestModuleStartTime="00:12.817"
			timeWallClock="12:22:20"
			time="00:12.816"
			level="Info"
			category="Delay">
			<message>
				Waiting for 500ms.
			</message>
			<metainfo
				itemindex="4"
				codefile="c:\Users\JohnPloumis\Documents\Ranorex\RanorexStudio Projects\ranorex_testautomation\madaket_XP001\Endpoints.cs"
				codeline="96"
				loglvl="Info">
			</metainfo>
		</item>
		<item
			timeRelativeToTestSuiteStartTime="00:13.329"
			timeRelativeToTestModuleStartTime="00:13.330"
			timeWallClock="12:22:20"
			time="00:13.329"
			level="Info"
			category="Invoke action">
			<message>
				Invoking Focus() on item 'NewGroupAddress.NewEndPointLink'.
			</message>
			<metainfo
				type="repoitem"
				path="/dom[@domain='edi-alpha.madakethealth.com']//a[#'newEndPointLink']"
				itempath=".//a[#'newEndPointLink']"
				fullname="madaket_XP001Repository.NewGroupAddress.NewEndPointLink"
				id="c2fea65f27c04a5cbcef205a46c74245"
				timeout="60000"
				codefile="c:\Users\JohnPloumis\Documents\Ranorex\RanorexStudio Projects\ranorex_testautomation\madaket_XP001\Endpoints.cs"
				codeline="99"
				itemindex="5"
				loglvl="Info">
			</metainfo>
		</item>
		<item
			timeRelativeToTestSuiteStartTime="00:13.980"
			timeRelativeToTestModuleStartTime="00:13.981"
			timeWallClock="12:22:21"
			time="00:13.980"
			level="Info"
			category="Mouse">
			<message>
				Mouse Left Click item 'NewGroupAddress.NewEndPointLink' at Center.
			</message>
			<metainfo
				type="repoitem"
				path="/dom[@domain='edi-alpha.madakethealth.com']//a[#'newEndPointLink']"
				itempath=".//a[#'newEndPointLink']"
				fullname="madaket_XP001Repository.NewGroupAddress.NewEndPointLink"
				id="c2fea65f27c04a5cbcef205a46c74245"
				timeout="60000"
				codefile="c:\Users\JohnPloumis\Documents\Ranorex\RanorexStudio Projects\ranorex_testautomation\madaket_XP001\Endpoints.cs"
				codeline="103"
				itemindex="6"
				loglvl="Info">
			</metainfo>
		</item>
		<item
			timeRelativeToTestSuiteStartTime="00:16.621"
			timeRelativeToTestModuleStartTime="00:16.622"
			timeWallClock="12:22:24"
			time="00:16.621"
			level="Info"
			category="Delay">
			<message>
				Waiting for 15s.
			</message>
			<metainfo
				itemindex="7"
				codefile="c:\Users\JohnPloumis\Documents\Ranorex\RanorexStudio Projects\ranorex_testautomation\madaket_XP001\Endpoints.cs"
				codeline="107"
				loglvl="Info">
			</metainfo>
		</item>
		<item
			timeRelativeToTestSuiteStartTime="00:31.666"
			timeRelativeToTestModuleStartTime="00:31.667"
			timeWallClock="12:22:39"
			time="00:31.666"
			level="Info"
			category="Mouse">
			<message>
				Mouse Left Click item 'NewGroupAddress.SaveEndPoint' at Center.
			</message>
			<metainfo
				type="repoitem"
				path="/dom[@domain='edi-alpha.madakethealth.com']//button[#'saveEndPoint']"
				itempath=".//button[#'saveEndPoint']"
				fullname="madaket_XP001Repository.NewGroupAddress.SaveEndPoint"
				id="5e388a0c86a649d68ea2f24ff8306e5b"
				timeout="60000"
				codefile="c:\Users\JohnPloumis\Documents\Ranorex\RanorexStudio Projects\ranorex_testautomation\madaket_XP001\Endpoints.cs"
				codeline="110"
				itemindex="8"
				loglvl="Info">
			</metainfo>
		</item>
		<item
			timeRelativeToTestSuiteStartTime="00:33.717"
			timeRelativeToTestModuleStartTime="00:33.718"
			timeWallClock="12:22:41"
			time="00:33.717"
			level="Info"
			category="Delay"
			errimg=".\Endpoint_ad9aee98_57162690_trace.jpg"
			errthumb=".\Endpoint_ad9aee98_57162690_trace_thumb.jpg">
			<message>
				Waiting for 500ms.
			</message>
			<metainfo
				itemindex="9"
				codefile="c:\Users\JohnPloumis\Documents\Ranorex\RanorexStudio Projects\ranorex_testautomation\madaket_XP001\Endpoints.cs"
				codeline="114"
				loglvl="Info">
			</metainfo>
		</item>
		<item
			timeRelativeToTestSuiteStartTime="00:34.227"
			timeRelativeToTestModuleStartTime="00:34.228"
			timeWallClock="12:22:41"
			time="00:34.227"
			level="Info"
			category="Mouse"
			errimg=".\Endpoint_ad9aee98_8e2dfb0d_trace.jpg"
			errthumb=".\Endpoint_ad9aee98_8e2dfb0d_trace_thumb.jpg">
			<message>
				Mouse Left Click item 'NewGroupAddress.PleaseEnterName' at 30;7.
			</message>
			<metainfo
				type="repoitem"
				path="/dom[@domain='edi-alpha.madakethealth.com']//form[#'endPointForm']/div/div[1]/?/?/label[@innertext='Please enter name']"
				itempath=".//form[#'endPointForm']/div/div[1]/?/?/label[@innertext='Please enter name']"
				fullname="madaket_XP001Repository.NewGroupAddress.PleaseEnterName"
				id="4c5e412fc99141a28bf3b4132f785806"
				timeout="60000"
				codefile="c:\Users\JohnPloumis\Documents\Ranorex\RanorexStudio Projects\ranorex_testautomation\madaket_XP001\Endpoints.cs"
				codeline="117"
				itemindex="10"
				loglvl="Info">
			</metainfo>
		</item>
		<item
			timeRelativeToTestSuiteStartTime="01:35.105"
			timeRelativeToTestModuleStartTime="01:35.106"
			timeWallClock="12:23:42"
			time="01:35.105"
			level="Error"
			category="Module"
			errimg=".\Endpoint_ad9aee98_43df7153_trace.jpg"
			errthumb=".\Endpoint_ad9aee98_43df7153_trace_thumb.jpg">
			<message>
				Failed to find item 'madaket_XP001Repository.NewGroupAddress.PleaseEnterName'.<br/>No element found for path '/dom[@domain='edi-alpha.madakethealth.com']//form[#'endPointForm']/div/div[1]/?/?/label[@innertext='Please enter name']' within 1m.
			</message>
			<metainfo
				stacktrace="   at Ranorex.Core.Repository.RepoItemInfo.FindInternal[T](Boolean findSingle, Boolean throwException, Duration effectiveTimeoutOverride)&#13;&#10;   at Ranorex.Core.Repository.RepoItemInfo.&lt;>c__DisplayClass75_0`1.&lt;Find>b__0()&#13;&#10;   at Ranorex.Core.Testing.Services.NoMaintenanceModeService.HandleElementNotFound[T](Func`1 action, RepoItemInfo entry)&#13;&#10;   at Ranorex.Core.Repository.RepoItemInfo.Find[T](Boolean findSingle, Boolean throwException, Duration effectiveTimeoutOverride)&#13;&#10;   at Ranorex.Core.Repository.RepoItemInfo.CreateAdapter[T](Boolean throwException, Duration waitTimeout)&#13;&#10;   at Ranorex.Core.Repository.RepoItemInfo.CreateAdapter[T](Boolean throwException)&#13;&#10;   at madaket_XP001.madaket_XP001RepositoryFolders.NewGroupAddressAppFolder.get_PleaseEnterName() in c:\Users\JohnPloumis\Documents\Ranorex\RanorexStudio Projects\ranorex_testautomation\madaket_XP001\madaket_XP001Repository.cs:line 8955&#13;&#10;   at madaket_XP001.Endpoints.Ranorex.Core.Testing.ITestModule.Run() in c:\Users\JohnPloumis\Documents\Ranorex\RanorexStudio Projects\ranorex_testautomation\madaket_XP001\Endpoints.cs:line 118&#13;&#10;   at Ranorex.Core.Testing.TestModuleLeaf.RunInternal(DataContext parentDataContext, Int32 iteration, Int32 iterationCount, Boolean skipIteration)"
				codefile="c:\Users\JohnPloumis\Documents\Ranorex\RanorexStudio Projects\ranorex_testautomation\madaket_XP001\Endpoints.cs"
				codeline="118"
				type="repoitem"
				path="/dom[@domain='edi-alpha.madakethealth.com']//form[#'endPointForm']/div/div[1]/?/?/label[@innertext='Please enter name']"
				itempath=".//form[#'endPointForm']/div/div[1]/?/?/label[@innertext='Please enter name']"
				fullname="madaket_XP001Repository.NewGroupAddress.PleaseEnterName"
				id="4c5e412fc99141a28bf3b4132f785806"
				timeout="60000"
				loglvl="Error"
				itemindex="10">
			</metainfo>
		</item>
	</activity>
</report>
