﻿<?xml version="1.0" encoding="utf-8"?>
<report
	progress="">
	<activity
		result="Failed"
		duration="0ms"
		durationms="0"
		type="root"
		rid="3a8b1ce5487a600"
		totalerrorcount="1"
		totalwarningcount="1"
		totalsuccesstestcasecount="0"
		totalfailedtestcasecount="0"
		totalblockedtestcasecount="0"
		childsuccesscount="0"
		childfailedcount="0"
		childblockedcount="0"
		totalsuccesscount="0"
		totalfailedcount="0"
		totalblockedcount="0"
		totalmaintenancemodecount="0"
		user="JohnPloumis"
		rxversion="8.3.1.0"
		host="LAPTOP-5EO8DNU1"
		osversion="Windows 10 64bit"
		runtimeversion="4.0.30319.42000"
		procarch="32bit"
		oslanguage="en-US"
		dtnlanguage="en-US"
		screenresolution="1366x768"
		timestamp="12/10/2018 12:25:47 PM"
		timestampiso="2018-12-10T17:25:47"
		endtime="12/10/2018 12:29:26 PM"
		timeoutfactor="1"
		module="Endpoints">
		<detail>
			Endpoints
		</detail>
		<errormessage>
			Failed to find item 'madaket_XP001Repository.MadaketHealth.BodyContent.TestAutomationEndpoint'.
		</errormessage>
		<varbindings>
		</varbindings>
		<item
			timeRelativeToTestSuiteStartTime="00:04.511"
			timeRelativeToTestModuleStartTime="00:04.513"
			timeWallClock="12:25:52"
			time="00:04.511"
			level="Info"
			category="Delay">
			<message>
				Waiting for 500ms.
			</message>
			<metainfo
				itemindex="0"
				codefile="c:\Users\JohnPloumis\Documents\Ranorex\RanorexStudio Projects\ranorex_testautomation\madaket_XP001\Endpoints.cs"
				codeline="82"
				loglvl="Info">
			</metainfo>
		</item>
		<item
			timeRelativeToTestSuiteStartTime="00:05.053"
			timeRelativeToTestModuleStartTime="00:05.055"
			timeWallClock="12:25:52"
			time="00:05.053"
			level="Info"
			category="Invoke action">
			<message>
				Invoking Focus() on item 'NewGroupAddress.DivTagEndpoints'.
			</message>
			<metainfo
				type="repoitem"
				path="/dom[@domain='edi-alpha.madakethealth.com']//nav[#'mainNav']/ul//div[@innertext='Endpoints']"
				itempath=".//nav[#'mainNav']/ul//div[@innertext='Endpoints']"
				fullname="madaket_XP001Repository.NewGroupAddress.DivTagEndpoints"
				id="0d5130f2adcf49349dadeca4ea0ef3a9"
				timeout="60000"
				codefile="c:\Users\JohnPloumis\Documents\Ranorex\RanorexStudio Projects\ranorex_testautomation\madaket_XP001\Endpoints.cs"
				codeline="85"
				itemindex="1"
				loglvl="Info">
			</metainfo>
		</item>
		<item
			timeRelativeToTestSuiteStartTime="00:09.463"
			timeRelativeToTestModuleStartTime="00:09.465"
			timeWallClock="12:25:57"
			time="00:09.463"
			level="Info"
			category="Delay">
			<message>
				Waiting for 500ms.
			</message>
			<metainfo
				itemindex="2"
				codefile="c:\Users\JohnPloumis\Documents\Ranorex\RanorexStudio Projects\ranorex_testautomation\madaket_XP001\Endpoints.cs"
				codeline="89"
				loglvl="Info">
			</metainfo>
		</item>
		<item
			timeRelativeToTestSuiteStartTime="00:09.984"
			timeRelativeToTestModuleStartTime="00:09.986"
			timeWallClock="12:25:57"
			time="00:09.984"
			level="Info"
			category="Mouse">
			<message>
				Mouse Left Click item 'NewGroupAddress.DivTagEndpoints' at Center.
			</message>
			<metainfo
				type="repoitem"
				path="/dom[@domain='edi-alpha.madakethealth.com']//nav[#'mainNav']/ul//div[@innertext='Endpoints']"
				itempath=".//nav[#'mainNav']/ul//div[@innertext='Endpoints']"
				fullname="madaket_XP001Repository.NewGroupAddress.DivTagEndpoints"
				id="0d5130f2adcf49349dadeca4ea0ef3a9"
				timeout="60000"
				codefile="c:\Users\JohnPloumis\Documents\Ranorex\RanorexStudio Projects\ranorex_testautomation\madaket_XP001\Endpoints.cs"
				codeline="92"
				itemindex="3"
				loglvl="Info">
			</metainfo>
		</item>
		<item
			timeRelativeToTestSuiteStartTime="00:12.432"
			timeRelativeToTestModuleStartTime="00:12.434"
			timeWallClock="12:26:00"
			time="00:12.432"
			level="Info"
			category="Delay">
			<message>
				Waiting for 500ms.
			</message>
			<metainfo
				itemindex="4"
				codefile="c:\Users\JohnPloumis\Documents\Ranorex\RanorexStudio Projects\ranorex_testautomation\madaket_XP001\Endpoints.cs"
				codeline="96"
				loglvl="Info">
			</metainfo>
		</item>
		<item
			timeRelativeToTestSuiteStartTime="00:12.938"
			timeRelativeToTestModuleStartTime="00:12.940"
			timeWallClock="12:26:00"
			time="00:12.938"
			level="Info"
			category="Invoke action">
			<message>
				Invoking Focus() on item 'NewGroupAddress.NewEndPointLink'.
			</message>
			<metainfo
				type="repoitem"
				path="/dom[@domain='edi-alpha.madakethealth.com']//a[#'newEndPointLink']"
				itempath=".//a[#'newEndPointLink']"
				fullname="madaket_XP001Repository.NewGroupAddress.NewEndPointLink"
				id="c2fea65f27c04a5cbcef205a46c74245"
				timeout="60000"
				codefile="c:\Users\JohnPloumis\Documents\Ranorex\RanorexStudio Projects\ranorex_testautomation\madaket_XP001\Endpoints.cs"
				codeline="99"
				itemindex="5"
				loglvl="Info">
			</metainfo>
		</item>
		<item
			timeRelativeToTestSuiteStartTime="00:13.868"
			timeRelativeToTestModuleStartTime="00:13.870"
			timeWallClock="12:26:01"
			time="00:13.868"
			level="Info"
			category="Mouse">
			<message>
				Mouse Left Click item 'NewGroupAddress.NewEndPointLink' at Center.
			</message>
			<metainfo
				type="repoitem"
				path="/dom[@domain='edi-alpha.madakethealth.com']//a[#'newEndPointLink']"
				itempath=".//a[#'newEndPointLink']"
				fullname="madaket_XP001Repository.NewGroupAddress.NewEndPointLink"
				id="c2fea65f27c04a5cbcef205a46c74245"
				timeout="60000"
				codefile="c:\Users\JohnPloumis\Documents\Ranorex\RanorexStudio Projects\ranorex_testautomation\madaket_XP001\Endpoints.cs"
				codeline="103"
				itemindex="6"
				loglvl="Info">
			</metainfo>
		</item>
		<item
			timeRelativeToTestSuiteStartTime="00:15.827"
			timeRelativeToTestModuleStartTime="00:15.829"
			timeWallClock="12:26:03"
			time="00:15.827"
			level="Info"
			category="Delay">
			<message>
				Waiting for 15s.
			</message>
			<metainfo
				itemindex="7"
				codefile="c:\Users\JohnPloumis\Documents\Ranorex\RanorexStudio Projects\ranorex_testautomation\madaket_XP001\Endpoints.cs"
				codeline="107"
				loglvl="Info">
			</metainfo>
		</item>
		<item
			timeRelativeToTestSuiteStartTime="00:30.846"
			timeRelativeToTestModuleStartTime="00:30.848"
			timeWallClock="12:26:18"
			time="00:30.846"
			level="Info"
			category="Mouse">
			<message>
				Mouse Left Click item 'NewGroupAddress.SaveEndPoint' at Center.
			</message>
			<metainfo
				type="repoitem"
				path="/dom[@domain='edi-alpha.madakethealth.com']//button[#'saveEndPoint']"
				itempath=".//button[#'saveEndPoint']"
				fullname="madaket_XP001Repository.NewGroupAddress.SaveEndPoint"
				id="5e388a0c86a649d68ea2f24ff8306e5b"
				timeout="60000"
				codefile="c:\Users\JohnPloumis\Documents\Ranorex\RanorexStudio Projects\ranorex_testautomation\madaket_XP001\Endpoints.cs"
				codeline="110"
				itemindex="8"
				loglvl="Info">
			</metainfo>
		</item>
		<item
			timeRelativeToTestSuiteStartTime="00:45.079"
			timeRelativeToTestModuleStartTime="00:45.081"
			timeWallClock="12:26:32"
			time="00:45.079"
			level="Info"
			category="Delay">
			<message>
				Waiting for 500ms.
			</message>
			<metainfo
				itemindex="9"
				codefile="c:\Users\JohnPloumis\Documents\Ranorex\RanorexStudio Projects\ranorex_testautomation\madaket_XP001\Endpoints.cs"
				codeline="114"
				loglvl="Info">
			</metainfo>
		</item>
		<item
			timeRelativeToTestSuiteStartTime="00:45.590"
			timeRelativeToTestModuleStartTime="00:45.592"
			timeWallClock="12:26:33"
			time="00:45.590"
			level="Info"
			category="Mouse">
			<message>
				Mouse Left Click item 'NewGroupAddress.PleaseEnterName' at 30;7.
			</message>
			<metainfo
				type="repoitem"
				path="/dom[@domain='edi-alpha.madakethealth.com']//form[#'endPointForm']/div/div[1]/?/?/label[@innertext='Please enter name']"
				itempath=".//form[#'endPointForm']/div/div[1]/?/?/label[@innertext='Please enter name']"
				fullname="madaket_XP001Repository.NewGroupAddress.PleaseEnterName"
				id="4c5e412fc99141a28bf3b4132f785806"
				timeout="60000"
				codefile="c:\Users\JohnPloumis\Documents\Ranorex\RanorexStudio Projects\ranorex_testautomation\madaket_XP001\Endpoints.cs"
				codeline="117"
				itemindex="10"
				loglvl="Info">
			</metainfo>
		</item>
		<item
			timeRelativeToTestSuiteStartTime="00:48.108"
			timeRelativeToTestModuleStartTime="00:48.110"
			timeWallClock="12:26:35"
			time="00:48.108"
			level="Info"
			category="Mouse">
			<message>
				Mouse Left Click item 'NewGroupAddress.PleaseSelectRecipientOrganization' at 57;19.
			</message>
			<metainfo
				type="repoitem"
				path="/dom[@domain='edi-alpha.madakethealth.com']//div[#'recipientOrganizationError']/label[@innertext~'^Please\ select\ recipient\ o']"
				itempath=".//div[#'recipientOrganizationError']/label[@innertext~'^Please\ select\ recipient\ o']"
				fullname="madaket_XP001Repository.NewGroupAddress.PleaseSelectRecipientOrganization"
				id="dcd5fdb4e22b446f9c88cbcceb2c5d41"
				timeout="60000"
				codefile="c:\Users\JohnPloumis\Documents\Ranorex\RanorexStudio Projects\ranorex_testautomation\madaket_XP001\Endpoints.cs"
				codeline="121"
				itemindex="11"
				loglvl="Info">
			</metainfo>
		</item>
		<item
			timeRelativeToTestSuiteStartTime="00:50.780"
			timeRelativeToTestModuleStartTime="00:50.782"
			timeWallClock="12:26:38"
			time="00:50.780"
			level="Info"
			category="Mouse">
			<message>
				Mouse Left Click item 'NewGroupAddress.PleaseSelectAPDFForm' at 72;9.
			</message>
			<metainfo
				type="repoitem"
				path="/dom[@domain='edi-alpha.madakethealth.com']//div[#'invalidFileError']/label[@innertext='Please select a PDF form']"
				itempath=".//div[#'invalidFileError']/label[@innertext='Please select a PDF form']"
				fullname="madaket_XP001Repository.NewGroupAddress.PleaseSelectAPDFForm"
				id="8a1e193f09cc448ba11a0cc2e8f79840"
				timeout="60000"
				codefile="c:\Users\JohnPloumis\Documents\Ranorex\RanorexStudio Projects\ranorex_testautomation\madaket_XP001\Endpoints.cs"
				codeline="125"
				itemindex="12"
				loglvl="Info">
			</metainfo>
		</item>
		<item
			timeRelativeToTestSuiteStartTime="00:53.365"
			timeRelativeToTestModuleStartTime="00:53.367"
			timeWallClock="12:26:41"
			time="00:53.365"
			level="Info"
			category="Mouse">
			<message>
				Mouse Left Click item 'NewGroupAddress.PleaseEnterEmail' at 69;6.
			</message>
			<metainfo
				type="repoitem"
				path="/dom[@domain='edi-alpha.madakethealth.com']//form[#'endPointForm']/div/div[8]/?/?/label[@innertext='Please enter email']"
				itempath=".//form[#'endPointForm']/div/div[8]/?/?/label[@innertext='Please enter email']"
				fullname="madaket_XP001Repository.NewGroupAddress.PleaseEnterEmail"
				id="d0d62308501a4cf1adc9f34d40665044"
				timeout="60000"
				codefile="c:\Users\JohnPloumis\Documents\Ranorex\RanorexStudio Projects\ranorex_testautomation\madaket_XP001\Endpoints.cs"
				codeline="129"
				itemindex="13"
				loglvl="Info">
			</metainfo>
		</item>
		<item
			timeRelativeToTestSuiteStartTime="00:55.829"
			timeRelativeToTestModuleStartTime="00:55.831"
			timeWallClock="12:26:43"
			time="00:55.829"
			level="Info"
			category="Mouse">
			<message>
				Mouse Left Click item 'NewGroupAddress.Name' at 99;13.
			</message>
			<metainfo
				type="repoitem"
				path="/dom[@domain='edi-alpha.madakethealth.com']//input[#'name']"
				itempath=".//input[#'name']"
				fullname="madaket_XP001Repository.NewGroupAddress.Name"
				id="b73d1c3d72234815b1c1d01c765f02e2"
				timeout="60000"
				codefile="c:\Users\JohnPloumis\Documents\Ranorex\RanorexStudio Projects\ranorex_testautomation\madaket_XP001\Endpoints.cs"
				codeline="133"
				itemindex="14"
				loglvl="Info">
			</metainfo>
		</item>
		<item
			timeRelativeToTestSuiteStartTime="00:58.250"
			timeRelativeToTestModuleStartTime="00:58.252"
			timeWallClock="12:26:45"
			time="00:58.250"
			level="Info"
			category="Keyboard">
			<message>
				Key sequence 'test{Capital}-{Capital}automation{Capital}{LShiftKey down}_{LShiftKey up}endpoint' with focus on 'NewGroupAddress.Name'.
			</message>
			<metainfo
				type="repoitem"
				path="/dom[@domain='edi-alpha.madakethealth.com']//input[#'name']"
				itempath=".//input[#'name']"
				fullname="madaket_XP001Repository.NewGroupAddress.Name"
				id="b73d1c3d72234815b1c1d01c765f02e2"
				timeout="60000"
				codefile="c:\Users\JohnPloumis\Documents\Ranorex\RanorexStudio Projects\ranorex_testautomation\madaket_XP001\Endpoints.cs"
				codeline="137"
				itemindex="15"
				loglvl="Info">
			</metainfo>
		</item>
		<item
			timeRelativeToTestSuiteStartTime="01:05.224"
			timeRelativeToTestModuleStartTime="01:05.226"
			timeWallClock="12:26:52"
			time="01:05.224"
			level="Info"
			category="Mouse">
			<message>
				Mouse Left Click item 'NewGroupAddress.ProcessingTime' at 17;14.
			</message>
			<metainfo
				type="repoitem"
				path="/dom[@domain='edi-alpha.madakethealth.com']//input[#'processingTime']"
				itempath=".//input[#'processingTime']"
				fullname="madaket_XP001Repository.NewGroupAddress.ProcessingTime"
				id="e37c00df7e3f448b88782247ef7708ec"
				timeout="60000"
				codefile="c:\Users\JohnPloumis\Documents\Ranorex\RanorexStudio Projects\ranorex_testautomation\madaket_XP001\Endpoints.cs"
				codeline="141"
				itemindex="16"
				loglvl="Info">
			</metainfo>
		</item>
		<item
			timeRelativeToTestSuiteStartTime="01:07.557"
			timeRelativeToTestModuleStartTime="01:07.559"
			timeWallClock="12:26:55"
			time="01:07.557"
			level="Info"
			category="Keyboard">
			<message>
				Key sequence '3' with focus on 'NewGroupAddress.ProcessingTime'.
			</message>
			<metainfo
				type="repoitem"
				path="/dom[@domain='edi-alpha.madakethealth.com']//input[#'processingTime']"
				itempath=".//input[#'processingTime']"
				fullname="madaket_XP001Repository.NewGroupAddress.ProcessingTime"
				id="e37c00df7e3f448b88782247ef7708ec"
				timeout="60000"
				codefile="c:\Users\JohnPloumis\Documents\Ranorex\RanorexStudio Projects\ranorex_testautomation\madaket_XP001\Endpoints.cs"
				codeline="145"
				itemindex="17"
				loglvl="Info">
			</metainfo>
		</item>
		<item
			timeRelativeToTestSuiteStartTime="01:09.707"
			timeRelativeToTestModuleStartTime="01:09.709"
			timeWallClock="12:26:57"
			time="01:09.707"
			level="Info"
			category="Set value">
			<message>
				Setting attribute TagValue to '064d4e74-8ea8-4970-972e-f830eae83e43|TRADING_PARTNER' on item 'NewGroupAddress.RecipientOrganization'.
			</message>
			<metainfo
				type="repoitem"
				path="/dom[@domain='edi-alpha.madakethealth.com']//select[#'recipientOrganization']"
				itempath=".//select[#'recipientOrganization']"
				fullname="madaket_XP001Repository.NewGroupAddress.RecipientOrganization"
				id="3169694ba3b94c4283d15ca2028270d9"
				timeout="60000"
				codefile="c:\Users\JohnPloumis\Documents\Ranorex\RanorexStudio Projects\ranorex_testautomation\madaket_XP001\Endpoints.cs"
				codeline="149"
				itemindex="18"
				loglvl="Info">
			</metainfo>
		</item>
		<item
			timeRelativeToTestSuiteStartTime="01:10.564"
			timeRelativeToTestModuleStartTime="01:10.566"
			timeWallClock="12:26:58"
			time="01:10.564"
			level="Info"
			category="Mouse">
			<message>
				Mouse Left Click item 'NewGroupAddress.ChangeFormButton' at 38;7.
			</message>
			<metainfo
				type="repoitem"
				path="/dom[@domain='edi-alpha.madakethealth.com']//input[#'changeFormButton']"
				itempath=".//input[#'changeFormButton']"
				fullname="madaket_XP001Repository.NewGroupAddress.ChangeFormButton"
				id="a8ff204a067a4505916a038f179a6f37"
				timeout="60000"
				codefile="c:\Users\JohnPloumis\Documents\Ranorex\RanorexStudio Projects\ranorex_testautomation\madaket_XP001\Endpoints.cs"
				codeline="153"
				itemindex="19"
				loglvl="Info">
			</metainfo>
		</item>
		<item
			timeRelativeToTestSuiteStartTime="01:12.964"
			timeRelativeToTestModuleStartTime="01:12.966"
			timeWallClock="12:27:00"
			time="01:12.964"
			level="Info"
			category="Delay">
			<message>
				Waiting for 2.5s.
			</message>
			<metainfo
				itemindex="20"
				codefile="c:\Users\JohnPloumis\Documents\Ranorex\RanorexStudio Projects\ranorex_testautomation\madaket_XP001\Endpoints.cs"
				codeline="157"
				loglvl="Info">
			</metainfo>
		</item>
		<item
			timeRelativeToTestSuiteStartTime="01:15.490"
			timeRelativeToTestModuleStartTime="01:15.492"
			timeWallClock="12:27:03"
			time="01:15.490"
			level="Info"
			category="Mouse">
			<message>
				Mouse Left Click item 'NewGroupAddress.DataTablesScrollBody' at 744;444.
			</message>
			<metainfo
				type="repoitem"
				path="/dom[@domain='edi-alpha.madakethealth.com']//div[#'formListContainer_wrapper']/div[3]/div[2]"
				itempath=".//div[#'formListContainer_wrapper']/div[3]/div[2]"
				fullname="madaket_XP001Repository.NewGroupAddress.DataTablesScrollBody"
				id="c614f912e4d84051a8c41bd1fe04ac76"
				timeout="60000"
				codefile="c:\Users\JohnPloumis\Documents\Ranorex\RanorexStudio Projects\ranorex_testautomation\madaket_XP001\Endpoints.cs"
				codeline="160"
				itemindex="21"
				loglvl="Info">
			</metainfo>
		</item>
		<item
			timeRelativeToTestSuiteStartTime="01:16.227"
			timeRelativeToTestModuleStartTime="01:16.229"
			timeWallClock="12:27:03"
			time="01:16.227"
			level="Warn"
			category="Click"
			errimg=".\Endpoint_65acab78_rxlog.jpg"
			errthumb=".\Endpoint_65acab78_rxlog_thumb.jpg">
			<message>
				The mouse action was performed outside the boundaries of the assigned UI element.<br/>
			</message>
			<metainfo
				codefile="c:\Users\JohnPloumis\Documents\Ranorex\RanorexStudio Projects\ranorex_testautomation\madaket_XP001\Endpoints.cs"
				codeline="161"
				loglvl="Warn">
			</metainfo>
		</item>
		<item
			timeRelativeToTestSuiteStartTime="01:17.842"
			timeRelativeToTestModuleStartTime="01:17.844"
			timeWallClock="12:27:05"
			time="01:17.842"
			level="Info"
			category="Delay">
			<message>
				Waiting for 2.5s.
			</message>
			<metainfo
				itemindex="22"
				codefile="c:\Users\JohnPloumis\Documents\Ranorex\RanorexStudio Projects\ranorex_testautomation\madaket_XP001\Endpoints.cs"
				codeline="164"
				loglvl="Info">
			</metainfo>
		</item>
		<item
			timeRelativeToTestSuiteStartTime="01:20.367"
			timeRelativeToTestModuleStartTime="01:20.369"
			timeWallClock="12:27:08"
			time="01:20.367"
			level="Info"
			category="Mouse">
			<message>
				Mouse Left Click item 'NewGroupAddress.Select' at 18;9.
			</message>
			<metainfo
				type="repoitem"
				path="/dom[@domain='edi-alpha.madakethealth.com']//table[#'formListContainer']/tbody/tr[10]/?/?/a[@innertext='Select']"
				itempath=".//table[#'formListContainer']/tbody/tr[10]/?/?/a[@innertext='Select']"
				fullname="madaket_XP001Repository.NewGroupAddress.Select"
				id="b61819d4713247768dd72769fe5df2aa"
				timeout="60000"
				codefile="c:\Users\JohnPloumis\Documents\Ranorex\RanorexStudio Projects\ranorex_testautomation\madaket_XP001\Endpoints.cs"
				codeline="167"
				itemindex="23"
				loglvl="Info">
			</metainfo>
		</item>
		<item
			timeRelativeToTestSuiteStartTime="01:22.956"
			timeRelativeToTestModuleStartTime="01:22.958"
			timeWallClock="12:27:10"
			time="01:22.956"
			level="Info"
			category="Delay">
			<message>
				Waiting for 2.5s.
			</message>
			<metainfo
				itemindex="24"
				codefile="c:\Users\JohnPloumis\Documents\Ranorex\RanorexStudio Projects\ranorex_testautomation\madaket_XP001\Endpoints.cs"
				codeline="171"
				loglvl="Info">
			</metainfo>
		</item>
		<item
			timeRelativeToTestSuiteStartTime="01:25.474"
			timeRelativeToTestModuleStartTime="01:25.476"
			timeWallClock="12:27:13"
			time="01:25.474"
			level="Info"
			category="Mouse">
			<message>
				Mouse Left Click item 'NewGroupAddress.EndPointContactPersonEmail' at 89;10.
			</message>
			<metainfo
				type="repoitem"
				path="/dom[@domain='edi-alpha.madakethealth.com']//form[#'endPointForm']/div/div[8]/?/?/input[@name='endPoint.contactPerson.email']"
				itempath=".//form[#'endPointForm']/div/div[8]/?/?/input[@name='endPoint.contactPerson.email']"
				fullname="madaket_XP001Repository.NewGroupAddress.EndPointContactPersonEmail"
				id="474cf405918c40faad36e3258ae92d70"
				timeout="60000"
				codefile="c:\Users\JohnPloumis\Documents\Ranorex\RanorexStudio Projects\ranorex_testautomation\madaket_XP001\Endpoints.cs"
				codeline="174"
				itemindex="25"
				loglvl="Info">
			</metainfo>
		</item>
		<item
			timeRelativeToTestSuiteStartTime="01:28.060"
			timeRelativeToTestModuleStartTime="01:28.062"
			timeWallClock="12:27:15"
			time="01:28.060"
			level="Info"
			category="Delay">
			<message>
				Waiting for 2.5s.
			</message>
			<metainfo
				itemindex="26"
				codefile="c:\Users\JohnPloumis\Documents\Ranorex\RanorexStudio Projects\ranorex_testautomation\madaket_XP001\Endpoints.cs"
				codeline="178"
				loglvl="Info">
			</metainfo>
		</item>
		<item
			timeRelativeToTestSuiteStartTime="01:30.574"
			timeRelativeToTestModuleStartTime="01:30.576"
			timeWallClock="12:27:18"
			time="01:30.574"
			level="Info"
			category="Keyboard">
			<message>
				Key sequence 'jploumis{LShiftKey down}@{LShiftKey up}madakethealth.com' with focus on 'NewGroupAddress.EndPointContactPersonEmail'.
			</message>
			<metainfo
				type="repoitem"
				path="/dom[@domain='edi-alpha.madakethealth.com']//form[#'endPointForm']/div/div[8]/?/?/input[@name='endPoint.contactPerson.email']"
				itempath=".//form[#'endPointForm']/div/div[8]/?/?/input[@name='endPoint.contactPerson.email']"
				fullname="madaket_XP001Repository.NewGroupAddress.EndPointContactPersonEmail"
				id="474cf405918c40faad36e3258ae92d70"
				timeout="60000"
				codefile="c:\Users\JohnPloumis\Documents\Ranorex\RanorexStudio Projects\ranorex_testautomation\madaket_XP001\Endpoints.cs"
				codeline="181"
				itemindex="27"
				loglvl="Info">
			</metainfo>
		</item>
		<item
			timeRelativeToTestSuiteStartTime="01:40.550"
			timeRelativeToTestModuleStartTime="01:40.552"
			timeWallClock="12:27:28"
			time="01:40.550"
			level="Info"
			category="Mouse">
			<message>
				Mouse Left Click item 'NewGroupAddress.SaveEndPoint' at 48;14.
			</message>
			<metainfo
				type="repoitem"
				path="/dom[@domain='edi-alpha.madakethealth.com']//button[#'saveEndPoint']"
				itempath=".//button[#'saveEndPoint']"
				fullname="madaket_XP001Repository.NewGroupAddress.SaveEndPoint"
				id="5e388a0c86a649d68ea2f24ff8306e5b"
				timeout="60000"
				codefile="c:\Users\JohnPloumis\Documents\Ranorex\RanorexStudio Projects\ranorex_testautomation\madaket_XP001\Endpoints.cs"
				codeline="185"
				itemindex="28"
				loglvl="Info">
			</metainfo>
		</item>
		<item
			timeRelativeToTestSuiteStartTime="01:42.707"
			timeRelativeToTestModuleStartTime="01:42.709"
			timeWallClock="12:27:30"
			time="01:42.707"
			level="Info"
			category="Mouse"
			errimg=".\Endpoint_23021c2c_d3c2673b_trace.jpg"
			errthumb=".\Endpoint_23021c2c_d3c2673b_trace_thumb.jpg">
			<message>
				Mouse Left Click item 'NewGroupAddress.SaveEndPoint' at 48;8.
			</message>
			<metainfo
				type="repoitem"
				path="/dom[@domain='edi-alpha.madakethealth.com']//button[#'saveEndPoint']"
				itempath=".//button[#'saveEndPoint']"
				fullname="madaket_XP001Repository.NewGroupAddress.SaveEndPoint"
				id="5e388a0c86a649d68ea2f24ff8306e5b"
				timeout="60000"
				codefile="c:\Users\JohnPloumis\Documents\Ranorex\RanorexStudio Projects\ranorex_testautomation\madaket_XP001\Endpoints.cs"
				codeline="189"
				itemindex="29"
				loglvl="Info">
			</metainfo>
		</item>
		<item
			timeRelativeToTestSuiteStartTime="01:44.873"
			timeRelativeToTestModuleStartTime="01:44.875"
			timeWallClock="12:27:32"
			time="01:44.873"
			level="Info"
			category="Mouse"
			errimg=".\Endpoint_23021c2c_87896961_trace.jpg"
			errthumb=".\Endpoint_23021c2c_87896961_trace_thumb.jpg">
			<message>
				Mouse Left Click item 'MadaketHealth.BodyContent.TestAutomationEndpoint' at 87;11.
			</message>
			<metainfo
				type="repoitem"
				path="/dom[@domain='edi-alpha.madakethealth.com']//div[#'bodyContent']//div[@innertext='test-automation_endpoint']"
				itempath=".//div[@innertext='test-automation_endpoint']"
				fullname="madaket_XP001Repository.MadaketHealth.BodyContent.TestAutomationEndpoint"
				id="f2b1232f37ea4c0cb423af4e0ff40daa"
				timeout="90000"
				codefile="c:\Users\JohnPloumis\Documents\Ranorex\RanorexStudio Projects\ranorex_testautomation\madaket_XP001\Endpoints.cs"
				codeline="193"
				itemindex="30"
				loglvl="Info">
			</metainfo>
		</item>
		<item
			timeRelativeToTestSuiteStartTime="03:38.462"
			timeRelativeToTestModuleStartTime="03:38.464"
			timeWallClock="12:29:26"
			time="03:38.462"
			level="Error"
			category="Module"
			errimg=".\Endpoint_23021c2c_c4da138e_trace.jpg"
			errthumb=".\Endpoint_23021c2c_c4da138e_trace_thumb.jpg">
			<message>
				Failed to find item 'madaket_XP001Repository.MadaketHealth.BodyContent.TestAutomationEndpoint'.<br/>No element found for path '/dom[@domain='edi-alpha.madakethealth.com']//div[#'bodyContent']//div[@innertext='test-automation_endpoint']' within 1.5m.
			</message>
			<metainfo
				stacktrace="   at Ranorex.Core.Repository.RepoItemInfo.FindInternal[T](Boolean findSingle, Boolean throwException, Duration effectiveTimeoutOverride)&#13;&#10;   at Ranorex.Core.Repository.RepoItemInfo.&lt;>c__DisplayClass75_0`1.&lt;Find>b__0()&#13;&#10;   at Ranorex.Core.Testing.Services.NoMaintenanceModeService.HandleElementNotFound[T](Func`1 action, RepoItemInfo entry)&#13;&#10;   at Ranorex.Core.Repository.RepoItemInfo.Find[T](Boolean findSingle, Boolean throwException, Duration effectiveTimeoutOverride)&#13;&#10;   at Ranorex.Core.Repository.RepoItemInfo.CreateAdapter[T](Boolean throwException, Duration waitTimeout)&#13;&#10;   at Ranorex.Core.Repository.RepoItemInfo.CreateAdapter[T](Boolean throwException)&#13;&#10;   at madaket_XP001.madaket_XP001RepositoryFolders.BodyContentFolder.get_TestAutomationEndpoint() in c:\Users\JohnPloumis\Documents\Ranorex\RanorexStudio Projects\ranorex_testautomation\madaket_XP001\madaket_XP001Repository.cs:line 5913&#13;&#10;   at madaket_XP001.Endpoints.Ranorex.Core.Testing.ITestModule.Run() in c:\Users\JohnPloumis\Documents\Ranorex\RanorexStudio Projects\ranorex_testautomation\madaket_XP001\Endpoints.cs:line 194&#13;&#10;   at Ranorex.Core.Testing.TestModuleLeaf.RunInternal(DataContext parentDataContext, Int32 iteration, Int32 iterationCount, Boolean skipIteration)"
				codefile="c:\Users\JohnPloumis\Documents\Ranorex\RanorexStudio Projects\ranorex_testautomation\madaket_XP001\Endpoints.cs"
				codeline="194"
				type="repoitem"
				path="/dom[@domain='edi-alpha.madakethealth.com']//div[#'bodyContent']//div[@innertext='test-automation_endpoint']"
				itempath=".//div[@innertext='test-automation_endpoint']"
				fullname="madaket_XP001Repository.MadaketHealth.BodyContent.TestAutomationEndpoint"
				id="f2b1232f37ea4c0cb423af4e0ff40daa"
				timeout="90000"
				loglvl="Error"
				itemindex="30">
			</metainfo>
		</item>
	</activity>
</report>
