﻿<?xml version="1.0" encoding="utf-8"?>
<report
	progress="">
	<activity
		result="Success"
		duration="0ms"
		durationms="0"
		type="root"
		rid="232ba96da3ed7441"
		totalerrorcount="0"
		totalwarningcount="1"
		totalsuccesstestcasecount="0"
		totalfailedtestcasecount="0"
		totalblockedtestcasecount="0"
		childsuccesscount="0"
		childfailedcount="0"
		childblockedcount="0"
		totalsuccesscount="0"
		totalfailedcount="0"
		totalblockedcount="0"
		totalmaintenancemodecount="0"
		user="JohnPloumis"
		rxversion="8.2.1.0"
		host="LAPTOP-5EO8DNU1"
		osversion="Windows 10 64bit"
		runtimeversion="4.0.30319.42000"
		procarch="32bit"
		oslanguage="en-US"
		dtnlanguage="en-US"
		screenresolution="1366x768"
		timestamp="10/26/2018 2:36:14 PM"
		timestampiso="2018-10-26T18:36:14"
		endtime="10/26/2018 2:36:33 PM"
		timeoutfactor="1"
		module="Iteration34">
		<detail>
			Iteration34
		</detail>
		<varbindings>
		</varbindings>
		<item
			timeRelativeToTestSuiteStartTime="00:01.875"
			timeRelativeToTestModuleStartTime="00:01.875"
			timeWallClock="14:36:16"
			time="00:01.875"
			level="Info"
			category="User">
			<message>
				Login Credentials: https://edi-alpha.madakethealth.com/services/logout (IE)
			</message>
			<metainfo
				codefile="c:\Users\JohnPloumis\Documents\Ranorex\RanorexStudio Projects\ranorex_testautomation\madaket_XP001\Login_Madaket.cs"
				codeline="43"
				loglvl="Info">
			</metainfo>
		</item>
		<item
			timeRelativeToTestSuiteStartTime="00:07.234"
			timeRelativeToTestModuleStartTime="00:07.234"
			timeWallClock="14:36:21"
			time="00:07.234"
			level="Success"
			category="Validation">
			<message>
				Element for item 'btnLogin' does exist.
			</message>
			<metainfo
				type="repoitem"
				path="/dom[@caption='Madaket Health']//input[#'loginButton']"
				itempath=".//input[#'loginButton']"
				fullname="madaket_XP001Repository.MadaketHealth.btnLogin"
				id="29776b9350984c58bf5308f720d7bca4"
				timeout="60000"
				codefile="c:\Users\JohnPloumis\Documents\Ranorex\RanorexStudio Projects\ranorex_testautomation\madaket_XP001\Login_Madaket.cs"
				codeline="50"
				loglvl="Success">
			</metainfo>
		</item>
		<item
			timeRelativeToTestSuiteStartTime="00:15.498"
			timeRelativeToTestModuleStartTime="00:15.498"
			timeWallClock="14:36:29"
			time="00:15.498"
			level="Warn"
			category="Click"
			errimg=".\Iteratio_63b99869_rxlog.jpg"
			errthumb=".\Iteratio_63b99869_rxlog_thumb.jpg">
			<message>
				The mouse action was performed outside the boundaries of the assigned UI element.<br/>
			</message>
			<metainfo
				codefile="c:\Users\JohnPloumis\Documents\Ranorex\RanorexStudio Projects\ranorex_testautomation\madaket_XP001\NoData_NewPayer.cs"
				codeline="59"
				loglvl="Warn">
			</metainfo>
		</item>
	</activity>
</report>
