﻿<?xml version="1.0" encoding="utf-8"?>
<report
	progress="">
	<activity
		result="Success"
		duration="0ms"
		durationms="0"
		type="root"
		rid="a7d700695830e15"
		totalerrorcount="0"
		totalwarningcount="0"
		totalsuccesstestcasecount="0"
		totalfailedtestcasecount="0"
		totalblockedtestcasecount="0"
		childsuccesscount="0"
		childfailedcount="0"
		childblockedcount="0"
		totalsuccesscount="0"
		totalfailedcount="0"
		totalblockedcount="0"
		totalmaintenancemodecount="0"
		user="JohnPloumis"
		rxversion="8.3.1.0"
		host="LAPTOP-5EO8DNU1"
		osversion="Windows 10 64bit"
		runtimeversion="4.0.30319.42000"
		procarch="32bit"
		oslanguage="en-US"
		dtnlanguage="en-US"
		screenresolution="1366x768"
		timestamp="11/28/2018 12:57:20 PM"
		timestampiso="2018-11-28T17:57:20"
		endtime="11/28/2018 12:57:35 PM"
		timeoutfactor="1"
		module="Madaket_login">
		<detail>
			Madaket_login
		</detail>
		<varbindings>
		</varbindings>
		<item
			timeRelativeToTestSuiteStartTime="00:04.201"
			timeRelativeToTestModuleStartTime="00:04.202"
			timeWallClock="12:57:25"
			time="00:04.201"
			level="Info"
			category="User">
			<message>
				Killing Chrome
			</message>
			<metainfo
				codefile="c:\Users\JohnPloumis\Documents\Ranorex\RanorexStudio Projects\ranorex_testautomation\madaket_XP001\Madaket_login.UserCode.cs"
				codeline="54"
				loglvl="Info">
			</metainfo>
		</item>
		<item
			timeRelativeToTestSuiteStartTime="00:04.234"
			timeRelativeToTestModuleStartTime="00:04.235"
			timeWallClock="12:57:25"
			time="00:04.234"
			level="Info"
			category="User">
			<message>
				Chrome Clean Complete - Pausing...
			</message>
			<metainfo
				codefile="c:\Users\JohnPloumis\Documents\Ranorex\RanorexStudio Projects\ranorex_testautomation\madaket_XP001\Madaket_login.UserCode.cs"
				codeline="66"
				loglvl="Info">
			</metainfo>
		</item>
		<item
			timeRelativeToTestSuiteStartTime="00:04.239"
			timeRelativeToTestModuleStartTime="00:04.240"
			timeWallClock="12:57:25"
			time="00:04.239"
			level="Info"
			category="Website">
			<message>
				Opening web site 'https://edi-alpha.madakethealth.com/services/logout' with browser 'Chrome' in maximized mode.
			</message>
			<metainfo
				itemindex="2"
				codefile="c:\Users\JohnPloumis\Documents\Ranorex\RanorexStudio Projects\ranorex_testautomation\madaket_XP001\Madaket_login.cs"
				codeline="86"
				loglvl="Info">
			</metainfo>
		</item>
		<item
			timeRelativeToTestSuiteStartTime="00:04.506"
			timeRelativeToTestModuleStartTime="00:04.507"
			timeWallClock="12:57:25"
			time="00:04.506"
			level="Info"
			category="Set value">
			<message>
				Setting attribute Value to 'jploumis@madakethealth.com' on item 'MadaketHealth.txtUsername'.
			</message>
			<metainfo
				type="repoitem"
				path="/dom[@domain='edi-alpha.madakethealth.com']//input[#'username']"
				itempath=".//input[#'username']"
				fullname="madaket_XP001Repository.MadaketHealth.txtUsername"
				id="ad40a45ba47543068e211d52f3633bf0"
				timeout="60000"
				codefile="c:\Users\JohnPloumis\Documents\Ranorex\RanorexStudio Projects\ranorex_testautomation\madaket_XP001\Madaket_login.cs"
				codeline="93"
				itemindex="5"
				loglvl="Info">
			</metainfo>
		</item>
		<item
			timeRelativeToTestSuiteStartTime="00:11.332"
			timeRelativeToTestModuleStartTime="00:11.333"
			timeWallClock="12:57:32"
			time="00:11.332"
			level="Info"
			category="Set value">
			<message>
				Setting attribute Value to 'Monkey1213!' on item 'MadaketHealth.txtPassword'.
			</message>
			<metainfo
				type="repoitem"
				path="/dom[@domain='edi-alpha.madakethealth.com']//input[#'password']"
				itempath=".//input[#'password']"
				fullname="madaket_XP001Repository.MadaketHealth.txtPassword"
				id="a351a5d74ad64269819a1ffbe4be0530"
				timeout="60000"
				codefile="c:\Users\JohnPloumis\Documents\Ranorex\RanorexStudio Projects\ranorex_testautomation\madaket_XP001\Madaket_login.cs"
				codeline="96"
				itemindex="6"
				loglvl="Info">
			</metainfo>
		</item>
		<item
			timeRelativeToTestSuiteStartTime="00:12.055"
			timeRelativeToTestModuleStartTime="00:12.056"
			timeWallClock="12:57:32"
			time="00:12.055"
			level="Info"
			category="Validation">
			<message>
				Validating Exists on item 'MadaketHealth.btnLogin'.
			</message>
			<metainfo
				type="repoitem"
				path="/dom[@domain='edi-alpha.madakethealth.com']//input[#'loginButton']"
				itempath=".//input[#'loginButton']"
				fullname="madaket_XP001Repository.MadaketHealth.btnLogin"
				id="29776b9350984c58bf5308f720d7bca4"
				timeout="60000"
				codefile="c:\Users\JohnPloumis\Documents\Ranorex\RanorexStudio Projects\ranorex_testautomation\madaket_XP001\Madaket_login.cs"
				codeline="99"
				itemindex="7"
				loglvl="Info">
			</metainfo>
		</item>
		<item
			timeRelativeToTestSuiteStartTime="00:12.796"
			timeRelativeToTestModuleStartTime="00:12.797"
			timeWallClock="12:57:33"
			time="00:12.796"
			level="Success"
			category="Validation">
			<message>
				Element for item 'btnLogin' does exist.
			</message>
			<metainfo
				type="repoitem"
				path="/dom[@domain='edi-alpha.madakethealth.com']//input[#'loginButton']"
				itempath=".//input[#'loginButton']"
				fullname="madaket_XP001Repository.MadaketHealth.btnLogin"
				id="29776b9350984c58bf5308f720d7bca4"
				timeout="60000"
				codefile="c:\Users\JohnPloumis\Documents\Ranorex\RanorexStudio Projects\ranorex_testautomation\madaket_XP001\Madaket_login.cs"
				codeline="100"
				loglvl="Success"
				itemindex="7">
			</metainfo>
		</item>
		<item
			timeRelativeToTestSuiteStartTime="00:12.798"
			timeRelativeToTestModuleStartTime="00:12.799"
			timeWallClock="12:57:33"
			time="00:12.798"
			level="Info"
			category="Mouse">
			<message>
				Mouse Left Click item 'MadaketHealth.btnLogin' at 62;12.
			</message>
			<metainfo
				type="repoitem"
				path="/dom[@domain='edi-alpha.madakethealth.com']//input[#'loginButton']"
				itempath=".//input[#'loginButton']"
				fullname="madaket_XP001Repository.MadaketHealth.btnLogin"
				id="29776b9350984c58bf5308f720d7bca4"
				timeout="60000"
				codefile="c:\Users\JohnPloumis\Documents\Ranorex\RanorexStudio Projects\ranorex_testautomation\madaket_XP001\Madaket_login.cs"
				codeline="102"
				itemindex="8"
				loglvl="Info">
			</metainfo>
		</item>
	</activity>
</report>
