﻿<?xml version="1.0" encoding="utf-8"?>
<report
	progress="">
	<activity
		result="Success"
		duration="0ms"
		durationms="0"
		type="root"
		rid="390b451656ba004"
		totalerrorcount="1"
		totalwarningcount="0"
		totalsuccesstestcasecount="0"
		totalfailedtestcasecount="1"
		totalblockedtestcasecount="0"
		childsuccesscount="0"
		childfailedcount="1"
		childblockedcount="0"
		totalsuccesscount="0"
		totalfailedcount="1"
		totalblockedcount="0"
		totalmaintenancemodecount="0"
		user="JohnPloumis"
		rxversion="8.2.1.0"
		host="LAPTOP-5EO8DNU1"
		osversion="Windows 10 64bit"
		runtimeversion="4.0.30319.42000"
		procarch="32bit"
		oslanguage="en-US"
		dtnlanguage="en-US"
		screenresolution="1366x768"
		timestamp="10/10/2018 4:17:59 PM"
		timestampiso="2018-10-10T20:17:59"
		endtime="10/10/2018 4:20:48 PM"
		timeoutfactor="1">
		<detail>
			Ranorex Testscript
		</detail>
		<activity
			result="Failed"
			duration="2.8m"
			durationms="168657"
			type="test-suite"
			rid="2e91150f0cda6ff8"
			totalerrorcount="1"
			totalwarningcount="0"
			totalsuccesstestcasecount="0"
			totalfailedtestcasecount="1"
			totalblockedtestcasecount="0"
			childsuccesscount="0"
			childfailedcount="1"
			childblockedcount="0"
			totalsuccesscount="0"
			totalfailedcount="1"
			totalblockedcount="0"
			totalmaintenancemodecount="0"
			testsuitename="madaket_XP001"
			headertext="madaket_XP001"
			runconfigname="TestRun"
			runlabel="">
			<params>
			</params>
			<activity
				result="Failed"
				duration="2.8m"
				durationms="168602"
				type="test-case"
				rid="8eb0da46dec1e64"
				totalerrorcount="1"
				totalwarningcount="0"
				totalsuccesstestcasecount="0"
				totalfailedtestcasecount="1"
				totalblockedtestcasecount="0"
				childsuccesscount="5"
				childfailedcount="1"
				childblockedcount="0"
				totalsuccesscount="0"
				totalfailedcount="1"
				totalblockedcount="0"
				totalmaintenancemodecount="0"
				testcontainername="Madaket_XP"
				testcontainerid="2b1c309f-44ad-4542-9e87-47b21dcdd499"
				headertext="Madaket_XP"
				displayName="Madaket_XP"
				iteration="1"
				activity-exectype="execute"
				conditionstate="none">
				<activity
					result="Success"
					duration="10.7s"
					durationms="10703"
					type="test-module"
					rid="f8ce8bbfe8c94e0"
					totalerrorcount="0"
					totalwarningcount="0"
					totalsuccesstestcasecount="0"
					totalfailedtestcasecount="0"
					totalblockedtestcasecount="0"
					childsuccesscount="0"
					childfailedcount="0"
					childblockedcount="0"
					totalsuccesscount="0"
					totalfailedcount="0"
					totalblockedcount="0"
					totalmaintenancemodecount="0"
					modulename="Madaket_login"
					displayName="Madaket_login"
					moduleid="7047a381-6113-4a38-ab95-4ef2d01b9d0f"
					moduletype="Recording"
					iteration="1"
					activity-exectype="execute"
					testentry-activity-type="testmodule">
					<varbindings>
					</varbindings>
					<item
						timeRelativeToTestSuiteStartTime="00:00.386"
						timeRelativeToTestModuleStartTime="00:00.031"
						timeWallClock="16:17:59"
						time="00:00.386"
						level="Info"
						category="Website">
						<message>
							Opening web site 'https://edi-alpha.madakethealth.com/services/logout' with browser 'IE' in normal mode.
						</message>
						<metainfo
							itemindex="0"
							codefile="c:\Users\JohnPloumis\Documents\Ranorex\RanorexStudio Projects\madaket_XP001\madaket_XP001\Madaket_login.cs"
							codeline="82"
							loglvl="Info">
						</metainfo>
					</item>
					<item
						timeRelativeToTestSuiteStartTime="00:01.725"
						timeRelativeToTestModuleStartTime="00:01.370"
						timeWallClock="16:18:00"
						time="00:01.725"
						level="Info"
						category="Mouse">
						<message>
							Mouse Left Click item 'MadaketHealth.txtUsername' at 34;8.
						</message>
						<metainfo
							type="repoitem"
							path="/dom[@caption='Madaket Health']//input[#'username']"
							itempath=".//input[#'username']"
							fullname="madaket_XP001Repository.MadaketHealth.txtUsername"
							id="ad40a45ba47543068e211d52f3633bf0"
							timeout="60000"
							codefile="c:\Users\JohnPloumis\Documents\Ranorex\RanorexStudio Projects\madaket_XP001\madaket_XP001\Madaket_login.cs"
							codeline="85"
							itemindex="1"
							loglvl="Info">
						</metainfo>
					</item>
					<item
						timeRelativeToTestSuiteStartTime="00:07.498"
						timeRelativeToTestModuleStartTime="00:07.142"
						timeWallClock="16:18:06"
						time="00:07.498"
						level="Info"
						category="Keyboard">
						<message>
							Key sequence 'jploumis{LShiftKey down}{@ down}{LShiftKey up}madakethealth.com{Tab}' with focus on 'MadaketHealth.txtUsername'.
						</message>
						<metainfo
							type="repoitem"
							path="/dom[@caption='Madaket Health']//input[#'username']"
							itempath=".//input[#'username']"
							fullname="madaket_XP001Repository.MadaketHealth.txtUsername"
							id="ad40a45ba47543068e211d52f3633bf0"
							timeout="60000"
							codefile="c:\Users\JohnPloumis\Documents\Ranorex\RanorexStudio Projects\madaket_XP001\madaket_XP001\Madaket_login.cs"
							codeline="88"
							itemindex="2"
							loglvl="Info">
						</metainfo>
					</item>
					<item
						timeRelativeToTestSuiteStartTime="00:09.176"
						timeRelativeToTestModuleStartTime="00:08.821"
						timeWallClock="16:18:08"
						time="00:09.176"
						level="Info"
						category="Keyboard">
						<message>
							Key sequence 'Monkey1213{LShiftKey down}{! down}{LShiftKey up}'.
						</message>
						<metainfo
							itemindex="3"
							codefile="c:\Users\JohnPloumis\Documents\Ranorex\RanorexStudio Projects\madaket_XP001\madaket_XP001\Madaket_login.cs"
							codeline="91"
							loglvl="Info">
						</metainfo>
					</item>
					<item
						timeRelativeToTestSuiteStartTime="00:09.645"
						timeRelativeToTestModuleStartTime="00:09.289"
						timeWallClock="16:18:08"
						time="00:09.645"
						level="Info"
						category="Validation">
						<message>
							Validating Exists on item 'MadaketHealth.btnLogin'.
						</message>
						<metainfo
							type="repoitem"
							path="/dom[@caption='Madaket Health']//input[#'loginButton']"
							itempath=".//input[#'loginButton']"
							fullname="madaket_XP001Repository.MadaketHealth.btnLogin"
							id="29776b9350984c58bf5308f720d7bca4"
							timeout="60000"
							codefile="c:\Users\JohnPloumis\Documents\Ranorex\RanorexStudio Projects\madaket_XP001\madaket_XP001\Madaket_login.cs"
							codeline="94"
							itemindex="4"
							loglvl="Info">
						</metainfo>
					</item>
					<item
						timeRelativeToTestSuiteStartTime="00:10.066"
						timeRelativeToTestModuleStartTime="00:09.711"
						timeWallClock="16:18:09"
						time="00:10.066"
						level="Success"
						category="Validation">
						<message>
							Element for item 'btnLogin' does exist.
						</message>
						<metainfo
							type="repoitem"
							path="/dom[@caption='Madaket Health']//input[#'loginButton']"
							itempath=".//input[#'loginButton']"
							fullname="madaket_XP001Repository.MadaketHealth.btnLogin"
							id="29776b9350984c58bf5308f720d7bca4"
							timeout="60000"
							codefile="c:\Users\JohnPloumis\Documents\Ranorex\RanorexStudio Projects\madaket_XP001\madaket_XP001\Madaket_login.cs"
							codeline="95"
							loglvl="Success"
							itemindex="4">
						</metainfo>
					</item>
					<item
						timeRelativeToTestSuiteStartTime="00:10.113"
						timeRelativeToTestModuleStartTime="00:09.757"
						timeWallClock="16:18:09"
						time="00:10.113"
						level="Info"
						category="Mouse">
						<message>
							Mouse Left Click item 'MadaketHealth.btnLogin' at 62;12.
						</message>
						<metainfo
							type="repoitem"
							path="/dom[@caption='Madaket Health']//input[#'loginButton']"
							itempath=".//input[#'loginButton']"
							fullname="madaket_XP001Repository.MadaketHealth.btnLogin"
							id="29776b9350984c58bf5308f720d7bca4"
							timeout="60000"
							codefile="c:\Users\JohnPloumis\Documents\Ranorex\RanorexStudio Projects\madaket_XP001\madaket_XP001\Madaket_login.cs"
							codeline="97"
							itemindex="5"
							loglvl="Info">
						</metainfo>
					</item>
				</activity>
				<activity
					result="Success"
					duration="11.11s"
					durationms="11108"
					type="test-module"
					rid="14432ba7629a5aa0"
					totalerrorcount="0"
					totalwarningcount="0"
					totalsuccesstestcasecount="0"
					totalfailedtestcasecount="0"
					totalblockedtestcasecount="0"
					childsuccesscount="0"
					childfailedcount="0"
					childblockedcount="0"
					totalsuccesscount="0"
					totalfailedcount="0"
					totalblockedcount="0"
					totalmaintenancemodecount="0"
					modulename="New_Payer_NoData"
					displayName="New_Payer_NoData"
					moduleid="c2c3f592-c70a-4a42-9f69-8f7f27722dc4"
					moduletype="Recording"
					iteration="1"
					activity-exectype="execute"
					testentry-activity-type="testmodule">
					<detail>
						MH-2218
					</detail>
					<varbindings>
					</varbindings>
					<item
						timeRelativeToTestSuiteStartTime="00:11.066"
						timeRelativeToTestModuleStartTime="00:00.000"
						timeWallClock="16:18:10"
						time="00:11.066"
						level="Info"
						category="Mouse">
						<message>
							Mouse Left Click item 'MadaketHealth.DivTagPayers' at 16;21.
						</message>
						<metainfo
							type="repoitem"
							path="/dom[@caption='Madaket Health']//nav[#'mainNav']/ul//div[@innertext='Payers']"
							itempath=".//nav[#'mainNav']/ul//div[@innertext='Payers']"
							fullname="madaket_XP001Repository.MadaketHealth.DivTagPayers"
							id="29cc9e25aab349529ce160a3bd60a2f5"
							timeout="60000"
							codefile="c:\Users\JohnPloumis\Documents\Ranorex\RanorexStudio Projects\madaket_XP001\madaket_XP001\New_Payer_NoData.cs"
							codeline="82"
							itemindex="0"
							loglvl="Info">
						</metainfo>
					</item>
					<item
						timeRelativeToTestSuiteStartTime="00:15.882"
						timeRelativeToTestModuleStartTime="00:04.816"
						timeWallClock="16:18:15"
						time="00:15.882"
						level="Info"
						category="Mouse">
						<message>
							Mouse Left Click item 'MadaketHealth.linkNewPayer' at 46;12.
						</message>
						<metainfo
							type="repoitem"
							path="/dom[@caption='Madaket Health']//a[#'payorClick']"
							itempath=".//a[#'payorClick']"
							fullname="madaket_XP001Repository.MadaketHealth.linkNewPayer"
							id="0e40999c158242618af66e1af1edf093"
							timeout="60000"
							codefile="c:\Users\JohnPloumis\Documents\Ranorex\RanorexStudio Projects\madaket_XP001\madaket_XP001\New_Payer_NoData.cs"
							codeline="85"
							itemindex="1"
							loglvl="Info">
						</metainfo>
					</item>
					<item
						timeRelativeToTestSuiteStartTime="00:17.212"
						timeRelativeToTestModuleStartTime="00:06.146"
						timeWallClock="16:18:16"
						time="00:17.212"
						level="Info"
						category="Mouse">
						<message>
							Mouse Left Click item 'MadaketHealth.PopupScrollContainer' at 544;386.
						</message>
						<metainfo
							type="repoitem"
							path="/dom[@caption='Madaket Health']//div[#'editPayorPopup']/div[2]"
							itempath=".//div[#'editPayorPopup']/div[2]"
							fullname="madaket_XP001Repository.MadaketHealth.PopupScrollContainer"
							id="f53c44ed5bb14893839e2b7cdc4d3ef7"
							timeout="60000"
							codefile="c:\Users\JohnPloumis\Documents\Ranorex\RanorexStudio Projects\madaket_XP001\madaket_XP001\New_Payer_NoData.cs"
							codeline="88"
							itemindex="2"
							loglvl="Info">
						</metainfo>
					</item>
					<item
						timeRelativeToTestSuiteStartTime="00:18.353"
						timeRelativeToTestModuleStartTime="00:07.286"
						timeWallClock="16:18:17"
						time="00:18.353"
						level="Info"
						category="Mouse">
						<message>
							Mouse Left Click item 'MadaketHealth.PopupScrollContainer' at 544;386.
						</message>
						<metainfo
							type="repoitem"
							path="/dom[@caption='Madaket Health']//div[#'editPayorPopup']/div[2]"
							itempath=".//div[#'editPayorPopup']/div[2]"
							fullname="madaket_XP001Repository.MadaketHealth.PopupScrollContainer"
							id="f53c44ed5bb14893839e2b7cdc4d3ef7"
							timeout="60000"
							codefile="c:\Users\JohnPloumis\Documents\Ranorex\RanorexStudio Projects\madaket_XP001\madaket_XP001\New_Payer_NoData.cs"
							codeline="91"
							itemindex="3"
							loglvl="Info">
						</metainfo>
					</item>
					<item
						timeRelativeToTestSuiteStartTime="00:19.274"
						timeRelativeToTestModuleStartTime="00:08.208"
						timeWallClock="16:18:18"
						time="00:19.274"
						level="Info"
						category="Mouse">
						<message>
							Mouse Left Click item 'MadaketHealth.btnSavePayor' at 71;7.
						</message>
						<metainfo
							type="repoitem"
							path="/dom[@caption='Madaket Health']//button[#'savePayorButton']"
							itempath=".//button[#'savePayorButton']"
							fullname="madaket_XP001Repository.MadaketHealth.btnSavePayor"
							id="ab96c6bd2749404d82d6f94d5830ab20"
							timeout="60000"
							codefile="c:\Users\JohnPloumis\Documents\Ranorex\RanorexStudio Projects\madaket_XP001\madaket_XP001\New_Payer_NoData.cs"
							codeline="94"
							itemindex="4"
							loglvl="Info">
						</metainfo>
					</item>
					<item
						timeRelativeToTestSuiteStartTime="00:20.213"
						timeRelativeToTestModuleStartTime="00:09.146"
						timeWallClock="16:18:19"
						time="00:20.213"
						level="Info"
						category="Mouse">
						<message>
							Mouse Left Click item 'MadaketHealth.errMsgPleaseEnterPayerName' at 89;11.
						</message>
						<metainfo
							type="repoitem"
							path="/dom[@caption='Madaket Health']//form[#'payorGeneralForm']/div[1]//label[@innertext='Please enter payer name']"
							itempath=".//form[#'payorGeneralForm']/div[1]//label[@innertext='Please enter payer name']"
							fullname="madaket_XP001Repository.MadaketHealth.errMsgPleaseEnterPayerName"
							id="4e8fcb6b94fa4fdfaa37a0b3a3c6c8d4"
							timeout="60000"
							codefile="c:\Users\JohnPloumis\Documents\Ranorex\RanorexStudio Projects\madaket_XP001\madaket_XP001\New_Payer_NoData.cs"
							codeline="97"
							itemindex="5"
							loglvl="Info">
						</metainfo>
					</item>
					<item
						timeRelativeToTestSuiteStartTime="00:21.262"
						timeRelativeToTestModuleStartTime="00:10.195"
						timeWallClock="16:18:20"
						time="00:21.262"
						level="Info"
						category="Mouse">
						<message>
							Mouse Left Click item 'MadaketHealth.HttpsTestMadakethealthComServices' at 18;22.
						</message>
						<metainfo
							type="repoitem"
							path="/dom[@caption='Madaket Health']//div[#'editPayorPopup']/a[@href~'^https://edi-alpha\.madaket']"
							itempath=".//div[#'editPayorPopup']/a[@href~'^https://edi-alpha\.madaket']"
							fullname="madaket_XP001Repository.MadaketHealth.HttpsTestMadakethealthComServices"
							id="ba73c9ad44884b9eb242b07457d62a68"
							timeout="60000"
							codefile="c:\Users\JohnPloumis\Documents\Ranorex\RanorexStudio Projects\madaket_XP001\madaket_XP001\New_Payer_NoData.cs"
							codeline="100"
							itemindex="6"
							loglvl="Info">
						</metainfo>
					</item>
				</activity>
				<activity
					result="Success"
					duration="25.93s"
					durationms="25926"
					type="test-module"
					rid="156caf1898648c3"
					totalerrorcount="0"
					totalwarningcount="0"
					totalsuccesstestcasecount="0"
					totalfailedtestcasecount="0"
					totalblockedtestcasecount="0"
					childsuccesscount="0"
					childfailedcount="0"
					childblockedcount="0"
					totalsuccesscount="0"
					totalfailedcount="0"
					totalblockedcount="0"
					totalmaintenancemodecount="0"
					modulename="New_Payer_ValidData"
					displayName="New_Payer_ValidData"
					moduleid="a2d47517-0a0b-47f5-b141-691f6f0b3abc"
					moduletype="Recording"
					iteration="1"
					activity-exectype="execute"
					testentry-activity-type="testmodule">
					<detail>
						MH-2218
					</detail>
					<varbindings>
					</varbindings>
					<item
						timeRelativeToTestSuiteStartTime="00:22.184"
						timeRelativeToTestModuleStartTime="00:00.008"
						timeWallClock="16:18:21"
						time="00:22.184"
						level="Info"
						category="Mouse">
						<message>
							Mouse Left Click item 'MadaketHealth.DivTagPayers' at 16;20.
						</message>
						<metainfo
							type="repoitem"
							path="/dom[@caption='Madaket Health']//nav[#'mainNav']/ul//div[@innertext='Payers']"
							itempath=".//nav[#'mainNav']/ul//div[@innertext='Payers']"
							fullname="madaket_XP001Repository.MadaketHealth.DivTagPayers"
							id="29cc9e25aab349529ce160a3bd60a2f5"
							timeout="60000"
							codefile="c:\Users\JohnPloumis\Documents\Ranorex\RanorexStudio Projects\madaket_XP001\madaket_XP001\New_Payer_ValidData.cs"
							codeline="82"
							itemindex="0"
							loglvl="Info">
						</metainfo>
					</item>
					<item
						timeRelativeToTestSuiteStartTime="00:23.687"
						timeRelativeToTestModuleStartTime="00:01.511"
						timeWallClock="16:18:22"
						time="00:23.687"
						level="Info"
						category="Mouse">
						<message>
							Mouse Left Click item 'MadaketHealth.linkNewPayer' at 34;13.
						</message>
						<metainfo
							type="repoitem"
							path="/dom[@caption='Madaket Health']//a[#'payorClick']"
							itempath=".//a[#'payorClick']"
							fullname="madaket_XP001Repository.MadaketHealth.linkNewPayer"
							id="0e40999c158242618af66e1af1edf093"
							timeout="60000"
							codefile="c:\Users\JohnPloumis\Documents\Ranorex\RanorexStudio Projects\madaket_XP001\madaket_XP001\New_Payer_ValidData.cs"
							codeline="85"
							itemindex="1"
							loglvl="Info">
						</metainfo>
					</item>
					<item
						timeRelativeToTestSuiteStartTime="00:24.949"
						timeRelativeToTestModuleStartTime="00:02.772"
						timeWallClock="16:18:24"
						time="00:24.949"
						level="Info"
						category="Mouse">
						<message>
							Mouse Left Click item 'MadaketHealth.PayorName' at 258;15.
						</message>
						<metainfo
							type="repoitem"
							path="/dom[@caption='Madaket Health']//input[#'payorName']"
							itempath=".//input[#'payorName']"
							fullname="madaket_XP001Repository.MadaketHealth.PayorName"
							id="c60f64d457204be3b0c571ec0261f3c7"
							timeout="60000"
							codefile="c:\Users\JohnPloumis\Documents\Ranorex\RanorexStudio Projects\madaket_XP001\madaket_XP001\New_Payer_ValidData.cs"
							codeline="88"
							itemindex="2"
							loglvl="Info">
						</metainfo>
					</item>
					<item
						timeRelativeToTestSuiteStartTime="00:26.048"
						timeRelativeToTestModuleStartTime="00:03.871"
						timeWallClock="16:18:25"
						time="00:26.048"
						level="Info"
						category="Set value">
						<message>
							Setting attribute Value to 'test_payer_automation_XP001' on item 'MadaketHealth.PayorName'.
						</message>
						<metainfo
							type="repoitem"
							path="/dom[@caption='Madaket Health']//input[#'payorName']"
							itempath=".//input[#'payorName']"
							fullname="madaket_XP001Repository.MadaketHealth.PayorName"
							id="c60f64d457204be3b0c571ec0261f3c7"
							timeout="60000"
							codefile="c:\Users\JohnPloumis\Documents\Ranorex\RanorexStudio Projects\madaket_XP001\madaket_XP001\New_Payer_ValidData.cs"
							codeline="91"
							itemindex="3"
							loglvl="Info">
						</metainfo>
					</item>
					<item
						timeRelativeToTestSuiteStartTime="00:26.470"
						timeRelativeToTestModuleStartTime="00:04.293"
						timeWallClock="16:18:25"
						time="00:26.470"
						level="Info"
						category="Delay">
						<message>
							Waiting for 500ms.
						</message>
						<metainfo
							itemindex="4"
							codefile="c:\Users\JohnPloumis\Documents\Ranorex\RanorexStudio Projects\madaket_XP001\madaket_XP001\New_Payer_ValidData.cs"
							codeline="94"
							loglvl="Info">
						</metainfo>
					</item>
					<item
						timeRelativeToTestSuiteStartTime="00:27.017"
						timeRelativeToTestModuleStartTime="00:04.840"
						timeWallClock="16:18:26"
						time="00:27.017"
						level="Info"
						category="Invoke action">
						<message>
							Invoking Focus() on item 'MadaketHealth.PopupScrollContainer'.
						</message>
						<metainfo
							type="repoitem"
							path="/dom[@caption='Madaket Health']//div[#'editPayorPopup']/div[2]"
							itempath=".//div[#'editPayorPopup']/div[2]"
							fullname="madaket_XP001Repository.MadaketHealth.PopupScrollContainer"
							id="f53c44ed5bb14893839e2b7cdc4d3ef7"
							timeout="60000"
							codefile="c:\Users\JohnPloumis\Documents\Ranorex\RanorexStudio Projects\madaket_XP001\madaket_XP001\New_Payer_ValidData.cs"
							codeline="97"
							itemindex="5"
							loglvl="Info">
						</metainfo>
					</item>
					<item
						timeRelativeToTestSuiteStartTime="00:27.607"
						timeRelativeToTestModuleStartTime="00:05.430"
						timeWallClock="16:18:26"
						time="00:27.607"
						level="Info"
						category="Mouse">
						<message>
							Mouse Left Click item 'MadaketHealth.PopupScrollContainer' at 544;361.
						</message>
						<metainfo
							type="repoitem"
							path="/dom[@caption='Madaket Health']//div[#'editPayorPopup']/div[2]"
							itempath=".//div[#'editPayorPopup']/div[2]"
							fullname="madaket_XP001Repository.MadaketHealth.PopupScrollContainer"
							id="f53c44ed5bb14893839e2b7cdc4d3ef7"
							timeout="60000"
							codefile="c:\Users\JohnPloumis\Documents\Ranorex\RanorexStudio Projects\madaket_XP001\madaket_XP001\New_Payer_ValidData.cs"
							codeline="100"
							itemindex="6"
							loglvl="Info">
						</metainfo>
					</item>
					<item
						timeRelativeToTestSuiteStartTime="00:28.543"
						timeRelativeToTestModuleStartTime="00:06.366"
						timeWallClock="16:18:27"
						time="00:28.543"
						level="Info"
						category="Mouse">
						<message>
							Mouse Left Click item 'MadaketHealth.TxtStreet1' at 193;13.
						</message>
						<metainfo
							type="repoitem"
							path="/dom[@caption='Madaket Health']//input[#'txt_street1']"
							itempath=".//input[#'txt_street1']"
							fullname="madaket_XP001Repository.MadaketHealth.TxtStreet1"
							id="140f920df0e2418ca6177c3fcaa08df8"
							timeout="60000"
							codefile="c:\Users\JohnPloumis\Documents\Ranorex\RanorexStudio Projects\madaket_XP001\madaket_XP001\New_Payer_ValidData.cs"
							codeline="103"
							itemindex="7"
							loglvl="Info">
						</metainfo>
					</item>
					<item
						timeRelativeToTestSuiteStartTime="00:29.566"
						timeRelativeToTestModuleStartTime="00:07.390"
						timeWallClock="16:18:28"
						time="00:29.566"
						level="Info"
						category="Keyboard">
						<message>
							Key sequence '101' with focus on 'MadaketHealth.TxtStreet1'.
						</message>
						<metainfo
							type="repoitem"
							path="/dom[@caption='Madaket Health']//input[#'txt_street1']"
							itempath=".//input[#'txt_street1']"
							fullname="madaket_XP001Repository.MadaketHealth.TxtStreet1"
							id="140f920df0e2418ca6177c3fcaa08df8"
							timeout="60000"
							codefile="c:\Users\JohnPloumis\Documents\Ranorex\RanorexStudio Projects\madaket_XP001\madaket_XP001\New_Payer_ValidData.cs"
							codeline="106"
							itemindex="8"
							loglvl="Info">
						</metainfo>
					</item>
					<item
						timeRelativeToTestSuiteStartTime="00:30.567"
						timeRelativeToTestModuleStartTime="00:08.390"
						timeWallClock="16:18:29"
						time="00:30.567"
						level="Info"
						category="Keyboard">
						<message>
							Key sequence ' ' with focus on 'MadaketHealth.TxtStreet1'.
						</message>
						<metainfo
							type="repoitem"
							path="/dom[@caption='Madaket Health']//input[#'txt_street1']"
							itempath=".//input[#'txt_street1']"
							fullname="madaket_XP001Repository.MadaketHealth.TxtStreet1"
							id="140f920df0e2418ca6177c3fcaa08df8"
							timeout="60000"
							codefile="c:\Users\JohnPloumis\Documents\Ranorex\RanorexStudio Projects\madaket_XP001\madaket_XP001\New_Payer_ValidData.cs"
							codeline="109"
							itemindex="9"
							loglvl="Info">
						</metainfo>
					</item>
					<item
						timeRelativeToTestSuiteStartTime="00:31.537"
						timeRelativeToTestModuleStartTime="00:09.360"
						timeWallClock="16:18:30"
						time="00:31.537"
						level="Info"
						category="Keyboard">
						<message>
							Key sequence 'main' with focus on 'MadaketHealth.TxtStreet1'.
						</message>
						<metainfo
							type="repoitem"
							path="/dom[@caption='Madaket Health']//input[#'txt_street1']"
							itempath=".//input[#'txt_street1']"
							fullname="madaket_XP001Repository.MadaketHealth.TxtStreet1"
							id="140f920df0e2418ca6177c3fcaa08df8"
							timeout="60000"
							codefile="c:\Users\JohnPloumis\Documents\Ranorex\RanorexStudio Projects\madaket_XP001\madaket_XP001\New_Payer_ValidData.cs"
							codeline="112"
							itemindex="10"
							loglvl="Info">
						</metainfo>
					</item>
					<item
						timeRelativeToTestSuiteStartTime="00:32.615"
						timeRelativeToTestModuleStartTime="00:10.438"
						timeWallClock="16:18:31"
						time="00:32.615"
						level="Info"
						category="Keyboard">
						<message>
							Key sequence ' street' with focus on 'MadaketHealth.TxtStreet1'.
						</message>
						<metainfo
							type="repoitem"
							path="/dom[@caption='Madaket Health']//input[#'txt_street1']"
							itempath=".//input[#'txt_street1']"
							fullname="madaket_XP001Repository.MadaketHealth.TxtStreet1"
							id="140f920df0e2418ca6177c3fcaa08df8"
							timeout="60000"
							codefile="c:\Users\JohnPloumis\Documents\Ranorex\RanorexStudio Projects\madaket_XP001\madaket_XP001\New_Payer_ValidData.cs"
							codeline="115"
							itemindex="11"
							loglvl="Info">
						</metainfo>
					</item>
					<item
						timeRelativeToTestSuiteStartTime="00:33.742"
						timeRelativeToTestModuleStartTime="00:11.565"
						timeWallClock="16:18:32"
						time="00:33.742"
						level="Info"
						category="Mouse">
						<message>
							Mouse Left Click item 'MadaketHealth.TxtCity' at 130;7.
						</message>
						<metainfo
							type="repoitem"
							path="/dom[@caption='Madaket Health']//input[#'txt_city']"
							itempath=".//input[#'txt_city']"
							fullname="madaket_XP001Repository.MadaketHealth.TxtCity"
							id="275ef8ae16904ae689a4001c02a10d08"
							timeout="60000"
							codefile="c:\Users\JohnPloumis\Documents\Ranorex\RanorexStudio Projects\madaket_XP001\madaket_XP001\New_Payer_ValidData.cs"
							codeline="118"
							itemindex="12"
							loglvl="Info">
						</metainfo>
					</item>
					<item
						timeRelativeToTestSuiteStartTime="00:34.711"
						timeRelativeToTestModuleStartTime="00:12.534"
						timeWallClock="16:18:33"
						time="00:34.711"
						level="Info"
						category="Keyboard">
						<message>
							Key sequence 'waltham' with focus on 'MadaketHealth.TxtCity'.
						</message>
						<metainfo
							type="repoitem"
							path="/dom[@caption='Madaket Health']//input[#'txt_city']"
							itempath=".//input[#'txt_city']"
							fullname="madaket_XP001Repository.MadaketHealth.TxtCity"
							id="275ef8ae16904ae689a4001c02a10d08"
							timeout="60000"
							codefile="c:\Users\JohnPloumis\Documents\Ranorex\RanorexStudio Projects\madaket_XP001\madaket_XP001\New_Payer_ValidData.cs"
							codeline="121"
							itemindex="13"
							loglvl="Info">
						</metainfo>
					</item>
					<item
						timeRelativeToTestSuiteStartTime="00:35.822"
						timeRelativeToTestModuleStartTime="00:13.645"
						timeWallClock="16:18:35"
						time="00:35.822"
						level="Info"
						category="Set value">
						<message>
							Setting attribute TagValue to 'MA' on item 'MadaketHealth.TxtState'.
						</message>
						<metainfo
							type="repoitem"
							path="/dom[@caption='Madaket Health']//select[#'txt_state']"
							itempath=".//select[#'txt_state']"
							fullname="madaket_XP001Repository.MadaketHealth.TxtState"
							id="ebe2033877a44d918170bb47fee05430"
							timeout="60000"
							codefile="c:\Users\JohnPloumis\Documents\Ranorex\RanorexStudio Projects\madaket_XP001\madaket_XP001\New_Payer_ValidData.cs"
							codeline="124"
							itemindex="14"
							loglvl="Info">
						</metainfo>
					</item>
					<item
						timeRelativeToTestSuiteStartTime="00:36.291"
						timeRelativeToTestModuleStartTime="00:14.115"
						timeWallClock="16:18:35"
						time="00:36.291"
						level="Info"
						category="Mouse">
						<message>
							Mouse Left Click item 'MadaketHealth.PopupScrollContainer' at 548;376.
						</message>
						<metainfo
							type="repoitem"
							path="/dom[@caption='Madaket Health']//div[#'editPayorPopup']/div[2]"
							itempath=".//div[#'editPayorPopup']/div[2]"
							fullname="madaket_XP001Repository.MadaketHealth.PopupScrollContainer"
							id="f53c44ed5bb14893839e2b7cdc4d3ef7"
							timeout="60000"
							codefile="c:\Users\JohnPloumis\Documents\Ranorex\RanorexStudio Projects\madaket_XP001\madaket_XP001\New_Payer_ValidData.cs"
							codeline="127"
							itemindex="15"
							loglvl="Info">
						</metainfo>
					</item>
					<item
						timeRelativeToTestSuiteStartTime="00:37.204"
						timeRelativeToTestModuleStartTime="00:15.027"
						timeWallClock="16:18:36"
						time="00:37.204"
						level="Info"
						category="Mouse">
						<message>
							Mouse Left Click item 'MadaketHealth.FirstName' at 146;8.
						</message>
						<metainfo
							type="repoitem"
							path="/dom[@caption='Madaket Health']//input[#'firstName']"
							itempath=".//input[#'firstName']"
							fullname="madaket_XP001Repository.MadaketHealth.FirstName"
							id="d3da3f164ae640b5b1e62605679d50af"
							timeout="60000"
							codefile="c:\Users\JohnPloumis\Documents\Ranorex\RanorexStudio Projects\madaket_XP001\madaket_XP001\New_Payer_ValidData.cs"
							codeline="130"
							itemindex="16"
							loglvl="Info">
						</metainfo>
					</item>
					<item
						timeRelativeToTestSuiteStartTime="00:38.261"
						timeRelativeToTestModuleStartTime="00:16.085"
						timeWallClock="16:18:37"
						time="00:38.261"
						level="Info"
						category="Keyboard">
						<message>
							Key sequence 'test{Tab}payer' with focus on 'MadaketHealth.FirstName'.
						</message>
						<metainfo
							type="repoitem"
							path="/dom[@caption='Madaket Health']//input[#'firstName']"
							itempath=".//input[#'firstName']"
							fullname="madaket_XP001Repository.MadaketHealth.FirstName"
							id="d3da3f164ae640b5b1e62605679d50af"
							timeout="60000"
							codefile="c:\Users\JohnPloumis\Documents\Ranorex\RanorexStudio Projects\madaket_XP001\madaket_XP001\New_Payer_ValidData.cs"
							codeline="133"
							itemindex="17"
							loglvl="Info">
						</metainfo>
					</item>
					<item
						timeRelativeToTestSuiteStartTime="00:39.462"
						timeRelativeToTestModuleStartTime="00:17.285"
						timeWallClock="16:18:38"
						time="00:39.462"
						level="Info"
						category="Keyboard">
						<message>
							Key sequence '{Tab}'.
						</message>
						<metainfo
							itemindex="18"
							codefile="c:\Users\JohnPloumis\Documents\Ranorex\RanorexStudio Projects\madaket_XP001\madaket_XP001\New_Payer_ValidData.cs"
							codeline="136"
							loglvl="Info">
						</metainfo>
					</item>
					<item
						timeRelativeToTestSuiteStartTime="00:39.673"
						timeRelativeToTestModuleStartTime="00:17.496"
						timeWallClock="16:18:38"
						time="00:39.673"
						level="Info"
						category="Keyboard">
						<message>
							Key sequence 'test.payer{LShiftKey down}{@ down}{LShiftKey up}payer.com'.
						</message>
						<metainfo
							itemindex="19"
							codefile="c:\Users\JohnPloumis\Documents\Ranorex\RanorexStudio Projects\madaket_XP001\madaket_XP001\New_Payer_ValidData.cs"
							codeline="139"
							loglvl="Info">
						</metainfo>
					</item>
					<item
						timeRelativeToTestSuiteStartTime="00:40.431"
						timeRelativeToTestModuleStartTime="00:18.255"
						timeWallClock="16:18:39"
						time="00:40.431"
						level="Info"
						category="Mouse">
						<message>
							Mouse Left Click item 'MadaketHealth.btnSavePayor' at 50;9.
						</message>
						<metainfo
							type="repoitem"
							path="/dom[@caption='Madaket Health']//button[#'savePayorButton']"
							itempath=".//button[#'savePayorButton']"
							fullname="madaket_XP001Repository.MadaketHealth.btnSavePayor"
							id="ab96c6bd2749404d82d6f94d5830ab20"
							timeout="60000"
							codefile="c:\Users\JohnPloumis\Documents\Ranorex\RanorexStudio Projects\madaket_XP001\madaket_XP001\New_Payer_ValidData.cs"
							codeline="142"
							itemindex="20"
							loglvl="Info">
						</metainfo>
					</item>
					<item
						timeRelativeToTestSuiteStartTime="00:41.404"
						timeRelativeToTestModuleStartTime="00:19.228"
						timeWallClock="16:18:40"
						time="00:41.404"
						level="Info"
						category="Mouse">
						<message>
							Mouse Left Click item 'MadaketHealth.PayerGeneralDetailsDiv.DivTagTestPayerAutomationXP0' at 96;9.
						</message>
						<metainfo
							type="repoitem"
							path="/dom[@caption='Madaket Health']//div[#'payerGeneralDetailsDiv']//div[@innertext~'^test_payer_autom']"
							itempath=".//div[@innertext~'^test_payer_autom']"
							fullname="madaket_XP001Repository.MadaketHealth.PayerGeneralDetailsDiv.DivTagTestPayerAutomationXP0"
							id="0e44183f677548639bb83854085d8ec1"
							timeout="90000"
							codefile="c:\Users\JohnPloumis\Documents\Ranorex\RanorexStudio Projects\madaket_XP001\madaket_XP001\New_Payer_ValidData.cs"
							codeline="145"
							itemindex="21"
							loglvl="Info">
						</metainfo>
					</item>
					<item
						timeRelativeToTestSuiteStartTime="00:43.235"
						timeRelativeToTestModuleStartTime="00:21.058"
						timeWallClock="16:18:42"
						time="00:43.235"
						level="Info"
						category="Mouse">
						<message>
							Mouse Left Click item 'MadaketHealth.PayerGeneralDetailsDiv.PayerName' at 39;12.
						</message>
						<metainfo
							type="repoitem"
							path="/dom[@caption='Madaket Health']//div[#'payerGeneralDetailsDiv']/div[2]/div[1]/?/?/strong[@innertext='Payer name:']"
							itempath="div[2]/div[1]/?/?/strong[@innertext='Payer name:']"
							fullname="madaket_XP001Repository.MadaketHealth.PayerGeneralDetailsDiv.PayerName"
							id="761d8abaef054dda9ba0c9e8b5cb4084"
							timeout="90000"
							codefile="c:\Users\JohnPloumis\Documents\Ranorex\RanorexStudio Projects\madaket_XP001\madaket_XP001\New_Payer_ValidData.cs"
							codeline="148"
							itemindex="22"
							loglvl="Info">
						</metainfo>
					</item>
					<item
						timeRelativeToTestSuiteStartTime="00:44.157"
						timeRelativeToTestModuleStartTime="00:21.981"
						timeWallClock="16:18:43"
						time="00:44.157"
						level="Info"
						category="Mouse">
						<message>
							Mouse Left Click item 'MadaketHealth.PayerGeneralDetailsDiv.Address' at 32;12.
						</message>
						<metainfo
							type="repoitem"
							path="/dom[@caption='Madaket Health']//div[#'payerGeneralDetailsDiv']/div[2]/div[7]/?/?/span[@innertext='Address:']"
							itempath="div[2]/div[7]/?/?/span[@innertext='Address:']"
							fullname="madaket_XP001Repository.MadaketHealth.PayerGeneralDetailsDiv.Address"
							id="14645446fd584bf2a276b1938a1712e1"
							timeout="90000"
							codefile="c:\Users\JohnPloumis\Documents\Ranorex\RanorexStudio Projects\madaket_XP001\madaket_XP001\New_Payer_ValidData.cs"
							codeline="151"
							itemindex="23"
							loglvl="Info">
						</metainfo>
					</item>
					<item
						timeRelativeToTestSuiteStartTime="00:45.113"
						timeRelativeToTestModuleStartTime="00:22.937"
						timeWallClock="16:18:44"
						time="00:45.113"
						level="Info"
						category="Mouse">
						<message>
							Mouse Left Click item 'MadaketHealth.PayerGeneralDetailsDiv.DivTag101MainStreetW' at 35;17.
						</message>
						<metainfo
							type="repoitem"
							path="/dom[@caption='Madaket Health']//div[#'payerGeneralDetailsDiv']//div[@innertext~'^101\ main\ street']"
							itempath=".//div[@innertext~'^101\ main\ street']"
							fullname="madaket_XP001Repository.MadaketHealth.PayerGeneralDetailsDiv.DivTag101MainStreetW"
							id="6c7e3dd9a6004299ba43a1310c11a174"
							timeout="90000"
							codefile="c:\Users\JohnPloumis\Documents\Ranorex\RanorexStudio Projects\madaket_XP001\madaket_XP001\New_Payer_ValidData.cs"
							codeline="154"
							itemindex="24"
							loglvl="Info">
						</metainfo>
					</item>
					<item
						timeRelativeToTestSuiteStartTime="00:46.106"
						timeRelativeToTestModuleStartTime="00:23.929"
						timeWallClock="16:18:45"
						time="00:46.106"
						level="Info"
						category="Mouse">
						<message>
							Mouse Left Click item 'MadaketHealth.PayerGeneralDetailsDiv.Contact' at 32;5.
						</message>
						<metainfo
							type="repoitem"
							path="/dom[@caption='Madaket Health']//div[#'payerGeneralDetailsDiv']/div[2]/div[8]/?/?/span[@innertext='Contact:']"
							itempath="div[2]/div[8]/?/?/span[@innertext='Contact:']"
							fullname="madaket_XP001Repository.MadaketHealth.PayerGeneralDetailsDiv.Contact"
							id="f417a5fe94464a708c34508abc60a181"
							timeout="90000"
							codefile="c:\Users\JohnPloumis\Documents\Ranorex\RanorexStudio Projects\madaket_XP001\madaket_XP001\New_Payer_ValidData.cs"
							codeline="157"
							itemindex="25"
							loglvl="Info">
						</metainfo>
					</item>
					<item
						timeRelativeToTestSuiteStartTime="00:47.067"
						timeRelativeToTestModuleStartTime="00:24.890"
						timeWallClock="16:18:46"
						time="00:47.067"
						level="Info"
						category="Mouse">
						<message>
							Mouse Left Click item 'MadaketHealth.PayerGeneralDetailsDiv.DivTagTestPayerAtpayerCom' at 59;6.
						</message>
						<metainfo
							type="repoitem"
							path="/dom[@caption='Madaket Health']//div[#'payerGeneralDetailsDiv']//div[@innertext~'^test\.payer@payer']"
							itempath=".//div[@innertext~'^test\.payer@payer']"
							fullname="madaket_XP001Repository.MadaketHealth.PayerGeneralDetailsDiv.DivTagTestPayerAtpayerCom"
							id="54203ec5caae40ada0580344cddf82e5"
							timeout="90000"
							codefile="c:\Users\JohnPloumis\Documents\Ranorex\RanorexStudio Projects\madaket_XP001\madaket_XP001\New_Payer_ValidData.cs"
							codeline="160"
							itemindex="26"
							loglvl="Info">
						</metainfo>
					</item>
				</activity>
				<activity
					result="Success"
					duration="21.4s"
					durationms="21396"
					type="test-module"
					rid="1c63dbb4be0d798c"
					totalerrorcount="0"
					totalwarningcount="0"
					totalsuccesstestcasecount="0"
					totalfailedtestcasecount="0"
					totalblockedtestcasecount="0"
					childsuccesscount="0"
					childfailedcount="0"
					childblockedcount="0"
					totalsuccesscount="0"
					totalfailedcount="0"
					totalblockedcount="0"
					totalmaintenancemodecount="0"
					modulename="New_Memebr_ValidData"
					displayName="New_Memebr_ValidData"
					moduleid="a47e2d01-2974-4ebd-bf23-f753f84173e0"
					moduletype="Recording"
					iteration="1"
					activity-exectype="execute"
					testentry-activity-type="testmodule">
					<varbindings>
					</varbindings>
					<item
						timeRelativeToTestSuiteStartTime="00:48.116"
						timeRelativeToTestModuleStartTime="00:00.007"
						timeWallClock="16:18:47"
						time="00:48.116"
						level="Info"
						category="Mouse">
						<message>
							Mouse Left Click item 'MadaketHealth.Members' at 15;16.
						</message>
						<metainfo
							type="repoitem"
							path="/dom[@caption='Madaket Health']//div[#'bodyContent']/?/?/ul/?/?/a[@innertext='Members']"
							itempath=".//div[#'bodyContent']/?/?/ul/?/?/a[@innertext='Members']"
							fullname="madaket_XP001Repository.MadaketHealth.Members"
							id="ced0afd7621342768b5fc8cafc1f82ed"
							timeout="60000"
							codefile="c:\Users\JohnPloumis\Documents\Ranorex\RanorexStudio Projects\madaket_XP001\madaket_XP001\New_Memebr_ValidData.cs"
							codeline="82"
							itemindex="0"
							loglvl="Info">
						</metainfo>
					</item>
					<item
						timeRelativeToTestSuiteStartTime="00:49.960"
						timeRelativeToTestModuleStartTime="00:01.851"
						timeWallClock="16:18:49"
						time="00:49.960"
						level="Info"
						category="Mouse">
						<message>
							Mouse Left Click item 'MadaketHealth.AddPayerMember' at 44;7.
						</message>
						<metainfo
							type="repoitem"
							path="/dom[@caption='Madaket Health']//a[#'addPayerMember']"
							itempath=".//a[#'addPayerMember']"
							fullname="madaket_XP001Repository.MadaketHealth.AddPayerMember"
							id="fff53ee5af2a450c9764be9ad66e8458"
							timeout="60000"
							codefile="c:\Users\JohnPloumis\Documents\Ranorex\RanorexStudio Projects\madaket_XP001\madaket_XP001\New_Memebr_ValidData.cs"
							codeline="86"
							itemindex="1"
							loglvl="Info">
						</metainfo>
					</item>
					<item
						timeRelativeToTestSuiteStartTime="00:51.838"
						timeRelativeToTestModuleStartTime="00:03.729"
						timeWallClock="16:18:51"
						time="00:51.838"
						level="Info"
						category="Mouse">
						<message>
							Mouse Left Click item 'MadaketHealth.FirstName' at 150;8.
						</message>
						<metainfo
							type="repoitem"
							path="/dom[@caption='Madaket Health']//input[#'firstName']"
							itempath=".//input[#'firstName']"
							fullname="madaket_XP001Repository.MadaketHealth.FirstName"
							id="d3da3f164ae640b5b1e62605679d50af"
							timeout="60000"
							codefile="c:\Users\JohnPloumis\Documents\Ranorex\RanorexStudio Projects\madaket_XP001\madaket_XP001\New_Memebr_ValidData.cs"
							codeline="90"
							itemindex="2"
							loglvl="Info">
						</metainfo>
					</item>
					<item
						timeRelativeToTestSuiteStartTime="00:53.447"
						timeRelativeToTestModuleStartTime="00:05.337"
						timeWallClock="16:18:52"
						time="00:53.447"
						level="Info"
						category="Keyboard">
						<message>
							Key sequence 'test' with focus on 'MadaketHealth.FirstName'.
						</message>
						<metainfo
							type="repoitem"
							path="/dom[@caption='Madaket Health']//input[#'firstName']"
							itempath=".//input[#'firstName']"
							fullname="madaket_XP001Repository.MadaketHealth.FirstName"
							id="d3da3f164ae640b5b1e62605679d50af"
							timeout="60000"
							codefile="c:\Users\JohnPloumis\Documents\Ranorex\RanorexStudio Projects\madaket_XP001\madaket_XP001\New_Memebr_ValidData.cs"
							codeline="94"
							itemindex="3"
							loglvl="Info">
						</metainfo>
					</item>
					<item
						timeRelativeToTestSuiteStartTime="00:54.822"
						timeRelativeToTestModuleStartTime="00:06.713"
						timeWallClock="16:18:54"
						time="00:54.822"
						level="Info"
						category="Mouse">
						<message>
							Mouse Left Click item 'MadaketHealth.LastName' at 120;10.
						</message>
						<metainfo
							type="repoitem"
							path="/dom[@caption='Madaket Health']//input[#'lastName']"
							itempath=".//input[#'lastName']"
							fullname="madaket_XP001Repository.MadaketHealth.LastName"
							id="056f64c786c145148a021603e6cc968d"
							timeout="60000"
							codefile="c:\Users\JohnPloumis\Documents\Ranorex\RanorexStudio Projects\madaket_XP001\madaket_XP001\New_Memebr_ValidData.cs"
							codeline="98"
							itemindex="4"
							loglvl="Info">
						</metainfo>
					</item>
					<item
						timeRelativeToTestSuiteStartTime="00:56.339"
						timeRelativeToTestModuleStartTime="00:08.230"
						timeWallClock="16:18:55"
						time="00:56.339"
						level="Info"
						category="Keyboard">
						<message>
							Key sequence 'member{LShiftKey down}_XP{LShiftKey up}001' with focus on 'MadaketHealth.LastName'.
						</message>
						<metainfo
							type="repoitem"
							path="/dom[@caption='Madaket Health']//input[#'lastName']"
							itempath=".//input[#'lastName']"
							fullname="madaket_XP001Repository.MadaketHealth.LastName"
							id="056f64c786c145148a021603e6cc968d"
							timeout="60000"
							codefile="c:\Users\JohnPloumis\Documents\Ranorex\RanorexStudio Projects\madaket_XP001\madaket_XP001\New_Memebr_ValidData.cs"
							codeline="102"
							itemindex="5"
							loglvl="Info">
						</metainfo>
					</item>
					<item
						timeRelativeToTestSuiteStartTime="00:58.605"
						timeRelativeToTestModuleStartTime="00:10.496"
						timeWallClock="16:18:57"
						time="00:58.605"
						level="Info"
						category="Mouse">
						<message>
							Mouse Left Click item 'MadaketHealth.Email' at 109;14.
						</message>
						<metainfo
							type="repoitem"
							path="/dom[@caption='Madaket Health']//input[#'email']"
							itempath=".//input[#'email']"
							fullname="madaket_XP001Repository.MadaketHealth.Email"
							id="a3920f5fc83e40948d79cf6097767a6c"
							timeout="60000"
							codefile="c:\Users\JohnPloumis\Documents\Ranorex\RanorexStudio Projects\madaket_XP001\madaket_XP001\New_Memebr_ValidData.cs"
							codeline="106"
							itemindex="6"
							loglvl="Info">
						</metainfo>
					</item>
					<item
						timeRelativeToTestSuiteStartTime="01:00.074"
						timeRelativeToTestModuleStartTime="00:11.965"
						timeWallClock="16:18:59"
						time="01:00.074"
						level="Info"
						category="Keyboard">
						<message>
							Key sequence 'jploumis+AARP@madakethealth.com{Tab}' with focus on 'MadaketHealth.Email'.
						</message>
						<metainfo
							type="repoitem"
							path="/dom[@caption='Madaket Health']//input[#'email']"
							itempath=".//input[#'email']"
							fullname="madaket_XP001Repository.MadaketHealth.Email"
							id="a3920f5fc83e40948d79cf6097767a6c"
							timeout="60000"
							codefile="c:\Users\JohnPloumis\Documents\Ranorex\RanorexStudio Projects\madaket_XP001\madaket_XP001\New_Memebr_ValidData.cs"
							codeline="110"
							itemindex="7"
							loglvl="Info">
						</metainfo>
					</item>
					<item
						timeRelativeToTestSuiteStartTime="01:04.593"
						timeRelativeToTestModuleStartTime="00:16.484"
						timeWallClock="16:19:03"
						time="01:04.593"
						level="Info"
						category="Keyboard">
						<message>
							Key sequence '5087441234'.
						</message>
						<metainfo
							itemindex="8"
							codefile="c:\Users\JohnPloumis\Documents\Ranorex\RanorexStudio Projects\madaket_XP001\madaket_XP001\New_Memebr_ValidData.cs"
							codeline="114"
							loglvl="Info">
						</metainfo>
					</item>
					<item
						timeRelativeToTestSuiteStartTime="01:05.862"
						timeRelativeToTestModuleStartTime="00:17.753"
						timeWallClock="16:19:05"
						time="01:05.862"
						level="Info"
						category="Mouse">
						<message>
							Mouse Left Click item 'MadaketHealth.AddUserButton' at 75;11.
						</message>
						<metainfo
							type="repoitem"
							path="/dom[@caption='Madaket Health']//button[#'addUserButton']"
							itempath=".//button[#'addUserButton']"
							fullname="madaket_XP001Repository.MadaketHealth.AddUserButton"
							id="a035618750954cc79784608172634160"
							timeout="60000"
							codefile="c:\Users\JohnPloumis\Documents\Ranorex\RanorexStudio Projects\madaket_XP001\madaket_XP001\New_Memebr_ValidData.cs"
							codeline="118"
							itemindex="9"
							loglvl="Info">
						</metainfo>
					</item>
					<item
						timeRelativeToTestSuiteStartTime="01:07.346"
						timeRelativeToTestModuleStartTime="00:19.237"
						timeWallClock="16:19:06"
						time="01:07.346"
						level="Info"
						category="Mouse">
						<message>
							Mouse Left Click item 'MadaketHealth.Members' at 40;19.
						</message>
						<metainfo
							type="repoitem"
							path="/dom[@caption='Madaket Health']//div[#'bodyContent']/?/?/ul/?/?/a[@innertext='Members']"
							itempath=".//div[#'bodyContent']/?/?/ul/?/?/a[@innertext='Members']"
							fullname="madaket_XP001Repository.MadaketHealth.Members"
							id="ced0afd7621342768b5fc8cafc1f82ed"
							timeout="60000"
							codefile="c:\Users\JohnPloumis\Documents\Ranorex\RanorexStudio Projects\madaket_XP001\madaket_XP001\New_Memebr_ValidData.cs"
							codeline="122"
							itemindex="10"
							loglvl="Info">
						</metainfo>
					</item>
				</activity>
				<activity
					result="Success"
					duration="32.24s"
					durationms="32240"
					type="test-module"
					rid="69b02cc922ca600"
					totalerrorcount="0"
					totalwarningcount="0"
					totalsuccesstestcasecount="0"
					totalfailedtestcasecount="0"
					totalblockedtestcasecount="0"
					childsuccesscount="0"
					childfailedcount="0"
					childblockedcount="0"
					totalsuccesscount="0"
					totalfailedcount="0"
					totalblockedcount="0"
					totalmaintenancemodecount="0"
					modulename="New_MedicalGroup_NoData"
					displayName="New_MedicalGroup_NoData"
					moduleid="9cf3ca69-ddc6-4936-98f2-29f7ab633287"
					moduletype="Recording"
					iteration="1"
					activity-exectype="execute"
					testentry-activity-type="testmodule">
					<detail>
						MH-3658
					</detail>
					<varbindings>
					</varbindings>
					<item
						timeRelativeToTestSuiteStartTime="01:09.505"
						timeRelativeToTestModuleStartTime="00:00.000"
						timeWallClock="16:19:08"
						time="01:09.505"
						level="Info"
						category="Mouse">
						<message>
							Mouse Left Click item 'MadaketHealth.DivTagMedicalGroups' at 51;18.
						</message>
						<metainfo
							type="repoitem"
							path="/dom[@caption='Madaket Health']//nav[#'mainNav']/ul//div[@innertext~'^Medical\ Groups']"
							itempath=".//nav[#'mainNav']/ul//div[@innertext~'^Medical\ Groups']"
							fullname="madaket_XP001Repository.MadaketHealth.DivTagMedicalGroups"
							id="b009e8773a4e4780a7cf8148c07c9d21"
							timeout="60000"
							codefile="c:\Users\JohnPloumis\Documents\Ranorex\RanorexStudio Projects\madaket_XP001\madaket_XP001\New_MedicalGroup_NoData.cs"
							codeline="82"
							itemindex="0"
							loglvl="Info">
						</metainfo>
					</item>
					<item
						timeRelativeToTestSuiteStartTime="01:11.675"
						timeRelativeToTestModuleStartTime="00:02.170"
						timeWallClock="16:19:10"
						time="01:11.675"
						level="Info"
						category="Mouse">
						<message>
							Mouse Left Click item 'MadaketHealth.MedicalGroupClickNewFlow' at 67;8.
						</message>
						<metainfo
							type="repoitem"
							path="/dom[@caption='Madaket Health']//a[#'medicalGroupClickNewFlow']"
							itempath=".//a[#'medicalGroupClickNewFlow']"
							fullname="madaket_XP001Repository.MadaketHealth.MedicalGroupClickNewFlow"
							id="1f976bff0a704cffb4e06ee1e8772048"
							timeout="60000"
							codefile="c:\Users\JohnPloumis\Documents\Ranorex\RanorexStudio Projects\madaket_XP001\madaket_XP001\New_MedicalGroup_NoData.cs"
							codeline="86"
							itemindex="1"
							loglvl="Info">
						</metainfo>
					</item>
					<item
						timeRelativeToTestSuiteStartTime="01:13.999"
						timeRelativeToTestModuleStartTime="00:04.493"
						timeWallClock="16:19:13"
						time="01:13.999"
						level="Info"
						category="Mouse">
						<message>
							Mouse Left Click item 'MadaketHealth.PopupScrollContainer1' at 751;376.
						</message>
						<metainfo
							type="repoitem"
							path="/dom[@caption='Madaket Health']//div[#'addMedicalGroupPopupContainer']/div[3]"
							itempath=".//div[#'addMedicalGroupPopupContainer']/div[3]"
							fullname="madaket_XP001Repository.MadaketHealth.PopupScrollContainer1"
							id="4475c1ec0c3e4350840c3462d5408ab0"
							timeout="60000"
							codefile="c:\Users\JohnPloumis\Documents\Ranorex\RanorexStudio Projects\madaket_XP001\madaket_XP001\New_MedicalGroup_NoData.cs"
							codeline="90"
							itemindex="2"
							loglvl="Info">
						</metainfo>
					</item>
					<item
						timeRelativeToTestSuiteStartTime="01:34.307"
						timeRelativeToTestModuleStartTime="00:24.801"
						timeWallClock="16:19:33"
						time="01:34.307"
						level="Info"
						category="Mouse">
						<message>
							Mouse Left Click item 'MadaketHealth.TabIndex0' at 49;7.
						</message>
						<metainfo
							type="repoitem"
							path="/dom[@caption='Madaket Health']//button[#'tabIndex0']"
							itempath=".//button[#'tabIndex0']"
							fullname="madaket_XP001Repository.MadaketHealth.TabIndex0"
							id="ede082c547ae4f43bf3d32d91be01dd8"
							timeout="60000"
							codefile="c:\Users\JohnPloumis\Documents\Ranorex\RanorexStudio Projects\madaket_XP001\madaket_XP001\New_MedicalGroup_NoData.cs"
							codeline="94"
							itemindex="3"
							loglvl="Info">
						</metainfo>
					</item>
					<item
						timeRelativeToTestSuiteStartTime="01:35.808"
						timeRelativeToTestModuleStartTime="00:26.303"
						timeWallClock="16:19:35"
						time="01:35.808"
						level="Info"
						category="Mouse">
						<message>
							Mouse Left Click item 'MadaketHealth.EnterAGroupName' at 85;8.
						</message>
						<metainfo
							type="repoitem"
							path="/dom[@caption='Madaket Health']//div[#'medicalGroupAddNewFlow']/div/div[1]/?/?/label[@innertext='Enter a Group Name']"
							itempath=".//div[#'medicalGroupAddNewFlow']/div/div[1]/?/?/label[@innertext='Enter a Group Name']"
							fullname="madaket_XP001Repository.MadaketHealth.EnterAGroupName"
							id="db41856ceaf94901958ce4b63ffa8673"
							timeout="60000"
							codefile="c:\Users\JohnPloumis\Documents\Ranorex\RanorexStudio Projects\madaket_XP001\madaket_XP001\New_MedicalGroup_NoData.cs"
							codeline="98"
							itemindex="4"
							loglvl="Info">
						</metainfo>
					</item>
					<item
						timeRelativeToTestSuiteStartTime="01:37.251"
						timeRelativeToTestModuleStartTime="00:27.745"
						timeWallClock="16:19:36"
						time="01:37.251"
						level="Info"
						category="Mouse">
						<message>
							Mouse Left Click item 'MadaketHealth.EnterASiteId' at 62;5.
						</message>
						<metainfo
							type="repoitem"
							path="/dom[@caption='Madaket Health']//div[#'partnerIdRow']/?/?/label[@innertext='Enter a Site Id']"
							itempath=".//div[#'partnerIdRow']/?/?/label[@innertext='Enter a Site Id']"
							fullname="madaket_XP001Repository.MadaketHealth.EnterASiteId"
							id="15bcacdcc5e7463b8ca37009f3a750a3"
							timeout="60000"
							codefile="c:\Users\JohnPloumis\Documents\Ranorex\RanorexStudio Projects\madaket_XP001\madaket_XP001\New_MedicalGroup_NoData.cs"
							codeline="102"
							itemindex="5"
							loglvl="Info">
						</metainfo>
					</item>
					<item
						timeRelativeToTestSuiteStartTime="01:38.717"
						timeRelativeToTestModuleStartTime="00:29.212"
						timeWallClock="16:19:37"
						time="01:38.717"
						level="Info"
						category="Mouse">
						<message>
							Mouse Left Click item 'MadaketHealth.EnterATIN' at 221;6.
						</message>
						<metainfo
							type="repoitem"
							path="/dom[@caption='Madaket Health']//label[#'tinError']/label[@innertext='Enter a TIN']"
							itempath=".//label[#'tinError']/label[@innertext='Enter a TIN']"
							fullname="madaket_XP001Repository.MadaketHealth.EnterATIN"
							id="91b98ef7369e4e07ab03d62c5add9a5c"
							timeout="60000"
							codefile="c:\Users\JohnPloumis\Documents\Ranorex\RanorexStudio Projects\madaket_XP001\madaket_XP001\New_MedicalGroup_NoData.cs"
							codeline="106"
							itemindex="6"
							loglvl="Info">
						</metainfo>
					</item>
					<item
						timeRelativeToTestSuiteStartTime="01:40.222"
						timeRelativeToTestModuleStartTime="00:30.717"
						timeWallClock="16:19:39"
						time="01:40.222"
						level="Info"
						category="Mouse">
						<message>
							Mouse Left Click item 'MadaketHealth.HttpsEdiAlphaMadakethealthComServ' at 22;17.
						</message>
						<metainfo
							type="repoitem"
							path="/dom[@caption='Madaket Health']//div[#'addMedicalGroupPopupContainer']/a[@href~'^https://edi-alpha\.madaket']"
							itempath=".//div[#'addMedicalGroupPopupContainer']/a[@href~'^https://edi-alpha\.madaket']"
							fullname="madaket_XP001Repository.MadaketHealth.HttpsEdiAlphaMadakethealthComServ"
							id="fa8f43607af64a2a8b0603537312fa25"
							timeout="60000"
							codefile="c:\Users\JohnPloumis\Documents\Ranorex\RanorexStudio Projects\madaket_XP001\madaket_XP001\New_MedicalGroup_NoData.cs"
							codeline="110"
							itemindex="7"
							loglvl="Info">
						</metainfo>
					</item>
				</activity>
				<activity
					result="Failed"
					duration="1.1m"
					durationms="67145"
					type="test-module"
					rid="1694613592adead8"
					totalerrorcount="1"
					totalwarningcount="0"
					totalsuccesstestcasecount="0"
					totalfailedtestcasecount="0"
					totalblockedtestcasecount="0"
					childsuccesscount="0"
					childfailedcount="0"
					childblockedcount="0"
					totalsuccesscount="0"
					totalfailedcount="0"
					totalblockedcount="0"
					totalmaintenancemodecount="0"
					modulename="Delete_NewPayer"
					displayName="Delete_NewPayer"
					moduleid="e9ca7061-0bbf-4db8-af34-4af1fd68363d"
					moduletype="Recording"
					iteration="1"
					activity-exectype="execute"
					testentry-activity-type="testmodule">
					<detail>
						MH-2218
					</detail>
					<errormessage>
						Failed to find item 'madaket_XP001Repository.MadaketHealth.HttpsEdiAlphaMadakethealthComServ1'.
					</errormessage>
					<varbindings>
					</varbindings>
					<item
						timeRelativeToTestSuiteStartTime="01:41.745"
						timeRelativeToTestModuleStartTime="00:00.000"
						timeWallClock="16:19:40"
						time="01:41.745"
						level="Info"
						category="Mouse">
						<message>
							Mouse Left Click item 'MadaketHealth.DivTagPayers' at 18;20.
						</message>
						<metainfo
							type="repoitem"
							path="/dom[@caption='Madaket Health']//nav[#'mainNav']/ul//div[@innertext='Payers']"
							itempath=".//nav[#'mainNav']/ul//div[@innertext='Payers']"
							fullname="madaket_XP001Repository.MadaketHealth.DivTagPayers"
							id="29cc9e25aab349529ce160a3bd60a2f5"
							timeout="60000"
							codefile="c:\Users\JohnPloumis\Documents\Ranorex\RanorexStudio Projects\madaket_XP001\madaket_XP001\Delete_NewPayer.cs"
							codeline="82"
							itemindex="0"
							loglvl="Info">
						</metainfo>
					</item>
					<item
						timeRelativeToTestSuiteStartTime="01:43.191"
						timeRelativeToTestModuleStartTime="00:01.445"
						timeWallClock="16:19:42"
						time="01:43.191"
						level="Info"
						category="Mouse">
						<message>
							Mouse Left Click item 'MadaketHealth.PayorSearch' at 86;13.
						</message>
						<metainfo
							type="repoitem"
							path="/dom[@caption='Madaket Health']//input[#'payorSearch']"
							itempath=".//input[#'payorSearch']"
							fullname="madaket_XP001Repository.MadaketHealth.PayorSearch"
							id="0991bbba55cd4dc4828713fdfbd98b4a"
							timeout="60000"
							codefile="c:\Users\JohnPloumis\Documents\Ranorex\RanorexStudio Projects\madaket_XP001\madaket_XP001\Delete_NewPayer.cs"
							codeline="85"
							itemindex="1"
							loglvl="Info">
						</metainfo>
					</item>
					<item
						timeRelativeToTestSuiteStartTime="01:44.497"
						timeRelativeToTestModuleStartTime="00:02.751"
						timeWallClock="16:19:43"
						time="01:44.497"
						level="Info"
						category="Keyboard">
						<message>
							Key sequence 'test_payer_automation_XP001' with focus on 'MadaketHealth.PayorSearch'.
						</message>
						<metainfo
							type="repoitem"
							path="/dom[@caption='Madaket Health']//input[#'payorSearch']"
							itempath=".//input[#'payorSearch']"
							fullname="madaket_XP001Repository.MadaketHealth.PayorSearch"
							id="0991bbba55cd4dc4828713fdfbd98b4a"
							timeout="60000"
							codefile="c:\Users\JohnPloumis\Documents\Ranorex\RanorexStudio Projects\madaket_XP001\madaket_XP001\Delete_NewPayer.cs"
							codeline="88"
							itemindex="2"
							loglvl="Info">
						</metainfo>
					</item>
					<item
						timeRelativeToTestSuiteStartTime="01:46.160"
						timeRelativeToTestModuleStartTime="00:04.414"
						timeWallClock="16:19:45"
						time="01:46.160"
						level="Info"
						category="Mouse">
						<message>
							Mouse Left Click item 'MadaketHealth.SearchSubmitIcon1' at 9;8.
						</message>
						<metainfo
							type="repoitem"
							path="/dom[@caption='Madaket Health']//button[#'payorSearchSubmit']/span"
							itempath=".//button[#'payorSearchSubmit']/span"
							fullname="madaket_XP001Repository.MadaketHealth.SearchSubmitIcon1"
							id="0ebc0be7093f498bb6027331d8d55b87"
							timeout="60000"
							codefile="c:\Users\JohnPloumis\Documents\Ranorex\RanorexStudio Projects\madaket_XP001\madaket_XP001\Delete_NewPayer.cs"
							codeline="91"
							itemindex="3"
							loglvl="Info">
						</metainfo>
					</item>
					<item
						timeRelativeToTestSuiteStartTime="01:47.109"
						timeRelativeToTestModuleStartTime="00:05.364"
						timeWallClock="16:19:46"
						time="01:47.109"
						level="Info"
						category="Validation">
						<message>
							Validating Exists on item 'MadaketHealth.TestPayerAutomationXP001'.
						</message>
						<metainfo
							type="repoitem"
							path="/dom[@caption='Madaket Health']//div[#'payorListTable']/div[2]/?/?/a[@innertext~'^test_payer_auto']"
							itempath=".//div[#'payorListTable']/div[2]/?/?/a[@innertext~'^test_payer_auto']"
							fullname="madaket_XP001Repository.MadaketHealth.TestPayerAutomationXP001"
							id="b8c176e0487f46d0aa8206be2c8744b0"
							timeout="60000"
							codefile="c:\Users\JohnPloumis\Documents\Ranorex\RanorexStudio Projects\madaket_XP001\madaket_XP001\Delete_NewPayer.cs"
							codeline="94"
							itemindex="4"
							loglvl="Info">
						</metainfo>
					</item>
					<item
						timeRelativeToTestSuiteStartTime="01:48.101"
						timeRelativeToTestModuleStartTime="00:06.355"
						timeWallClock="16:19:47"
						time="01:48.101"
						level="Success"
						category="Validation"
						errimg="images_madaket__1bd56211\madaket__1bd56211_4a79370e_trace.jpg"
						errthumb="images_madaket__1bd56211\madaket__1bd56211_4a79370e_trace_thumb.jpg">
						<message>
							Element for item 'TestPayerAutomationXP001' does exist.
						</message>
						<metainfo
							type="repoitem"
							path="/dom[@caption='Madaket Health']//div[#'payorListTable']/div[2]/?/?/a[@innertext~'^test_payer_auto']"
							itempath=".//div[#'payorListTable']/div[2]/?/?/a[@innertext~'^test_payer_auto']"
							fullname="madaket_XP001Repository.MadaketHealth.TestPayerAutomationXP001"
							id="b8c176e0487f46d0aa8206be2c8744b0"
							timeout="60000"
							codefile="c:\Users\JohnPloumis\Documents\Ranorex\RanorexStudio Projects\madaket_XP001\madaket_XP001\Delete_NewPayer.cs"
							codeline="95"
							loglvl="Success"
							itemindex="4">
						</metainfo>
					</item>
					<item
						timeRelativeToTestSuiteStartTime="01:48.154"
						timeRelativeToTestModuleStartTime="00:06.409"
						timeWallClock="16:19:47"
						time="01:48.154"
						level="Info"
						category="Mouse"
						errimg="images_madaket__1bd56211\madaket__1bd56211_2f4ccf66_trace.jpg"
						errthumb="images_madaket__1bd56211\madaket__1bd56211_2f4ccf66_trace_thumb.jpg">
						<message>
							Mouse Left Down item 'MadaketHealth.HttpsEdiAlphaMadakethealthComServ1' at 9;16.
						</message>
						<metainfo
							type="repoitem"
							path="/dom[@caption='Madaket Health']//div[#'payorListTable']/div[2]//img[@src='https://edi-alpha.madakethealth.com/services/static/134/img/icons/trash.svg']"
							itempath=".//div[#'payorListTable']/div[2]//img[@src='https://edi-alpha.madakethealth.com/services/static/134/img/icons/trash.svg']"
							fullname="madaket_XP001Repository.MadaketHealth.HttpsEdiAlphaMadakethealthComServ1"
							id="ad16228c5b794655b423e6dd22bf6621"
							timeout="60000"
							codefile="c:\Users\JohnPloumis\Documents\Ranorex\RanorexStudio Projects\madaket_XP001\madaket_XP001\Delete_NewPayer.cs"
							codeline="97"
							itemindex="5"
							loglvl="Info">
						</metainfo>
					</item>
					<item
						timeRelativeToTestSuiteStartTime="02:48.777"
						timeRelativeToTestModuleStartTime="01:07.031"
						timeWallClock="16:20:48"
						time="02:48.777"
						level="Error"
						category="Module"
						errimg="images_madaket__1bd56211\madaket__1bd56211_45e60d5e_trace.jpg"
						errthumb="images_madaket__1bd56211\madaket__1bd56211_45e60d5e_trace_thumb.jpg">
						<message>
							Failed to find item 'madaket_XP001Repository.MadaketHealth.HttpsEdiAlphaMadakethealthComServ1'.<br/>No element found for path '/dom[@caption='Madaket Health']//div[#'payorListTable']/div[2]//img[@src='https://edi-alpha.madakethealth.com/services/static/134/img/icons/trash.svg']' within 1m.
						</message>
						<metainfo
							stacktrace="   at Ranorex.Core.Repository.RepoItemInfo.FindInternal[T](Boolean findSingle, Boolean throwException, Duration effectiveTimeoutOverride)&#13;&#10;   at Ranorex.Core.Repository.RepoItemInfo.&lt;>c__DisplayClass75_0`1.&lt;Find>b__0()&#13;&#10;   at Ranorex.Core.Testing.Services.NoMaintenanceModeService.HandleElementNotFound[T](Func`1 action, RepoItemInfo entry)&#13;&#10;   at Ranorex.Core.Repository.RepoItemInfo.Find[T](Boolean findSingle, Boolean throwException, Duration effectiveTimeoutOverride)&#13;&#10;   at Ranorex.Core.Repository.RepoItemInfo.CreateAdapter[T](Boolean throwException, Duration waitTimeout)&#13;&#10;   at Ranorex.Core.Repository.RepoItemInfo.CreateAdapter[T](Boolean throwException)&#13;&#10;   at madaket_XP001.madaket_XP001RepositoryFolders.MadaketHealthAppFolder.get_HttpsEdiAlphaMadakethealthComServ1() in c:\Users\JohnPloumis\Documents\Ranorex\RanorexStudio Projects\madaket_XP001\madaket_XP001\madaket_XP001Repository.cs:line 940&#13;&#10;   at madaket_XP001.Delete_NewPayer.Ranorex.Core.Testing.ITestModule.Run() in c:\Users\JohnPloumis\Documents\Ranorex\RanorexStudio Projects\madaket_XP001\madaket_XP001\Delete_NewPayer.cs:line 98&#13;&#10;   at Ranorex.Core.Testing.TestModuleLeaf.RunInternal(DataContext parentDataContext, Int32 iteration, Int32 iterationCount, Boolean skipIteration)"
							codefile="c:\Users\JohnPloumis\Documents\Ranorex\RanorexStudio Projects\madaket_XP001\madaket_XP001\Delete_NewPayer.cs"
							codeline="98"
							type="repoitem"
							path="/dom[@caption='Madaket Health']//div[#'payorListTable']/div[2]//img[@src='https://edi-alpha.madakethealth.com/services/static/134/img/icons/trash.svg']"
							itempath=".//div[#'payorListTable']/div[2]//img[@src='https://edi-alpha.madakethealth.com/services/static/134/img/icons/trash.svg']"
							fullname="madaket_XP001Repository.MadaketHealth.HttpsEdiAlphaMadakethealthComServ1"
							id="ad16228c5b794655b423e6dd22bf6621"
							timeout="60000"
							loglvl="Error"
							itemindex="5">
						</metainfo>
					</item>
				</activity>
			</activity>
		</activity>
	</activity>
</report>
