﻿<?xml version="1.0" encoding="utf-8"?>
<report
	progress="">
	<activity
		result="Success"
		duration="0ms"
		durationms="0"
		type="root"
		rid="329d968b81278e"
		totalerrorcount="0"
		totalwarningcount="0"
		totalsuccesstestcasecount="0"
		totalfailedtestcasecount="0"
		totalblockedtestcasecount="0"
		childsuccesscount="0"
		childfailedcount="0"
		childblockedcount="0"
		totalsuccesscount="0"
		totalfailedcount="0"
		totalblockedcount="0"
		totalmaintenancemodecount="0"
		user="JohnPloumis"
		rxversion="8.3.1.0"
		host="LAPTOP-5EO8DNU1"
		osversion="Windows 10 64bit"
		runtimeversion="4.0.30319.42000"
		procarch="32bit"
		oslanguage="en-US"
		dtnlanguage="en-US"
		screenresolution="1366x768"
		timestamp="12/7/2018 10:04:54 AM"
		timestampiso="2018-12-07T15:04:54"
		endtime="12/7/2018 10:05:07 AM"
		timeoutfactor="1"
		module="Madaket_login">
		<detail>
			Madaket_login
		</detail>
		<varbindings>
		</varbindings>
		<item
			timeRelativeToTestSuiteStartTime="00:04.604"
			timeRelativeToTestModuleStartTime="00:04.605"
			timeWallClock="10:04:59"
			time="00:04.604"
			level="Info"
			category="Website">
			<message>
				Opening web site 'https://edi-alpha.madakethealth.com/services/logout' with browser 'Chrome' in maximized mode.
			</message>
			<metainfo
				itemindex="0"
				codefile="c:\Users\JohnPloumis\Documents\Ranorex\RanorexStudio Projects\ranorex_testautomation\madaket_XP001\Madaket_login.cs"
				codeline="82"
				loglvl="Info">
			</metainfo>
		</item>
		<item
			timeRelativeToTestSuiteStartTime="00:05.018"
			timeRelativeToTestModuleStartTime="00:05.019"
			timeWallClock="10:04:59"
			time="00:05.018"
			level="Info"
			category="Set value">
			<message>
				Setting attribute Value to 'jploumis@madakethealth.com' on item 'MadaketHealth.txtUsername'.
			</message>
			<metainfo
				type="repoitem"
				path="/dom[@domain='edi-alpha.madakethealth.com']//input[#'username']"
				itempath=".//input[#'username']"
				fullname="madaket_XP001Repository.MadaketHealth.txtUsername"
				id="ad40a45ba47543068e211d52f3633bf0"
				timeout="60000"
				codefile="c:\Users\JohnPloumis\Documents\Ranorex\RanorexStudio Projects\ranorex_testautomation\madaket_XP001\Madaket_login.cs"
				codeline="85"
				itemindex="1"
				loglvl="Info">
			</metainfo>
		</item>
		<item
			timeRelativeToTestSuiteStartTime="00:09.692"
			timeRelativeToTestModuleStartTime="00:09.693"
			timeWallClock="10:05:04"
			time="00:09.692"
			level="Info"
			category="Set value">
			<message>
				Setting attribute Value to 'Monkey1213!' on item 'MadaketHealth.txtPassword'.
			</message>
			<metainfo
				type="repoitem"
				path="/dom[@domain='edi-alpha.madakethealth.com']//input[#'password']"
				itempath=".//input[#'password']"
				fullname="madaket_XP001Repository.MadaketHealth.txtPassword"
				id="a351a5d74ad64269819a1ffbe4be0530"
				timeout="60000"
				codefile="c:\Users\JohnPloumis\Documents\Ranorex\RanorexStudio Projects\ranorex_testautomation\madaket_XP001\Madaket_login.cs"
				codeline="88"
				itemindex="2"
				loglvl="Info">
			</metainfo>
		</item>
		<item
			timeRelativeToTestSuiteStartTime="00:10.394"
			timeRelativeToTestModuleStartTime="00:10.395"
			timeWallClock="10:05:05"
			time="00:10.394"
			level="Info"
			category="Validation">
			<message>
				Validating Exists on item 'MadaketHealth.btnLogin'.
			</message>
			<metainfo
				type="repoitem"
				path="/dom[@domain='edi-alpha.madakethealth.com']//input[#'loginButton']"
				itempath=".//input[#'loginButton']"
				fullname="madaket_XP001Repository.MadaketHealth.btnLogin"
				id="29776b9350984c58bf5308f720d7bca4"
				timeout="60000"
				codefile="c:\Users\JohnPloumis\Documents\Ranorex\RanorexStudio Projects\ranorex_testautomation\madaket_XP001\Madaket_login.cs"
				codeline="91"
				itemindex="3"
				loglvl="Info">
			</metainfo>
		</item>
		<item
			timeRelativeToTestSuiteStartTime="00:11.061"
			timeRelativeToTestModuleStartTime="00:11.062"
			timeWallClock="10:05:05"
			time="00:11.061"
			level="Success"
			category="Validation">
			<message>
				Element for item 'btnLogin' does exist.
			</message>
			<metainfo
				type="repoitem"
				path="/dom[@domain='edi-alpha.madakethealth.com']//input[#'loginButton']"
				itempath=".//input[#'loginButton']"
				fullname="madaket_XP001Repository.MadaketHealth.btnLogin"
				id="29776b9350984c58bf5308f720d7bca4"
				timeout="60000"
				codefile="c:\Users\JohnPloumis\Documents\Ranorex\RanorexStudio Projects\ranorex_testautomation\madaket_XP001\Madaket_login.cs"
				codeline="92"
				loglvl="Success"
				itemindex="3">
			</metainfo>
		</item>
		<item
			timeRelativeToTestSuiteStartTime="00:11.063"
			timeRelativeToTestModuleStartTime="00:11.064"
			timeWallClock="10:05:05"
			time="00:11.063"
			level="Info"
			category="Mouse">
			<message>
				Mouse Left Click item 'MadaketHealth.btnLogin' at 62;12.
			</message>
			<metainfo
				type="repoitem"
				path="/dom[@domain='edi-alpha.madakethealth.com']//input[#'loginButton']"
				itempath=".//input[#'loginButton']"
				fullname="madaket_XP001Repository.MadaketHealth.btnLogin"
				id="29776b9350984c58bf5308f720d7bca4"
				timeout="60000"
				codefile="c:\Users\JohnPloumis\Documents\Ranorex\RanorexStudio Projects\ranorex_testautomation\madaket_XP001\Madaket_login.cs"
				codeline="94"
				itemindex="4"
				loglvl="Info">
			</metainfo>
		</item>
	</activity>
</report>
