﻿<?xml version="1.0" encoding="utf-8"?>
<report
	progress="">
	<activity
		result="Success"
		duration="0ms"
		durationms="0"
		type="root"
		rid="16377bfecd4d5618"
		totalerrorcount="0"
		totalwarningcount="0"
		totalsuccesstestcasecount="0"
		totalfailedtestcasecount="0"
		totalblockedtestcasecount="0"
		childsuccesscount="0"
		childfailedcount="0"
		childblockedcount="0"
		totalsuccesscount="0"
		totalfailedcount="0"
		totalblockedcount="0"
		totalmaintenancemodecount="0"
		user="JohnPloumis"
		rxversion="8.2.1.0"
		host="LAPTOP-5EO8DNU1"
		osversion="Windows 10 64bit"
		runtimeversion="4.0.30319.42000"
		procarch="32bit"
		oslanguage="en-US"
		dtnlanguage="en-US"
		screenresolution="1366x768"
		timestamp="11/13/2018 12:19:18 PM"
		timestampiso="2018-11-13T17:19:18"
		endtime="11/13/2018 12:19:27 PM"
		timeoutfactor="1"
		module="Madaket_login">
		<detail>
			Madaket_login
		</detail>
		<varbindings>
		</varbindings>
		<item
			timeRelativeToTestSuiteStartTime="00:02.359"
			timeRelativeToTestModuleStartTime="00:02.359"
			timeWallClock="12:19:20"
			time="00:02.359"
			level="Info"
			category="Website">
			<message>
				Opening web site 'https://edi-alpha.madakethealth.com/services/logout' with browser 'Chrome' in maximized mode.
			</message>
			<metainfo
				itemindex="0"
				codefile="c:\Users\JohnPloumis\Documents\Ranorex\RanorexStudio Projects\ranorex_testautomation\madaket_XP001\Madaket_login.cs"
				codeline="82"
				loglvl="Info">
			</metainfo>
		</item>
		<item
			timeRelativeToTestSuiteStartTime="00:02.593"
			timeRelativeToTestModuleStartTime="00:02.593"
			timeWallClock="12:19:20"
			time="00:02.593"
			level="Info"
			category="Mouse">
			<message>
				Mouse Left Click item 'MadaketHealth.txtUsername' at Center.
			</message>
			<metainfo
				type="repoitem"
				path="/dom[@domain='edi-alpha.madakethealth.com']//input[#'username']"
				itempath=".//input[#'username']"
				fullname="madaket_XP001Repository.MadaketHealth.txtUsername"
				id="ad40a45ba47543068e211d52f3633bf0"
				timeout="60000"
				codefile="c:\Users\JohnPloumis\Documents\Ranorex\RanorexStudio Projects\ranorex_testautomation\madaket_XP001\Madaket_login.cs"
				codeline="87"
				itemindex="2"
				loglvl="Info">
			</metainfo>
		</item>
		<item
			timeRelativeToTestSuiteStartTime="00:07.979"
			timeRelativeToTestModuleStartTime="00:07.979"
			timeWallClock="12:19:26"
			time="00:07.979"
			level="Info"
			category="Set value">
			<message>
				Setting attribute Value to 'jploumis@madakethealth.com' on item 'MadaketHealth.txtUsername'.
			</message>
			<metainfo
				type="repoitem"
				path="/dom[@domain='edi-alpha.madakethealth.com']//input[#'username']"
				itempath=".//input[#'username']"
				fullname="madaket_XP001Repository.MadaketHealth.txtUsername"
				id="ad40a45ba47543068e211d52f3633bf0"
				timeout="60000"
				codefile="c:\Users\JohnPloumis\Documents\Ranorex\RanorexStudio Projects\ranorex_testautomation\madaket_XP001\Madaket_login.cs"
				codeline="90"
				itemindex="3"
				loglvl="Info">
			</metainfo>
		</item>
		<item
			timeRelativeToTestSuiteStartTime="00:08.327"
			timeRelativeToTestModuleStartTime="00:08.327"
			timeWallClock="12:19:26"
			time="00:08.327"
			level="Info"
			category="Set value">
			<message>
				Setting attribute Value to 'Monkey1213!' on item 'MadaketHealth.txtPassword'.
			</message>
			<metainfo
				type="repoitem"
				path="/dom[@domain='edi-alpha.madakethealth.com']//input[#'password']"
				itempath=".//input[#'password']"
				fullname="madaket_XP001Repository.MadaketHealth.txtPassword"
				id="a351a5d74ad64269819a1ffbe4be0530"
				timeout="60000"
				codefile="c:\Users\JohnPloumis\Documents\Ranorex\RanorexStudio Projects\ranorex_testautomation\madaket_XP001\Madaket_login.cs"
				codeline="93"
				itemindex="4"
				loglvl="Info">
			</metainfo>
		</item>
		<item
			timeRelativeToTestSuiteStartTime="00:08.656"
			timeRelativeToTestModuleStartTime="00:08.656"
			timeWallClock="12:19:26"
			time="00:08.656"
			level="Info"
			category="Validation">
			<message>
				Validating Exists on item 'MadaketHealth.btnLogin'.
			</message>
			<metainfo
				type="repoitem"
				path="/dom[@domain='edi-alpha.madakethealth.com']//input[#'loginButton']"
				itempath=".//input[#'loginButton']"
				fullname="madaket_XP001Repository.MadaketHealth.btnLogin"
				id="29776b9350984c58bf5308f720d7bca4"
				timeout="60000"
				codefile="c:\Users\JohnPloumis\Documents\Ranorex\RanorexStudio Projects\ranorex_testautomation\madaket_XP001\Madaket_login.cs"
				codeline="96"
				itemindex="5"
				loglvl="Info">
			</metainfo>
		</item>
		<item
			timeRelativeToTestSuiteStartTime="00:09.023"
			timeRelativeToTestModuleStartTime="00:09.023"
			timeWallClock="12:19:27"
			time="00:09.023"
			level="Success"
			category="Validation">
			<message>
				Element for item 'btnLogin' does exist.
			</message>
			<metainfo
				type="repoitem"
				path="/dom[@domain='edi-alpha.madakethealth.com']//input[#'loginButton']"
				itempath=".//input[#'loginButton']"
				fullname="madaket_XP001Repository.MadaketHealth.btnLogin"
				id="29776b9350984c58bf5308f720d7bca4"
				timeout="60000"
				codefile="c:\Users\JohnPloumis\Documents\Ranorex\RanorexStudio Projects\ranorex_testautomation\madaket_XP001\Madaket_login.cs"
				codeline="97"
				loglvl="Success"
				itemindex="5">
			</metainfo>
		</item>
		<item
			timeRelativeToTestSuiteStartTime="00:09.023"
			timeRelativeToTestModuleStartTime="00:09.023"
			timeWallClock="12:19:27"
			time="00:09.023"
			level="Info"
			category="Mouse">
			<message>
				Mouse Left Click item 'MadaketHealth.btnLogin' at 62;12.
			</message>
			<metainfo
				type="repoitem"
				path="/dom[@domain='edi-alpha.madakethealth.com']//input[#'loginButton']"
				itempath=".//input[#'loginButton']"
				fullname="madaket_XP001Repository.MadaketHealth.btnLogin"
				id="29776b9350984c58bf5308f720d7bca4"
				timeout="60000"
				codefile="c:\Users\JohnPloumis\Documents\Ranorex\RanorexStudio Projects\ranorex_testautomation\madaket_XP001\Madaket_login.cs"
				codeline="99"
				itemindex="6"
				loglvl="Info">
			</metainfo>
		</item>
	</activity>
</report>
