﻿<?xml version="1.0" encoding="utf-8"?>
<report
	progress="">
	<activity
		result="Failed"
		duration="42.67s"
		durationms="42672"
		type="root"
		rid="59d70bfe1d33900"
		totalerrorcount="1"
		totalwarningcount="0"
		totalsuccesstestcasecount="0"
		totalfailedtestcasecount="0"
		totalblockedtestcasecount="0"
		childsuccesscount="0"
		childfailedcount="0"
		childblockedcount="0"
		totalsuccesscount="0"
		totalfailedcount="0"
		totalblockedcount="0"
		totalmaintenancemodecount="0"
		user="JohnPloumis"
		rxversion="8.3.1.0"
		host="LAPTOP-5EO8DNU1"
		osversion="Windows 10 64bit"
		runtimeversion="4.0.30319.42000"
		procarch="32bit"
		oslanguage="en-US"
		dtnlanguage="en-US"
		screenresolution="1366x768"
		timestamp="11/28/2018 2:53:50 PM"
		timestampiso="2018-11-28T19:53:50"
		endtime="11/28/2018 2:54:33 PM"
		timeoutfactor="1"
		module="Madaket_login">
		<detail>
			Madaket_login
		</detail>
		<varbindings>
		</varbindings>
		<item
			timeRelativeToTestSuiteStartTime="00:04.678"
			timeRelativeToTestModuleStartTime="00:04.679"
			timeWallClock="14:53:55"
			time="00:04.678"
			level="Info"
			category="Website">
			<message>
				Opening web site 'https://edi-alpha.madakethealth.com/services/logout' with browser 'Chrome' in maximized mode.
			</message>
			<metainfo
				itemindex="0"
				codefile="c:\Users\JohnPloumis\Documents\Ranorex\RanorexStudio Projects\ranorex_testautomation\madaket_XP001\Madaket_login.cs"
				codeline="82"
				loglvl="Info">
			</metainfo>
		</item>
		<item
			timeRelativeToTestSuiteStartTime="00:05.024"
			timeRelativeToTestModuleStartTime="00:05.025"
			timeWallClock="14:53:55"
			time="00:05.024"
			level="Info"
			category="Set value">
			<message>
				Setting attribute Value to 'jploumis@madakethealth.com' on item 'MadaketHealth.txtUsername'.
			</message>
			<metainfo
				type="repoitem"
				path="/dom[@domain='edi-alpha.madakethealth.com']//services/logout//input[#'username']"
				itempath=".//services/logout//input[#'username']"
				fullname="madaket_XP001Repository.MadaketHealth.txtUsername"
				id="ad40a45ba47543068e211d52f3633bf0"
				timeout="60000"
				codefile="c:\Users\JohnPloumis\Documents\Ranorex\RanorexStudio Projects\ranorex_testautomation\madaket_XP001\Madaket_login.cs"
				codeline="85"
				itemindex="1"
				loglvl="Info">
			</metainfo>
		</item>
		<item
			timeRelativeToTestSuiteStartTime="00:42.672"
			timeRelativeToTestModuleStartTime="00:42.673"
			timeWallClock="14:54:33"
			time="00:42.672"
			level="Error"
			category="Module">
			<message>
				The test run has been aborted by the user.
			</message>
			<metainfo
				loglvl="Error">
			</metainfo>
		</item>
	</activity>
</report>
