﻿<?xml version="1.0" encoding="utf-8"?>
<report
	progress="">
	<activity
		result="Failed"
		duration="0ms"
		durationms="0"
		type="root"
		rid="33e8a20b0f4d70"
		totalerrorcount="1"
		totalwarningcount="0"
		totalsuccesstestcasecount="0"
		totalfailedtestcasecount="0"
		totalblockedtestcasecount="0"
		childsuccesscount="0"
		childfailedcount="0"
		childblockedcount="0"
		totalsuccesscount="0"
		totalfailedcount="0"
		totalblockedcount="0"
		totalmaintenancemodecount="0"
		user="JohnPloumis"
		rxversion="8.3.1.0"
		host="LAPTOP-5EO8DNU1"
		osversion="Windows 10 64bit"
		runtimeversion="4.0.30319.42000"
		procarch="32bit"
		oslanguage="en-US"
		dtnlanguage="en-US"
		screenresolution="1366x768"
		timestamp="11/28/2018 1:15:54 PM"
		timestampiso="2018-11-28T18:15:54"
		endtime="11/28/2018 1:17:00 PM"
		timeoutfactor="1"
		module="Madaket_login">
		<detail>
			Madaket_login
		</detail>
		<errormessage>
			Failed to find item 'madaket_XP001Repository.MadaketHealth.txtUsername'.
		</errormessage>
		<varbindings>
		</varbindings>
		<item
			timeRelativeToTestSuiteStartTime="00:04.678"
			timeRelativeToTestModuleStartTime="00:04.679"
			timeWallClock="13:15:58"
			time="00:04.678"
			level="Info"
			category="User"
			errimg=".\Madaket__f3bbb8b9_ed727615_trace.jpg"
			errthumb=".\Madaket__f3bbb8b9_ed727615_trace_thumb.jpg">
			<message>
				Killing Chrome
			</message>
			<metainfo
				codefile="c:\Users\JohnPloumis\Documents\Ranorex\RanorexStudio Projects\ranorex_testautomation\madaket_XP001\Madaket_login.UserCode.cs"
				codeline="54"
				loglvl="Info">
			</metainfo>
		</item>
		<item
			timeRelativeToTestSuiteStartTime="00:04.728"
			timeRelativeToTestModuleStartTime="00:04.729"
			timeWallClock="13:15:58"
			time="00:04.728"
			level="Info"
			category="User"
			errimg=".\Madaket__f3bbb8b9_ed727615_trace.jpg"
			errthumb=".\Madaket__f3bbb8b9_ed727615_trace_thumb.jpg">
			<message>
				Chrome Clean Complete - Pausing...
			</message>
			<metainfo
				codefile="c:\Users\JohnPloumis\Documents\Ranorex\RanorexStudio Projects\ranorex_testautomation\madaket_XP001\Madaket_login.UserCode.cs"
				codeline="66"
				loglvl="Info">
			</metainfo>
		</item>
		<item
			timeRelativeToTestSuiteStartTime="00:04.735"
			timeRelativeToTestModuleStartTime="00:04.736"
			timeWallClock="13:15:58"
			time="00:04.735"
			level="Info"
			category="Website"
			errimg=".\Madaket__f3bbb8b9_ed727615_trace.jpg"
			errthumb=".\Madaket__f3bbb8b9_ed727615_trace_thumb.jpg">
			<message>
				Opening web site 'https://edi-alpha.madakethealth.com/services/logout' with browser 'Chrome' in maximized mode.
			</message>
			<metainfo
				itemindex="0"
				codefile="c:\Users\JohnPloumis\Documents\Ranorex\RanorexStudio Projects\ranorex_testautomation\madaket_XP001\Madaket_login.UserCode.cs"
				codeline="47"
				loglvl="Info">
			</metainfo>
		</item>
		<item
			timeRelativeToTestSuiteStartTime="00:05.075"
			timeRelativeToTestModuleStartTime="00:05.076"
			timeWallClock="13:15:59"
			time="00:05.075"
			level="Info"
			category="Set value"
			errimg=".\Madaket__f3bbb8b9_e41bb03e_trace.jpg"
			errthumb=".\Madaket__f3bbb8b9_e41bb03e_trace_thumb.jpg">
			<message>
				Setting attribute Value to 'jploumis@madakethealth.com' on item 'MadaketHealth.txtUsername'.
			</message>
			<metainfo
				type="repoitem"
				path="/dom[@domain='edi-alpha.madakethealth.com']//input[#'username']"
				itempath=".//input[#'username']"
				fullname="madaket_XP001Repository.MadaketHealth.txtUsername"
				id="ad40a45ba47543068e211d52f3633bf0"
				timeout="60000"
				codefile="c:\Users\JohnPloumis\Documents\Ranorex\RanorexStudio Projects\ranorex_testautomation\madaket_XP001\Madaket_login.cs"
				codeline="93"
				itemindex="5"
				loglvl="Info">
			</metainfo>
		</item>
		<item
			timeRelativeToTestSuiteStartTime="01:05.830"
			timeRelativeToTestModuleStartTime="01:05.831"
			timeWallClock="13:17:00"
			time="01:05.830"
			level="Error"
			category="Module"
			errimg=".\Madaket__f3bbb8b9_f700fafe_trace.jpg"
			errthumb=".\Madaket__f3bbb8b9_f700fafe_trace_thumb.jpg">
			<message>
				Failed to find item 'madaket_XP001Repository.MadaketHealth.txtUsername'.<br/>No element found for path '/dom[@domain='edi-alpha.madakethealth.com']//input[#'username']' within 1m.
			</message>
			<metainfo
				stacktrace="   at Ranorex.Core.Repository.RepoItemInfo.FindInternal[T](Boolean findSingle, Boolean throwException, Duration effectiveTimeoutOverride)&#13;&#10;   at Ranorex.Core.Repository.RepoItemInfo.&lt;>c__DisplayClass75_0`1.&lt;Find>b__0()&#13;&#10;   at Ranorex.Core.Testing.Services.NoMaintenanceModeService.HandleElementNotFound[T](Func`1 action, RepoItemInfo entry)&#13;&#10;   at Ranorex.Core.Repository.RepoItemInfo.Find[T](Boolean findSingle, Boolean throwException, Duration effectiveTimeoutOverride)&#13;&#10;   at Ranorex.Core.Repository.RepoItemInfo.CreateAdapter[T](Boolean throwException, Duration waitTimeout)&#13;&#10;   at Ranorex.Core.Repository.RepoItemInfo.CreateAdapter[T](Boolean throwException)&#13;&#10;   at madaket_XP001.madaket_XP001RepositoryFolders.MadaketHealthAppFolder.get_txtUsername() in c:\Users\JohnPloumis\Documents\Ranorex\RanorexStudio Projects\ranorex_testautomation\madaket_XP001\madaket_XP001Repository.cs:line 604&#13;&#10;   at madaket_XP001.Madaket_login.Ranorex.Core.Testing.ITestModule.Run() in c:\Users\JohnPloumis\Documents\Ranorex\RanorexStudio Projects\ranorex_testautomation\madaket_XP001\Madaket_login.cs:line 94&#13;&#10;   at Ranorex.Core.Testing.TestModuleLeaf.RunInternal(DataContext parentDataContext, Int32 iteration, Int32 iterationCount, Boolean skipIteration)"
				codefile="c:\Users\JohnPloumis\Documents\Ranorex\RanorexStudio Projects\ranorex_testautomation\madaket_XP001\Madaket_login.cs"
				codeline="94"
				type="repoitem"
				path="/dom[@domain='edi-alpha.madakethealth.com']//input[#'username']"
				itempath=".//input[#'username']"
				fullname="madaket_XP001Repository.MadaketHealth.txtUsername"
				id="ad40a45ba47543068e211d52f3633bf0"
				timeout="60000"
				loglvl="Error"
				itemindex="5">
			</metainfo>
		</item>
	</activity>
</report>
