﻿<?xml version="1.0" encoding="utf-8"?>
<report
	progress="">
	<activity
		result="Failed"
		duration="0ms"
		durationms="0"
		type="root"
		rid="20c34e8c398b2b18"
		totalerrorcount="1"
		totalwarningcount="0"
		totalsuccesstestcasecount="0"
		totalfailedtestcasecount="1"
		totalblockedtestcasecount="0"
		childsuccesscount="0"
		childfailedcount="1"
		childblockedcount="0"
		totalsuccesscount="0"
		totalfailedcount="1"
		totalblockedcount="0"
		totalmaintenancemodecount="0"
		user="JohnPloumis"
		rxversion="8.3.1.0"
		host="LAPTOP-5EO8DNU1"
		osversion="Windows 10 64bit"
		runtimeversion="4.0.30319.42000"
		procarch="32bit"
		oslanguage="en-US"
		dtnlanguage="en-US"
		screenresolution="1366x768"
		timestamp="12/7/2018 4:21:09 PM"
		timestampiso="2018-12-07T21:21:09"
		endtime="12/7/2018 4:23:34 PM"
		timeoutfactor="1">
		<detail>
			Ranorex Testscript
		</detail>
		<activity
			result="Failed"
			duration="2.4m"
			durationms="143942"
			type="test-suite"
			rid="2134b0c9d9649a0"
			totalerrorcount="1"
			totalwarningcount="0"
			totalsuccesstestcasecount="0"
			totalfailedtestcasecount="1"
			totalblockedtestcasecount="0"
			childsuccesscount="0"
			childfailedcount="1"
			childblockedcount="0"
			totalsuccesscount="0"
			totalfailedcount="1"
			totalblockedcount="0"
			totalmaintenancemodecount="0"
			testsuitename="madaket_XP001"
			headertext="madaket_XP001"
			runconfigname="TestRun"
			runlabel="">
			<params>
			</params>
			<activity
				result="Failed"
				duration="2.4m"
				durationms="143900"
				type="test-case"
				rid="308a62098c05066a"
				totalerrorcount="1"
				totalwarningcount="0"
				totalsuccesstestcasecount="0"
				totalfailedtestcasecount="1"
				totalblockedtestcasecount="0"
				childsuccesscount="3"
				childfailedcount="1"
				childblockedcount="0"
				totalsuccesscount="0"
				totalfailedcount="1"
				totalblockedcount="0"
				totalmaintenancemodecount="0"
				testcontainername="Madaket_XP"
				testcontainerid="2b1c309f-44ad-4542-9e87-47b21dcdd499"
				headertext="Madaket_XP"
				displayName="Madaket_XP"
				iteration="1"
				activity-exectype="execute"
				conditionstate="none">
				<activity
					result="Success"
					duration="10.51s"
					durationms="10508"
					type="test-module"
					rid="fbe5e9b8fc44172"
					totalerrorcount="0"
					totalwarningcount="0"
					totalsuccesstestcasecount="0"
					totalfailedtestcasecount="0"
					totalblockedtestcasecount="0"
					childsuccesscount="0"
					childfailedcount="0"
					childblockedcount="0"
					totalsuccesscount="0"
					totalfailedcount="0"
					totalblockedcount="0"
					totalmaintenancemodecount="0"
					modulename="Madaket_login"
					displayName="Madaket_login"
					moduleid="7047a381-6113-4a38-ab95-4ef2d01b9d0f"
					moduletype="Recording"
					iteration="1"
					activity-exectype="execute"
					testentry-activity-type="testmodule">
					<detail>
						general qa
					</detail>
					<varbindings>
					</varbindings>
					<item
						timeRelativeToTestSuiteStartTime="00:01.662"
						timeRelativeToTestModuleStartTime="00:00.031"
						timeWallClock="16:21:10"
						time="00:01.662"
						level="Info"
						category="Website">
						<message>
							Opening web site 'https://edi-alpha.madakethealth.com/services/logout' with browser 'Chrome' in maximized mode.
						</message>
						<metainfo
							itemindex="0"
							codefile="c:\Users\JohnPloumis\Documents\Ranorex\RanorexStudio Projects\ranorex_testautomation\madaket_XP001\Madaket_login.cs"
							codeline="82"
							loglvl="Info">
						</metainfo>
					</item>
					<item
						timeRelativeToTestSuiteStartTime="00:02.604"
						timeRelativeToTestModuleStartTime="00:00.973"
						timeWallClock="16:21:11"
						time="00:02.604"
						level="Info"
						category="Set value">
						<message>
							Setting attribute Value to 'jploumis@madakethealth.com' on item 'MadaketHealth.txtUsername'.
						</message>
						<metainfo
							type="repoitem"
							path="/dom[@domain='edi-alpha.madakethealth.com']//input[#'username']"
							itempath=".//input[#'username']"
							fullname="madaket_XP001Repository.MadaketHealth.txtUsername"
							id="ad40a45ba47543068e211d52f3633bf0"
							timeout="60000"
							codefile="c:\Users\JohnPloumis\Documents\Ranorex\RanorexStudio Projects\ranorex_testautomation\madaket_XP001\Madaket_login.cs"
							codeline="85"
							itemindex="1"
							loglvl="Info">
						</metainfo>
					</item>
					<item
						timeRelativeToTestSuiteStartTime="00:08.758"
						timeRelativeToTestModuleStartTime="00:07.126"
						timeWallClock="16:21:18"
						time="00:08.758"
						level="Info"
						category="Set value">
						<message>
							Setting attribute Value to 'Monkey1213!' on item 'MadaketHealth.txtPassword'.
						</message>
						<metainfo
							type="repoitem"
							path="/dom[@domain='edi-alpha.madakethealth.com']//input[#'password']"
							itempath=".//input[#'password']"
							fullname="madaket_XP001Repository.MadaketHealth.txtPassword"
							id="a351a5d74ad64269819a1ffbe4be0530"
							timeout="60000"
							codefile="c:\Users\JohnPloumis\Documents\Ranorex\RanorexStudio Projects\ranorex_testautomation\madaket_XP001\Madaket_login.cs"
							codeline="88"
							itemindex="2"
							loglvl="Info">
						</metainfo>
					</item>
					<item
						timeRelativeToTestSuiteStartTime="00:09.425"
						timeRelativeToTestModuleStartTime="00:07.793"
						timeWallClock="16:21:18"
						time="00:09.425"
						level="Info"
						category="Validation">
						<message>
							Validating Exists on item 'MadaketHealth.btnLogin'.
						</message>
						<metainfo
							type="repoitem"
							path="/dom[@domain='edi-alpha.madakethealth.com']//input[#'loginButton']"
							itempath=".//input[#'loginButton']"
							fullname="madaket_XP001Repository.MadaketHealth.btnLogin"
							id="29776b9350984c58bf5308f720d7bca4"
							timeout="60000"
							codefile="c:\Users\JohnPloumis\Documents\Ranorex\RanorexStudio Projects\ranorex_testautomation\madaket_XP001\Madaket_login.cs"
							codeline="91"
							itemindex="3"
							loglvl="Info">
						</metainfo>
					</item>
					<item
						timeRelativeToTestSuiteStartTime="00:10.143"
						timeRelativeToTestModuleStartTime="00:08.512"
						timeWallClock="16:21:19"
						time="00:10.143"
						level="Success"
						category="Validation">
						<message>
							Element for item 'btnLogin' does exist.
						</message>
						<metainfo
							type="repoitem"
							path="/dom[@domain='edi-alpha.madakethealth.com']//input[#'loginButton']"
							itempath=".//input[#'loginButton']"
							fullname="madaket_XP001Repository.MadaketHealth.btnLogin"
							id="29776b9350984c58bf5308f720d7bca4"
							timeout="60000"
							codefile="c:\Users\JohnPloumis\Documents\Ranorex\RanorexStudio Projects\ranorex_testautomation\madaket_XP001\Madaket_login.cs"
							codeline="92"
							loglvl="Success"
							itemindex="3">
						</metainfo>
					</item>
					<item
						timeRelativeToTestSuiteStartTime="00:10.186"
						timeRelativeToTestModuleStartTime="00:08.555"
						timeWallClock="16:21:19"
						time="00:10.186"
						level="Info"
						category="Mouse">
						<message>
							Mouse Left Click item 'MadaketHealth.btnLogin' at 62;12.
						</message>
						<metainfo
							type="repoitem"
							path="/dom[@domain='edi-alpha.madakethealth.com']//input[#'loginButton']"
							itempath=".//input[#'loginButton']"
							fullname="madaket_XP001Repository.MadaketHealth.btnLogin"
							id="29776b9350984c58bf5308f720d7bca4"
							timeout="60000"
							codefile="c:\Users\JohnPloumis\Documents\Ranorex\RanorexStudio Projects\ranorex_testautomation\madaket_XP001\Madaket_login.cs"
							codeline="94"
							itemindex="4"
							loglvl="Info">
						</metainfo>
					</item>
				</activity>
				<activity
					result="Success"
					duration="84ms"
					durationms="84"
					type="test-module"
					rid="226ddc848920fbb"
					totalerrorcount="0"
					totalwarningcount="0"
					totalsuccesstestcasecount="0"
					totalfailedtestcasecount="0"
					totalblockedtestcasecount="0"
					childsuccesscount="0"
					childfailedcount="0"
					childblockedcount="0"
					totalsuccesscount="0"
					totalfailedcount="0"
					totalblockedcount="0"
					totalmaintenancemodecount="0"
					modulename="Fetch_TestData_Directory"
					displayName="Fetch_TestData_Directory"
					moduleid="2676acf6-35f0-4c96-9bd5-5fbbc4117574"
					moduletype="UserCode"
					iteration="1"
					activity-exectype="execute"
					testentry-activity-type="testmodule">
					<varbindings>
					</varbindings>
					<item
						timeRelativeToTestSuiteStartTime="00:12.150"
						timeRelativeToTestModuleStartTime="00:00.003"
						timeWallClock="16:21:21"
						time="00:12.150"
						level="Info"
						category="User">
						<message>
							C:\Users\JohnPloumis\Documents\Ranorex\RanorexStudio Projects\ranorex_testautomation\madaket_XP001\TestData
						</message>
						<metainfo
							codefile="c:\Users\JohnPloumis\Documents\Ranorex\RanorexStudio Projects\ranorex_testautomation\madaket_XP001\Fetch_TestData_Directory.cs"
							codeline="52"
							loglvl="Info">
						</metainfo>
					</item>
				</activity>
				<activity
					result="Success"
					duration="16.08s"
					durationms="16081"
					type="test-module"
					rid="5fbe1943153c7c2"
					totalerrorcount="0"
					totalwarningcount="0"
					totalsuccesstestcasecount="0"
					totalfailedtestcasecount="0"
					totalblockedtestcasecount="0"
					childsuccesscount="0"
					childfailedcount="0"
					childblockedcount="0"
					totalsuccesscount="0"
					totalfailedcount="0"
					totalblockedcount="0"
					totalmaintenancemodecount="0"
					modulename="New_Payer_NoData"
					displayName="New_Payer_NoData"
					moduleid="c2c3f592-c70a-4a42-9f69-8f7f27722dc4"
					moduletype="Recording"
					iteration="1"
					activity-exectype="execute"
					testentry-activity-type="testmodule">
					<detail>
						MH-2218
					</detail>
					<varbindings>
					</varbindings>
					<item
						timeRelativeToTestSuiteStartTime="00:12.256"
						timeRelativeToTestModuleStartTime="00:00.014"
						timeWallClock="16:21:21"
						time="00:12.256"
						level="Info"
						category="Mouse">
						<message>
							Mouse Left Click item 'MadaketHealth.DivTagPayers' at 16;21.
						</message>
						<metainfo
							type="repoitem"
							path="/dom[@domain='edi-alpha.madakethealth.com']//nav[#'mainNav']/ul//div[@innertext='Payers']"
							itempath=".//nav[#'mainNav']/ul//div[@innertext='Payers']"
							fullname="madaket_XP001Repository.MadaketHealth.DivTagPayers"
							id="29cc9e25aab349529ce160a3bd60a2f5"
							timeout="60000"
							codefile="c:\Users\JohnPloumis\Documents\Ranorex\RanorexStudio Projects\ranorex_testautomation\madaket_XP001\New_Payer_NoData.cs"
							codeline="82"
							itemindex="0"
							loglvl="Info">
						</metainfo>
					</item>
					<item
						timeRelativeToTestSuiteStartTime="00:16.375"
						timeRelativeToTestModuleStartTime="00:04.133"
						timeWallClock="16:21:25"
						time="00:16.375"
						level="Info"
						category="Mouse">
						<message>
							Mouse Left Click item 'MadaketHealth.linkNewPayer' at 46;12.
						</message>
						<metainfo
							type="repoitem"
							path="/dom[@domain='edi-alpha.madakethealth.com']//a[#'payorClick']"
							itempath=".//a[#'payorClick']"
							fullname="madaket_XP001Repository.MadaketHealth.linkNewPayer"
							id="0e40999c158242618af66e1af1edf093"
							timeout="60000"
							codefile="c:\Users\JohnPloumis\Documents\Ranorex\RanorexStudio Projects\ranorex_testautomation\madaket_XP001\New_Payer_NoData.cs"
							codeline="85"
							itemindex="1"
							loglvl="Info">
						</metainfo>
					</item>
					<item
						timeRelativeToTestSuiteStartTime="00:18.921"
						timeRelativeToTestModuleStartTime="00:06.679"
						timeWallClock="16:21:28"
						time="00:18.921"
						level="Info"
						category="Mouse">
						<message>
							Mouse Left Click item 'MadaketHealth.PopupScrollContainer' at Center.
						</message>
						<metainfo
							type="repoitem"
							path="/dom[@domain='edi-alpha.madakethealth.com']//div[#'editPayorPopup']/div[2]"
							itempath=".//div[#'editPayorPopup']/div[2]"
							fullname="madaket_XP001Repository.MadaketHealth.PopupScrollContainer"
							id="f53c44ed5bb14893839e2b7cdc4d3ef7"
							timeout="60000"
							codefile="c:\Users\JohnPloumis\Documents\Ranorex\RanorexStudio Projects\ranorex_testautomation\madaket_XP001\New_Payer_NoData.cs"
							codeline="88"
							itemindex="2"
							loglvl="Info">
						</metainfo>
					</item>
					<item
						timeRelativeToTestSuiteStartTime="00:20.755"
						timeRelativeToTestModuleStartTime="00:08.513"
						timeWallClock="16:21:30"
						time="00:20.755"
						level="Info"
						category="Mouse">
						<message>
							Mouse Left Click item 'MadaketHealth.PopupScrollContainer' at LowerRight.
						</message>
						<metainfo
							type="repoitem"
							path="/dom[@domain='edi-alpha.madakethealth.com']//div[#'editPayorPopup']/div[2]"
							itempath=".//div[#'editPayorPopup']/div[2]"
							fullname="madaket_XP001Repository.MadaketHealth.PopupScrollContainer"
							id="f53c44ed5bb14893839e2b7cdc4d3ef7"
							timeout="60000"
							codefile="c:\Users\JohnPloumis\Documents\Ranorex\RanorexStudio Projects\ranorex_testautomation\madaket_XP001\New_Payer_NoData.cs"
							codeline="91"
							itemindex="3"
							loglvl="Info">
						</metainfo>
					</item>
					<item
						timeRelativeToTestSuiteStartTime="00:22.688"
						timeRelativeToTestModuleStartTime="00:10.446"
						timeWallClock="16:21:32"
						time="00:22.688"
						level="Info"
						category="Mouse">
						<message>
							Mouse Left Click item 'MadaketHealth.btnSavePayor' at 71;7.
						</message>
						<metainfo
							type="repoitem"
							path="/dom[@domain='edi-alpha.madakethealth.com']//button[#'savePayorButton']"
							itempath=".//button[#'savePayorButton']"
							fullname="madaket_XP001Repository.MadaketHealth.btnSavePayor"
							id="ab96c6bd2749404d82d6f94d5830ab20"
							timeout="60000"
							codefile="c:\Users\JohnPloumis\Documents\Ranorex\RanorexStudio Projects\ranorex_testautomation\madaket_XP001\New_Payer_NoData.cs"
							codeline="94"
							itemindex="4"
							loglvl="Info">
						</metainfo>
					</item>
					<item
						timeRelativeToTestSuiteStartTime="00:24.405"
						timeRelativeToTestModuleStartTime="00:12.163"
						timeWallClock="16:21:33"
						time="00:24.405"
						level="Info"
						category="Mouse">
						<message>
							Mouse Left Click item 'MadaketHealth.errMsgPleaseEnterPayerName' at 89;11.
						</message>
						<metainfo
							type="repoitem"
							path="/dom[@domain='edi-alpha.madakethealth.com']//form[#'payorGeneralForm']/div[1]//label[@innertext='Please enter payer name']"
							itempath=".//form[#'payorGeneralForm']/div[1]//label[@innertext='Please enter payer name']"
							fullname="madaket_XP001Repository.MadaketHealth.errMsgPleaseEnterPayerName"
							id="4e8fcb6b94fa4fdfaa37a0b3a3c6c8d4"
							timeout="60000"
							codefile="c:\Users\JohnPloumis\Documents\Ranorex\RanorexStudio Projects\ranorex_testautomation\madaket_XP001\New_Payer_NoData.cs"
							codeline="97"
							itemindex="5"
							loglvl="Info">
						</metainfo>
					</item>
					<item
						timeRelativeToTestSuiteStartTime="00:26.656"
						timeRelativeToTestModuleStartTime="00:14.414"
						timeWallClock="16:21:35"
						time="00:26.656"
						level="Info"
						category="Mouse">
						<message>
							Mouse Left Click item 'MadaketHealth.HttpsTestMadakethealthComServices' at 18;22.
						</message>
						<metainfo
							type="repoitem"
							path="/dom[@domain='edi-alpha.madakethealth.com']//div[#'editPayorPopup']/a[@href~'^https://edi-alpha\.madaket']"
							itempath=".//div[#'editPayorPopup']/a[@href~'^https://edi-alpha\.madaket']"
							fullname="madaket_XP001Repository.MadaketHealth.HttpsTestMadakethealthComServices"
							id="ba73c9ad44884b9eb242b07457d62a68"
							timeout="60000"
							codefile="c:\Users\JohnPloumis\Documents\Ranorex\RanorexStudio Projects\ranorex_testautomation\madaket_XP001\New_Payer_NoData.cs"
							codeline="100"
							itemindex="6"
							loglvl="Info">
						</metainfo>
					</item>
				</activity>
				<activity
					result="Failed"
					duration="2m"
					durationms="117088"
					type="test-module"
					rid="1293b555c879400"
					totalerrorcount="1"
					totalwarningcount="0"
					totalsuccesstestcasecount="0"
					totalfailedtestcasecount="0"
					totalblockedtestcasecount="0"
					childsuccesscount="0"
					childfailedcount="0"
					childblockedcount="0"
					totalsuccesscount="0"
					totalfailedcount="0"
					totalblockedcount="0"
					totalmaintenancemodecount="0"
					modulename="New_Payer_ValidData"
					displayName="New_Payer_ValidData"
					moduleid="a2d47517-0a0b-47f5-b141-691f6f0b3abc"
					moduletype="Recording"
					iteration="1"
					activity-exectype="execute"
					testentry-activity-type="testmodule">
					<detail>
						MH-2218
					</detail>
					<errormessage>
						Failed to find item 'madaket_XP001Repository.MadaketHealth.PayerGeneralDetailsDiv.DivTagTestPayerAutomationXP0'.
					</errormessage>
					<varbindings>
					</varbindings>
					<item
						timeRelativeToTestSuiteStartTime="00:28.333"
						timeRelativeToTestModuleStartTime="00:00.007"
						timeWallClock="16:21:37"
						time="00:28.333"
						level="Info"
						category="Delay">
						<message>
							Waiting for 500ms.
						</message>
						<metainfo
							itemindex="0"
							codefile="c:\Users\JohnPloumis\Documents\Ranorex\RanorexStudio Projects\ranorex_testautomation\madaket_XP001\New_Payer_ValidData.cs"
							codeline="82"
							loglvl="Info">
						</metainfo>
					</item>
					<item
						timeRelativeToTestSuiteStartTime="00:28.922"
						timeRelativeToTestModuleStartTime="00:00.595"
						timeWallClock="16:21:38"
						time="00:28.922"
						level="Info"
						category="Invoke action">
						<message>
							Invoking Focus() on item 'MadaketHealth.DivTagPayers'.
						</message>
						<metainfo
							type="repoitem"
							path="/dom[@domain='edi-alpha.madakethealth.com']//nav[#'mainNav']/ul//div[@innertext='Payers']"
							itempath=".//nav[#'mainNav']/ul//div[@innertext='Payers']"
							fullname="madaket_XP001Repository.MadaketHealth.DivTagPayers"
							id="29cc9e25aab349529ce160a3bd60a2f5"
							timeout="60000"
							codefile="c:\Users\JohnPloumis\Documents\Ranorex\RanorexStudio Projects\ranorex_testautomation\madaket_XP001\New_Payer_ValidData.cs"
							codeline="85"
							itemindex="1"
							loglvl="Info">
						</metainfo>
					</item>
					<item
						timeRelativeToTestSuiteStartTime="00:29.956"
						timeRelativeToTestModuleStartTime="00:01.629"
						timeWallClock="16:21:39"
						time="00:29.956"
						level="Info"
						category="Mouse">
						<message>
							Mouse Left Click item 'MadaketHealth.DivTagPayers' at 16;20.
						</message>
						<metainfo
							type="repoitem"
							path="/dom[@domain='edi-alpha.madakethealth.com']//nav[#'mainNav']/ul//div[@innertext='Payers']"
							itempath=".//nav[#'mainNav']/ul//div[@innertext='Payers']"
							fullname="madaket_XP001Repository.MadaketHealth.DivTagPayers"
							id="29cc9e25aab349529ce160a3bd60a2f5"
							timeout="60000"
							codefile="c:\Users\JohnPloumis\Documents\Ranorex\RanorexStudio Projects\ranorex_testautomation\madaket_XP001\New_Payer_ValidData.cs"
							codeline="88"
							itemindex="2"
							loglvl="Info">
						</metainfo>
					</item>
					<item
						timeRelativeToTestSuiteStartTime="00:31.923"
						timeRelativeToTestModuleStartTime="00:03.596"
						timeWallClock="16:21:41"
						time="00:31.923"
						level="Info"
						category="Invoke action">
						<message>
							Invoking Focus() on item 'MadaketHealth.linkNewPayer'.
						</message>
						<metainfo
							type="repoitem"
							path="/dom[@domain='edi-alpha.madakethealth.com']//a[#'payorClick']"
							itempath=".//a[#'payorClick']"
							fullname="madaket_XP001Repository.MadaketHealth.linkNewPayer"
							id="0e40999c158242618af66e1af1edf093"
							timeout="60000"
							codefile="c:\Users\JohnPloumis\Documents\Ranorex\RanorexStudio Projects\ranorex_testautomation\madaket_XP001\New_Payer_ValidData.cs"
							codeline="91"
							itemindex="3"
							loglvl="Info">
						</metainfo>
					</item>
					<item
						timeRelativeToTestSuiteStartTime="00:33.000"
						timeRelativeToTestModuleStartTime="00:04.673"
						timeWallClock="16:21:42"
						time="00:33.000"
						level="Info"
						category="Mouse">
						<message>
							Mouse Left Click item 'MadaketHealth.linkNewPayer' at 34;13.
						</message>
						<metainfo
							type="repoitem"
							path="/dom[@domain='edi-alpha.madakethealth.com']//a[#'payorClick']"
							itempath=".//a[#'payorClick']"
							fullname="madaket_XP001Repository.MadaketHealth.linkNewPayer"
							id="0e40999c158242618af66e1af1edf093"
							timeout="60000"
							codefile="c:\Users\JohnPloumis\Documents\Ranorex\RanorexStudio Projects\ranorex_testautomation\madaket_XP001\New_Payer_ValidData.cs"
							codeline="94"
							itemindex="4"
							loglvl="Info">
						</metainfo>
					</item>
					<item
						timeRelativeToTestSuiteStartTime="00:34.757"
						timeRelativeToTestModuleStartTime="00:06.430"
						timeWallClock="16:21:44"
						time="00:34.757"
						level="Info"
						category="Invoke action">
						<message>
							Invoking Focus() on item 'MadaketHealth.PayorName'.
						</message>
						<metainfo
							type="repoitem"
							path="/dom[@domain='edi-alpha.madakethealth.com']//input[#'payorName']"
							itempath=".//input[#'payorName']"
							fullname="madaket_XP001Repository.MadaketHealth.PayorName"
							id="c60f64d457204be3b0c571ec0261f3c7"
							timeout="60000"
							codefile="c:\Users\JohnPloumis\Documents\Ranorex\RanorexStudio Projects\ranorex_testautomation\madaket_XP001\New_Payer_ValidData.cs"
							codeline="97"
							itemindex="5"
							loglvl="Info">
						</metainfo>
					</item>
					<item
						timeRelativeToTestSuiteStartTime="00:35.736"
						timeRelativeToTestModuleStartTime="00:07.409"
						timeWallClock="16:21:45"
						time="00:35.736"
						level="Info"
						category="Mouse">
						<message>
							Mouse Left Click item 'MadaketHealth.PayorName' at Center.
						</message>
						<metainfo
							type="repoitem"
							path="/dom[@domain='edi-alpha.madakethealth.com']//input[#'payorName']"
							itempath=".//input[#'payorName']"
							fullname="madaket_XP001Repository.MadaketHealth.PayorName"
							id="c60f64d457204be3b0c571ec0261f3c7"
							timeout="60000"
							codefile="c:\Users\JohnPloumis\Documents\Ranorex\RanorexStudio Projects\ranorex_testautomation\madaket_XP001\New_Payer_ValidData.cs"
							codeline="100"
							itemindex="6"
							loglvl="Info">
						</metainfo>
					</item>
					<item
						timeRelativeToTestSuiteStartTime="00:37.577"
						timeRelativeToTestModuleStartTime="00:09.250"
						timeWallClock="16:21:46"
						time="00:37.577"
						level="Info"
						category="Set value">
						<message>
							Setting attribute Value to 'test_payer_automation_XP002' on item 'MadaketHealth.PayorName'.
						</message>
						<metainfo
							type="repoitem"
							path="/dom[@domain='edi-alpha.madakethealth.com']//input[#'payorName']"
							itempath=".//input[#'payorName']"
							fullname="madaket_XP001Repository.MadaketHealth.PayorName"
							id="c60f64d457204be3b0c571ec0261f3c7"
							timeout="60000"
							codefile="c:\Users\JohnPloumis\Documents\Ranorex\RanorexStudio Projects\ranorex_testautomation\madaket_XP001\New_Payer_ValidData.UserCode.cs"
							codeline="38"
							itemindex="3"
							loglvl="Info">
						</metainfo>
					</item>
					<item
						timeRelativeToTestSuiteStartTime="00:38.377"
						timeRelativeToTestModuleStartTime="00:10.050"
						timeWallClock="16:21:47"
						time="00:38.377"
						level="Info"
						category="Delay">
						<message>
							Waiting for 500ms.
						</message>
						<metainfo
							itemindex="8"
							codefile="c:\Users\JohnPloumis\Documents\Ranorex\RanorexStudio Projects\ranorex_testautomation\madaket_XP001\New_Payer_ValidData.cs"
							codeline="105"
							loglvl="Info">
						</metainfo>
					</item>
					<item
						timeRelativeToTestSuiteStartTime="00:38.937"
						timeRelativeToTestModuleStartTime="00:10.610"
						timeWallClock="16:21:48"
						time="00:38.937"
						level="Info"
						category="Invoke action">
						<message>
							Invoking Focus() on item 'MadaketHealth.PopupScrollContainer'.
						</message>
						<metainfo
							type="repoitem"
							path="/dom[@domain='edi-alpha.madakethealth.com']//div[#'editPayorPopup']/div[2]"
							itempath=".//div[#'editPayorPopup']/div[2]"
							fullname="madaket_XP001Repository.MadaketHealth.PopupScrollContainer"
							id="f53c44ed5bb14893839e2b7cdc4d3ef7"
							timeout="60000"
							codefile="c:\Users\JohnPloumis\Documents\Ranorex\RanorexStudio Projects\ranorex_testautomation\madaket_XP001\New_Payer_ValidData.cs"
							codeline="108"
							itemindex="9"
							loglvl="Info">
						</metainfo>
					</item>
					<item
						timeRelativeToTestSuiteStartTime="00:39.649"
						timeRelativeToTestModuleStartTime="00:11.322"
						timeWallClock="16:21:48"
						time="00:39.649"
						level="Info"
						category="Mouse">
						<message>
							Mouse Left Click item 'MadaketHealth.PopupScrollContainer' at LowerRight.
						</message>
						<metainfo
							type="repoitem"
							path="/dom[@domain='edi-alpha.madakethealth.com']//div[#'editPayorPopup']/div[2]"
							itempath=".//div[#'editPayorPopup']/div[2]"
							fullname="madaket_XP001Repository.MadaketHealth.PopupScrollContainer"
							id="f53c44ed5bb14893839e2b7cdc4d3ef7"
							timeout="60000"
							codefile="c:\Users\JohnPloumis\Documents\Ranorex\RanorexStudio Projects\ranorex_testautomation\madaket_XP001\New_Payer_ValidData.cs"
							codeline="111"
							itemindex="10"
							loglvl="Info">
						</metainfo>
					</item>
					<item
						timeRelativeToTestSuiteStartTime="00:41.307"
						timeRelativeToTestModuleStartTime="00:12.980"
						timeWallClock="16:21:50"
						time="00:41.307"
						level="Info"
						category="Set value">
						<message>
							Setting attribute Value to '101 main street' on item 'MadaketHealth.TxtStreet1'.
						</message>
						<metainfo
							type="repoitem"
							path="/dom[@domain='edi-alpha.madakethealth.com']//input[#'txt_street1']"
							itempath=".//input[#'txt_street1']"
							fullname="madaket_XP001Repository.MadaketHealth.TxtStreet1"
							id="140f920df0e2418ca6177c3fcaa08df8"
							timeout="60000"
							codefile="c:\Users\JohnPloumis\Documents\Ranorex\RanorexStudio Projects\ranorex_testautomation\madaket_XP001\New_Payer_ValidData.cs"
							codeline="114"
							itemindex="11"
							loglvl="Info">
						</metainfo>
					</item>
					<item
						timeRelativeToTestSuiteStartTime="00:42.033"
						timeRelativeToTestModuleStartTime="00:13.706"
						timeWallClock="16:21:51"
						time="00:42.033"
						level="Info"
						category="Mouse">
						<message>
							Mouse Left Click item 'MadaketHealth.TxtCity' at 130;7.
						</message>
						<metainfo
							type="repoitem"
							path="/dom[@domain='edi-alpha.madakethealth.com']//input[#'txt_city']"
							itempath=".//input[#'txt_city']"
							fullname="madaket_XP001Repository.MadaketHealth.TxtCity"
							id="275ef8ae16904ae689a4001c02a10d08"
							timeout="60000"
							codefile="c:\Users\JohnPloumis\Documents\Ranorex\RanorexStudio Projects\ranorex_testautomation\madaket_XP001\New_Payer_ValidData.cs"
							codeline="117"
							itemindex="12"
							loglvl="Info">
						</metainfo>
					</item>
					<item
						timeRelativeToTestSuiteStartTime="00:43.822"
						timeRelativeToTestModuleStartTime="00:15.495"
						timeWallClock="16:21:53"
						time="00:43.822"
						level="Info"
						category="Set value">
						<message>
							Setting attribute Value to 'Boston' on item 'MadaketHealth.TxtCity'.
						</message>
						<metainfo
							type="repoitem"
							path="/dom[@domain='edi-alpha.madakethealth.com']//input[#'txt_city']"
							itempath=".//input[#'txt_city']"
							fullname="madaket_XP001Repository.MadaketHealth.TxtCity"
							id="275ef8ae16904ae689a4001c02a10d08"
							timeout="60000"
							codefile="c:\Users\JohnPloumis\Documents\Ranorex\RanorexStudio Projects\ranorex_testautomation\madaket_XP001\New_Payer_ValidData.cs"
							codeline="120"
							itemindex="13"
							loglvl="Info">
						</metainfo>
					</item>
					<item
						timeRelativeToTestSuiteStartTime="00:44.568"
						timeRelativeToTestModuleStartTime="00:16.241"
						timeWallClock="16:21:53"
						time="00:44.568"
						level="Info"
						category="Set value">
						<message>
							Setting attribute TagValue to 'MA' on item 'MadaketHealth.TxtState'.
						</message>
						<metainfo
							type="repoitem"
							path="/dom[@domain='edi-alpha.madakethealth.com']//select[#'txt_state']"
							itempath=".//select[#'txt_state']"
							fullname="madaket_XP001Repository.MadaketHealth.TxtState"
							id="ebe2033877a44d918170bb47fee05430"
							timeout="60000"
							codefile="c:\Users\JohnPloumis\Documents\Ranorex\RanorexStudio Projects\ranorex_testautomation\madaket_XP001\New_Payer_ValidData.cs"
							codeline="123"
							itemindex="14"
							loglvl="Info">
						</metainfo>
					</item>
					<item
						timeRelativeToTestSuiteStartTime="00:45.319"
						timeRelativeToTestModuleStartTime="00:16.993"
						timeWallClock="16:21:54"
						time="00:45.319"
						level="Info"
						category="Mouse">
						<message>
							Mouse Left Click item 'MadaketHealth.PopupScrollContainer' at LowerRight.
						</message>
						<metainfo
							type="repoitem"
							path="/dom[@domain='edi-alpha.madakethealth.com']//div[#'editPayorPopup']/div[2]"
							itempath=".//div[#'editPayorPopup']/div[2]"
							fullname="madaket_XP001Repository.MadaketHealth.PopupScrollContainer"
							id="f53c44ed5bb14893839e2b7cdc4d3ef7"
							timeout="60000"
							codefile="c:\Users\JohnPloumis\Documents\Ranorex\RanorexStudio Projects\ranorex_testautomation\madaket_XP001\New_Payer_ValidData.cs"
							codeline="126"
							itemindex="15"
							loglvl="Info">
						</metainfo>
					</item>
					<item
						timeRelativeToTestSuiteStartTime="00:46.937"
						timeRelativeToTestModuleStartTime="00:18.610"
						timeWallClock="16:21:56"
						time="00:46.937"
						level="Info"
						category="Mouse">
						<message>
							Mouse Left Click item 'MadaketHealth.FirstName' at 146;8.
						</message>
						<metainfo
							type="repoitem"
							path="/dom[@domain='edi-alpha.madakethealth.com']//input[#'firstName']"
							itempath=".//input[#'firstName']"
							fullname="madaket_XP001Repository.MadaketHealth.FirstName"
							id="d3da3f164ae640b5b1e62605679d50af"
							timeout="60000"
							codefile="c:\Users\JohnPloumis\Documents\Ranorex\RanorexStudio Projects\ranorex_testautomation\madaket_XP001\New_Payer_ValidData.cs"
							codeline="129"
							itemindex="16"
							loglvl="Info">
						</metainfo>
					</item>
					<item
						timeRelativeToTestSuiteStartTime="00:48.920"
						timeRelativeToTestModuleStartTime="00:20.593"
						timeWallClock="16:21:58"
						time="00:48.920"
						level="Info"
						category="Keyboard">
						<message>
							Key sequence 'test{Tab}payer' with focus on 'MadaketHealth.FirstName'.
						</message>
						<metainfo
							type="repoitem"
							path="/dom[@domain='edi-alpha.madakethealth.com']//input[#'firstName']"
							itempath=".//input[#'firstName']"
							fullname="madaket_XP001Repository.MadaketHealth.FirstName"
							id="d3da3f164ae640b5b1e62605679d50af"
							timeout="60000"
							codefile="c:\Users\JohnPloumis\Documents\Ranorex\RanorexStudio Projects\ranorex_testautomation\madaket_XP001\New_Payer_ValidData.cs"
							codeline="132"
							itemindex="17"
							loglvl="Info">
						</metainfo>
					</item>
					<item
						timeRelativeToTestSuiteStartTime="00:51.326"
						timeRelativeToTestModuleStartTime="00:22.999"
						timeWallClock="16:22:00"
						time="00:51.326"
						level="Info"
						category="Keyboard">
						<message>
							Key sequence '{Tab}'.
						</message>
						<metainfo
							itemindex="18"
							codefile="c:\Users\JohnPloumis\Documents\Ranorex\RanorexStudio Projects\ranorex_testautomation\madaket_XP001\New_Payer_ValidData.cs"
							codeline="135"
							loglvl="Info">
						</metainfo>
					</item>
					<item
						timeRelativeToTestSuiteStartTime="00:51.515"
						timeRelativeToTestModuleStartTime="00:23.188"
						timeWallClock="16:22:00"
						time="00:51.515"
						level="Info"
						category="Keyboard">
						<message>
							Key sequence 'test.payer{LShiftKey down}{@ down}{LShiftKey up}payer.com'.
						</message>
						<metainfo
							itemindex="19"
							codefile="c:\Users\JohnPloumis\Documents\Ranorex\RanorexStudio Projects\ranorex_testautomation\madaket_XP001\New_Payer_ValidData.cs"
							codeline="138"
							loglvl="Info">
						</metainfo>
					</item>
					<item
						timeRelativeToTestSuiteStartTime="00:52.183"
						timeRelativeToTestModuleStartTime="00:23.856"
						timeWallClock="16:22:01"
						time="00:52.183"
						level="Info"
						category="Mouse"
						errimg="images_madaket__a213855e\madaket__a213855e_bba1de07_trace.jpg"
						errthumb="images_madaket__a213855e\madaket__a213855e_bba1de07_trace_thumb.jpg">
						<message>
							Mouse Left Click item 'MadaketHealth.btnSavePayor' at 50;9.
						</message>
						<metainfo
							type="repoitem"
							path="/dom[@domain='edi-alpha.madakethealth.com']//button[#'savePayorButton']"
							itempath=".//button[#'savePayorButton']"
							fullname="madaket_XP001Repository.MadaketHealth.btnSavePayor"
							id="ab96c6bd2749404d82d6f94d5830ab20"
							timeout="60000"
							codefile="c:\Users\JohnPloumis\Documents\Ranorex\RanorexStudio Projects\ranorex_testautomation\madaket_XP001\New_Payer_ValidData.cs"
							codeline="141"
							itemindex="20"
							loglvl="Info">
						</metainfo>
					</item>
					<item
						timeRelativeToTestSuiteStartTime="00:54.289"
						timeRelativeToTestModuleStartTime="00:25.963"
						timeWallClock="16:22:03"
						time="00:54.289"
						level="Info"
						category="Mouse"
						errimg="images_madaket__a213855e\madaket__a213855e_174b1c10_trace.jpg"
						errthumb="images_madaket__a213855e\madaket__a213855e_174b1c10_trace_thumb.jpg">
						<message>
							Mouse Left Click item 'MadaketHealth.PayerGeneralDetailsDiv.DivTagTestPayerAutomationXP0' at 96;9.
						</message>
						<metainfo
							type="repoitem"
							path="/dom[@domain='edi-alpha.madakethealth.com']//div[#'payerGeneralDetailsDiv']//div[@innertext~'^test_payer_autom']"
							itempath=".//div[@innertext~'^test_payer_autom']"
							fullname="madaket_XP001Repository.MadaketHealth.PayerGeneralDetailsDiv.DivTagTestPayerAutomationXP0"
							id="0e44183f677548639bb83854085d8ec1"
							timeout="90000"
							codefile="c:\Users\JohnPloumis\Documents\Ranorex\RanorexStudio Projects\ranorex_testautomation\madaket_XP001\New_Payer_ValidData.cs"
							codeline="144"
							itemindex="21"
							loglvl="Info">
						</metainfo>
					</item>
					<item
						timeRelativeToTestSuiteStartTime="02:25.149"
						timeRelativeToTestModuleStartTime="01:56.823"
						timeWallClock="16:23:34"
						time="02:25.149"
						level="Error"
						category="Module"
						errimg="images_madaket__a213855e\madaket__a213855e_84fb4115_trace.jpg"
						errthumb="images_madaket__a213855e\madaket__a213855e_84fb4115_trace_thumb.jpg">
						<message>
							Failed to find item 'madaket_XP001Repository.MadaketHealth.PayerGeneralDetailsDiv.DivTagTestPayerAutomationXP0'.<br/>No element found for path '/dom[@domain='edi-alpha.madakethealth.com']//div[#'payerGeneralDetailsDiv']//div[@innertext~'^test_payer_autom']' within 1.5m.
						</message>
						<metainfo
							stacktrace="   at Ranorex.Core.Repository.RepoItemInfo.FindInternal[T](Boolean findSingle, Boolean throwException, Duration effectiveTimeoutOverride)&#13;&#10;   at Ranorex.Core.Repository.RepoItemInfo.&lt;>c__DisplayClass75_0`1.&lt;Find>b__0()&#13;&#10;   at Ranorex.Core.Testing.Services.NoMaintenanceModeService.HandleElementNotFound[T](Func`1 action, RepoItemInfo entry)&#13;&#10;   at Ranorex.Core.Repository.RepoItemInfo.Find[T](Boolean findSingle, Boolean throwException, Duration effectiveTimeoutOverride)&#13;&#10;   at Ranorex.Core.Repository.RepoItemInfo.CreateAdapter[T](Boolean throwException, Duration waitTimeout)&#13;&#10;   at Ranorex.Core.Repository.RepoItemInfo.CreateAdapter[T](Boolean throwException)&#13;&#10;   at madaket_XP001.madaket_XP001RepositoryFolders.PayerGeneralDetailsDivFolder.get_DivTagTestPayerAutomationXP0() in c:\Users\JohnPloumis\Documents\Ranorex\RanorexStudio Projects\ranorex_testautomation\madaket_XP001\madaket_XP001Repository.cs:line 4595&#13;&#10;   at madaket_XP001.New_Payer_ValidData.Ranorex.Core.Testing.ITestModule.Run() in c:\Users\JohnPloumis\Documents\Ranorex\RanorexStudio Projects\ranorex_testautomation\madaket_XP001\New_Payer_ValidData.cs:line 145&#13;&#10;   at Ranorex.Core.Testing.TestModuleLeaf.RunInternal(DataContext parentDataContext, Int32 iteration, Int32 iterationCount, Boolean skipIteration)"
							codefile="c:\Users\JohnPloumis\Documents\Ranorex\RanorexStudio Projects\ranorex_testautomation\madaket_XP001\New_Payer_ValidData.cs"
							codeline="145"
							type="repoitem"
							path="/dom[@domain='edi-alpha.madakethealth.com']//div[#'payerGeneralDetailsDiv']//div[@innertext~'^test_payer_autom']"
							itempath=".//div[@innertext~'^test_payer_autom']"
							fullname="madaket_XP001Repository.MadaketHealth.PayerGeneralDetailsDiv.DivTagTestPayerAutomationXP0"
							id="0e44183f677548639bb83854085d8ec1"
							timeout="90000"
							loglvl="Error"
							itemindex="21">
						</metainfo>
					</item>
				</activity>
			</activity>
		</activity>
	</activity>
</report>
