﻿<?xml version="1.0" encoding="utf-8"?>
<report
	progress="">
	<activity
		result="Failed"
		duration="0ms"
		durationms="0"
		type="root"
		rid="113f5054b9e6acfc"
		totalerrorcount="1"
		totalwarningcount="0"
		totalsuccesstestcasecount="0"
		totalfailedtestcasecount="0"
		totalblockedtestcasecount="0"
		childsuccesscount="0"
		childfailedcount="0"
		childblockedcount="0"
		totalsuccesscount="0"
		totalfailedcount="0"
		totalblockedcount="0"
		totalmaintenancemodecount="0"
		user="JohnPloumis"
		rxversion="8.3.1.0"
		host="LAPTOP-5EO8DNU1"
		osversion="Windows 10 64bit"
		runtimeversion="4.0.30319.42000"
		procarch="32bit"
		oslanguage="en-US"
		dtnlanguage="en-US"
		screenresolution="1366x768"
		timestamp="11/28/2018 12:47:42 PM"
		timestampiso="2018-11-28T17:47:42"
		endtime="11/28/2018 12:47:47 PM"
		timeoutfactor="1"
		module="Madaket_login">
		<detail>
			Madaket_login
		</detail>
		<errormessage>
			Failed to open URL 'https://edi-alpha.madakethealth.com/services/logout' with browser Chrome.
		</errormessage>
		<varbindings>
		</varbindings>
		<item
			timeRelativeToTestSuiteStartTime="00:04.433"
			timeRelativeToTestModuleStartTime="00:04.434"
			timeWallClock="12:47:46"
			time="00:04.433"
			level="Info"
			category="Website"
			errimg=".\Madaket__e71b4423_a461ecf7_trace.jpg"
			errthumb=".\Madaket__e71b4423_a461ecf7_trace_thumb.jpg">
			<message>
				Opening web site 'https://edi-alpha.madakethealth.com/services/logout' with browser 'Chrome' in maximized mode.
			</message>
			<metainfo
				itemindex="2"
				codefile="c:\Users\JohnPloumis\Documents\Ranorex\RanorexStudio Projects\ranorex_testautomation\madaket_XP001\Madaket_login.cs"
				codeline="86"
				loglvl="Info">
			</metainfo>
		</item>
		<item
			timeRelativeToTestSuiteStartTime="00:04.649"
			timeRelativeToTestModuleStartTime="00:04.650"
			timeWallClock="12:47:46"
			time="00:04.649"
			level="Error"
			category="Module"
			errimg=".\Madaket__e71b4423_4ffffcb3_trace.jpg"
			errthumb=".\Madaket__e71b4423_4ffffcb3_trace_thumb.jpg">
			<message>
				Failed to open URL 'https://edi-alpha.madakethealth.com/services/logout' with browser Chrome.<br/>The process cannot access the file 'C:\Users\JohnPloumis\AppData\Local\Google\Chrome\User Data\Default\Cookies' because it is being used by another process.
			</message>
			<metainfo
				stacktrace="   at Ranorex.Host.OpenBrowser(String url, String browserName, String browserArgs, Boolean killExisting, Boolean maximized, Boolean clearCache, Boolean incognitoMode, Boolean clearCookies, Boolean instrument)
   at madaket_XP001.Madaket_login.Ranorex.Core.Testing.ITestModule.Run() in c:\Users\JohnPloumis\Documents\Ranorex\RanorexStudio Projects\ranorex_testautomation\madaket_XP001\Madaket_login.cs:line 87
   at Ranorex.Core.Testing.TestModuleLeaf.RunInternal(DataContext parentDataContext, Int32 iteration, Int32 iterationCount, Boolean skipIteration)"
				codefile="c:\Users\JohnPloumis\Documents\Ranorex\RanorexStudio Projects\ranorex_testautomation\madaket_XP001\Madaket_login.cs"
				codeline="87"
				loglvl="Error"
				itemindex="2">
			</metainfo>
		</item>
	</activity>
</report>
