﻿<?xml version="1.0" encoding="utf-8"?>
<report
	progress="">
	<activity
		result="Failed"
		duration="51.25s"
		durationms="51254"
		type="root"
		rid="e8cf72cd73f4cfd"
		totalerrorcount="1"
		totalwarningcount="0"
		totalsuccesstestcasecount="0"
		totalfailedtestcasecount="1"
		totalblockedtestcasecount="0"
		childsuccesscount="0"
		childfailedcount="1"
		childblockedcount="0"
		totalsuccesscount="0"
		totalfailedcount="1"
		totalblockedcount="0"
		totalmaintenancemodecount="0"
		user="JohnPloumis"
		rxversion="8.2.1.0"
		host="LAPTOP-5EO8DNU1"
		osversion="Windows 10 64bit"
		runtimeversion="4.0.30319.42000"
		procarch="32bit"
		oslanguage="en-US"
		dtnlanguage="en-US"
		screenresolution="1366x768"
		timestamp="10/4/2018 3:49:12 PM"
		timestampiso="2018-10-04T19:49:12"
		endtime="10/4/2018 3:50:04 PM"
		timeoutfactor="1">
		<detail>
			Ranorex Testscript
		</detail>
		<activity
			result="Failed"
			duration="51.25s"
			durationms="51246"
			type="test-suite"
			rid="76c9d2ec2d1fd38"
			totalerrorcount="1"
			totalwarningcount="0"
			totalsuccesstestcasecount="0"
			totalfailedtestcasecount="1"
			totalblockedtestcasecount="0"
			childsuccesscount="0"
			childfailedcount="1"
			childblockedcount="0"
			totalsuccesscount="0"
			totalfailedcount="1"
			totalblockedcount="0"
			totalmaintenancemodecount="0"
			testsuitename="madaket_XP001"
			headertext="madaket_XP001"
			runconfigname="TestRun"
			runlabel="">
			<params>
			</params>
			<activity
				result="Failed"
				duration="51.2s"
				durationms="51199"
				type="test-case"
				rid="1e5c408d94860b4c"
				totalerrorcount="1"
				totalwarningcount="0"
				totalsuccesstestcasecount="0"
				totalfailedtestcasecount="1"
				totalblockedtestcasecount="0"
				childsuccesscount="2"
				childfailedcount="1"
				childblockedcount="0"
				totalsuccesscount="0"
				totalfailedcount="1"
				totalblockedcount="0"
				totalmaintenancemodecount="0"
				testcontainername="Madaket_XP"
				testcontainerid="2b1c309f-44ad-4542-9e87-47b21dcdd499"
				headertext="Madaket_XP"
				displayName="Madaket_XP"
				iteration="1"
				activity-exectype="execute"
				conditionstate="none">
				<activity
					result="Success"
					duration="7.23s"
					durationms="7231"
					type="test-module"
					rid="27179c0972060eb0"
					totalerrorcount="0"
					totalwarningcount="0"
					totalsuccesstestcasecount="0"
					totalfailedtestcasecount="0"
					totalblockedtestcasecount="0"
					childsuccesscount="0"
					childfailedcount="0"
					childblockedcount="0"
					totalsuccesscount="0"
					totalfailedcount="0"
					totalblockedcount="0"
					totalmaintenancemodecount="0"
					modulename="Madaket_login"
					displayName="Madaket_login"
					moduleid="7047a381-6113-4a38-ab95-4ef2d01b9d0f"
					moduletype="Recording"
					iteration="1"
					activity-exectype="execute"
					testentry-activity-type="testmodule">
					<varbindings>
					</varbindings>
					<item
						timeRelativeToTestSuiteStartTime="00:00.468"
						timeRelativeToTestModuleStartTime="00:00.015"
						timeWallClock="15:49:13"
						time="00:00.468"
						level="Info"
						category="Website">
						<message>
							Opening web site 'https://edi-alpha.madakethealth.com/services/logout' with browser 'IE' in normal mode.
						</message>
						<metainfo
							itemindex="0"
							codefile="c:\Users\JohnPloumis\Documents\Ranorex\RanorexStudio Projects\madaket_XP001\madaket_XP001\Madaket_login.cs"
							codeline="82"
							loglvl="Info">
						</metainfo>
					</item>
					<item
						timeRelativeToTestSuiteStartTime="00:01.122"
						timeRelativeToTestModuleStartTime="00:00.669"
						timeWallClock="15:49:13"
						time="00:01.122"
						level="Info"
						category="Mouse">
						<message>
							Mouse Left Click item 'MadaketHealth.txtUsername' at 34;8.
						</message>
						<metainfo
							type="repoitem"
							path="/dom[@caption='Madaket Health']//input[#'username']"
							itempath=".//input[#'username']"
							fullname="madaket_XP001Repository.MadaketHealth.txtUsername"
							id="ad40a45ba47543068e211d52f3633bf0"
							timeout="60000"
							codefile="c:\Users\JohnPloumis\Documents\Ranorex\RanorexStudio Projects\madaket_XP001\madaket_XP001\Madaket_login.cs"
							codeline="85"
							itemindex="1"
							loglvl="Info">
						</metainfo>
					</item>
					<item
						timeRelativeToTestSuiteStartTime="00:05.098"
						timeRelativeToTestModuleStartTime="00:04.645"
						timeWallClock="15:49:17"
						time="00:05.098"
						level="Info"
						category="Keyboard">
						<message>
							Key sequence 'jploumis{LShiftKey down}{@ down}{LShiftKey up}madakethealth.com{Tab}' with focus on 'MadaketHealth.txtUsername'.
						</message>
						<metainfo
							type="repoitem"
							path="/dom[@caption='Madaket Health']//input[#'username']"
							itempath=".//input[#'username']"
							fullname="madaket_XP001Repository.MadaketHealth.txtUsername"
							id="ad40a45ba47543068e211d52f3633bf0"
							timeout="60000"
							codefile="c:\Users\JohnPloumis\Documents\Ranorex\RanorexStudio Projects\madaket_XP001\madaket_XP001\Madaket_login.cs"
							codeline="88"
							itemindex="2"
							loglvl="Info">
						</metainfo>
					</item>
					<item
						timeRelativeToTestSuiteStartTime="00:06.400"
						timeRelativeToTestModuleStartTime="00:05.946"
						timeWallClock="15:49:19"
						time="00:06.400"
						level="Info"
						category="Keyboard">
						<message>
							Key sequence 'Monkey1213{LShiftKey down}{! down}{LShiftKey up}'.
						</message>
						<metainfo
							itemindex="3"
							codefile="c:\Users\JohnPloumis\Documents\Ranorex\RanorexStudio Projects\madaket_XP001\madaket_XP001\Madaket_login.cs"
							codeline="91"
							loglvl="Info">
						</metainfo>
					</item>
					<item
						timeRelativeToTestSuiteStartTime="00:06.876"
						timeRelativeToTestModuleStartTime="00:06.423"
						timeWallClock="15:49:19"
						time="00:06.876"
						level="Info"
						category="Validation">
						<message>
							Validating Exists on item 'MadaketHealth.btnLogin'.
						</message>
						<metainfo
							type="repoitem"
							path="/dom[@caption='Madaket Health']//input[#'loginButton']"
							itempath=".//input[#'loginButton']"
							fullname="madaket_XP001Repository.MadaketHealth.btnLogin"
							id="29776b9350984c58bf5308f720d7bca4"
							timeout="60000"
							codefile="c:\Users\JohnPloumis\Documents\Ranorex\RanorexStudio Projects\madaket_XP001\madaket_XP001\Madaket_login.cs"
							codeline="94"
							itemindex="4"
							loglvl="Info">
						</metainfo>
					</item>
					<item
						timeRelativeToTestSuiteStartTime="00:07.095"
						timeRelativeToTestModuleStartTime="00:06.642"
						timeWallClock="15:49:19"
						time="00:07.095"
						level="Success"
						category="Validation">
						<message>
							Element for item 'btnLogin' does exist.
						</message>
						<metainfo
							type="repoitem"
							path="/dom[@caption='Madaket Health']//input[#'loginButton']"
							itempath=".//input[#'loginButton']"
							fullname="madaket_XP001Repository.MadaketHealth.btnLogin"
							id="29776b9350984c58bf5308f720d7bca4"
							timeout="60000"
							codefile="c:\Users\JohnPloumis\Documents\Ranorex\RanorexStudio Projects\madaket_XP001\madaket_XP001\Madaket_login.cs"
							codeline="95"
							loglvl="Success"
							itemindex="4">
						</metainfo>
					</item>
					<item
						timeRelativeToTestSuiteStartTime="00:07.126"
						timeRelativeToTestModuleStartTime="00:06.673"
						timeWallClock="15:49:19"
						time="00:07.126"
						level="Info"
						category="Mouse">
						<message>
							Mouse Left Click item 'MadaketHealth.btnLogin' at 62;12.
						</message>
						<metainfo
							type="repoitem"
							path="/dom[@caption='Madaket Health']//input[#'loginButton']"
							itempath=".//input[#'loginButton']"
							fullname="madaket_XP001Repository.MadaketHealth.btnLogin"
							id="29776b9350984c58bf5308f720d7bca4"
							timeout="60000"
							codefile="c:\Users\JohnPloumis\Documents\Ranorex\RanorexStudio Projects\madaket_XP001\madaket_XP001\Madaket_login.cs"
							codeline="97"
							itemindex="5"
							loglvl="Info">
						</metainfo>
					</item>
				</activity>
				<activity
					result="Success"
					duration="8.25s"
					durationms="8245"
					type="test-module"
					rid="dcbf2339a79f257"
					totalerrorcount="0"
					totalwarningcount="0"
					totalsuccesstestcasecount="0"
					totalfailedtestcasecount="0"
					totalblockedtestcasecount="0"
					childsuccesscount="0"
					childfailedcount="0"
					childblockedcount="0"
					totalsuccesscount="0"
					totalfailedcount="0"
					totalblockedcount="0"
					totalmaintenancemodecount="0"
					modulename="New_Payer_NoData"
					displayName="New_Payer_NoData"
					moduleid="c2c3f592-c70a-4a42-9f69-8f7f27722dc4"
					moduletype="Recording"
					iteration="1"
					activity-exectype="execute"
					testentry-activity-type="testmodule">
					<varbindings>
					</varbindings>
					<item
						timeRelativeToTestSuiteStartTime="00:07.684"
						timeRelativeToTestModuleStartTime="00:00.000"
						timeWallClock="15:49:20"
						time="00:07.684"
						level="Info"
						category="Mouse">
						<message>
							Mouse Left Click item 'MadaketHealth.DivTagPayers' at 16;21.
						</message>
						<metainfo
							type="repoitem"
							path="/dom[@caption='Madaket Health']//nav[#'mainNav']/ul//div[@innertext='Payers']"
							itempath=".//nav[#'mainNav']/ul//div[@innertext='Payers']"
							fullname="madaket_XP001Repository.MadaketHealth.DivTagPayers"
							id="29cc9e25aab349529ce160a3bd60a2f5"
							timeout="60000"
							codefile="c:\Users\JohnPloumis\Documents\Ranorex\RanorexStudio Projects\madaket_XP001\madaket_XP001\New_Payer_NoData.cs"
							codeline="82"
							itemindex="0"
							loglvl="Info">
						</metainfo>
					</item>
					<item
						timeRelativeToTestSuiteStartTime="00:11.621"
						timeRelativeToTestModuleStartTime="00:03.937"
						timeWallClock="15:49:24"
						time="00:11.621"
						level="Info"
						category="Mouse">
						<message>
							Mouse Left Click item 'MadaketHealth.linkNewPayer' at 46;12.
						</message>
						<metainfo
							type="repoitem"
							path="/dom[@caption='Madaket Health']//a[#'payorClick']"
							itempath=".//a[#'payorClick']"
							fullname="madaket_XP001Repository.MadaketHealth.linkNewPayer"
							id="0e40999c158242618af66e1af1edf093"
							timeout="60000"
							codefile="c:\Users\JohnPloumis\Documents\Ranorex\RanorexStudio Projects\madaket_XP001\madaket_XP001\New_Payer_NoData.cs"
							codeline="85"
							itemindex="1"
							loglvl="Info">
						</metainfo>
					</item>
					<item
						timeRelativeToTestSuiteStartTime="00:12.735"
						timeRelativeToTestModuleStartTime="00:05.051"
						timeWallClock="15:49:25"
						time="00:12.735"
						level="Info"
						category="Mouse">
						<message>
							Mouse Left Click item 'MadaketHealth.PopupScrollContainer' at 544;386.
						</message>
						<metainfo
							type="repoitem"
							path="/dom[@caption='Madaket Health']//div[#'editPayorPopup']/div[2]"
							itempath=".//div[#'editPayorPopup']/div[2]"
							fullname="madaket_XP001Repository.MadaketHealth.PopupScrollContainer"
							id="f53c44ed5bb14893839e2b7cdc4d3ef7"
							timeout="60000"
							codefile="c:\Users\JohnPloumis\Documents\Ranorex\RanorexStudio Projects\madaket_XP001\madaket_XP001\New_Payer_NoData.cs"
							codeline="88"
							itemindex="2"
							loglvl="Info">
						</metainfo>
					</item>
					<item
						timeRelativeToTestSuiteStartTime="00:13.506"
						timeRelativeToTestModuleStartTime="00:05.822"
						timeWallClock="15:49:26"
						time="00:13.506"
						level="Info"
						category="Mouse">
						<message>
							Mouse Left Click item 'MadaketHealth.PopupScrollContainer' at 544;386.
						</message>
						<metainfo
							type="repoitem"
							path="/dom[@caption='Madaket Health']//div[#'editPayorPopup']/div[2]"
							itempath=".//div[#'editPayorPopup']/div[2]"
							fullname="madaket_XP001Repository.MadaketHealth.PopupScrollContainer"
							id="f53c44ed5bb14893839e2b7cdc4d3ef7"
							timeout="60000"
							codefile="c:\Users\JohnPloumis\Documents\Ranorex\RanorexStudio Projects\madaket_XP001\madaket_XP001\New_Payer_NoData.cs"
							codeline="91"
							itemindex="3"
							loglvl="Info">
						</metainfo>
					</item>
					<item
						timeRelativeToTestSuiteStartTime="00:14.077"
						timeRelativeToTestModuleStartTime="00:06.393"
						timeWallClock="15:49:26"
						time="00:14.077"
						level="Info"
						category="Mouse">
						<message>
							Mouse Left Click item 'MadaketHealth.btnSavePayor' at 71;7.
						</message>
						<metainfo
							type="repoitem"
							path="/dom[@caption='Madaket Health']//button[#'savePayorButton']"
							itempath=".//button[#'savePayorButton']"
							fullname="madaket_XP001Repository.MadaketHealth.btnSavePayor"
							id="ab96c6bd2749404d82d6f94d5830ab20"
							timeout="60000"
							codefile="c:\Users\JohnPloumis\Documents\Ranorex\RanorexStudio Projects\madaket_XP001\madaket_XP001\New_Payer_NoData.cs"
							codeline="94"
							itemindex="4"
							loglvl="Info">
						</metainfo>
					</item>
					<item
						timeRelativeToTestSuiteStartTime="00:14.653"
						timeRelativeToTestModuleStartTime="00:06.969"
						timeWallClock="15:49:27"
						time="00:14.653"
						level="Info"
						category="Mouse">
						<message>
							Mouse Left Click item 'MadaketHealth.errMsgPleaseEnterPayerName' at 89;11.
						</message>
						<metainfo
							type="repoitem"
							path="/dom[@caption='Madaket Health']//form[#'payorGeneralForm']/div[1]//label[@innertext='Please enter payer name']"
							itempath=".//form[#'payorGeneralForm']/div[1]//label[@innertext='Please enter payer name']"
							fullname="madaket_XP001Repository.MadaketHealth.errMsgPleaseEnterPayerName"
							id="4e8fcb6b94fa4fdfaa37a0b3a3c6c8d4"
							timeout="60000"
							codefile="c:\Users\JohnPloumis\Documents\Ranorex\RanorexStudio Projects\madaket_XP001\madaket_XP001\New_Payer_NoData.cs"
							codeline="97"
							itemindex="5"
							loglvl="Info">
						</metainfo>
					</item>
					<item
						timeRelativeToTestSuiteStartTime="00:15.337"
						timeRelativeToTestModuleStartTime="00:07.653"
						timeWallClock="15:49:28"
						time="00:15.337"
						level="Info"
						category="Mouse">
						<message>
							Mouse Left Click item 'MadaketHealth.HttpsTestMadakethealthComServices' at 18;22.
						</message>
						<metainfo
							type="repoitem"
							path="/dom[@caption='Madaket Health']//div[#'editPayorPopup']/a[@href~'^https://edi-alpha\.madaket']"
							itempath=".//div[#'editPayorPopup']/a[@href~'^https://edi-alpha\.madaket']"
							fullname="madaket_XP001Repository.MadaketHealth.HttpsTestMadakethealthComServices"
							id="ba73c9ad44884b9eb242b07457d62a68"
							timeout="60000"
							codefile="c:\Users\JohnPloumis\Documents\Ranorex\RanorexStudio Projects\madaket_XP001\madaket_XP001\New_Payer_NoData.cs"
							codeline="100"
							itemindex="6"
							loglvl="Info">
						</metainfo>
					</item>
				</activity>
				<activity
					result="Failed"
					duration="35.66s"
					durationms="35655"
					type="test-module"
					rid="2813065dd442ad78"
					totalerrorcount="1"
					totalwarningcount="0"
					totalsuccesstestcasecount="0"
					totalfailedtestcasecount="0"
					totalblockedtestcasecount="0"
					childsuccesscount="0"
					childfailedcount="0"
					childblockedcount="0"
					totalsuccesscount="0"
					totalfailedcount="0"
					totalblockedcount="0"
					totalmaintenancemodecount="0"
					modulename="New_Payer_ValidData"
					displayName="New_Payer_ValidData"
					moduleid="a2d47517-0a0b-47f5-b141-691f6f0b3abc"
					moduletype="Recording"
					iteration="1"
					activity-exectype="execute"
					testentry-activity-type="testmodule">
					<varbindings>
					</varbindings>
					<item
						timeRelativeToTestSuiteStartTime="00:15.984"
						timeRelativeToTestModuleStartTime="00:00.019"
						timeWallClock="15:49:28"
						time="00:15.984"
						level="Info"
						category="Mouse">
						<message>
							Mouse Left Click item 'MadaketHealth.DivTagPayers' at 16;20.
						</message>
						<metainfo
							type="repoitem"
							path="/dom[@caption='Madaket Health']//nav[#'mainNav']/ul//div[@innertext='Payers']"
							itempath=".//nav[#'mainNav']/ul//div[@innertext='Payers']"
							fullname="madaket_XP001Repository.MadaketHealth.DivTagPayers"
							id="29cc9e25aab349529ce160a3bd60a2f5"
							timeout="60000"
							codefile="c:\Users\JohnPloumis\Documents\Ranorex\RanorexStudio Projects\madaket_XP001\madaket_XP001\New_Payer_ValidData.cs"
							codeline="82"
							itemindex="0"
							loglvl="Info">
						</metainfo>
					</item>
					<item
						timeRelativeToTestSuiteStartTime="00:16.688"
						timeRelativeToTestModuleStartTime="00:00.722"
						timeWallClock="15:49:29"
						time="00:16.688"
						level="Info"
						category="Mouse">
						<message>
							Mouse Left Click item 'MadaketHealth.linkNewPayer' at 34;13.
						</message>
						<metainfo
							type="repoitem"
							path="/dom[@caption='Madaket Health']//a[#'payorClick']"
							itempath=".//a[#'payorClick']"
							fullname="madaket_XP001Repository.MadaketHealth.linkNewPayer"
							id="0e40999c158242618af66e1af1edf093"
							timeout="60000"
							codefile="c:\Users\JohnPloumis\Documents\Ranorex\RanorexStudio Projects\madaket_XP001\madaket_XP001\New_Payer_ValidData.cs"
							codeline="85"
							itemindex="1"
							loglvl="Info">
						</metainfo>
					</item>
					<item
						timeRelativeToTestSuiteStartTime="00:17.277"
						timeRelativeToTestModuleStartTime="00:01.311"
						timeWallClock="15:49:29"
						time="00:17.277"
						level="Info"
						category="Mouse">
						<message>
							Mouse Left Click item 'MadaketHealth.PayorName' at 258;15.
						</message>
						<metainfo
							type="repoitem"
							path="/dom[@caption='Madaket Health']//input[#'payorName']"
							itempath=".//input[#'payorName']"
							fullname="madaket_XP001Repository.MadaketHealth.PayorName"
							id="c60f64d457204be3b0c571ec0261f3c7"
							timeout="60000"
							codefile="c:\Users\JohnPloumis\Documents\Ranorex\RanorexStudio Projects\madaket_XP001\madaket_XP001\New_Payer_ValidData.cs"
							codeline="88"
							itemindex="2"
							loglvl="Info">
						</metainfo>
					</item>
					<item
						timeRelativeToTestSuiteStartTime="00:18.002"
						timeRelativeToTestModuleStartTime="00:02.036"
						timeWallClock="15:49:30"
						time="00:18.002"
						level="Info"
						category="Keyboard">
						<message>
							Key sequence 'test_payer_automation_XP001' with focus on 'MadaketHealth.PayorSearch'.
						</message>
						<metainfo
							type="repoitem"
							path="/dom[@caption='Madaket Health']//input[#'payorSearch']"
							itempath=".//input[#'payorSearch']"
							fullname="madaket_XP001Repository.MadaketHealth.PayorSearch"
							id="0991bbba55cd4dc4828713fdfbd98b4a"
							timeout="60000"
							codefile="c:\Users\JohnPloumis\Documents\Ranorex\RanorexStudio Projects\madaket_XP001\madaket_XP001\New_Payer_ValidData.cs"
							codeline="91"
							itemindex="3"
							loglvl="Info">
						</metainfo>
					</item>
					<item
						timeRelativeToTestSuiteStartTime="00:19.297"
						timeRelativeToTestModuleStartTime="00:03.331"
						timeWallClock="15:49:31"
						time="00:19.297"
						level="Info"
						category="Mouse">
						<message>
							Mouse Left Click item 'MadaketHealth.PopupScrollContainer' at 544;361.
						</message>
						<metainfo
							type="repoitem"
							path="/dom[@caption='Madaket Health']//div[#'editPayorPopup']/div[2]"
							itempath=".//div[#'editPayorPopup']/div[2]"
							fullname="madaket_XP001Repository.MadaketHealth.PopupScrollContainer"
							id="f53c44ed5bb14893839e2b7cdc4d3ef7"
							timeout="60000"
							codefile="c:\Users\JohnPloumis\Documents\Ranorex\RanorexStudio Projects\madaket_XP001\madaket_XP001\New_Payer_ValidData.cs"
							codeline="94"
							itemindex="4"
							loglvl="Info">
						</metainfo>
					</item>
					<item
						timeRelativeToTestSuiteStartTime="00:19.822"
						timeRelativeToTestModuleStartTime="00:03.856"
						timeWallClock="15:49:32"
						time="00:19.822"
						level="Info"
						category="Mouse">
						<message>
							Mouse Left Click item 'MadaketHealth.TxtStreet1' at 193;13.
						</message>
						<metainfo
							type="repoitem"
							path="/dom[@caption='Madaket Health']//input[#'txt_street1']"
							itempath=".//input[#'txt_street1']"
							fullname="madaket_XP001Repository.MadaketHealth.TxtStreet1"
							id="140f920df0e2418ca6177c3fcaa08df8"
							timeout="60000"
							codefile="c:\Users\JohnPloumis\Documents\Ranorex\RanorexStudio Projects\madaket_XP001\madaket_XP001\New_Payer_ValidData.cs"
							codeline="97"
							itemindex="5"
							loglvl="Info">
						</metainfo>
					</item>
					<item
						timeRelativeToTestSuiteStartTime="00:20.447"
						timeRelativeToTestModuleStartTime="00:04.481"
						timeWallClock="15:49:33"
						time="00:20.447"
						level="Info"
						category="Keyboard">
						<message>
							Key sequence '101' with focus on 'MadaketHealth.TxtStreet1'.
						</message>
						<metainfo
							type="repoitem"
							path="/dom[@caption='Madaket Health']//input[#'txt_street1']"
							itempath=".//input[#'txt_street1']"
							fullname="madaket_XP001Repository.MadaketHealth.TxtStreet1"
							id="140f920df0e2418ca6177c3fcaa08df8"
							timeout="60000"
							codefile="c:\Users\JohnPloumis\Documents\Ranorex\RanorexStudio Projects\madaket_XP001\madaket_XP001\New_Payer_ValidData.cs"
							codeline="100"
							itemindex="6"
							loglvl="Info">
						</metainfo>
					</item>
					<item
						timeRelativeToTestSuiteStartTime="00:21.046"
						timeRelativeToTestModuleStartTime="00:05.080"
						timeWallClock="15:49:33"
						time="00:21.046"
						level="Info"
						category="Keyboard">
						<message>
							Key sequence ' ' with focus on 'MadaketHealth.TxtStreet1'.
						</message>
						<metainfo
							type="repoitem"
							path="/dom[@caption='Madaket Health']//input[#'txt_street1']"
							itempath=".//input[#'txt_street1']"
							fullname="madaket_XP001Repository.MadaketHealth.TxtStreet1"
							id="140f920df0e2418ca6177c3fcaa08df8"
							timeout="60000"
							codefile="c:\Users\JohnPloumis\Documents\Ranorex\RanorexStudio Projects\madaket_XP001\madaket_XP001\New_Payer_ValidData.cs"
							codeline="103"
							itemindex="7"
							loglvl="Info">
						</metainfo>
					</item>
					<item
						timeRelativeToTestSuiteStartTime="00:21.546"
						timeRelativeToTestModuleStartTime="00:05.580"
						timeWallClock="15:49:34"
						time="00:21.546"
						level="Info"
						category="Keyboard">
						<message>
							Key sequence 'main' with focus on 'MadaketHealth.TxtStreet1'.
						</message>
						<metainfo
							type="repoitem"
							path="/dom[@caption='Madaket Health']//input[#'txt_street1']"
							itempath=".//input[#'txt_street1']"
							fullname="madaket_XP001Repository.MadaketHealth.TxtStreet1"
							id="140f920df0e2418ca6177c3fcaa08df8"
							timeout="60000"
							codefile="c:\Users\JohnPloumis\Documents\Ranorex\RanorexStudio Projects\madaket_XP001\madaket_XP001\New_Payer_ValidData.cs"
							codeline="106"
							itemindex="8"
							loglvl="Info">
						</metainfo>
					</item>
					<item
						timeRelativeToTestSuiteStartTime="00:22.191"
						timeRelativeToTestModuleStartTime="00:06.225"
						timeWallClock="15:49:34"
						time="00:22.191"
						level="Info"
						category="Keyboard">
						<message>
							Key sequence ' street' with focus on 'MadaketHealth.TxtStreet1'.
						</message>
						<metainfo
							type="repoitem"
							path="/dom[@caption='Madaket Health']//input[#'txt_street1']"
							itempath=".//input[#'txt_street1']"
							fullname="madaket_XP001Repository.MadaketHealth.TxtStreet1"
							id="140f920df0e2418ca6177c3fcaa08df8"
							timeout="60000"
							codefile="c:\Users\JohnPloumis\Documents\Ranorex\RanorexStudio Projects\madaket_XP001\madaket_XP001\New_Payer_ValidData.cs"
							codeline="109"
							itemindex="9"
							loglvl="Info">
						</metainfo>
					</item>
					<item
						timeRelativeToTestSuiteStartTime="00:22.968"
						timeRelativeToTestModuleStartTime="00:07.002"
						timeWallClock="15:49:35"
						time="00:22.968"
						level="Info"
						category="Mouse">
						<message>
							Mouse Left Click item 'MadaketHealth.TxtCity' at 130;7.
						</message>
						<metainfo
							type="repoitem"
							path="/dom[@caption='Madaket Health']//input[#'txt_city']"
							itempath=".//input[#'txt_city']"
							fullname="madaket_XP001Repository.MadaketHealth.TxtCity"
							id="275ef8ae16904ae689a4001c02a10d08"
							timeout="60000"
							codefile="c:\Users\JohnPloumis\Documents\Ranorex\RanorexStudio Projects\madaket_XP001\madaket_XP001\New_Payer_ValidData.cs"
							codeline="112"
							itemindex="10"
							loglvl="Info">
						</metainfo>
					</item>
					<item
						timeRelativeToTestSuiteStartTime="00:23.537"
						timeRelativeToTestModuleStartTime="00:07.571"
						timeWallClock="15:49:36"
						time="00:23.537"
						level="Info"
						category="Keyboard">
						<message>
							Key sequence 'waltham' with focus on 'MadaketHealth.TxtCity'.
						</message>
						<metainfo
							type="repoitem"
							path="/dom[@caption='Madaket Health']//input[#'txt_city']"
							itempath=".//input[#'txt_city']"
							fullname="madaket_XP001Repository.MadaketHealth.TxtCity"
							id="275ef8ae16904ae689a4001c02a10d08"
							timeout="60000"
							codefile="c:\Users\JohnPloumis\Documents\Ranorex\RanorexStudio Projects\madaket_XP001\madaket_XP001\New_Payer_ValidData.cs"
							codeline="115"
							itemindex="11"
							loglvl="Info">
						</metainfo>
					</item>
					<item
						timeRelativeToTestSuiteStartTime="00:24.272"
						timeRelativeToTestModuleStartTime="00:08.306"
						timeWallClock="15:49:36"
						time="00:24.272"
						level="Info"
						category="Set value">
						<message>
							Setting attribute TagValue to 'MA' on item 'MadaketHealth.TxtState'.
						</message>
						<metainfo
							type="repoitem"
							path="/dom[@caption='Madaket Health']//select[#'txt_state']"
							itempath=".//select[#'txt_state']"
							fullname="madaket_XP001Repository.MadaketHealth.TxtState"
							id="ebe2033877a44d918170bb47fee05430"
							timeout="60000"
							codefile="c:\Users\JohnPloumis\Documents\Ranorex\RanorexStudio Projects\madaket_XP001\madaket_XP001\New_Payer_ValidData.cs"
							codeline="118"
							itemindex="12"
							loglvl="Info">
						</metainfo>
					</item>
					<item
						timeRelativeToTestSuiteStartTime="00:24.583"
						timeRelativeToTestModuleStartTime="00:08.617"
						timeWallClock="15:49:37"
						time="00:24.583"
						level="Info"
						category="Mouse">
						<message>
							Mouse Left Click item 'MadaketHealth.PopupScrollContainer' at 548;376.
						</message>
						<metainfo
							type="repoitem"
							path="/dom[@caption='Madaket Health']//div[#'editPayorPopup']/div[2]"
							itempath=".//div[#'editPayorPopup']/div[2]"
							fullname="madaket_XP001Repository.MadaketHealth.PopupScrollContainer"
							id="f53c44ed5bb14893839e2b7cdc4d3ef7"
							timeout="60000"
							codefile="c:\Users\JohnPloumis\Documents\Ranorex\RanorexStudio Projects\madaket_XP001\madaket_XP001\New_Payer_ValidData.cs"
							codeline="121"
							itemindex="13"
							loglvl="Info">
						</metainfo>
					</item>
					<item
						timeRelativeToTestSuiteStartTime="00:25.138"
						timeRelativeToTestModuleStartTime="00:09.172"
						timeWallClock="15:49:37"
						time="00:25.138"
						level="Info"
						category="Mouse">
						<message>
							Mouse Left Click item 'MadaketHealth.FirstName' at 146;8.
						</message>
						<metainfo
							type="repoitem"
							path="/dom[@caption='Madaket Health']//input[#'firstName']"
							itempath=".//input[#'firstName']"
							fullname="madaket_XP001Repository.MadaketHealth.FirstName"
							id="d3da3f164ae640b5b1e62605679d50af"
							timeout="60000"
							codefile="c:\Users\JohnPloumis\Documents\Ranorex\RanorexStudio Projects\madaket_XP001\madaket_XP001\New_Payer_ValidData.cs"
							codeline="124"
							itemindex="14"
							loglvl="Info">
						</metainfo>
					</item>
					<item
						timeRelativeToTestSuiteStartTime="00:25.722"
						timeRelativeToTestModuleStartTime="00:09.756"
						timeWallClock="15:49:38"
						time="00:25.722"
						level="Info"
						category="Keyboard">
						<message>
							Key sequence 'test{Tab}payer' with focus on 'MadaketHealth.FirstName'.
						</message>
						<metainfo
							type="repoitem"
							path="/dom[@caption='Madaket Health']//input[#'firstName']"
							itempath=".//input[#'firstName']"
							fullname="madaket_XP001Repository.MadaketHealth.FirstName"
							id="d3da3f164ae640b5b1e62605679d50af"
							timeout="60000"
							codefile="c:\Users\JohnPloumis\Documents\Ranorex\RanorexStudio Projects\madaket_XP001\madaket_XP001\New_Payer_ValidData.cs"
							codeline="127"
							itemindex="15"
							loglvl="Info">
						</metainfo>
					</item>
					<item
						timeRelativeToTestSuiteStartTime="00:26.529"
						timeRelativeToTestModuleStartTime="00:10.564"
						timeWallClock="15:49:39"
						time="00:26.529"
						level="Info"
						category="Keyboard">
						<message>
							Key sequence '{Tab}'.
						</message>
						<metainfo
							itemindex="16"
							codefile="c:\Users\JohnPloumis\Documents\Ranorex\RanorexStudio Projects\madaket_XP001\madaket_XP001\New_Payer_ValidData.cs"
							codeline="130"
							loglvl="Info">
						</metainfo>
					</item>
					<item
						timeRelativeToTestSuiteStartTime="00:26.709"
						timeRelativeToTestModuleStartTime="00:10.743"
						timeWallClock="15:49:39"
						time="00:26.709"
						level="Info"
						category="Keyboard"
						errimg="images_madaket__e197dfec\madaket__e197dfec_c4153db3_trace.jpg"
						errthumb="images_madaket__e197dfec\madaket__e197dfec_c4153db3_trace_thumb.jpg">
						<message>
							Key sequence 'test.payer{LShiftKey down}{@ down}{LShiftKey up}payer.com'.
						</message>
						<metainfo
							itemindex="17"
							codefile="c:\Users\JohnPloumis\Documents\Ranorex\RanorexStudio Projects\madaket_XP001\madaket_XP001\New_Payer_ValidData.cs"
							codeline="133"
							loglvl="Info">
						</metainfo>
					</item>
					<item
						timeRelativeToTestSuiteStartTime="00:27.480"
						timeRelativeToTestModuleStartTime="00:11.515"
						timeWallClock="15:49:40"
						time="00:27.480"
						level="Info"
						category="Mouse"
						errimg="images_madaket__e197dfec\madaket__e197dfec_dcc91d57_trace.jpg"
						errthumb="images_madaket__e197dfec\madaket__e197dfec_dcc91d57_trace_thumb.jpg">
						<message>
							Mouse Left Click item 'MadaketHealth.btnSavePayor' at 50;9.
						</message>
						<metainfo
							type="repoitem"
							path="/dom[@caption='Madaket Health']//button[#'savePayorButton']"
							itempath=".//button[#'savePayorButton']"
							fullname="madaket_XP001Repository.MadaketHealth.btnSavePayor"
							id="ab96c6bd2749404d82d6f94d5830ab20"
							timeout="60000"
							codefile="c:\Users\JohnPloumis\Documents\Ranorex\RanorexStudio Projects\madaket_XP001\madaket_XP001\New_Payer_ValidData.cs"
							codeline="136"
							itemindex="18"
							loglvl="Info">
						</metainfo>
					</item>
					<item
						timeRelativeToTestSuiteStartTime="00:28.058"
						timeRelativeToTestModuleStartTime="00:12.092"
						timeWallClock="15:49:40"
						time="00:28.058"
						level="Info"
						category="Mouse"
						errimg="images_madaket__e197dfec\madaket__e197dfec_84781457_trace.jpg"
						errthumb="images_madaket__e197dfec\madaket__e197dfec_84781457_trace_thumb.jpg">
						<message>
							Mouse Left Click item 'MadaketHealth.PayerGeneralDetailsDiv.DivTagTestPayerAutomationXP0' at 96;9.
						</message>
						<metainfo
							type="repoitem"
							path="/dom[@caption='Madaket Health']//div[#'payerGeneralDetailsDiv']//div[@innertext~'^test_payer_autom']"
							itempath=".//div[@innertext~'^test_payer_autom']"
							fullname="madaket_XP001Repository.MadaketHealth.PayerGeneralDetailsDiv.DivTagTestPayerAutomationXP0"
							id="0e44183f677548639bb83854085d8ec1"
							timeout="90000"
							codefile="c:\Users\JohnPloumis\Documents\Ranorex\RanorexStudio Projects\madaket_XP001\madaket_XP001\New_Payer_ValidData.cs"
							codeline="139"
							itemindex="19"
							loglvl="Info">
						</metainfo>
					</item>
					<item
						timeRelativeToTestSuiteStartTime="00:51.254"
						timeRelativeToTestModuleStartTime="00:35.288"
						timeWallClock="15:50:03"
						time="00:51.254"
						level="Error"
						category="Module">
						<message>
							The test run has been aborted by the user.
						</message>
						<metainfo
							loglvl="Error">
						</metainfo>
					</item>
				</activity>
			</activity>
		</activity>
	</activity>
</report>
