﻿<?xml version="1.0" encoding="utf-8"?>
<report
	progress="">
	<activity
		result="Success"
		duration="0ms"
		durationms="0"
		type="root"
		rid="552e2e9f4d063ca"
		totalerrorcount="1"
		totalwarningcount="0"
		totalsuccesstestcasecount="0"
		totalfailedtestcasecount="1"
		totalblockedtestcasecount="0"
		childsuccesscount="0"
		childfailedcount="1"
		childblockedcount="0"
		totalsuccesscount="0"
		totalfailedcount="1"
		totalblockedcount="0"
		totalmaintenancemodecount="0"
		user="JohnPloumis"
		rxversion="8.2.1.0"
		host="LAPTOP-5EO8DNU1"
		osversion="Windows 10 64bit"
		runtimeversion="4.0.30319.42000"
		procarch="32bit"
		oslanguage="en-US"
		dtnlanguage="en-US"
		screenresolution="1366x768"
		timestamp="11/5/2018 5:39:04 AM"
		timestampiso="2018-11-05T10:39:04"
		endtime="11/5/2018 5:40:07 AM"
		timeoutfactor="1">
		<detail>
			Ranorex Testscript
		</detail>
		<activity
			result="Failed"
			duration="1m"
			durationms="62155"
			type="test-suite"
			rid="add5b3cd7c7d831"
			totalerrorcount="1"
			totalwarningcount="0"
			totalsuccesstestcasecount="0"
			totalfailedtestcasecount="1"
			totalblockedtestcasecount="0"
			childsuccesscount="0"
			childfailedcount="1"
			childblockedcount="0"
			totalsuccesscount="0"
			totalfailedcount="1"
			totalblockedcount="0"
			totalmaintenancemodecount="0"
			testsuitename="madaket_XP001"
			headertext="madaket_XP001"
			runconfigname="TestRun"
			runlabel="">
			<params>
			</params>
			<activity
				result="Failed"
				duration="1m"
				durationms="62079"
				type="test-case"
				rid="49a63fa5d75be4b"
				totalerrorcount="1"
				totalwarningcount="0"
				totalsuccesstestcasecount="0"
				totalfailedtestcasecount="1"
				totalblockedtestcasecount="0"
				childsuccesscount="0"
				childfailedcount="1"
				childblockedcount="0"
				totalsuccesscount="0"
				totalfailedcount="1"
				totalblockedcount="0"
				totalmaintenancemodecount="0"
				testcontainername="Madaket_XP"
				testcontainerid="2b1c309f-44ad-4542-9e87-47b21dcdd499"
				headertext="Madaket_XP"
				displayName="Madaket_XP"
				iteration="1"
				activity-exectype="execute"
				conditionstate="none">
				<activity
					result="Failed"
					duration="1m"
					durationms="61962"
					type="test-module"
					rid="12caaf31eef0dd70"
					totalerrorcount="1"
					totalwarningcount="0"
					totalsuccesstestcasecount="0"
					totalfailedtestcasecount="0"
					totalblockedtestcasecount="0"
					childsuccesscount="0"
					childfailedcount="0"
					childblockedcount="0"
					totalsuccesscount="0"
					totalfailedcount="0"
					totalblockedcount="0"
					totalmaintenancemodecount="0"
					modulename="Madaket_login"
					displayName="Madaket_login"
					moduleid="7047a381-6113-4a38-ab95-4ef2d01b9d0f"
					moduletype="Recording"
					iteration="1"
					activity-exectype="execute"
					testentry-activity-type="testmodule">
					<detail>
						general qa
					</detail>
					<errormessage>
						Failed to find item 'madaket_XP001Repository.MadaketHealth.txtUsername'.
					</errormessage>
					<varbindings>
					</varbindings>
					<item
						timeRelativeToTestSuiteStartTime="00:01.509"
						timeRelativeToTestModuleStartTime="00:00.038"
						timeWallClock="05:39:05"
						time="00:01.509"
						level="Info"
						category="Website"
						errimg="images_madaket__9da4dfee\madaket__9da4dfee_a9b5832b_trace.jpg"
						errthumb="images_madaket__9da4dfee\madaket__9da4dfee_a9b5832b_trace_thumb.jpg">
						<message>
							Opening web site 'https://edi-alpha.madakethealth.com/services/logout' with browser 'IE' in normal mode.
						</message>
						<metainfo
							itemindex="0"
							codefile="c:\Users\JohnPloumis\Documents\Ranorex\RanorexStudio Projects\ranorex_testautomation\madaket_XP001\Madaket_login.cs"
							codeline="82"
							loglvl="Info">
						</metainfo>
					</item>
					<item
						timeRelativeToTestSuiteStartTime="00:02.550"
						timeRelativeToTestModuleStartTime="00:01.079"
						timeWallClock="05:39:06"
						time="00:02.550"
						level="Info"
						category="Mouse"
						errimg="images_madaket__9da4dfee\madaket__9da4dfee_58c0e300_trace.jpg"
						errthumb="images_madaket__9da4dfee\madaket__9da4dfee_58c0e300_trace_thumb.jpg">
						<message>
							Mouse Left Click item 'MadaketHealth.txtUsername' at 34;8.
						</message>
						<metainfo
							type="repoitem"
							path="/dom[@domain='edi-alpha.madakethealth.com']//input[#'username']"
							itempath=".//input[#'username']"
							fullname="madaket_XP001Repository.MadaketHealth.txtUsername"
							id="ad40a45ba47543068e211d52f3633bf0"
							timeout="60000"
							codefile="c:\Users\JohnPloumis\Documents\Ranorex\RanorexStudio Projects\ranorex_testautomation\madaket_XP001\Madaket_login.cs"
							codeline="85"
							itemindex="1"
							loglvl="Info">
						</metainfo>
					</item>
					<item
						timeRelativeToTestSuiteStartTime="01:03.139"
						timeRelativeToTestModuleStartTime="01:01.669"
						timeWallClock="05:40:07"
						time="01:03.139"
						level="Error"
						category="Module"
						errimg="images_madaket__9da4dfee\madaket__9da4dfee_5f38c3ed_trace.jpg"
						errthumb="images_madaket__9da4dfee\madaket__9da4dfee_5f38c3ed_trace_thumb.jpg">
						<message>
							Failed to find item 'madaket_XP001Repository.MadaketHealth.txtUsername'.<br/>No element found for path '/dom[@domain='edi-alpha.madakethealth.com']//input[#'username']' within 1m.
						</message>
						<metainfo
							stacktrace="   at Ranorex.Core.Repository.RepoItemInfo.FindInternal[T](Boolean findSingle, Boolean throwException, Duration effectiveTimeoutOverride)&#13;&#10;   at Ranorex.Core.Repository.RepoItemInfo.&lt;>c__DisplayClass75_0`1.&lt;Find>b__0()&#13;&#10;   at Ranorex.Core.Testing.Services.NoMaintenanceModeService.HandleElementNotFound[T](Func`1 action, RepoItemInfo entry)&#13;&#10;   at Ranorex.Core.Repository.RepoItemInfo.Find[T](Boolean findSingle, Boolean throwException, Duration effectiveTimeoutOverride)&#13;&#10;   at Ranorex.Core.Repository.RepoItemInfo.CreateAdapter[T](Boolean throwException, Duration waitTimeout)&#13;&#10;   at Ranorex.Core.Repository.RepoItemInfo.CreateAdapter[T](Boolean throwException)&#13;&#10;   at madaket_XP001.madaket_XP001RepositoryFolders.MadaketHealthAppFolder.get_txtUsername() in c:\Users\JohnPloumis\Documents\Ranorex\RanorexStudio Projects\ranorex_testautomation\madaket_XP001\madaket_XP001Repository.cs:line 475&#13;&#10;   at madaket_XP001.Madaket_login.Ranorex.Core.Testing.ITestModule.Run() in c:\Users\JohnPloumis\Documents\Ranorex\RanorexStudio Projects\ranorex_testautomation\madaket_XP001\Madaket_login.cs:line 86&#13;&#10;   at Ranorex.Core.Testing.TestModuleLeaf.RunInternal(DataContext parentDataContext, Int32 iteration, Int32 iterationCount, Boolean skipIteration)"
							codefile="c:\Users\JohnPloumis\Documents\Ranorex\RanorexStudio Projects\ranorex_testautomation\madaket_XP001\Madaket_login.cs"
							codeline="86"
							type="repoitem"
							path="/dom[@domain='edi-alpha.madakethealth.com']//input[#'username']"
							itempath=".//input[#'username']"
							fullname="madaket_XP001Repository.MadaketHealth.txtUsername"
							id="ad40a45ba47543068e211d52f3633bf0"
							timeout="60000"
							loglvl="Error"
							itemindex="1">
						</metainfo>
					</item>
				</activity>
			</activity>
		</activity>
	</activity>
</report>
