﻿<?xml version="1.0" encoding="utf-8"?>
<report
	progress="">
	<activity
		result="Success"
		duration="0ms"
		durationms="0"
		type="root"
		rid="31c75f1cc10d1302"
		totalerrorcount="1"
		totalwarningcount="10"
		totalsuccesstestcasecount="0"
		totalfailedtestcasecount="1"
		totalblockedtestcasecount="0"
		childsuccesscount="0"
		childfailedcount="1"
		childblockedcount="0"
		totalsuccesscount="0"
		totalfailedcount="1"
		totalblockedcount="0"
		totalmaintenancemodecount="0"
		user="JohnPloumis"
		rxversion="8.2.1.0"
		host="LAPTOP-5EO8DNU1"
		osversion="Windows 10 64bit"
		runtimeversion="4.0.30319.42000"
		procarch="32bit"
		oslanguage="en-US"
		dtnlanguage="en-US"
		screenresolution="1366x768"
		timestamp="10/15/2018 3:29:22 PM"
		timestampiso="2018-10-15T19:29:22"
		endtime="10/15/2018 3:31:36 PM"
		timeoutfactor="1">
		<detail>
			Ranorex Testscript
		</detail>
		<activity
			result="Failed"
			duration="2.2m"
			durationms="133687"
			type="test-suite"
			rid="4beec2246f333cc"
			totalerrorcount="1"
			totalwarningcount="10"
			totalsuccesstestcasecount="0"
			totalfailedtestcasecount="1"
			totalblockedtestcasecount="0"
			childsuccesscount="0"
			childfailedcount="1"
			childblockedcount="0"
			totalsuccesscount="0"
			totalfailedcount="1"
			totalblockedcount="0"
			totalmaintenancemodecount="0"
			testsuitename="madaket_XP001"
			headertext="madaket_XP001"
			runconfigname="TestRun"
			runlabel="">
			<params>
			</params>
			<activity
				result="Failed"
				duration="2.2m"
				durationms="133640"
				type="test-case"
				rid="1efce4cfe0785af4"
				totalerrorcount="1"
				totalwarningcount="10"
				totalsuccesstestcasecount="0"
				totalfailedtestcasecount="1"
				totalblockedtestcasecount="0"
				childsuccesscount="5"
				childfailedcount="1"
				childblockedcount="0"
				totalsuccesscount="0"
				totalfailedcount="1"
				totalblockedcount="0"
				totalmaintenancemodecount="0"
				testcontainername="Madaket_XP"
				testcontainerid="2b1c309f-44ad-4542-9e87-47b21dcdd499"
				headertext="Madaket_XP"
				displayName="Madaket_XP"
				iteration="1"
				activity-exectype="execute"
				conditionstate="none">
				<activity
					result="Success"
					duration="5.82s"
					durationms="5817"
					type="test-module"
					rid="6f635078e1d336"
					totalerrorcount="0"
					totalwarningcount="0"
					totalsuccesstestcasecount="0"
					totalfailedtestcasecount="0"
					totalblockedtestcasecount="0"
					childsuccesscount="0"
					childfailedcount="0"
					childblockedcount="0"
					totalsuccesscount="0"
					totalfailedcount="0"
					totalblockedcount="0"
					totalmaintenancemodecount="0"
					modulename="Madaket_login"
					displayName="Madaket_login"
					moduleid="7047a381-6113-4a38-ab95-4ef2d01b9d0f"
					moduletype="Recording"
					iteration="1"
					activity-exectype="execute"
					testentry-activity-type="testmodule">
					<detail>
						general qa
					</detail>
					<varbindings>
					</varbindings>
					<item
						timeRelativeToTestSuiteStartTime="00:00.479"
						timeRelativeToTestModuleStartTime="00:00.015"
						timeWallClock="15:29:22"
						time="00:00.479"
						level="Info"
						category="Website">
						<message>
							Opening web site 'https://edi-alpha.madakethealth.com/services/logout' with browser 'IE' in normal mode.
						</message>
						<metainfo
							itemindex="0"
							codefile="c:\Users\JohnPloumis\Documents\Ranorex\RanorexStudio Projects\madaket_XP001\madaket_XP001\Madaket_login.cs"
							codeline="82"
							loglvl="Info">
						</metainfo>
					</item>
					<item
						timeRelativeToTestSuiteStartTime="00:01.135"
						timeRelativeToTestModuleStartTime="00:00.671"
						timeWallClock="15:29:23"
						time="00:01.135"
						level="Info"
						category="Mouse">
						<message>
							Mouse Left Click item 'MadaketHealth.txtUsername' at 34;8.
						</message>
						<metainfo
							type="repoitem"
							path="/dom[@caption='Madaket Health']//input[#'username']"
							itempath=".//input[#'username']"
							fullname="madaket_XP001Repository.MadaketHealth.txtUsername"
							id="ad40a45ba47543068e211d52f3633bf0"
							timeout="60000"
							codefile="c:\Users\JohnPloumis\Documents\Ranorex\RanorexStudio Projects\madaket_XP001\madaket_XP001\Madaket_login.cs"
							codeline="85"
							itemindex="1"
							loglvl="Info">
						</metainfo>
					</item>
					<item
						timeRelativeToTestSuiteStartTime="00:04.839"
						timeRelativeToTestModuleStartTime="00:04.375"
						timeWallClock="15:29:26"
						time="00:04.839"
						level="Info"
						category="Set value">
						<message>
							Setting attribute Value to 'jploumis@madakethealth.com' on item 'MadaketHealth.txtUsername'.
						</message>
						<metainfo
							type="repoitem"
							path="/dom[@caption='Madaket Health']//input[#'username']"
							itempath=".//input[#'username']"
							fullname="madaket_XP001Repository.MadaketHealth.txtUsername"
							id="ad40a45ba47543068e211d52f3633bf0"
							timeout="60000"
							codefile="c:\Users\JohnPloumis\Documents\Ranorex\RanorexStudio Projects\madaket_XP001\madaket_XP001\Madaket_login.cs"
							codeline="88"
							itemindex="2"
							loglvl="Info">
						</metainfo>
					</item>
					<item
						timeRelativeToTestSuiteStartTime="00:05.105"
						timeRelativeToTestModuleStartTime="00:04.641"
						timeWallClock="15:29:27"
						time="00:05.105"
						level="Info"
						category="Set value">
						<message>
							Setting attribute Value to 'Monkey1213!' on item 'MadaketHealth.txtPassword'.
						</message>
						<metainfo
							type="repoitem"
							path="/dom[@caption='Madaket Health']//input[#'password']"
							itempath=".//input[#'password']"
							fullname="madaket_XP001Repository.MadaketHealth.txtPassword"
							id="a351a5d74ad64269819a1ffbe4be0530"
							timeout="60000"
							codefile="c:\Users\JohnPloumis\Documents\Ranorex\RanorexStudio Projects\madaket_XP001\madaket_XP001\Madaket_login.cs"
							codeline="91"
							itemindex="3"
							loglvl="Info">
						</metainfo>
					</item>
					<item
						timeRelativeToTestSuiteStartTime="00:05.348"
						timeRelativeToTestModuleStartTime="00:04.885"
						timeWallClock="15:29:27"
						time="00:05.348"
						level="Info"
						category="Validation">
						<message>
							Validating Exists on item 'MadaketHealth.btnLogin'.
						</message>
						<metainfo
							type="repoitem"
							path="/dom[@caption='Madaket Health']//input[#'loginButton']"
							itempath=".//input[#'loginButton']"
							fullname="madaket_XP001Repository.MadaketHealth.btnLogin"
							id="29776b9350984c58bf5308f720d7bca4"
							timeout="60000"
							codefile="c:\Users\JohnPloumis\Documents\Ranorex\RanorexStudio Projects\madaket_XP001\madaket_XP001\Madaket_login.cs"
							codeline="94"
							itemindex="4"
							loglvl="Info">
						</metainfo>
					</item>
					<item
						timeRelativeToTestSuiteStartTime="00:05.630"
						timeRelativeToTestModuleStartTime="00:05.166"
						timeWallClock="15:29:27"
						time="00:05.630"
						level="Success"
						category="Validation">
						<message>
							Element for item 'btnLogin' does exist.
						</message>
						<metainfo
							type="repoitem"
							path="/dom[@caption='Madaket Health']//input[#'loginButton']"
							itempath=".//input[#'loginButton']"
							fullname="madaket_XP001Repository.MadaketHealth.btnLogin"
							id="29776b9350984c58bf5308f720d7bca4"
							timeout="60000"
							codefile="c:\Users\JohnPloumis\Documents\Ranorex\RanorexStudio Projects\madaket_XP001\madaket_XP001\Madaket_login.cs"
							codeline="95"
							loglvl="Success"
							itemindex="4">
						</metainfo>
					</item>
					<item
						timeRelativeToTestSuiteStartTime="00:05.661"
						timeRelativeToTestModuleStartTime="00:05.197"
						timeWallClock="15:29:27"
						time="00:05.661"
						level="Info"
						category="Mouse">
						<message>
							Mouse Left Click item 'MadaketHealth.btnLogin' at 62;12.
						</message>
						<metainfo
							type="repoitem"
							path="/dom[@caption='Madaket Health']//input[#'loginButton']"
							itempath=".//input[#'loginButton']"
							fullname="madaket_XP001Repository.MadaketHealth.btnLogin"
							id="29776b9350984c58bf5308f720d7bca4"
							timeout="60000"
							codefile="c:\Users\JohnPloumis\Documents\Ranorex\RanorexStudio Projects\madaket_XP001\madaket_XP001\Madaket_login.cs"
							codeline="97"
							itemindex="5"
							loglvl="Info">
						</metainfo>
					</item>
				</activity>
				<activity
					result="Success"
					duration="8.55s"
					durationms="8552"
					type="test-module"
					rid="cd8fb5ba703cf95"
					totalerrorcount="0"
					totalwarningcount="2"
					totalsuccesstestcasecount="0"
					totalfailedtestcasecount="0"
					totalblockedtestcasecount="0"
					childsuccesscount="0"
					childfailedcount="0"
					childblockedcount="0"
					totalsuccesscount="0"
					totalfailedcount="0"
					totalblockedcount="0"
					totalmaintenancemodecount="0"
					modulename="New_Payer_NoData"
					displayName="New_Payer_NoData"
					moduleid="c2c3f592-c70a-4a42-9f69-8f7f27722dc4"
					moduletype="Recording"
					iteration="1"
					activity-exectype="execute"
					testentry-activity-type="testmodule">
					<detail>
						MH-2218
					</detail>
					<varbindings>
					</varbindings>
					<item
						timeRelativeToTestSuiteStartTime="00:06.296"
						timeRelativeToTestModuleStartTime="00:00.000"
						timeWallClock="15:29:28"
						time="00:06.296"
						level="Info"
						category="Mouse">
						<message>
							Mouse Left Click item 'MadaketHealth.DivTagPayers' at 16;21.
						</message>
						<metainfo
							type="repoitem"
							path="/dom[@caption='Madaket Health']//nav[#'mainNav']/ul//div[@innertext='Payers']"
							itempath=".//nav[#'mainNav']/ul//div[@innertext='Payers']"
							fullname="madaket_XP001Repository.MadaketHealth.DivTagPayers"
							id="29cc9e25aab349529ce160a3bd60a2f5"
							timeout="60000"
							codefile="c:\Users\JohnPloumis\Documents\Ranorex\RanorexStudio Projects\madaket_XP001\madaket_XP001\New_Payer_NoData.cs"
							codeline="82"
							itemindex="0"
							loglvl="Info">
						</metainfo>
					</item>
					<item
						timeRelativeToTestSuiteStartTime="00:10.151"
						timeRelativeToTestModuleStartTime="00:03.854"
						timeWallClock="15:29:32"
						time="00:10.151"
						level="Info"
						category="Mouse">
						<message>
							Mouse Left Click item 'MadaketHealth.linkNewPayer' at 46;12.
						</message>
						<metainfo
							type="repoitem"
							path="/dom[@caption='Madaket Health']//a[#'payorClick']"
							itempath=".//a[#'payorClick']"
							fullname="madaket_XP001Repository.MadaketHealth.linkNewPayer"
							id="0e40999c158242618af66e1af1edf093"
							timeout="60000"
							codefile="c:\Users\JohnPloumis\Documents\Ranorex\RanorexStudio Projects\madaket_XP001\madaket_XP001\New_Payer_NoData.cs"
							codeline="85"
							itemindex="1"
							loglvl="Info">
						</metainfo>
					</item>
					<item
						timeRelativeToTestSuiteStartTime="00:11.289"
						timeRelativeToTestModuleStartTime="00:04.992"
						timeWallClock="15:29:33"
						time="00:11.289"
						level="Info"
						category="Mouse">
						<message>
							Mouse Left Click item 'MadaketHealth.PopupScrollContainer' at 544;386.
						</message>
						<metainfo
							type="repoitem"
							path="/dom[@caption='Madaket Health']//div[#'editPayorPopup']/div[2]"
							itempath=".//div[#'editPayorPopup']/div[2]"
							fullname="madaket_XP001Repository.MadaketHealth.PopupScrollContainer"
							id="f53c44ed5bb14893839e2b7cdc4d3ef7"
							timeout="60000"
							codefile="c:\Users\JohnPloumis\Documents\Ranorex\RanorexStudio Projects\madaket_XP001\madaket_XP001\New_Payer_NoData.cs"
							codeline="88"
							itemindex="2"
							loglvl="Info">
						</metainfo>
					</item>
					<item
						timeRelativeToTestSuiteStartTime="00:11.737"
						timeRelativeToTestModuleStartTime="00:05.440"
						timeWallClock="15:29:33"
						time="00:11.737"
						level="Warn"
						category="Click"
						errimg="images_madaket__5f59d3a9\madaket__4a8ee2e3_rxlog.jpg"
						errthumb="images_madaket__5f59d3a9\madaket__4a8ee2e3_rxlog_thumb.jpg">
						<message>
							The mouse action was performed outside the boundaries of the assigned UI element.<br/>
						</message>
						<metainfo
							codefile="c:\Users\JohnPloumis\Documents\Ranorex\RanorexStudio Projects\madaket_XP001\madaket_XP001\New_Payer_NoData.cs"
							codeline="89"
							loglvl="Warn">
						</metainfo>
					</item>
					<item
						timeRelativeToTestSuiteStartTime="00:12.193"
						timeRelativeToTestModuleStartTime="00:05.896"
						timeWallClock="15:29:34"
						time="00:12.193"
						level="Info"
						category="Mouse">
						<message>
							Mouse Left Click item 'MadaketHealth.PopupScrollContainer' at 544;386.
						</message>
						<metainfo
							type="repoitem"
							path="/dom[@caption='Madaket Health']//div[#'editPayorPopup']/div[2]"
							itempath=".//div[#'editPayorPopup']/div[2]"
							fullname="madaket_XP001Repository.MadaketHealth.PopupScrollContainer"
							id="f53c44ed5bb14893839e2b7cdc4d3ef7"
							timeout="60000"
							codefile="c:\Users\JohnPloumis\Documents\Ranorex\RanorexStudio Projects\madaket_XP001\madaket_XP001\New_Payer_NoData.cs"
							codeline="91"
							itemindex="3"
							loglvl="Info">
						</metainfo>
					</item>
					<item
						timeRelativeToTestSuiteStartTime="00:12.491"
						timeRelativeToTestModuleStartTime="00:06.195"
						timeWallClock="15:29:34"
						time="00:12.491"
						level="Warn"
						category="Click"
						errimg="images_madaket__5f59d3a9\madaket__ed36577e_rxlog.jpg"
						errthumb="images_madaket__5f59d3a9\madaket__ed36577e_rxlog_thumb.jpg">
						<message>
							The mouse action was performed outside the boundaries of the assigned UI element.<br/>
						</message>
						<metainfo
							codefile="c:\Users\JohnPloumis\Documents\Ranorex\RanorexStudio Projects\madaket_XP001\madaket_XP001\New_Payer_NoData.cs"
							codeline="92"
							loglvl="Warn">
						</metainfo>
					</item>
					<item
						timeRelativeToTestSuiteStartTime="00:12.851"
						timeRelativeToTestModuleStartTime="00:06.554"
						timeWallClock="15:29:34"
						time="00:12.851"
						level="Info"
						category="Mouse">
						<message>
							Mouse Left Click item 'MadaketHealth.btnSavePayor' at 71;7.
						</message>
						<metainfo
							type="repoitem"
							path="/dom[@caption='Madaket Health']//button[#'savePayorButton']"
							itempath=".//button[#'savePayorButton']"
							fullname="madaket_XP001Repository.MadaketHealth.btnSavePayor"
							id="ab96c6bd2749404d82d6f94d5830ab20"
							timeout="60000"
							codefile="c:\Users\JohnPloumis\Documents\Ranorex\RanorexStudio Projects\madaket_XP001\madaket_XP001\New_Payer_NoData.cs"
							codeline="94"
							itemindex="4"
							loglvl="Info">
						</metainfo>
					</item>
					<item
						timeRelativeToTestSuiteStartTime="00:13.492"
						timeRelativeToTestModuleStartTime="00:07.195"
						timeWallClock="15:29:35"
						time="00:13.492"
						level="Info"
						category="Mouse">
						<message>
							Mouse Left Click item 'MadaketHealth.errMsgPleaseEnterPayerName' at 89;11.
						</message>
						<metainfo
							type="repoitem"
							path="/dom[@caption='Madaket Health']//form[#'payorGeneralForm']/div[1]//label[@innertext='Please enter payer name']"
							itempath=".//form[#'payorGeneralForm']/div[1]//label[@innertext='Please enter payer name']"
							fullname="madaket_XP001Repository.MadaketHealth.errMsgPleaseEnterPayerName"
							id="4e8fcb6b94fa4fdfaa37a0b3a3c6c8d4"
							timeout="60000"
							codefile="c:\Users\JohnPloumis\Documents\Ranorex\RanorexStudio Projects\madaket_XP001\madaket_XP001\New_Payer_NoData.cs"
							codeline="97"
							itemindex="5"
							loglvl="Info">
						</metainfo>
					</item>
					<item
						timeRelativeToTestSuiteStartTime="00:14.240"
						timeRelativeToTestModuleStartTime="00:07.943"
						timeWallClock="15:29:36"
						time="00:14.240"
						level="Info"
						category="Mouse">
						<message>
							Mouse Left Click item 'MadaketHealth.HttpsTestMadakethealthComServices' at 18;22.
						</message>
						<metainfo
							type="repoitem"
							path="/dom[@caption='Madaket Health']//div[#'editPayorPopup']/a[@href~'^https://edi-alpha\.madaket']"
							itempath=".//div[#'editPayorPopup']/a[@href~'^https://edi-alpha\.madaket']"
							fullname="madaket_XP001Repository.MadaketHealth.HttpsTestMadakethealthComServices"
							id="ba73c9ad44884b9eb242b07457d62a68"
							timeout="60000"
							codefile="c:\Users\JohnPloumis\Documents\Ranorex\RanorexStudio Projects\madaket_XP001\madaket_XP001\New_Payer_NoData.cs"
							codeline="100"
							itemindex="6"
							loglvl="Info">
						</metainfo>
					</item>
				</activity>
				<activity
					result="Success"
					duration="14.38s"
					durationms="14375"
					type="test-module"
					rid="7eaea8bcc57467f"
					totalerrorcount="0"
					totalwarningcount="5"
					totalsuccesstestcasecount="0"
					totalfailedtestcasecount="0"
					totalblockedtestcasecount="0"
					childsuccesscount="0"
					childfailedcount="0"
					childblockedcount="0"
					totalsuccesscount="0"
					totalfailedcount="0"
					totalblockedcount="0"
					totalmaintenancemodecount="0"
					modulename="New_Payer_ValidData"
					displayName="New_Payer_ValidData"
					moduleid="a2d47517-0a0b-47f5-b141-691f6f0b3abc"
					moduletype="Recording"
					iteration="1"
					activity-exectype="execute"
					testentry-activity-type="testmodule">
					<detail>
						MH-2218
					</detail>
					<varbindings>
					</varbindings>
					<item
						timeRelativeToTestSuiteStartTime="00:14.865"
						timeRelativeToTestModuleStartTime="00:00.012"
						timeWallClock="15:29:36"
						time="00:14.865"
						level="Info"
						category="Mouse">
						<message>
							Mouse Left Click item 'MadaketHealth.DivTagPayers' at 16;20.
						</message>
						<metainfo
							type="repoitem"
							path="/dom[@caption='Madaket Health']//nav[#'mainNav']/ul//div[@innertext='Payers']"
							itempath=".//nav[#'mainNav']/ul//div[@innertext='Payers']"
							fullname="madaket_XP001Repository.MadaketHealth.DivTagPayers"
							id="29cc9e25aab349529ce160a3bd60a2f5"
							timeout="60000"
							codefile="c:\Users\JohnPloumis\Documents\Ranorex\RanorexStudio Projects\madaket_XP001\madaket_XP001\New_Payer_ValidData.cs"
							codeline="82"
							itemindex="0"
							loglvl="Info">
						</metainfo>
					</item>
					<item
						timeRelativeToTestSuiteStartTime="00:15.604"
						timeRelativeToTestModuleStartTime="00:00.751"
						timeWallClock="15:29:37"
						time="00:15.604"
						level="Info"
						category="Mouse">
						<message>
							Mouse Left Click item 'MadaketHealth.linkNewPayer' at 34;13.
						</message>
						<metainfo
							type="repoitem"
							path="/dom[@caption='Madaket Health']//a[#'payorClick']"
							itempath=".//a[#'payorClick']"
							fullname="madaket_XP001Repository.MadaketHealth.linkNewPayer"
							id="0e40999c158242618af66e1af1edf093"
							timeout="60000"
							codefile="c:\Users\JohnPloumis\Documents\Ranorex\RanorexStudio Projects\madaket_XP001\madaket_XP001\New_Payer_ValidData.cs"
							codeline="85"
							itemindex="1"
							loglvl="Info">
						</metainfo>
					</item>
					<item
						timeRelativeToTestSuiteStartTime="00:16.200"
						timeRelativeToTestModuleStartTime="00:01.347"
						timeWallClock="15:29:38"
						time="00:16.200"
						level="Info"
						category="Mouse">
						<message>
							Mouse Left Click item 'MadaketHealth.PayorName' at 258;15.
						</message>
						<metainfo
							type="repoitem"
							path="/dom[@caption='Madaket Health']//input[#'payorName']"
							itempath=".//input[#'payorName']"
							fullname="madaket_XP001Repository.MadaketHealth.PayorName"
							id="c60f64d457204be3b0c571ec0261f3c7"
							timeout="60000"
							codefile="c:\Users\JohnPloumis\Documents\Ranorex\RanorexStudio Projects\madaket_XP001\madaket_XP001\New_Payer_ValidData.cs"
							codeline="88"
							itemindex="2"
							loglvl="Info">
						</metainfo>
					</item>
					<item
						timeRelativeToTestSuiteStartTime="00:16.625"
						timeRelativeToTestModuleStartTime="00:01.771"
						timeWallClock="15:29:38"
						time="00:16.625"
						level="Warn"
						category="Click"
						errimg="images_madaket__5f59d3a9\madaket__8fddcc19_rxlog.jpg"
						errthumb="images_madaket__5f59d3a9\madaket__8fddcc19_rxlog_thumb.jpg">
						<message>
							The mouse action was performed outside the boundaries of the assigned UI element.<br/>
						</message>
						<metainfo
							codefile="c:\Users\JohnPloumis\Documents\Ranorex\RanorexStudio Projects\madaket_XP001\madaket_XP001\New_Payer_ValidData.cs"
							codeline="89"
							loglvl="Warn">
						</metainfo>
					</item>
					<item
						timeRelativeToTestSuiteStartTime="00:17.078"
						timeRelativeToTestModuleStartTime="00:02.224"
						timeWallClock="15:29:39"
						time="00:17.078"
						level="Info"
						category="Set value">
						<message>
							Setting attribute Value to 'test_payer_automation_XP001' on item 'MadaketHealth.PayorName'.
						</message>
						<metainfo
							type="repoitem"
							path="/dom[@caption='Madaket Health']//input[#'payorName']"
							itempath=".//input[#'payorName']"
							fullname="madaket_XP001Repository.MadaketHealth.PayorName"
							id="c60f64d457204be3b0c571ec0261f3c7"
							timeout="60000"
							codefile="c:\Users\JohnPloumis\Documents\Ranorex\RanorexStudio Projects\madaket_XP001\madaket_XP001\New_Payer_ValidData.cs"
							codeline="91"
							itemindex="3"
							loglvl="Info">
						</metainfo>
					</item>
					<item
						timeRelativeToTestSuiteStartTime="00:17.322"
						timeRelativeToTestModuleStartTime="00:02.468"
						timeWallClock="15:29:39"
						time="00:17.322"
						level="Info"
						category="Delay">
						<message>
							Waiting for 500ms.
						</message>
						<metainfo
							itemindex="4"
							codefile="c:\Users\JohnPloumis\Documents\Ranorex\RanorexStudio Projects\madaket_XP001\madaket_XP001\New_Payer_ValidData.cs"
							codeline="94"
							loglvl="Info">
						</metainfo>
					</item>
					<item
						timeRelativeToTestSuiteStartTime="00:17.869"
						timeRelativeToTestModuleStartTime="00:03.015"
						timeWallClock="15:29:39"
						time="00:17.869"
						level="Info"
						category="Invoke action">
						<message>
							Invoking Focus() on item 'MadaketHealth.PopupScrollContainer'.
						</message>
						<metainfo
							type="repoitem"
							path="/dom[@caption='Madaket Health']//div[#'editPayorPopup']/div[2]"
							itempath=".//div[#'editPayorPopup']/div[2]"
							fullname="madaket_XP001Repository.MadaketHealth.PopupScrollContainer"
							id="f53c44ed5bb14893839e2b7cdc4d3ef7"
							timeout="60000"
							codefile="c:\Users\JohnPloumis\Documents\Ranorex\RanorexStudio Projects\madaket_XP001\madaket_XP001\New_Payer_ValidData.cs"
							codeline="97"
							itemindex="5"
							loglvl="Info">
						</metainfo>
					</item>
					<item
						timeRelativeToTestSuiteStartTime="00:18.134"
						timeRelativeToTestModuleStartTime="00:03.281"
						timeWallClock="15:29:40"
						time="00:18.134"
						level="Info"
						category="Mouse">
						<message>
							Mouse Left Click item 'MadaketHealth.PopupScrollContainer' at 544;361.
						</message>
						<metainfo
							type="repoitem"
							path="/dom[@caption='Madaket Health']//div[#'editPayorPopup']/div[2]"
							itempath=".//div[#'editPayorPopup']/div[2]"
							fullname="madaket_XP001Repository.MadaketHealth.PopupScrollContainer"
							id="f53c44ed5bb14893839e2b7cdc4d3ef7"
							timeout="60000"
							codefile="c:\Users\JohnPloumis\Documents\Ranorex\RanorexStudio Projects\madaket_XP001\madaket_XP001\New_Payer_ValidData.cs"
							codeline="100"
							itemindex="6"
							loglvl="Info">
						</metainfo>
					</item>
					<item
						timeRelativeToTestSuiteStartTime="00:18.438"
						timeRelativeToTestModuleStartTime="00:03.584"
						timeWallClock="15:29:40"
						time="00:18.438"
						level="Warn"
						category="Click"
						errimg="images_madaket__5f59d3a9\madaket__328540b4_rxlog.jpg"
						errthumb="images_madaket__5f59d3a9\madaket__328540b4_rxlog_thumb.jpg">
						<message>
							The mouse action was performed outside the boundaries of the assigned UI element.<br/>
						</message>
						<metainfo
							codefile="c:\Users\JohnPloumis\Documents\Ranorex\RanorexStudio Projects\madaket_XP001\madaket_XP001\New_Payer_ValidData.cs"
							codeline="101"
							loglvl="Warn">
						</metainfo>
					</item>
					<item
						timeRelativeToTestSuiteStartTime="00:18.828"
						timeRelativeToTestModuleStartTime="00:03.975"
						timeWallClock="15:29:40"
						time="00:18.828"
						level="Info"
						category="Set value">
						<message>
							Setting attribute Value to '101 main street' on item 'MadaketHealth.TxtStreet1'.
						</message>
						<metainfo
							type="repoitem"
							path="/dom[@caption='Madaket Health']//input[#'txt_street1']"
							itempath=".//input[#'txt_street1']"
							fullname="madaket_XP001Repository.MadaketHealth.TxtStreet1"
							id="140f920df0e2418ca6177c3fcaa08df8"
							timeout="60000"
							codefile="c:\Users\JohnPloumis\Documents\Ranorex\RanorexStudio Projects\madaket_XP001\madaket_XP001\New_Payer_ValidData.cs"
							codeline="103"
							itemindex="7"
							loglvl="Info">
						</metainfo>
					</item>
					<item
						timeRelativeToTestSuiteStartTime="00:19.088"
						timeRelativeToTestModuleStartTime="00:04.234"
						timeWallClock="15:29:41"
						time="00:19.088"
						level="Info"
						category="Mouse">
						<message>
							Mouse Left Click item 'MadaketHealth.TxtCity' at 130;7.
						</message>
						<metainfo
							type="repoitem"
							path="/dom[@caption='Madaket Health']//input[#'txt_city']"
							itempath=".//input[#'txt_city']"
							fullname="madaket_XP001Repository.MadaketHealth.TxtCity"
							id="275ef8ae16904ae689a4001c02a10d08"
							timeout="60000"
							codefile="c:\Users\JohnPloumis\Documents\Ranorex\RanorexStudio Projects\madaket_XP001\madaket_XP001\New_Payer_ValidData.cs"
							codeline="106"
							itemindex="8"
							loglvl="Info">
						</metainfo>
					</item>
					<item
						timeRelativeToTestSuiteStartTime="00:19.818"
						timeRelativeToTestModuleStartTime="00:04.965"
						timeWallClock="15:29:41"
						time="00:19.818"
						level="Info"
						category="Set value">
						<message>
							Setting attribute Value to 'Boston' on item 'MadaketHealth.TxtCity'.
						</message>
						<metainfo
							type="repoitem"
							path="/dom[@caption='Madaket Health']//input[#'txt_city']"
							itempath=".//input[#'txt_city']"
							fullname="madaket_XP001Repository.MadaketHealth.TxtCity"
							id="275ef8ae16904ae689a4001c02a10d08"
							timeout="60000"
							codefile="c:\Users\JohnPloumis\Documents\Ranorex\RanorexStudio Projects\madaket_XP001\madaket_XP001\New_Payer_ValidData.cs"
							codeline="109"
							itemindex="9"
							loglvl="Info">
						</metainfo>
					</item>
					<item
						timeRelativeToTestSuiteStartTime="00:20.068"
						timeRelativeToTestModuleStartTime="00:05.215"
						timeWallClock="15:29:42"
						time="00:20.068"
						level="Info"
						category="Set value">
						<message>
							Setting attribute TagValue to 'MA' on item 'MadaketHealth.TxtState'.
						</message>
						<metainfo
							type="repoitem"
							path="/dom[@caption='Madaket Health']//select[#'txt_state']"
							itempath=".//select[#'txt_state']"
							fullname="madaket_XP001Repository.MadaketHealth.TxtState"
							id="ebe2033877a44d918170bb47fee05430"
							timeout="60000"
							codefile="c:\Users\JohnPloumis\Documents\Ranorex\RanorexStudio Projects\madaket_XP001\madaket_XP001\New_Payer_ValidData.cs"
							codeline="112"
							itemindex="10"
							loglvl="Info">
						</metainfo>
					</item>
					<item
						timeRelativeToTestSuiteStartTime="00:20.359"
						timeRelativeToTestModuleStartTime="00:05.505"
						timeWallClock="15:29:42"
						time="00:20.359"
						level="Info"
						category="Mouse">
						<message>
							Mouse Left Click item 'MadaketHealth.PopupScrollContainer' at 548;376.
						</message>
						<metainfo
							type="repoitem"
							path="/dom[@caption='Madaket Health']//div[#'editPayorPopup']/div[2]"
							itempath=".//div[#'editPayorPopup']/div[2]"
							fullname="madaket_XP001Repository.MadaketHealth.PopupScrollContainer"
							id="f53c44ed5bb14893839e2b7cdc4d3ef7"
							timeout="60000"
							codefile="c:\Users\JohnPloumis\Documents\Ranorex\RanorexStudio Projects\madaket_XP001\madaket_XP001\New_Payer_ValidData.cs"
							codeline="115"
							itemindex="11"
							loglvl="Info">
						</metainfo>
					</item>
					<item
						timeRelativeToTestSuiteStartTime="00:20.649"
						timeRelativeToTestModuleStartTime="00:05.796"
						timeWallClock="15:29:42"
						time="00:20.649"
						level="Warn"
						category="Click"
						errimg="images_madaket__5f59d3a9\madaket__d52cb54f_rxlog.jpg"
						errthumb="images_madaket__5f59d3a9\madaket__d52cb54f_rxlog_thumb.jpg">
						<message>
							The mouse action was performed outside the boundaries of the assigned UI element.<br/>
						</message>
						<metainfo
							codefile="c:\Users\JohnPloumis\Documents\Ranorex\RanorexStudio Projects\madaket_XP001\madaket_XP001\New_Payer_ValidData.cs"
							codeline="116"
							loglvl="Warn">
						</metainfo>
					</item>
					<item
						timeRelativeToTestSuiteStartTime="00:21.118"
						timeRelativeToTestModuleStartTime="00:06.265"
						timeWallClock="15:29:43"
						time="00:21.118"
						level="Info"
						category="Mouse">
						<message>
							Mouse Left Click item 'MadaketHealth.FirstName' at 146;8.
						</message>
						<metainfo
							type="repoitem"
							path="/dom[@caption='Madaket Health']//input[#'firstName']"
							itempath=".//input[#'firstName']"
							fullname="madaket_XP001Repository.MadaketHealth.FirstName"
							id="d3da3f164ae640b5b1e62605679d50af"
							timeout="60000"
							codefile="c:\Users\JohnPloumis\Documents\Ranorex\RanorexStudio Projects\madaket_XP001\madaket_XP001\New_Payer_ValidData.cs"
							codeline="118"
							itemindex="12"
							loglvl="Info">
						</metainfo>
					</item>
					<item
						timeRelativeToTestSuiteStartTime="00:21.770"
						timeRelativeToTestModuleStartTime="00:06.916"
						timeWallClock="15:29:43"
						time="00:21.770"
						level="Info"
						category="Keyboard">
						<message>
							Key sequence 'test{Tab}payer' with focus on 'MadaketHealth.FirstName'.
						</message>
						<metainfo
							type="repoitem"
							path="/dom[@caption='Madaket Health']//input[#'firstName']"
							itempath=".//input[#'firstName']"
							fullname="madaket_XP001Repository.MadaketHealth.FirstName"
							id="d3da3f164ae640b5b1e62605679d50af"
							timeout="60000"
							codefile="c:\Users\JohnPloumis\Documents\Ranorex\RanorexStudio Projects\madaket_XP001\madaket_XP001\New_Payer_ValidData.cs"
							codeline="121"
							itemindex="13"
							loglvl="Info">
						</metainfo>
					</item>
					<item
						timeRelativeToTestSuiteStartTime="00:22.703"
						timeRelativeToTestModuleStartTime="00:07.850"
						timeWallClock="15:29:44"
						time="00:22.703"
						level="Info"
						category="Keyboard">
						<message>
							Key sequence '{Tab}'.
						</message>
						<metainfo
							itemindex="14"
							codefile="c:\Users\JohnPloumis\Documents\Ranorex\RanorexStudio Projects\madaket_XP001\madaket_XP001\New_Payer_ValidData.cs"
							codeline="124"
							loglvl="Info">
						</metainfo>
					</item>
					<item
						timeRelativeToTestSuiteStartTime="00:22.922"
						timeRelativeToTestModuleStartTime="00:08.069"
						timeWallClock="15:29:44"
						time="00:22.922"
						level="Info"
						category="Keyboard">
						<message>
							Key sequence 'test.payer{LShiftKey down}{@ down}{LShiftKey up}payer.com'.
						</message>
						<metainfo
							itemindex="15"
							codefile="c:\Users\JohnPloumis\Documents\Ranorex\RanorexStudio Projects\madaket_XP001\madaket_XP001\New_Payer_ValidData.cs"
							codeline="127"
							loglvl="Info">
						</metainfo>
					</item>
					<item
						timeRelativeToTestSuiteStartTime="00:23.676"
						timeRelativeToTestModuleStartTime="00:08.823"
						timeWallClock="15:29:45"
						time="00:23.676"
						level="Info"
						category="Mouse">
						<message>
							Mouse Left Click item 'MadaketHealth.btnSavePayor' at 50;9.
						</message>
						<metainfo
							type="repoitem"
							path="/dom[@caption='Madaket Health']//button[#'savePayorButton']"
							itempath=".//button[#'savePayorButton']"
							fullname="madaket_XP001Repository.MadaketHealth.btnSavePayor"
							id="ab96c6bd2749404d82d6f94d5830ab20"
							timeout="60000"
							codefile="c:\Users\JohnPloumis\Documents\Ranorex\RanorexStudio Projects\madaket_XP001\madaket_XP001\New_Payer_ValidData.cs"
							codeline="130"
							itemindex="16"
							loglvl="Info">
						</metainfo>
					</item>
					<item
						timeRelativeToTestSuiteStartTime="00:24.314"
						timeRelativeToTestModuleStartTime="00:09.460"
						timeWallClock="15:29:46"
						time="00:24.314"
						level="Info"
						category="Mouse">
						<message>
							Mouse Left Click item 'MadaketHealth.PayerGeneralDetailsDiv.DivTagTestPayerAutomationXP0' at 96;9.
						</message>
						<metainfo
							type="repoitem"
							path="/dom[@caption='Madaket Health']//div[#'payerGeneralDetailsDiv']//div[@innertext~'^test_payer_autom']"
							itempath=".//div[@innertext~'^test_payer_autom']"
							fullname="madaket_XP001Repository.MadaketHealth.PayerGeneralDetailsDiv.DivTagTestPayerAutomationXP0"
							id="0e44183f677548639bb83854085d8ec1"
							timeout="90000"
							codefile="c:\Users\JohnPloumis\Documents\Ranorex\RanorexStudio Projects\madaket_XP001\madaket_XP001\New_Payer_ValidData.cs"
							codeline="133"
							itemindex="17"
							loglvl="Info">
						</metainfo>
					</item>
					<item
						timeRelativeToTestSuiteStartTime="00:25.877"
						timeRelativeToTestModuleStartTime="00:11.023"
						timeWallClock="15:29:47"
						time="00:25.877"
						level="Info"
						category="Mouse">
						<message>
							Mouse Left Click item 'MadaketHealth.PayerGeneralDetailsDiv.PayerName' at 39;12.
						</message>
						<metainfo
							type="repoitem"
							path="/dom[@caption='Madaket Health']//div[#'payerGeneralDetailsDiv']/div[2]/div[1]/?/?/strong[@innertext='Payer name:']"
							itempath="div[2]/div[1]/?/?/strong[@innertext='Payer name:']"
							fullname="madaket_XP001Repository.MadaketHealth.PayerGeneralDetailsDiv.PayerName"
							id="761d8abaef054dda9ba0c9e8b5cb4084"
							timeout="90000"
							codefile="c:\Users\JohnPloumis\Documents\Ranorex\RanorexStudio Projects\madaket_XP001\madaket_XP001\New_Payer_ValidData.cs"
							codeline="136"
							itemindex="18"
							loglvl="Info">
						</metainfo>
					</item>
					<item
						timeRelativeToTestSuiteStartTime="00:26.197"
						timeRelativeToTestModuleStartTime="00:11.344"
						timeWallClock="15:29:48"
						time="00:26.197"
						level="Warn"
						category="Click"
						errimg="images_madaket__5f59d3a9\madaket__77d429ea_rxlog.jpg"
						errthumb="images_madaket__5f59d3a9\madaket__77d429ea_rxlog_thumb.jpg">
						<message>
							The mouse action was performed outside the boundaries of the assigned UI element.<br/>
						</message>
						<metainfo
							codefile="c:\Users\JohnPloumis\Documents\Ranorex\RanorexStudio Projects\madaket_XP001\madaket_XP001\New_Payer_ValidData.cs"
							codeline="137"
							loglvl="Warn">
						</metainfo>
					</item>
					<item
						timeRelativeToTestSuiteStartTime="00:26.572"
						timeRelativeToTestModuleStartTime="00:11.719"
						timeWallClock="15:29:48"
						time="00:26.572"
						level="Info"
						category="Mouse">
						<message>
							Mouse Left Click item 'MadaketHealth.PayerGeneralDetailsDiv.Address' at 32;12.
						</message>
						<metainfo
							type="repoitem"
							path="/dom[@caption='Madaket Health']//div[#'payerGeneralDetailsDiv']/div[2]/div[7]/?/?/span[@innertext='Address:']"
							itempath="div[2]/div[7]/?/?/span[@innertext='Address:']"
							fullname="madaket_XP001Repository.MadaketHealth.PayerGeneralDetailsDiv.Address"
							id="14645446fd584bf2a276b1938a1712e1"
							timeout="90000"
							codefile="c:\Users\JohnPloumis\Documents\Ranorex\RanorexStudio Projects\madaket_XP001\madaket_XP001\New_Payer_ValidData.cs"
							codeline="139"
							itemindex="19"
							loglvl="Info">
						</metainfo>
					</item>
					<item
						timeRelativeToTestSuiteStartTime="00:26.869"
						timeRelativeToTestModuleStartTime="00:12.016"
						timeWallClock="15:29:48"
						time="00:26.869"
						level="Warn"
						category="Click"
						errimg="images_madaket__5f59d3a9\madaket__1a7b9e85_rxlog.jpg"
						errthumb="images_madaket__5f59d3a9\madaket__1a7b9e85_rxlog_thumb.jpg">
						<message>
							The mouse action was performed outside the boundaries of the assigned UI element.<br/>
						</message>
						<metainfo
							codefile="c:\Users\JohnPloumis\Documents\Ranorex\RanorexStudio Projects\madaket_XP001\madaket_XP001\New_Payer_ValidData.cs"
							codeline="140"
							loglvl="Warn">
						</metainfo>
					</item>
					<item
						timeRelativeToTestSuiteStartTime="00:27.239"
						timeRelativeToTestModuleStartTime="00:12.386"
						timeWallClock="15:29:49"
						time="00:27.239"
						level="Info"
						category="Mouse">
						<message>
							Mouse Left Click item 'MadaketHealth.PayerGeneralDetailsDiv.DivTag101MainStreetW' at 35;17.
						</message>
						<metainfo
							type="repoitem"
							path="/dom[@caption='Madaket Health']//div[#'payerGeneralDetailsDiv']//div[@innertext~'^101\ main\ street']"
							itempath=".//div[@innertext~'^101\ main\ street']"
							fullname="madaket_XP001Repository.MadaketHealth.PayerGeneralDetailsDiv.DivTag101MainStreetW"
							id="6c7e3dd9a6004299ba43a1310c11a174"
							timeout="90000"
							codefile="c:\Users\JohnPloumis\Documents\Ranorex\RanorexStudio Projects\madaket_XP001\madaket_XP001\New_Payer_ValidData.cs"
							codeline="142"
							itemindex="20"
							loglvl="Info">
						</metainfo>
					</item>
					<item
						timeRelativeToTestSuiteStartTime="00:27.907"
						timeRelativeToTestModuleStartTime="00:13.053"
						timeWallClock="15:29:49"
						time="00:27.907"
						level="Info"
						category="Mouse">
						<message>
							Mouse Left Click item 'MadaketHealth.PayerGeneralDetailsDiv.Contact' at 32;5.
						</message>
						<metainfo
							type="repoitem"
							path="/dom[@caption='Madaket Health']//div[#'payerGeneralDetailsDiv']/div[2]/div[8]/?/?/span[@innertext='Contact:']"
							itempath="div[2]/div[8]/?/?/span[@innertext='Contact:']"
							fullname="madaket_XP001Repository.MadaketHealth.PayerGeneralDetailsDiv.Contact"
							id="f417a5fe94464a708c34508abc60a181"
							timeout="90000"
							codefile="c:\Users\JohnPloumis\Documents\Ranorex\RanorexStudio Projects\madaket_XP001\madaket_XP001\New_Payer_ValidData.cs"
							codeline="145"
							itemindex="21"
							loglvl="Info">
						</metainfo>
					</item>
					<item
						timeRelativeToTestSuiteStartTime="00:28.561"
						timeRelativeToTestModuleStartTime="00:13.708"
						timeWallClock="15:29:50"
						time="00:28.561"
						level="Info"
						category="Mouse">
						<message>
							Mouse Left Click item 'MadaketHealth.PayerGeneralDetailsDiv.DivTagTestPayerAtpayerCom' at 59;6.
						</message>
						<metainfo
							type="repoitem"
							path="/dom[@caption='Madaket Health']//div[#'payerGeneralDetailsDiv']//div[@innertext~'^test\.payer@payer']"
							itempath=".//div[@innertext~'^test\.payer@payer']"
							fullname="madaket_XP001Repository.MadaketHealth.PayerGeneralDetailsDiv.DivTagTestPayerAtpayerCom"
							id="54203ec5caae40ada0580344cddf82e5"
							timeout="90000"
							codefile="c:\Users\JohnPloumis\Documents\Ranorex\RanorexStudio Projects\madaket_XP001\madaket_XP001\New_Payer_ValidData.cs"
							codeline="148"
							itemindex="22"
							loglvl="Info">
						</metainfo>
					</item>
				</activity>
				<activity
					result="Success"
					duration="10.41s"
					durationms="10406"
					type="test-module"
					rid="15ba046803c1c03e"
					totalerrorcount="0"
					totalwarningcount="0"
					totalsuccesstestcasecount="0"
					totalfailedtestcasecount="0"
					totalblockedtestcasecount="0"
					childsuccesscount="0"
					childfailedcount="0"
					childblockedcount="0"
					totalsuccesscount="0"
					totalfailedcount="0"
					totalblockedcount="0"
					totalmaintenancemodecount="0"
					modulename="New_Memebr_ValidData"
					displayName="New_Memebr_ValidData"
					moduleid="a47e2d01-2974-4ebd-bf23-f753f84173e0"
					moduletype="Recording"
					iteration="1"
					activity-exectype="execute"
					testentry-activity-type="testmodule">
					<detail>
						MH-2218
					</detail>
					<varbindings>
					</varbindings>
					<item
						timeRelativeToTestSuiteStartTime="00:29.228"
						timeRelativeToTestModuleStartTime="00:00.000"
						timeWallClock="15:29:51"
						time="00:29.228"
						level="Info"
						category="Mouse">
						<message>
							Mouse Left Click item 'MadaketHealth.Members' at 15;16.
						</message>
						<metainfo
							type="repoitem"
							path="/dom[@caption='Madaket Health']//div[#'bodyContent']/?/?/ul/?/?/a[@innertext='Members']"
							itempath=".//div[#'bodyContent']/?/?/ul/?/?/a[@innertext='Members']"
							fullname="madaket_XP001Repository.MadaketHealth.Members"
							id="ced0afd7621342768b5fc8cafc1f82ed"
							timeout="60000"
							codefile="c:\Users\JohnPloumis\Documents\Ranorex\RanorexStudio Projects\madaket_XP001\madaket_XP001\New_Memebr_ValidData.cs"
							codeline="82"
							itemindex="0"
							loglvl="Info">
						</metainfo>
					</item>
					<item
						timeRelativeToTestSuiteStartTime="00:29.900"
						timeRelativeToTestModuleStartTime="00:00.672"
						timeWallClock="15:29:51"
						time="00:29.900"
						level="Info"
						category="Mouse">
						<message>
							Mouse Left Click item 'MadaketHealth.AddPayerMember' at 44;7.
						</message>
						<metainfo
							type="repoitem"
							path="/dom[@caption='Madaket Health']//a[#'addPayerMember']"
							itempath=".//a[#'addPayerMember']"
							fullname="madaket_XP001Repository.MadaketHealth.AddPayerMember"
							id="fff53ee5af2a450c9764be9ad66e8458"
							timeout="60000"
							codefile="c:\Users\JohnPloumis\Documents\Ranorex\RanorexStudio Projects\madaket_XP001\madaket_XP001\New_Memebr_ValidData.cs"
							codeline="85"
							itemindex="1"
							loglvl="Info">
						</metainfo>
					</item>
					<item
						timeRelativeToTestSuiteStartTime="00:31.099"
						timeRelativeToTestModuleStartTime="00:01.870"
						timeWallClock="15:29:53"
						time="00:31.099"
						level="Info"
						category="Mouse">
						<message>
							Mouse Left Click item 'MadaketHealth.FirstName' at 150;8.
						</message>
						<metainfo
							type="repoitem"
							path="/dom[@caption='Madaket Health']//input[#'firstName']"
							itempath=".//input[#'firstName']"
							fullname="madaket_XP001Repository.MadaketHealth.FirstName"
							id="d3da3f164ae640b5b1e62605679d50af"
							timeout="60000"
							codefile="c:\Users\JohnPloumis\Documents\Ranorex\RanorexStudio Projects\madaket_XP001\madaket_XP001\New_Memebr_ValidData.cs"
							codeline="88"
							itemindex="2"
							loglvl="Info">
						</metainfo>
					</item>
					<item
						timeRelativeToTestSuiteStartTime="00:31.902"
						timeRelativeToTestModuleStartTime="00:02.673"
						timeWallClock="15:29:53"
						time="00:31.902"
						level="Info"
						category="Keyboard">
						<message>
							Key sequence 'test' with focus on 'MadaketHealth.FirstName'.
						</message>
						<metainfo
							type="repoitem"
							path="/dom[@caption='Madaket Health']//input[#'firstName']"
							itempath=".//input[#'firstName']"
							fullname="madaket_XP001Repository.MadaketHealth.FirstName"
							id="d3da3f164ae640b5b1e62605679d50af"
							timeout="60000"
							codefile="c:\Users\JohnPloumis\Documents\Ranorex\RanorexStudio Projects\madaket_XP001\madaket_XP001\New_Memebr_ValidData.cs"
							codeline="91"
							itemindex="3"
							loglvl="Info">
						</metainfo>
					</item>
					<item
						timeRelativeToTestSuiteStartTime="00:32.650"
						timeRelativeToTestModuleStartTime="00:03.422"
						timeWallClock="15:29:54"
						time="00:32.650"
						level="Info"
						category="Mouse">
						<message>
							Mouse Left Click item 'MadaketHealth.LastName' at 120;10.
						</message>
						<metainfo
							type="repoitem"
							path="/dom[@caption='Madaket Health']//input[#'lastName']"
							itempath=".//input[#'lastName']"
							fullname="madaket_XP001Repository.MadaketHealth.LastName"
							id="056f64c786c145148a021603e6cc968d"
							timeout="60000"
							codefile="c:\Users\JohnPloumis\Documents\Ranorex\RanorexStudio Projects\madaket_XP001\madaket_XP001\New_Memebr_ValidData.cs"
							codeline="94"
							itemindex="4"
							loglvl="Info">
						</metainfo>
					</item>
					<item
						timeRelativeToTestSuiteStartTime="00:33.270"
						timeRelativeToTestModuleStartTime="00:04.041"
						timeWallClock="15:29:55"
						time="00:33.270"
						level="Info"
						category="Keyboard">
						<message>
							Key sequence 'member{LShiftKey down}_XP{LShiftKey up}001' with focus on 'MadaketHealth.LastName'.
						</message>
						<metainfo
							type="repoitem"
							path="/dom[@caption='Madaket Health']//input[#'lastName']"
							itempath=".//input[#'lastName']"
							fullname="madaket_XP001Repository.MadaketHealth.LastName"
							id="056f64c786c145148a021603e6cc968d"
							timeout="60000"
							codefile="c:\Users\JohnPloumis\Documents\Ranorex\RanorexStudio Projects\madaket_XP001\madaket_XP001\New_Memebr_ValidData.cs"
							codeline="97"
							itemindex="5"
							loglvl="Info">
						</metainfo>
					</item>
					<item
						timeRelativeToTestSuiteStartTime="00:34.229"
						timeRelativeToTestModuleStartTime="00:05.000"
						timeWallClock="15:29:56"
						time="00:34.229"
						level="Info"
						category="Mouse">
						<message>
							Mouse Left Click item 'MadaketHealth.Email' at 109;14.
						</message>
						<metainfo
							type="repoitem"
							path="/dom[@caption='Madaket Health']//?/?/?/?/?/input[@id='email']"
							itempath=".//?/?/?/?/?/input[@id='email']"
							fullname="madaket_XP001Repository.MadaketHealth.Email"
							id="a3920f5fc83e40948d79cf6097767a6c"
							timeout="60000"
							codefile="c:\Users\JohnPloumis\Documents\Ranorex\RanorexStudio Projects\madaket_XP001\madaket_XP001\New_Memebr_ValidData.cs"
							codeline="100"
							itemindex="6"
							loglvl="Info">
						</metainfo>
					</item>
					<item
						timeRelativeToTestSuiteStartTime="00:35.167"
						timeRelativeToTestModuleStartTime="00:05.938"
						timeWallClock="15:29:57"
						time="00:35.167"
						level="Info"
						category="Keyboard">
						<message>
							Key sequence 'jploumis+AARP@madakethealth.com{Tab}' with focus on 'MadaketHealth.Email'.
						</message>
						<metainfo
							type="repoitem"
							path="/dom[@caption='Madaket Health']//?/?/?/?/?/input[@id='email']"
							itempath=".//?/?/?/?/?/input[@id='email']"
							fullname="madaket_XP001Repository.MadaketHealth.Email"
							id="a3920f5fc83e40948d79cf6097767a6c"
							timeout="60000"
							codefile="c:\Users\JohnPloumis\Documents\Ranorex\RanorexStudio Projects\madaket_XP001\madaket_XP001\New_Memebr_ValidData.cs"
							codeline="103"
							itemindex="7"
							loglvl="Info">
						</metainfo>
					</item>
					<item
						timeRelativeToTestSuiteStartTime="00:37.123"
						timeRelativeToTestModuleStartTime="00:07.894"
						timeWallClock="15:29:59"
						time="00:37.123"
						level="Info"
						category="Keyboard">
						<message>
							Key sequence '5087441234'.
						</message>
						<metainfo
							itemindex="8"
							codefile="c:\Users\JohnPloumis\Documents\Ranorex\RanorexStudio Projects\madaket_XP001\madaket_XP001\New_Memebr_ValidData.cs"
							codeline="106"
							loglvl="Info">
						</metainfo>
					</item>
					<item
						timeRelativeToTestSuiteStartTime="00:37.604"
						timeRelativeToTestModuleStartTime="00:08.375"
						timeWallClock="15:29:59"
						time="00:37.604"
						level="Info"
						category="Mouse">
						<message>
							Mouse Left Click item 'MadaketHealth.AddUserButton' at 75;11.
						</message>
						<metainfo
							type="repoitem"
							path="/dom[@caption='Madaket Health']//button[#'addUserButton']"
							itempath=".//button[#'addUserButton']"
							fullname="madaket_XP001Repository.MadaketHealth.AddUserButton"
							id="a035618750954cc79784608172634160"
							timeout="60000"
							codefile="c:\Users\JohnPloumis\Documents\Ranorex\RanorexStudio Projects\madaket_XP001\madaket_XP001\New_Memebr_ValidData.cs"
							codeline="109"
							itemindex="9"
							loglvl="Info">
						</metainfo>
					</item>
					<item
						timeRelativeToTestSuiteStartTime="00:38.244"
						timeRelativeToTestModuleStartTime="00:09.015"
						timeWallClock="15:30:00"
						time="00:38.244"
						level="Info"
						category="Mouse">
						<message>
							Mouse Left Click item 'MadaketHealth.Members' at 40;19.
						</message>
						<metainfo
							type="repoitem"
							path="/dom[@caption='Madaket Health']//div[#'bodyContent']/?/?/ul/?/?/a[@innertext='Members']"
							itempath=".//div[#'bodyContent']/?/?/ul/?/?/a[@innertext='Members']"
							fullname="madaket_XP001Repository.MadaketHealth.Members"
							id="ced0afd7621342768b5fc8cafc1f82ed"
							timeout="60000"
							codefile="c:\Users\JohnPloumis\Documents\Ranorex\RanorexStudio Projects\madaket_XP001\madaket_XP001\New_Memebr_ValidData.cs"
							codeline="112"
							itemindex="10"
							loglvl="Info">
						</metainfo>
					</item>
				</activity>
				<activity
					result="Success"
					duration="24s"
					durationms="24001"
					type="test-module"
					rid="1f922ff147acad98"
					totalerrorcount="0"
					totalwarningcount="2"
					totalsuccesstestcasecount="0"
					totalfailedtestcasecount="0"
					totalblockedtestcasecount="0"
					childsuccesscount="0"
					childfailedcount="0"
					childblockedcount="0"
					totalsuccesscount="0"
					totalfailedcount="0"
					totalblockedcount="0"
					totalmaintenancemodecount="0"
					modulename="New_MedicalGroup_NoData"
					displayName="New_MedicalGroup_NoData"
					moduleid="9cf3ca69-ddc6-4936-98f2-29f7ab633287"
					moduletype="Recording"
					iteration="1"
					activity-exectype="execute"
					testentry-activity-type="testmodule">
					<detail>
						MH-3658
					</detail>
					<varbindings>
					</varbindings>
					<item
						timeRelativeToTestSuiteStartTime="00:39.651"
						timeRelativeToTestModuleStartTime="00:00.000"
						timeWallClock="15:30:01"
						time="00:39.651"
						level="Info"
						category="Mouse">
						<message>
							Mouse Left Click item 'MadaketHealth.DivTagMedicalGroups' at 51;18.
						</message>
						<metainfo
							type="repoitem"
							path="/dom[@caption='Madaket Health']//nav[#'mainNav']/ul//div[@innertext~'^Medical\ Groups']"
							itempath=".//nav[#'mainNav']/ul//div[@innertext~'^Medical\ Groups']"
							fullname="madaket_XP001Repository.MadaketHealth.DivTagMedicalGroups"
							id="b009e8773a4e4780a7cf8148c07c9d21"
							timeout="60000"
							codefile="c:\Users\JohnPloumis\Documents\Ranorex\RanorexStudio Projects\madaket_XP001\madaket_XP001\New_MedicalGroup_NoData.cs"
							codeline="82"
							itemindex="0"
							loglvl="Info">
						</metainfo>
					</item>
					<item
						timeRelativeToTestSuiteStartTime="00:40.776"
						timeRelativeToTestModuleStartTime="00:01.125"
						timeWallClock="15:30:02"
						time="00:40.776"
						level="Info"
						category="Mouse">
						<message>
							Mouse Left Click item 'MadaketHealth.MedicalGroupClickNewFlow' at 67;8.
						</message>
						<metainfo
							type="repoitem"
							path="/dom[@caption='Madaket Health']//a[#'medicalGroupClickNewFlow']"
							itempath=".//a[#'medicalGroupClickNewFlow']"
							fullname="madaket_XP001Repository.MadaketHealth.MedicalGroupClickNewFlow"
							id="1f976bff0a704cffb4e06ee1e8772048"
							timeout="60000"
							codefile="c:\Users\JohnPloumis\Documents\Ranorex\RanorexStudio Projects\madaket_XP001\madaket_XP001\New_MedicalGroup_NoData.cs"
							codeline="85"
							itemindex="1"
							loglvl="Info">
						</metainfo>
					</item>
					<item
						timeRelativeToTestSuiteStartTime="00:42.340"
						timeRelativeToTestModuleStartTime="00:02.689"
						timeWallClock="15:30:04"
						time="00:42.340"
						level="Info"
						category="Mouse">
						<message>
							Mouse Left Click item 'MadaketHealth.PopupScrollContainer1' at 751;376.
						</message>
						<metainfo
							type="repoitem"
							path="/dom[@caption='Madaket Health']//div[#'addMedicalGroupPopupContainer']/div[3]"
							itempath=".//div[#'addMedicalGroupPopupContainer']/div[3]"
							fullname="madaket_XP001Repository.MadaketHealth.PopupScrollContainer1"
							id="4475c1ec0c3e4350840c3462d5408ab0"
							timeout="60000"
							codefile="c:\Users\JohnPloumis\Documents\Ranorex\RanorexStudio Projects\madaket_XP001\madaket_XP001\New_MedicalGroup_NoData.cs"
							codeline="88"
							itemindex="2"
							loglvl="Info">
						</metainfo>
					</item>
					<item
						timeRelativeToTestSuiteStartTime="00:59.606"
						timeRelativeToTestModuleStartTime="00:19.955"
						timeWallClock="15:30:21"
						time="00:59.606"
						level="Warn"
						category="Click"
						errimg="images_madaket__5f59d3a9\madaket__bd231320_rxlog.jpg"
						errthumb="images_madaket__5f59d3a9\madaket__bd231320_rxlog_thumb.jpg">
						<message>
							The mouse action was performed outside the boundaries of the assigned UI element.<br/>
						</message>
						<metainfo
							codefile="c:\Users\JohnPloumis\Documents\Ranorex\RanorexStudio Projects\madaket_XP001\madaket_XP001\New_MedicalGroup_NoData.cs"
							codeline="89"
							loglvl="Warn">
						</metainfo>
					</item>
					<item
						timeRelativeToTestSuiteStartTime="01:00.000"
						timeRelativeToTestModuleStartTime="00:20.348"
						timeWallClock="15:30:22"
						time="01:00.000"
						level="Info"
						category="Mouse">
						<message>
							Mouse Left Click item 'MadaketHealth.TabIndex0' at 49;7.
						</message>
						<metainfo
							type="repoitem"
							path="/dom[@caption='Madaket Health']//button[#'tabIndex0']"
							itempath=".//button[#'tabIndex0']"
							fullname="madaket_XP001Repository.MadaketHealth.TabIndex0"
							id="ede082c547ae4f43bf3d32d91be01dd8"
							timeout="60000"
							codefile="c:\Users\JohnPloumis\Documents\Ranorex\RanorexStudio Projects\madaket_XP001\madaket_XP001\New_MedicalGroup_NoData.cs"
							codeline="91"
							itemindex="3"
							loglvl="Info">
						</metainfo>
					</item>
					<item
						timeRelativeToTestSuiteStartTime="01:00.830"
						timeRelativeToTestModuleStartTime="00:21.179"
						timeWallClock="15:30:22"
						time="01:00.830"
						level="Info"
						category="Mouse">
						<message>
							Mouse Left Click item 'MadaketHealth.EnterAGroupName' at 85;8.
						</message>
						<metainfo
							type="repoitem"
							path="/dom[@caption='Madaket Health']//div[#'medicalGroupAddNewFlow']/div/div[1]/?/?/label[@innertext='Enter a Group Name']"
							itempath=".//div[#'medicalGroupAddNewFlow']/div/div[1]/?/?/label[@innertext='Enter a Group Name']"
							fullname="madaket_XP001Repository.MadaketHealth.EnterAGroupName"
							id="db41856ceaf94901958ce4b63ffa8673"
							timeout="60000"
							codefile="c:\Users\JohnPloumis\Documents\Ranorex\RanorexStudio Projects\madaket_XP001\madaket_XP001\New_MedicalGroup_NoData.cs"
							codeline="94"
							itemindex="4"
							loglvl="Info">
						</metainfo>
					</item>
					<item
						timeRelativeToTestSuiteStartTime="01:01.627"
						timeRelativeToTestModuleStartTime="00:21.975"
						timeWallClock="15:30:23"
						time="01:01.627"
						level="Info"
						category="Mouse">
						<message>
							Mouse Left Click item 'MadaketHealth.EnterASiteId' at 62;5.
						</message>
						<metainfo
							type="repoitem"
							path="/dom[@caption='Madaket Health']//div[#'partnerIdRow']/?/?/label[@innertext='Enter a Site Id']"
							itempath=".//div[#'partnerIdRow']/?/?/label[@innertext='Enter a Site Id']"
							fullname="madaket_XP001Repository.MadaketHealth.EnterASiteId"
							id="15bcacdcc5e7463b8ca37009f3a750a3"
							timeout="60000"
							codefile="c:\Users\JohnPloumis\Documents\Ranorex\RanorexStudio Projects\madaket_XP001\madaket_XP001\New_MedicalGroup_NoData.cs"
							codeline="97"
							itemindex="5"
							loglvl="Info">
						</metainfo>
					</item>
					<item
						timeRelativeToTestSuiteStartTime="01:02.267"
						timeRelativeToTestModuleStartTime="00:22.616"
						timeWallClock="15:30:24"
						time="01:02.267"
						level="Info"
						category="Mouse">
						<message>
							Mouse Left Click item 'MadaketHealth.EnterATIN' at 221;6.
						</message>
						<metainfo
							type="repoitem"
							path="/dom[@caption='Madaket Health']//label[#'tinError']/label[@innertext='Enter a TIN']"
							itempath=".//label[#'tinError']/label[@innertext='Enter a TIN']"
							fullname="madaket_XP001Repository.MadaketHealth.EnterATIN"
							id="91b98ef7369e4e07ab03d62c5add9a5c"
							timeout="60000"
							codefile="c:\Users\JohnPloumis\Documents\Ranorex\RanorexStudio Projects\madaket_XP001\madaket_XP001\New_MedicalGroup_NoData.cs"
							codeline="100"
							itemindex="6"
							loglvl="Info">
						</metainfo>
					</item>
					<item
						timeRelativeToTestSuiteStartTime="01:02.579"
						timeRelativeToTestModuleStartTime="00:22.928"
						timeWallClock="15:30:24"
						time="01:02.579"
						level="Warn"
						category="Click"
						errimg="images_madaket__5f59d3a9\madaket__5fca87bb_rxlog.jpg"
						errthumb="images_madaket__5f59d3a9\madaket__5fca87bb_rxlog_thumb.jpg">
						<message>
							The mouse action was performed outside the boundaries of the assigned UI element.<br/>
						</message>
						<metainfo
							codefile="c:\Users\JohnPloumis\Documents\Ranorex\RanorexStudio Projects\madaket_XP001\madaket_XP001\New_MedicalGroup_NoData.cs"
							codeline="101"
							loglvl="Warn">
						</metainfo>
					</item>
					<item
						timeRelativeToTestSuiteStartTime="01:02.986"
						timeRelativeToTestModuleStartTime="00:23.334"
						timeWallClock="15:30:25"
						time="01:02.986"
						level="Info"
						category="Mouse">
						<message>
							Mouse Left Click item 'MadaketHealth.HttpsEdiAlphaMadakethealthComServ' at 22;17.
						</message>
						<metainfo
							type="repoitem"
							path="/dom[@caption='Madaket Health']//div[#'addMedicalGroupPopupContainer']/a[@href~'^https://edi-alpha\.madaket']"
							itempath=".//div[#'addMedicalGroupPopupContainer']/a[@href~'^https://edi-alpha\.madaket']"
							fullname="madaket_XP001Repository.MadaketHealth.HttpsEdiAlphaMadakethealthComServ"
							id="fa8f43607af64a2a8b0603537312fa25"
							timeout="60000"
							codefile="c:\Users\JohnPloumis\Documents\Ranorex\RanorexStudio Projects\madaket_XP001\madaket_XP001\New_MedicalGroup_NoData.cs"
							codeline="103"
							itemindex="7"
							loglvl="Info">
						</metainfo>
					</item>
				</activity>
				<activity
					result="Failed"
					duration="1.2m"
					durationms="70389"
					type="test-module"
					rid="85c17c7460537b2"
					totalerrorcount="1"
					totalwarningcount="1"
					totalsuccesstestcasecount="0"
					totalfailedtestcasecount="0"
					totalblockedtestcasecount="0"
					childsuccesscount="0"
					childfailedcount="0"
					childblockedcount="0"
					totalsuccesscount="0"
					totalfailedcount="0"
					totalblockedcount="0"
					totalmaintenancemodecount="0"
					modulename="Delete_NewPayer"
					displayName="Delete_NewPayer"
					moduleid="e9ca7061-0bbf-4db8-af34-4af1fd68363d"
					moduletype="Recording"
					iteration="1"
					activity-exectype="execute"
					testentry-activity-type="testmodule">
					<detail>
						MH-2218
					</detail>
					<errormessage>
						Failed to find item 'madaket_XP001Repository.MadaketHealth.PayorSearch'.
					</errormessage>
					<varbindings>
					</varbindings>
					<item
						timeRelativeToTestSuiteStartTime="01:03.663"
						timeRelativeToTestModuleStartTime="00:00.011"
						timeWallClock="15:30:25"
						time="01:03.663"
						level="Info"
						category="Mouse">
						<message>
							Mouse Left Click item 'MadaketHealth.DivTagPayers' at 18;20.
						</message>
						<metainfo
							type="repoitem"
							path="/dom[@caption='Madaket Health']//nav[#'mainNav']/ul//div[@innertext='Payers']"
							itempath=".//nav[#'mainNav']/ul//div[@innertext='Payers']"
							fullname="madaket_XP001Repository.MadaketHealth.DivTagPayers"
							id="29cc9e25aab349529ce160a3bd60a2f5"
							timeout="60000"
							codefile="c:\Users\JohnPloumis\Documents\Ranorex\RanorexStudio Projects\madaket_XP001\madaket_XP001\Delete_NewPayer.cs"
							codeline="82"
							itemindex="0"
							loglvl="Info">
						</metainfo>
					</item>
					<item
						timeRelativeToTestSuiteStartTime="01:04.464"
						timeRelativeToTestModuleStartTime="00:00.812"
						timeWallClock="15:30:26"
						time="01:04.464"
						level="Info"
						category="Mouse">
						<message>
							Mouse Left Click item 'MadaketHealth.PayorSearch' at 86;13.
						</message>
						<metainfo
							type="repoitem"
							path="/dom[@caption='Madaket Health']//input[#'payorSearch']"
							itempath=".//input[#'payorSearch']"
							fullname="madaket_XP001Repository.MadaketHealth.PayorSearch"
							id="0991bbba55cd4dc4828713fdfbd98b4a"
							timeout="60000"
							codefile="c:\Users\JohnPloumis\Documents\Ranorex\RanorexStudio Projects\madaket_XP001\madaket_XP001\Delete_NewPayer.cs"
							codeline="85"
							itemindex="1"
							loglvl="Info">
						</metainfo>
					</item>
					<item
						timeRelativeToTestSuiteStartTime="01:05.610"
						timeRelativeToTestModuleStartTime="00:01.957"
						timeWallClock="15:30:27"
						time="01:05.610"
						level="Info"
						category="Keyboard">
						<message>
							Key sequence 'test_payer_automation_XP001' with focus on 'MadaketHealth.PayorSearch'.
						</message>
						<metainfo
							type="repoitem"
							path="/dom[@caption='Madaket Health']//input[#'payorSearch']"
							itempath=".//input[#'payorSearch']"
							fullname="madaket_XP001Repository.MadaketHealth.PayorSearch"
							id="0991bbba55cd4dc4828713fdfbd98b4a"
							timeout="60000"
							codefile="c:\Users\JohnPloumis\Documents\Ranorex\RanorexStudio Projects\madaket_XP001\madaket_XP001\Delete_NewPayer.cs"
							codeline="88"
							itemindex="2"
							loglvl="Info">
						</metainfo>
					</item>
					<item
						timeRelativeToTestSuiteStartTime="01:06.962"
						timeRelativeToTestModuleStartTime="00:03.309"
						timeWallClock="15:30:29"
						time="01:06.962"
						level="Info"
						category="Mouse">
						<message>
							Mouse Left Click item 'MadaketHealth.SearchSubmitIcon1' at 9;8.
						</message>
						<metainfo
							type="repoitem"
							path="/dom[@caption='Madaket Health']//button[#'payorSearchSubmit']/span"
							itempath=".//button[#'payorSearchSubmit']/span"
							fullname="madaket_XP001Repository.MadaketHealth.SearchSubmitIcon1"
							id="0ebc0be7093f498bb6027331d8d55b87"
							timeout="60000"
							codefile="c:\Users\JohnPloumis\Documents\Ranorex\RanorexStudio Projects\madaket_XP001\madaket_XP001\Delete_NewPayer.cs"
							codeline="91"
							itemindex="3"
							loglvl="Info">
						</metainfo>
					</item>
					<item
						timeRelativeToTestSuiteStartTime="01:07.632"
						timeRelativeToTestModuleStartTime="00:03.980"
						timeWallClock="15:30:29"
						time="01:07.632"
						level="Info"
						category="Validation">
						<message>
							Validating Exists on item 'MadaketHealth.TestPayerAutomationXP001'.
						</message>
						<metainfo
							type="repoitem"
							path="/dom[@caption='Madaket Health']//div[#'payorListTable']/div[2]/?/?/a[@innertext~'^test_payer_auto']"
							itempath=".//div[#'payorListTable']/div[2]/?/?/a[@innertext~'^test_payer_auto']"
							fullname="madaket_XP001Repository.MadaketHealth.TestPayerAutomationXP001"
							id="b8c176e0487f46d0aa8206be2c8744b0"
							timeout="60000"
							codefile="c:\Users\JohnPloumis\Documents\Ranorex\RanorexStudio Projects\madaket_XP001\madaket_XP001\Delete_NewPayer.cs"
							codeline="94"
							itemindex="4"
							loglvl="Info">
						</metainfo>
					</item>
					<item
						timeRelativeToTestSuiteStartTime="01:08.573"
						timeRelativeToTestModuleStartTime="00:04.921"
						timeWallClock="15:30:30"
						time="01:08.573"
						level="Success"
						category="Validation">
						<message>
							Element for item 'TestPayerAutomationXP001' does exist.
						</message>
						<metainfo
							type="repoitem"
							path="/dom[@caption='Madaket Health']//div[#'payorListTable']/div[2]/?/?/a[@innertext~'^test_payer_auto']"
							itempath=".//div[#'payorListTable']/div[2]/?/?/a[@innertext~'^test_payer_auto']"
							fullname="madaket_XP001Repository.MadaketHealth.TestPayerAutomationXP001"
							id="b8c176e0487f46d0aa8206be2c8744b0"
							timeout="60000"
							codefile="c:\Users\JohnPloumis\Documents\Ranorex\RanorexStudio Projects\madaket_XP001\madaket_XP001\Delete_NewPayer.cs"
							codeline="95"
							loglvl="Success"
							itemindex="4">
						</metainfo>
					</item>
					<item
						timeRelativeToTestSuiteStartTime="01:08.620"
						timeRelativeToTestModuleStartTime="00:04.968"
						timeWallClock="15:30:30"
						time="01:08.620"
						level="Info"
						category="Mouse">
						<message>
							Mouse Left Down item 'MadaketHealth.HttpsEdiAlphaMadakethealthComServ1' at 9;16.
						</message>
						<metainfo
							type="repoitem"
							path="/dom[@caption='Madaket Health']//div[#'payorListTable']/div[2]//img[@src&lt;'/img/icons/trash.svg']"
							itempath=".//div[#'payorListTable']/div[2]//img[@src&lt;'/img/icons/trash.svg']"
							fullname="madaket_XP001Repository.MadaketHealth.HttpsEdiAlphaMadakethealthComServ1"
							id="ad16228c5b794655b423e6dd22bf6621"
							timeout="60000"
							codefile="c:\Users\JohnPloumis\Documents\Ranorex\RanorexStudio Projects\madaket_XP001\madaket_XP001\Delete_NewPayer.cs"
							codeline="97"
							itemindex="5"
							loglvl="Info">
						</metainfo>
					</item>
					<item
						timeRelativeToTestSuiteStartTime="01:09.136"
						timeRelativeToTestModuleStartTime="00:05.484"
						timeWallClock="15:30:31"
						time="01:09.136"
						level="Info"
						category="Delay">
						<message>
							Waiting for 500ms.
						</message>
						<metainfo
							itemindex="6"
							codefile="c:\Users\JohnPloumis\Documents\Ranorex\RanorexStudio Projects\madaket_XP001\madaket_XP001\Delete_NewPayer.cs"
							codeline="101"
							loglvl="Info">
						</metainfo>
					</item>
					<item
						timeRelativeToTestSuiteStartTime="01:09.675"
						timeRelativeToTestModuleStartTime="00:06.023"
						timeWallClock="15:30:31"
						time="01:09.675"
						level="Info"
						category="Mouse">
						<message>
							Mouse Left Up item 'MadaketHealth.HttpsEdiAlphaMadakethealthComServ1' at 9;16.
						</message>
						<metainfo
							type="repoitem"
							path="/dom[@caption='Madaket Health']//div[#'payorListTable']/div[2]//img[@src&lt;'/img/icons/trash.svg']"
							itempath=".//div[#'payorListTable']/div[2]//img[@src&lt;'/img/icons/trash.svg']"
							fullname="madaket_XP001Repository.MadaketHealth.HttpsEdiAlphaMadakethealthComServ1"
							id="ad16228c5b794655b423e6dd22bf6621"
							timeout="60000"
							codefile="c:\Users\JohnPloumis\Documents\Ranorex\RanorexStudio Projects\madaket_XP001\madaket_XP001\Delete_NewPayer.cs"
							codeline="104"
							itemindex="7"
							loglvl="Info">
						</metainfo>
					</item>
					<item
						timeRelativeToTestSuiteStartTime="01:10.146"
						timeRelativeToTestModuleStartTime="00:06.494"
						timeWallClock="15:30:32"
						time="01:10.146"
						level="Info"
						category="Delay">
						<message>
							Waiting for 500ms.
						</message>
						<metainfo
							itemindex="8"
							codefile="c:\Users\JohnPloumis\Documents\Ranorex\RanorexStudio Projects\madaket_XP001\madaket_XP001\Delete_NewPayer.cs"
							codeline="108"
							loglvl="Info">
						</metainfo>
					</item>
					<item
						timeRelativeToTestSuiteStartTime="01:10.690"
						timeRelativeToTestModuleStartTime="00:07.038"
						timeWallClock="15:30:32"
						time="01:10.690"
						level="Info"
						category="Wait">
						<message>
							Waiting 15s to exist. Associated repository item: 'MadaketHealth.ConfirmAction'
						</message>
						<metainfo
							type="repoitem"
							path="/dom[@caption='Madaket Health']//button[#'confirmAction']"
							itempath=".//button[#'confirmAction']"
							fullname="madaket_XP001Repository.MadaketHealth.ConfirmAction"
							id="28531a41a1a0462cbe717edc8beb634f"
							timeout="15000"
							codefile="c:\Users\JohnPloumis\Documents\Ranorex\RanorexStudio Projects\madaket_XP001\madaket_XP001\Delete_NewPayer.cs"
							codeline="111"
							itemindex="9"
							loglvl="Info">
						</metainfo>
					</item>
					<item
						timeRelativeToTestSuiteStartTime="01:10.971"
						timeRelativeToTestModuleStartTime="00:07.319"
						timeWallClock="15:30:33"
						time="01:10.971"
						level="Info"
						category="Validation">
						<message>
							Validating Exists on item 'MadaketHealth.ConfirmAction'.
						</message>
						<metainfo
							type="repoitem"
							path="/dom[@caption='Madaket Health']//button[#'confirmAction']"
							itempath=".//button[#'confirmAction']"
							fullname="madaket_XP001Repository.MadaketHealth.ConfirmAction"
							id="28531a41a1a0462cbe717edc8beb634f"
							timeout="60000"
							codefile="c:\Users\JohnPloumis\Documents\Ranorex\RanorexStudio Projects\madaket_XP001\madaket_XP001\Delete_NewPayer.cs"
							codeline="114"
							itemindex="10"
							loglvl="Info">
						</metainfo>
					</item>
					<item
						timeRelativeToTestSuiteStartTime="01:11.213"
						timeRelativeToTestModuleStartTime="00:07.561"
						timeWallClock="15:30:33"
						time="01:11.213"
						level="Success"
						category="Validation">
						<message>
							Element for item 'ConfirmAction' does exist.
						</message>
						<metainfo
							type="repoitem"
							path="/dom[@caption='Madaket Health']//button[#'confirmAction']"
							itempath=".//button[#'confirmAction']"
							fullname="madaket_XP001Repository.MadaketHealth.ConfirmAction"
							id="28531a41a1a0462cbe717edc8beb634f"
							timeout="60000"
							codefile="c:\Users\JohnPloumis\Documents\Ranorex\RanorexStudio Projects\madaket_XP001\madaket_XP001\Delete_NewPayer.cs"
							codeline="115"
							loglvl="Success"
							itemindex="10">
						</metainfo>
					</item>
					<item
						timeRelativeToTestSuiteStartTime="01:11.244"
						timeRelativeToTestModuleStartTime="00:07.592"
						timeWallClock="15:30:33"
						time="01:11.244"
						level="Info"
						category="Mouse">
						<message>
							Mouse Left Click item 'MadaketHealth.ConfirmAction' at 53;10.
						</message>
						<metainfo
							type="repoitem"
							path="/dom[@caption='Madaket Health']//button[#'confirmAction']"
							itempath=".//button[#'confirmAction']"
							fullname="madaket_XP001Repository.MadaketHealth.ConfirmAction"
							id="28531a41a1a0462cbe717edc8beb634f"
							timeout="60000"
							codefile="c:\Users\JohnPloumis\Documents\Ranorex\RanorexStudio Projects\madaket_XP001\madaket_XP001\Delete_NewPayer.cs"
							codeline="117"
							itemindex="11"
							loglvl="Info">
						</metainfo>
					</item>
					<item
						timeRelativeToTestSuiteStartTime="01:11.981"
						timeRelativeToTestModuleStartTime="00:08.328"
						timeWallClock="15:30:34"
						time="01:11.981"
						level="Info"
						category="Delay">
						<message>
							Waiting for 500ms.
						</message>
						<metainfo
							itemindex="12"
							codefile="c:\Users\JohnPloumis\Documents\Ranorex\RanorexStudio Projects\madaket_XP001\madaket_XP001\Delete_NewPayer.cs"
							codeline="120"
							loglvl="Info">
						</metainfo>
					</item>
					<item
						timeRelativeToTestSuiteStartTime="01:12.541"
						timeRelativeToTestModuleStartTime="00:08.889"
						timeWallClock="15:30:34"
						time="01:12.541"
						level="Info"
						category="Mouse"
						errimg="images_madaket__5f59d3a9\madaket__5f59d3a9_71ce62ed_trace.jpg"
						errthumb="images_madaket__5f59d3a9\madaket__5f59d3a9_71ce62ed_trace_thumb.jpg">
						<message>
							Mouse Left Click item 'MadaketHealth.DivTagPayers1' at 38;41.
						</message>
						<metainfo
							type="repoitem"
							path="/dom[@caption='Madaket Health']//nav[#'mainNav']/ul//div[@innertext='Payers']"
							itempath=".//nav[#'mainNav']/ul//div[@innertext='Payers']"
							fullname="madaket_XP001Repository.MadaketHealth.DivTagPayers1"
							id="882caf034620419eb20e7528d0d3fd71"
							timeout="60000"
							codefile="c:\Users\JohnPloumis\Documents\Ranorex\RanorexStudio Projects\madaket_XP001\madaket_XP001\Delete_NewPayer.cs"
							codeline="123"
							itemindex="13"
							loglvl="Info">
						</metainfo>
					</item>
					<item
						timeRelativeToTestSuiteStartTime="01:13.119"
						timeRelativeToTestModuleStartTime="00:09.467"
						timeWallClock="15:30:35"
						time="01:13.119"
						level="Warn"
						category="Click"
						errimg="images_madaket__5f59d3a9\madaket__271fc56_rxlog.jpg"
						errthumb="images_madaket__5f59d3a9\madaket__271fc56_rxlog_thumb.jpg">
						<message>
							The mouse action was performed outside the boundaries of the assigned UI element.<br/>
						</message>
						<metainfo
							codefile="c:\Users\JohnPloumis\Documents\Ranorex\RanorexStudio Projects\madaket_XP001\madaket_XP001\Delete_NewPayer.cs"
							codeline="124"
							loglvl="Warn">
						</metainfo>
					</item>
					<item
						timeRelativeToTestSuiteStartTime="01:13.513"
						timeRelativeToTestModuleStartTime="00:09.860"
						timeWallClock="15:30:35"
						time="01:13.513"
						level="Info"
						category="Mouse"
						errimg="images_madaket__5f59d3a9\madaket__5f59d3a9_3d0c8482_trace.jpg"
						errthumb="images_madaket__5f59d3a9\madaket__5f59d3a9_3d0c8482_trace_thumb.jpg">
						<message>
							Mouse Left Click item 'MadaketHealth.PayorSearch' at 94;14.
						</message>
						<metainfo
							type="repoitem"
							path="/dom[@caption='Madaket Health']//input[#'payorSearch']"
							itempath=".//input[#'payorSearch']"
							fullname="madaket_XP001Repository.MadaketHealth.PayorSearch"
							id="0991bbba55cd4dc4828713fdfbd98b4a"
							timeout="60000"
							codefile="c:\Users\JohnPloumis\Documents\Ranorex\RanorexStudio Projects\madaket_XP001\madaket_XP001\Delete_NewPayer.cs"
							codeline="126"
							itemindex="14"
							loglvl="Info">
						</metainfo>
					</item>
					<item
						timeRelativeToTestSuiteStartTime="02:13.901"
						timeRelativeToTestModuleStartTime="01:10.248"
						timeWallClock="15:31:35"
						time="02:13.901"
						level="Error"
						category="Module"
						errimg="images_madaket__5f59d3a9\madaket__5f59d3a9_5a598a5c_trace.jpg"
						errthumb="images_madaket__5f59d3a9\madaket__5f59d3a9_5a598a5c_trace_thumb.jpg">
						<message>
							Failed to find item 'madaket_XP001Repository.MadaketHealth.PayorSearch'.<br/>No element found for path '/dom[@caption='Madaket Health']//input[#'payorSearch']' within 1m.
						</message>
						<metainfo
							stacktrace="   at Ranorex.Core.Repository.RepoItemInfo.FindInternal[T](Boolean findSingle, Boolean throwException, Duration effectiveTimeoutOverride)&#13;&#10;   at Ranorex.Core.Repository.RepoItemInfo.&lt;>c__DisplayClass75_0`1.&lt;Find>b__0()&#13;&#10;   at Ranorex.Core.Testing.Services.NoMaintenanceModeService.HandleElementNotFound[T](Func`1 action, RepoItemInfo entry)&#13;&#10;   at Ranorex.Core.Repository.RepoItemInfo.Find[T](Boolean findSingle, Boolean throwException, Duration effectiveTimeoutOverride)&#13;&#10;   at Ranorex.Core.Repository.RepoItemInfo.CreateAdapter[T](Boolean throwException, Duration waitTimeout)&#13;&#10;   at Ranorex.Core.Repository.RepoItemInfo.CreateAdapter[T](Boolean throwException)&#13;&#10;   at madaket_XP001.madaket_XP001RepositoryFolders.MadaketHealthAppFolder.get_PayorSearch() in c:\Users\JohnPloumis\Documents\Ranorex\RanorexStudio Projects\madaket_XP001\madaket_XP001\madaket_XP001Repository.cs:line 983&#13;&#10;   at madaket_XP001.Delete_NewPayer.Ranorex.Core.Testing.ITestModule.Run() in c:\Users\JohnPloumis\Documents\Ranorex\RanorexStudio Projects\madaket_XP001\madaket_XP001\Delete_NewPayer.cs:line 127&#13;&#10;   at Ranorex.Core.Testing.TestModuleLeaf.RunInternal(DataContext parentDataContext, Int32 iteration, Int32 iterationCount, Boolean skipIteration)"
							codefile="c:\Users\JohnPloumis\Documents\Ranorex\RanorexStudio Projects\madaket_XP001\madaket_XP001\Delete_NewPayer.cs"
							codeline="127"
							type="repoitem"
							path="/dom[@caption='Madaket Health']//input[#'payorSearch']"
							itempath=".//input[#'payorSearch']"
							fullname="madaket_XP001Repository.MadaketHealth.PayorSearch"
							id="0991bbba55cd4dc4828713fdfbd98b4a"
							timeout="60000"
							loglvl="Error"
							itemindex="14">
						</metainfo>
					</item>
				</activity>
			</activity>
		</activity>
	</activity>
</report>
