﻿<?xml version="1.0" encoding="utf-8"?>
<report
	progress="">
	<activity
		result="Failed"
		duration="1.8m"
		durationms="108835"
		type="root"
		rid="474890f54db744"
		totalerrorcount="1"
		totalwarningcount="0"
		totalsuccesstestcasecount="0"
		totalfailedtestcasecount="1"
		totalblockedtestcasecount="0"
		childsuccesscount="0"
		childfailedcount="1"
		childblockedcount="0"
		totalsuccesscount="0"
		totalfailedcount="1"
		totalblockedcount="0"
		totalmaintenancemodecount="0"
		user="JohnPloumis"
		rxversion="8.3.1.0"
		host="LAPTOP-5EO8DNU1"
		osversion="Windows 10 64bit"
		runtimeversion="4.0.30319.42000"
		procarch="32bit"
		oslanguage="en-US"
		dtnlanguage="en-US"
		screenresolution="1366x768"
		timestamp="12/4/2018 11:36:23 AM"
		timestampiso="2018-12-04T16:36:23"
		endtime="12/4/2018 11:38:13 AM"
		timeoutfactor="1">
		<detail>
			Ranorex Testscript
		</detail>
		<activity
			result="Failed"
			duration="1.8m"
			durationms="108379"
			type="test-suite"
			rid="b0b2e0e372e480"
			totalerrorcount="1"
			totalwarningcount="0"
			totalsuccesstestcasecount="0"
			totalfailedtestcasecount="1"
			totalblockedtestcasecount="0"
			childsuccesscount="0"
			childfailedcount="1"
			childblockedcount="0"
			totalsuccesscount="0"
			totalfailedcount="1"
			totalblockedcount="0"
			totalmaintenancemodecount="0"
			testsuitename="madaket_XP001"
			headertext="madaket_XP001"
			runconfigname="TestRun"
			runlabel="">
			<params>
			</params>
			<activity
				result="Failed"
				duration="1.8m"
				durationms="108345"
				type="test-case"
				rid="c060ff94d30e46"
				totalerrorcount="1"
				totalwarningcount="0"
				totalsuccesstestcasecount="0"
				totalfailedtestcasecount="1"
				totalblockedtestcasecount="0"
				childsuccesscount="5"
				childfailedcount="1"
				childblockedcount="0"
				totalsuccesscount="0"
				totalfailedcount="1"
				totalblockedcount="0"
				totalmaintenancemodecount="0"
				testcontainername="Madaket_XP"
				testcontainerid="2b1c309f-44ad-4542-9e87-47b21dcdd499"
				headertext="Madaket_XP"
				displayName="Madaket_XP"
				iteration="1"
				activity-exectype="execute"
				conditionstate="none">
				<activity
					result="Success"
					duration="8.91s"
					durationms="8908"
					type="test-module"
					rid="25242cc226b0b66c"
					totalerrorcount="0"
					totalwarningcount="0"
					totalsuccesstestcasecount="0"
					totalfailedtestcasecount="0"
					totalblockedtestcasecount="0"
					childsuccesscount="0"
					childfailedcount="0"
					childblockedcount="0"
					totalsuccesscount="0"
					totalfailedcount="0"
					totalblockedcount="0"
					totalmaintenancemodecount="0"
					modulename="Madaket_login"
					displayName="Madaket_login"
					moduleid="7047a381-6113-4a38-ab95-4ef2d01b9d0f"
					moduletype="Recording"
					iteration="1"
					activity-exectype="execute"
					testentry-activity-type="testmodule">
					<detail>
						general qa
					</detail>
					<varbindings>
					</varbindings>
					<item
						timeRelativeToTestSuiteStartTime="00:01.056"
						timeRelativeToTestModuleStartTime="00:00.029"
						timeWallClock="11:36:25"
						time="00:01.056"
						level="Info"
						category="Website">
						<message>
							Opening web site 'https://edi-alpha.madakethealth.com/services/logout' with browser 'Chrome' in maximized mode.
						</message>
						<metainfo
							itemindex="0"
							codefile="c:\Users\JohnPloumis\Documents\Ranorex\RanorexStudio Projects\ranorex_testautomation\madaket_XP001\Madaket_login.cs"
							codeline="82"
							loglvl="Info">
						</metainfo>
					</item>
					<item
						timeRelativeToTestSuiteStartTime="00:01.978"
						timeRelativeToTestModuleStartTime="00:00.951"
						timeWallClock="11:36:25"
						time="00:01.978"
						level="Info"
						category="Set value">
						<message>
							Setting attribute Value to 'jploumis@madakethealth.com' on item 'MadaketHealth.txtUsername'.
						</message>
						<metainfo
							type="repoitem"
							path="/dom[@domain='edi-alpha.madakethealth.com']//input[#'username']"
							itempath=".//input[#'username']"
							fullname="madaket_XP001Repository.MadaketHealth.txtUsername"
							id="ad40a45ba47543068e211d52f3633bf0"
							timeout="60000"
							codefile="c:\Users\JohnPloumis\Documents\Ranorex\RanorexStudio Projects\ranorex_testautomation\madaket_XP001\Madaket_login.cs"
							codeline="85"
							itemindex="1"
							loglvl="Info">
						</metainfo>
					</item>
					<item
						timeRelativeToTestSuiteStartTime="00:06.617"
						timeRelativeToTestModuleStartTime="00:05.590"
						timeWallClock="11:36:30"
						time="00:06.617"
						level="Info"
						category="Set value">
						<message>
							Setting attribute Value to 'Monkey1213!' on item 'MadaketHealth.txtPassword'.
						</message>
						<metainfo
							type="repoitem"
							path="/dom[@domain='edi-alpha.madakethealth.com']//input[#'password']"
							itempath=".//input[#'password']"
							fullname="madaket_XP001Repository.MadaketHealth.txtPassword"
							id="a351a5d74ad64269819a1ffbe4be0530"
							timeout="60000"
							codefile="c:\Users\JohnPloumis\Documents\Ranorex\RanorexStudio Projects\ranorex_testautomation\madaket_XP001\Madaket_login.cs"
							codeline="88"
							itemindex="2"
							loglvl="Info">
						</metainfo>
					</item>
					<item
						timeRelativeToTestSuiteStartTime="00:07.403"
						timeRelativeToTestModuleStartTime="00:06.375"
						timeWallClock="11:36:31"
						time="00:07.403"
						level="Info"
						category="Validation">
						<message>
							Validating Exists on item 'MadaketHealth.btnLogin'.
						</message>
						<metainfo
							type="repoitem"
							path="/dom[@domain='edi-alpha.madakethealth.com']//input[#'loginButton']"
							itempath=".//input[#'loginButton']"
							fullname="madaket_XP001Repository.MadaketHealth.btnLogin"
							id="29776b9350984c58bf5308f720d7bca4"
							timeout="60000"
							codefile="c:\Users\JohnPloumis\Documents\Ranorex\RanorexStudio Projects\ranorex_testautomation\madaket_XP001\Madaket_login.cs"
							codeline="91"
							itemindex="3"
							loglvl="Info">
						</metainfo>
					</item>
					<item
						timeRelativeToTestSuiteStartTime="00:08.174"
						timeRelativeToTestModuleStartTime="00:07.146"
						timeWallClock="11:36:32"
						time="00:08.174"
						level="Success"
						category="Validation">
						<message>
							Element for item 'btnLogin' does exist.
						</message>
						<metainfo
							type="repoitem"
							path="/dom[@domain='edi-alpha.madakethealth.com']//input[#'loginButton']"
							itempath=".//input[#'loginButton']"
							fullname="madaket_XP001Repository.MadaketHealth.btnLogin"
							id="29776b9350984c58bf5308f720d7bca4"
							timeout="60000"
							codefile="c:\Users\JohnPloumis\Documents\Ranorex\RanorexStudio Projects\ranorex_testautomation\madaket_XP001\Madaket_login.cs"
							codeline="92"
							loglvl="Success"
							itemindex="3">
						</metainfo>
					</item>
					<item
						timeRelativeToTestSuiteStartTime="00:08.205"
						timeRelativeToTestModuleStartTime="00:07.177"
						timeWallClock="11:36:32"
						time="00:08.205"
						level="Info"
						category="Mouse">
						<message>
							Mouse Left Click item 'MadaketHealth.btnLogin' at 62;12.
						</message>
						<metainfo
							type="repoitem"
							path="/dom[@domain='edi-alpha.madakethealth.com']//input[#'loginButton']"
							itempath=".//input[#'loginButton']"
							fullname="madaket_XP001Repository.MadaketHealth.btnLogin"
							id="29776b9350984c58bf5308f720d7bca4"
							timeout="60000"
							codefile="c:\Users\JohnPloumis\Documents\Ranorex\RanorexStudio Projects\ranorex_testautomation\madaket_XP001\Madaket_login.cs"
							codeline="94"
							itemindex="4"
							loglvl="Info">
						</metainfo>
					</item>
				</activity>
				<activity
					result="Success"
					duration="70ms"
					durationms="70"
					type="test-module"
					rid="11307ffd2c012ab8"
					totalerrorcount="0"
					totalwarningcount="0"
					totalsuccesstestcasecount="0"
					totalfailedtestcasecount="0"
					totalblockedtestcasecount="0"
					childsuccesscount="0"
					childfailedcount="0"
					childblockedcount="0"
					totalsuccesscount="0"
					totalfailedcount="0"
					totalblockedcount="0"
					totalmaintenancemodecount="0"
					modulename="Fetch_TestData_Directory"
					displayName="Fetch_TestData_Directory"
					moduleid="2676acf6-35f0-4c96-9bd5-5fbbc4117574"
					moduletype="UserCode"
					iteration="1"
					activity-exectype="execute"
					testentry-activity-type="testmodule">
					<varbindings>
					</varbindings>
					<item
						timeRelativeToTestSuiteStartTime="00:09.945"
						timeRelativeToTestModuleStartTime="00:00.003"
						timeWallClock="11:36:33"
						time="00:09.945"
						level="Info"
						category="User">
						<message>
							C:\Users\JohnPloumis\Documents\Ranorex\RanorexStudio Projects\ranorex_testautomation\madaket_XP001\TestData
						</message>
						<metainfo
							codefile="c:\Users\JohnPloumis\Documents\Ranorex\RanorexStudio Projects\ranorex_testautomation\madaket_XP001\Fetch_TestData_Directory.cs"
							codeline="52"
							loglvl="Info">
						</metainfo>
					</item>
				</activity>
				<activity
					result="Success"
					duration="16.13s"
					durationms="16134"
					type="test-module"
					rid="4eafdb8ba50f5a7"
					totalerrorcount="0"
					totalwarningcount="0"
					totalsuccesstestcasecount="0"
					totalfailedtestcasecount="0"
					totalblockedtestcasecount="0"
					childsuccesscount="0"
					childfailedcount="0"
					childblockedcount="0"
					totalsuccesscount="0"
					totalfailedcount="0"
					totalblockedcount="0"
					totalmaintenancemodecount="0"
					modulename="New_Payer_NoData"
					displayName="New_Payer_NoData"
					moduleid="c2c3f592-c70a-4a42-9f69-8f7f27722dc4"
					moduletype="Recording"
					iteration="1"
					activity-exectype="execute"
					testentry-activity-type="testmodule">
					<detail>
						MH-2218
					</detail>
					<varbindings>
					</varbindings>
					<item
						timeRelativeToTestSuiteStartTime="00:10.022"
						timeRelativeToTestModuleStartTime="00:00.003"
						timeWallClock="11:36:33"
						time="00:10.022"
						level="Info"
						category="Mouse">
						<message>
							Mouse Left Click item 'MadaketHealth.DivTagPayers' at 16;21.
						</message>
						<metainfo
							type="repoitem"
							path="/dom[@domain='edi-alpha.madakethealth.com']//nav[#'mainNav']/ul//div[@innertext='Payers']"
							itempath=".//nav[#'mainNav']/ul//div[@innertext='Payers']"
							fullname="madaket_XP001Repository.MadaketHealth.DivTagPayers"
							id="29cc9e25aab349529ce160a3bd60a2f5"
							timeout="60000"
							codefile="c:\Users\JohnPloumis\Documents\Ranorex\RanorexStudio Projects\ranorex_testautomation\madaket_XP001\New_Payer_NoData.cs"
							codeline="82"
							itemindex="0"
							loglvl="Info">
						</metainfo>
					</item>
					<item
						timeRelativeToTestSuiteStartTime="00:13.936"
						timeRelativeToTestModuleStartTime="00:03.918"
						timeWallClock="11:36:37"
						time="00:13.936"
						level="Info"
						category="Mouse">
						<message>
							Mouse Left Click item 'MadaketHealth.linkNewPayer' at 46;12.
						</message>
						<metainfo
							type="repoitem"
							path="/dom[@domain='edi-alpha.madakethealth.com']//a[#'payorClick']"
							itempath=".//a[#'payorClick']"
							fullname="madaket_XP001Repository.MadaketHealth.linkNewPayer"
							id="0e40999c158242618af66e1af1edf093"
							timeout="60000"
							codefile="c:\Users\JohnPloumis\Documents\Ranorex\RanorexStudio Projects\ranorex_testautomation\madaket_XP001\New_Payer_NoData.cs"
							codeline="85"
							itemindex="1"
							loglvl="Info">
						</metainfo>
					</item>
					<item
						timeRelativeToTestSuiteStartTime="00:16.336"
						timeRelativeToTestModuleStartTime="00:06.318"
						timeWallClock="11:36:40"
						time="00:16.336"
						level="Info"
						category="Mouse">
						<message>
							Mouse Left Click item 'MadaketHealth.PopupScrollContainer' at Center.
						</message>
						<metainfo
							type="repoitem"
							path="/dom[@domain='edi-alpha.madakethealth.com']//div[#'editPayorPopup']/div[2]"
							itempath=".//div[#'editPayorPopup']/div[2]"
							fullname="madaket_XP001Repository.MadaketHealth.PopupScrollContainer"
							id="f53c44ed5bb14893839e2b7cdc4d3ef7"
							timeout="60000"
							codefile="c:\Users\JohnPloumis\Documents\Ranorex\RanorexStudio Projects\ranorex_testautomation\madaket_XP001\New_Payer_NoData.cs"
							codeline="88"
							itemindex="2"
							loglvl="Info">
						</metainfo>
					</item>
					<item
						timeRelativeToTestSuiteStartTime="00:18.500"
						timeRelativeToTestModuleStartTime="00:08.482"
						timeWallClock="11:36:42"
						time="00:18.500"
						level="Info"
						category="Mouse">
						<message>
							Mouse Left Click item 'MadaketHealth.PopupScrollContainer' at LowerRight.
						</message>
						<metainfo
							type="repoitem"
							path="/dom[@domain='edi-alpha.madakethealth.com']//div[#'editPayorPopup']/div[2]"
							itempath=".//div[#'editPayorPopup']/div[2]"
							fullname="madaket_XP001Repository.MadaketHealth.PopupScrollContainer"
							id="f53c44ed5bb14893839e2b7cdc4d3ef7"
							timeout="60000"
							codefile="c:\Users\JohnPloumis\Documents\Ranorex\RanorexStudio Projects\ranorex_testautomation\madaket_XP001\New_Payer_NoData.cs"
							codeline="91"
							itemindex="3"
							loglvl="Info">
						</metainfo>
					</item>
					<item
						timeRelativeToTestSuiteStartTime="00:20.251"
						timeRelativeToTestModuleStartTime="00:10.233"
						timeWallClock="11:36:44"
						time="00:20.251"
						level="Info"
						category="Mouse">
						<message>
							Mouse Left Click item 'MadaketHealth.btnSavePayor' at 71;7.
						</message>
						<metainfo
							type="repoitem"
							path="/dom[@domain='edi-alpha.madakethealth.com']//button[#'savePayorButton']"
							itempath=".//button[#'savePayorButton']"
							fullname="madaket_XP001Repository.MadaketHealth.btnSavePayor"
							id="ab96c6bd2749404d82d6f94d5830ab20"
							timeout="60000"
							codefile="c:\Users\JohnPloumis\Documents\Ranorex\RanorexStudio Projects\ranorex_testautomation\madaket_XP001\New_Payer_NoData.cs"
							codeline="94"
							itemindex="4"
							loglvl="Info">
						</metainfo>
					</item>
					<item
						timeRelativeToTestSuiteStartTime="00:22.083"
						timeRelativeToTestModuleStartTime="00:12.065"
						timeWallClock="11:36:46"
						time="00:22.083"
						level="Info"
						category="Mouse">
						<message>
							Mouse Left Click item 'MadaketHealth.errMsgPleaseEnterPayerName' at 89;11.
						</message>
						<metainfo
							type="repoitem"
							path="/dom[@domain='edi-alpha.madakethealth.com']//form[#'payorGeneralForm']/div[1]//label[@innertext='Please enter payer name']"
							itempath=".//form[#'payorGeneralForm']/div[1]//label[@innertext='Please enter payer name']"
							fullname="madaket_XP001Repository.MadaketHealth.errMsgPleaseEnterPayerName"
							id="4e8fcb6b94fa4fdfaa37a0b3a3c6c8d4"
							timeout="60000"
							codefile="c:\Users\JohnPloumis\Documents\Ranorex\RanorexStudio Projects\ranorex_testautomation\madaket_XP001\New_Payer_NoData.cs"
							codeline="97"
							itemindex="5"
							loglvl="Info">
						</metainfo>
					</item>
					<item
						timeRelativeToTestSuiteStartTime="00:24.251"
						timeRelativeToTestModuleStartTime="00:14.233"
						timeWallClock="11:36:48"
						time="00:24.251"
						level="Info"
						category="Mouse">
						<message>
							Mouse Left Click item 'MadaketHealth.HttpsTestMadakethealthComServices' at 18;22.
						</message>
						<metainfo
							type="repoitem"
							path="/dom[@domain='edi-alpha.madakethealth.com']//div[#'editPayorPopup']/a[@href~'^https://edi-alpha\.madaket']"
							itempath=".//div[#'editPayorPopup']/a[@href~'^https://edi-alpha\.madaket']"
							fullname="madaket_XP001Repository.MadaketHealth.HttpsTestMadakethealthComServices"
							id="ba73c9ad44884b9eb242b07457d62a68"
							timeout="60000"
							codefile="c:\Users\JohnPloumis\Documents\Ranorex\RanorexStudio Projects\ranorex_testautomation\madaket_XP001\New_Payer_NoData.cs"
							codeline="100"
							itemindex="6"
							loglvl="Info">
						</metainfo>
					</item>
				</activity>
				<activity
					result="Success"
					duration="38.26s"
					durationms="38259"
					type="test-module"
					rid="44f4c94d3c7a66b"
					totalerrorcount="0"
					totalwarningcount="0"
					totalsuccesstestcasecount="0"
					totalfailedtestcasecount="0"
					totalblockedtestcasecount="0"
					childsuccesscount="0"
					childfailedcount="0"
					childblockedcount="0"
					totalsuccesscount="0"
					totalfailedcount="0"
					totalblockedcount="0"
					totalmaintenancemodecount="0"
					modulename="New_Payer_ValidData"
					displayName="New_Payer_ValidData"
					moduleid="a2d47517-0a0b-47f5-b141-691f6f0b3abc"
					moduletype="Recording"
					iteration="1"
					activity-exectype="execute"
					testentry-activity-type="testmodule">
					<detail>
						MH-2218
					</detail>
					<varbindings>
					</varbindings>
					<item
						timeRelativeToTestSuiteStartTime="00:26.162"
						timeRelativeToTestModuleStartTime="00:00.006"
						timeWallClock="11:36:50"
						time="00:26.162"
						level="Info"
						category="Mouse">
						<message>
							Mouse Left Click item 'MadaketHealth.DivTagPayers' at 16;20.
						</message>
						<metainfo
							type="repoitem"
							path="/dom[@domain='edi-alpha.madakethealth.com']//nav[#'mainNav']/ul//div[@innertext='Payers']"
							itempath=".//nav[#'mainNav']/ul//div[@innertext='Payers']"
							fullname="madaket_XP001Repository.MadaketHealth.DivTagPayers"
							id="29cc9e25aab349529ce160a3bd60a2f5"
							timeout="60000"
							codefile="c:\Users\JohnPloumis\Documents\Ranorex\RanorexStudio Projects\ranorex_testautomation\madaket_XP001\New_Payer_ValidData.cs"
							codeline="82"
							itemindex="0"
							loglvl="Info">
						</metainfo>
					</item>
					<item
						timeRelativeToTestSuiteStartTime="00:28.655"
						timeRelativeToTestModuleStartTime="00:02.499"
						timeWallClock="11:36:52"
						time="00:28.655"
						level="Info"
						category="Mouse">
						<message>
							Mouse Left Click item 'MadaketHealth.linkNewPayer' at 34;13.
						</message>
						<metainfo
							type="repoitem"
							path="/dom[@domain='edi-alpha.madakethealth.com']//a[#'payorClick']"
							itempath=".//a[#'payorClick']"
							fullname="madaket_XP001Repository.MadaketHealth.linkNewPayer"
							id="0e40999c158242618af66e1af1edf093"
							timeout="60000"
							codefile="c:\Users\JohnPloumis\Documents\Ranorex\RanorexStudio Projects\ranorex_testautomation\madaket_XP001\New_Payer_ValidData.cs"
							codeline="85"
							itemindex="1"
							loglvl="Info">
						</metainfo>
					</item>
					<item
						timeRelativeToTestSuiteStartTime="00:31.168"
						timeRelativeToTestModuleStartTime="00:05.012"
						timeWallClock="11:36:55"
						time="00:31.168"
						level="Info"
						category="Mouse">
						<message>
							Mouse Left Click item 'MadaketHealth.PayorName' at Center.
						</message>
						<metainfo
							type="repoitem"
							path="/dom[@domain='edi-alpha.madakethealth.com']//input[#'payorName']"
							itempath=".//input[#'payorName']"
							fullname="madaket_XP001Repository.MadaketHealth.PayorName"
							id="c60f64d457204be3b0c571ec0261f3c7"
							timeout="60000"
							codefile="c:\Users\JohnPloumis\Documents\Ranorex\RanorexStudio Projects\ranorex_testautomation\madaket_XP001\New_Payer_ValidData.cs"
							codeline="88"
							itemindex="2"
							loglvl="Info">
						</metainfo>
					</item>
					<item
						timeRelativeToTestSuiteStartTime="00:33.436"
						timeRelativeToTestModuleStartTime="00:07.279"
						timeWallClock="11:36:57"
						time="00:33.436"
						level="Info"
						category="Set value">
						<message>
							Setting attribute Value to 'test_payer_automation_XP002' on item 'MadaketHealth.PayorName'.
						</message>
						<metainfo
							type="repoitem"
							path="/dom[@domain='edi-alpha.madakethealth.com']//input[#'payorName']"
							itempath=".//input[#'payorName']"
							fullname="madaket_XP001Repository.MadaketHealth.PayorName"
							id="c60f64d457204be3b0c571ec0261f3c7"
							timeout="60000"
							codefile="c:\Users\JohnPloumis\Documents\Ranorex\RanorexStudio Projects\ranorex_testautomation\madaket_XP001\New_Payer_ValidData.cs"
							codeline="91"
							itemindex="3"
							loglvl="Info">
						</metainfo>
					</item>
					<item
						timeRelativeToTestSuiteStartTime="00:34.233"
						timeRelativeToTestModuleStartTime="00:08.077"
						timeWallClock="11:36:58"
						time="00:34.233"
						level="Info"
						category="Delay">
						<message>
							Waiting for 500ms.
						</message>
						<metainfo
							itemindex="4"
							codefile="c:\Users\JohnPloumis\Documents\Ranorex\RanorexStudio Projects\ranorex_testautomation\madaket_XP001\New_Payer_ValidData.cs"
							codeline="94"
							loglvl="Info">
						</metainfo>
					</item>
					<item
						timeRelativeToTestSuiteStartTime="00:34.797"
						timeRelativeToTestModuleStartTime="00:08.641"
						timeWallClock="11:36:58"
						time="00:34.797"
						level="Info"
						category="Invoke action">
						<message>
							Invoking Focus() on item 'MadaketHealth.PopupScrollContainer'.
						</message>
						<metainfo
							type="repoitem"
							path="/dom[@domain='edi-alpha.madakethealth.com']//div[#'editPayorPopup']/div[2]"
							itempath=".//div[#'editPayorPopup']/div[2]"
							fullname="madaket_XP001Repository.MadaketHealth.PopupScrollContainer"
							id="f53c44ed5bb14893839e2b7cdc4d3ef7"
							timeout="60000"
							codefile="c:\Users\JohnPloumis\Documents\Ranorex\RanorexStudio Projects\ranorex_testautomation\madaket_XP001\New_Payer_ValidData.cs"
							codeline="97"
							itemindex="5"
							loglvl="Info">
						</metainfo>
					</item>
					<item
						timeRelativeToTestSuiteStartTime="00:35.580"
						timeRelativeToTestModuleStartTime="00:09.424"
						timeWallClock="11:36:59"
						time="00:35.580"
						level="Info"
						category="Mouse">
						<message>
							Mouse Left Click item 'MadaketHealth.PopupScrollContainer' at LowerRight.
						</message>
						<metainfo
							type="repoitem"
							path="/dom[@domain='edi-alpha.madakethealth.com']//div[#'editPayorPopup']/div[2]"
							itempath=".//div[#'editPayorPopup']/div[2]"
							fullname="madaket_XP001Repository.MadaketHealth.PopupScrollContainer"
							id="f53c44ed5bb14893839e2b7cdc4d3ef7"
							timeout="60000"
							codefile="c:\Users\JohnPloumis\Documents\Ranorex\RanorexStudio Projects\ranorex_testautomation\madaket_XP001\New_Payer_ValidData.cs"
							codeline="100"
							itemindex="6"
							loglvl="Info">
						</metainfo>
					</item>
					<item
						timeRelativeToTestSuiteStartTime="00:37.418"
						timeRelativeToTestModuleStartTime="00:11.262"
						timeWallClock="11:37:01"
						time="00:37.418"
						level="Info"
						category="Set value">
						<message>
							Setting attribute Value to '101 main street' on item 'MadaketHealth.TxtStreet1'.
						</message>
						<metainfo
							type="repoitem"
							path="/dom[@domain='edi-alpha.madakethealth.com']//input[#'txt_street1']"
							itempath=".//input[#'txt_street1']"
							fullname="madaket_XP001Repository.MadaketHealth.TxtStreet1"
							id="140f920df0e2418ca6177c3fcaa08df8"
							timeout="60000"
							codefile="c:\Users\JohnPloumis\Documents\Ranorex\RanorexStudio Projects\ranorex_testautomation\madaket_XP001\New_Payer_ValidData.cs"
							codeline="103"
							itemindex="7"
							loglvl="Info">
						</metainfo>
					</item>
					<item
						timeRelativeToTestSuiteStartTime="00:38.286"
						timeRelativeToTestModuleStartTime="00:12.130"
						timeWallClock="11:37:02"
						time="00:38.286"
						level="Info"
						category="Mouse">
						<message>
							Mouse Left Click item 'MadaketHealth.TxtCity' at 130;7.
						</message>
						<metainfo
							type="repoitem"
							path="/dom[@domain='edi-alpha.madakethealth.com']//input[#'txt_city']"
							itempath=".//input[#'txt_city']"
							fullname="madaket_XP001Repository.MadaketHealth.TxtCity"
							id="275ef8ae16904ae689a4001c02a10d08"
							timeout="60000"
							codefile="c:\Users\JohnPloumis\Documents\Ranorex\RanorexStudio Projects\ranorex_testautomation\madaket_XP001\New_Payer_ValidData.cs"
							codeline="106"
							itemindex="8"
							loglvl="Info">
						</metainfo>
					</item>
					<item
						timeRelativeToTestSuiteStartTime="00:40.416"
						timeRelativeToTestModuleStartTime="00:14.260"
						timeWallClock="11:37:04"
						time="00:40.416"
						level="Info"
						category="Set value">
						<message>
							Setting attribute Value to 'Boston' on item 'MadaketHealth.TxtCity'.
						</message>
						<metainfo
							type="repoitem"
							path="/dom[@domain='edi-alpha.madakethealth.com']//input[#'txt_city']"
							itempath=".//input[#'txt_city']"
							fullname="madaket_XP001Repository.MadaketHealth.TxtCity"
							id="275ef8ae16904ae689a4001c02a10d08"
							timeout="60000"
							codefile="c:\Users\JohnPloumis\Documents\Ranorex\RanorexStudio Projects\ranorex_testautomation\madaket_XP001\New_Payer_ValidData.cs"
							codeline="109"
							itemindex="9"
							loglvl="Info">
						</metainfo>
					</item>
					<item
						timeRelativeToTestSuiteStartTime="00:41.224"
						timeRelativeToTestModuleStartTime="00:15.068"
						timeWallClock="11:37:05"
						time="00:41.224"
						level="Info"
						category="Set value">
						<message>
							Setting attribute TagValue to 'MA' on item 'MadaketHealth.TxtState'.
						</message>
						<metainfo
							type="repoitem"
							path="/dom[@domain='edi-alpha.madakethealth.com']//select[#'txt_state']"
							itempath=".//select[#'txt_state']"
							fullname="madaket_XP001Repository.MadaketHealth.TxtState"
							id="ebe2033877a44d918170bb47fee05430"
							timeout="60000"
							codefile="c:\Users\JohnPloumis\Documents\Ranorex\RanorexStudio Projects\ranorex_testautomation\madaket_XP001\New_Payer_ValidData.cs"
							codeline="112"
							itemindex="10"
							loglvl="Info">
						</metainfo>
					</item>
					<item
						timeRelativeToTestSuiteStartTime="00:42.120"
						timeRelativeToTestModuleStartTime="00:15.964"
						timeWallClock="11:37:06"
						time="00:42.120"
						level="Info"
						category="Mouse">
						<message>
							Mouse Left Click item 'MadaketHealth.PopupScrollContainer' at LowerRight.
						</message>
						<metainfo
							type="repoitem"
							path="/dom[@domain='edi-alpha.madakethealth.com']//div[#'editPayorPopup']/div[2]"
							itempath=".//div[#'editPayorPopup']/div[2]"
							fullname="madaket_XP001Repository.MadaketHealth.PopupScrollContainer"
							id="f53c44ed5bb14893839e2b7cdc4d3ef7"
							timeout="60000"
							codefile="c:\Users\JohnPloumis\Documents\Ranorex\RanorexStudio Projects\ranorex_testautomation\madaket_XP001\New_Payer_ValidData.cs"
							codeline="115"
							itemindex="11"
							loglvl="Info">
						</metainfo>
					</item>
					<item
						timeRelativeToTestSuiteStartTime="00:43.983"
						timeRelativeToTestModuleStartTime="00:17.827"
						timeWallClock="11:37:07"
						time="00:43.983"
						level="Info"
						category="Mouse">
						<message>
							Mouse Left Click item 'MadaketHealth.FirstName' at 146;8.
						</message>
						<metainfo
							type="repoitem"
							path="/dom[@domain='edi-alpha.madakethealth.com']//input[#'firstName']"
							itempath=".//input[#'firstName']"
							fullname="madaket_XP001Repository.MadaketHealth.FirstName"
							id="d3da3f164ae640b5b1e62605679d50af"
							timeout="60000"
							codefile="c:\Users\JohnPloumis\Documents\Ranorex\RanorexStudio Projects\ranorex_testautomation\madaket_XP001\New_Payer_ValidData.cs"
							codeline="118"
							itemindex="12"
							loglvl="Info">
						</metainfo>
					</item>
					<item
						timeRelativeToTestSuiteStartTime="00:46.133"
						timeRelativeToTestModuleStartTime="00:19.977"
						timeWallClock="11:37:10"
						time="00:46.133"
						level="Info"
						category="Keyboard">
						<message>
							Key sequence 'test{Tab}payer' with focus on 'MadaketHealth.FirstName'.
						</message>
						<metainfo
							type="repoitem"
							path="/dom[@domain='edi-alpha.madakethealth.com']//input[#'firstName']"
							itempath=".//input[#'firstName']"
							fullname="madaket_XP001Repository.MadaketHealth.FirstName"
							id="d3da3f164ae640b5b1e62605679d50af"
							timeout="60000"
							codefile="c:\Users\JohnPloumis\Documents\Ranorex\RanorexStudio Projects\ranorex_testautomation\madaket_XP001\New_Payer_ValidData.cs"
							codeline="121"
							itemindex="13"
							loglvl="Info">
						</metainfo>
					</item>
					<item
						timeRelativeToTestSuiteStartTime="00:48.342"
						timeRelativeToTestModuleStartTime="00:22.186"
						timeWallClock="11:37:12"
						time="00:48.342"
						level="Info"
						category="Keyboard">
						<message>
							Key sequence '{Tab}'.
						</message>
						<metainfo
							itemindex="14"
							codefile="c:\Users\JohnPloumis\Documents\Ranorex\RanorexStudio Projects\ranorex_testautomation\madaket_XP001\New_Payer_ValidData.cs"
							codeline="124"
							loglvl="Info">
						</metainfo>
					</item>
					<item
						timeRelativeToTestSuiteStartTime="00:48.536"
						timeRelativeToTestModuleStartTime="00:22.380"
						timeWallClock="11:37:12"
						time="00:48.536"
						level="Info"
						category="Keyboard">
						<message>
							Key sequence 'test.payer{LShiftKey down}{@ down}{LShiftKey up}payer.com'.
						</message>
						<metainfo
							itemindex="15"
							codefile="c:\Users\JohnPloumis\Documents\Ranorex\RanorexStudio Projects\ranorex_testautomation\madaket_XP001\New_Payer_ValidData.cs"
							codeline="127"
							loglvl="Info">
						</metainfo>
					</item>
					<item
						timeRelativeToTestSuiteStartTime="00:49.193"
						timeRelativeToTestModuleStartTime="00:23.036"
						timeWallClock="11:37:13"
						time="00:49.193"
						level="Info"
						category="Mouse">
						<message>
							Mouse Left Click item 'MadaketHealth.btnSavePayor' at 50;9.
						</message>
						<metainfo
							type="repoitem"
							path="/dom[@domain='edi-alpha.madakethealth.com']//button[#'savePayorButton']"
							itempath=".//button[#'savePayorButton']"
							fullname="madaket_XP001Repository.MadaketHealth.btnSavePayor"
							id="ab96c6bd2749404d82d6f94d5830ab20"
							timeout="60000"
							codefile="c:\Users\JohnPloumis\Documents\Ranorex\RanorexStudio Projects\ranorex_testautomation\madaket_XP001\New_Payer_ValidData.cs"
							codeline="130"
							itemindex="16"
							loglvl="Info">
						</metainfo>
					</item>
					<item
						timeRelativeToTestSuiteStartTime="00:51.067"
						timeRelativeToTestModuleStartTime="00:24.911"
						timeWallClock="11:37:15"
						time="00:51.067"
						level="Info"
						category="Mouse">
						<message>
							Mouse Left Click item 'MadaketHealth.PayerGeneralDetailsDiv.DivTagTestPayerAutomationXP0' at 96;9.
						</message>
						<metainfo
							type="repoitem"
							path="/dom[@domain='edi-alpha.madakethealth.com']//div[#'payerGeneralDetailsDiv']//div[@innertext~'^test_payer_autom']"
							itempath=".//div[@innertext~'^test_payer_autom']"
							fullname="madaket_XP001Repository.MadaketHealth.PayerGeneralDetailsDiv.DivTagTestPayerAutomationXP0"
							id="0e44183f677548639bb83854085d8ec1"
							timeout="90000"
							codefile="c:\Users\JohnPloumis\Documents\Ranorex\RanorexStudio Projects\ranorex_testautomation\madaket_XP001\New_Payer_ValidData.cs"
							codeline="133"
							itemindex="17"
							loglvl="Info">
						</metainfo>
					</item>
					<item
						timeRelativeToTestSuiteStartTime="00:53.949"
						timeRelativeToTestModuleStartTime="00:27.793"
						timeWallClock="11:37:17"
						time="00:53.949"
						level="Info"
						category="Mouse">
						<message>
							Mouse Left Click item 'MadaketHealth.PayerGeneralDetailsDiv.PayerName' at Center.
						</message>
						<metainfo
							type="repoitem"
							path="/dom[@domain='edi-alpha.madakethealth.com']//div[#'payerGeneralDetailsDiv']/div[2]/div[1]/?/?/strong[@innertext='Payer name:']"
							itempath="div[2]/div[1]/?/?/strong[@innertext='Payer name:']"
							fullname="madaket_XP001Repository.MadaketHealth.PayerGeneralDetailsDiv.PayerName"
							id="761d8abaef054dda9ba0c9e8b5cb4084"
							timeout="90000"
							codefile="c:\Users\JohnPloumis\Documents\Ranorex\RanorexStudio Projects\ranorex_testautomation\madaket_XP001\New_Payer_ValidData.cs"
							codeline="136"
							itemindex="18"
							loglvl="Info">
						</metainfo>
					</item>
					<item
						timeRelativeToTestSuiteStartTime="00:55.916"
						timeRelativeToTestModuleStartTime="00:29.760"
						timeWallClock="11:37:19"
						time="00:55.916"
						level="Info"
						category="Mouse">
						<message>
							Mouse Left Click item 'MadaketHealth.PayerGeneralDetailsDiv.Address' at Center.
						</message>
						<metainfo
							type="repoitem"
							path="/dom[@domain='edi-alpha.madakethealth.com']//div[#'payerGeneralDetailsDiv']/div[2]/div[7]/?/?/span[@innertext='Address:']"
							itempath="div[2]/div[7]/?/?/span[@innertext='Address:']"
							fullname="madaket_XP001Repository.MadaketHealth.PayerGeneralDetailsDiv.Address"
							id="14645446fd584bf2a276b1938a1712e1"
							timeout="90000"
							codefile="c:\Users\JohnPloumis\Documents\Ranorex\RanorexStudio Projects\ranorex_testautomation\madaket_XP001\New_Payer_ValidData.cs"
							codeline="139"
							itemindex="19"
							loglvl="Info">
						</metainfo>
					</item>
					<item
						timeRelativeToTestSuiteStartTime="00:57.899"
						timeRelativeToTestModuleStartTime="00:31.742"
						timeWallClock="11:37:21"
						time="00:57.899"
						level="Info"
						category="Mouse">
						<message>
							Mouse Left Click item 'MadaketHealth.PayerGeneralDetailsDiv.DivTag101MainStreetW' at 35;17.
						</message>
						<metainfo
							type="repoitem"
							path="/dom[@domain='edi-alpha.madakethealth.com']//div[#'payerGeneralDetailsDiv']//div[@innertext~'^101\ main\ street']"
							itempath=".//div[@innertext~'^101\ main\ street']"
							fullname="madaket_XP001Repository.MadaketHealth.PayerGeneralDetailsDiv.DivTag101MainStreetW"
							id="6c7e3dd9a6004299ba43a1310c11a174"
							timeout="90000"
							codefile="c:\Users\JohnPloumis\Documents\Ranorex\RanorexStudio Projects\ranorex_testautomation\madaket_XP001\New_Payer_ValidData.cs"
							codeline="142"
							itemindex="20"
							loglvl="Info">
						</metainfo>
					</item>
					<item
						timeRelativeToTestSuiteStartTime="01:00.099"
						timeRelativeToTestModuleStartTime="00:33.943"
						timeWallClock="11:37:24"
						time="01:00.099"
						level="Info"
						category="Mouse">
						<message>
							Mouse Left Click item 'MadaketHealth.PayerGeneralDetailsDiv.Contact' at 32;5.
						</message>
						<metainfo
							type="repoitem"
							path="/dom[@domain='edi-alpha.madakethealth.com']//div[#'payerGeneralDetailsDiv']/div[2]/div[8]/?/?/span[@innertext='Contact:']"
							itempath="div[2]/div[8]/?/?/span[@innertext='Contact:']"
							fullname="madaket_XP001Repository.MadaketHealth.PayerGeneralDetailsDiv.Contact"
							id="f417a5fe94464a708c34508abc60a181"
							timeout="90000"
							codefile="c:\Users\JohnPloumis\Documents\Ranorex\RanorexStudio Projects\ranorex_testautomation\madaket_XP001\New_Payer_ValidData.cs"
							codeline="145"
							itemindex="21"
							loglvl="Info">
						</metainfo>
					</item>
					<item
						timeRelativeToTestSuiteStartTime="01:02.231"
						timeRelativeToTestModuleStartTime="00:36.075"
						timeWallClock="11:37:26"
						time="01:02.231"
						level="Info"
						category="Mouse">
						<message>
							Mouse Left Click item 'MadaketHealth.PayerGeneralDetailsDiv.DivTagTestPayerAtpayerCom' at 59;6.
						</message>
						<metainfo
							type="repoitem"
							path="/dom[@domain='edi-alpha.madakethealth.com']//div[#'payerGeneralDetailsDiv']//div[@innertext~'^test\.payer@payer']"
							itempath=".//div[@innertext~'^test\.payer@payer']"
							fullname="madaket_XP001Repository.MadaketHealth.PayerGeneralDetailsDiv.DivTagTestPayerAtpayerCom"
							id="54203ec5caae40ada0580344cddf82e5"
							timeout="90000"
							codefile="c:\Users\JohnPloumis\Documents\Ranorex\RanorexStudio Projects\ranorex_testautomation\madaket_XP001\New_Payer_ValidData.cs"
							codeline="148"
							itemindex="22"
							loglvl="Info">
						</metainfo>
					</item>
				</activity>
				<activity
					result="Success"
					duration="34.53s"
					durationms="34527"
					type="test-module"
					rid="18ef9101c87391b"
					totalerrorcount="0"
					totalwarningcount="0"
					totalsuccesstestcasecount="0"
					totalfailedtestcasecount="0"
					totalblockedtestcasecount="0"
					childsuccesscount="0"
					childfailedcount="0"
					childblockedcount="0"
					totalsuccesscount="0"
					totalfailedcount="0"
					totalblockedcount="0"
					totalmaintenancemodecount="0"
					modulename="Plan_Creation"
					displayName="Plan_Creation"
					moduleid="b77c5061-2d4e-4a82-85d3-0ceff64e76a8"
					moduletype="Recording"
					iteration="1"
					activity-exectype="execute"
					testentry-activity-type="testmodule">
					<detail>
						MH-2220
					</detail>
					<varbindings>
					</varbindings>
					<item
						timeRelativeToTestSuiteStartTime="01:04.427"
						timeRelativeToTestModuleStartTime="00:00.007"
						timeWallClock="11:37:28"
						time="01:04.427"
						level="Info"
						category="Mouse">
						<message>
							Mouse Left Click item 'MadaketHealth.DivTagPlans' at 9;16.
						</message>
						<metainfo
							type="repoitem"
							path="/dom[@domain='edi-alpha.madakethealth.com']//nav[#'mainNav']/ul//div[@innertext='Plans']"
							itempath=".//nav[#'mainNav']/ul//div[@innertext='Plans']"
							fullname="madaket_XP001Repository.MadaketHealth.DivTagPlans"
							id="4245ea03cf1f44b2977e9e08c91a4768"
							timeout="60000"
							codefile="c:\Users\JohnPloumis\Documents\Ranorex\RanorexStudio Projects\ranorex_testautomation\madaket_XP001\Plan_Creation.cs"
							codeline="82"
							itemindex="0"
							loglvl="Info">
						</metainfo>
					</item>
					<item
						timeRelativeToTestSuiteStartTime="01:06.336"
						timeRelativeToTestModuleStartTime="00:01.915"
						timeWallClock="11:37:30"
						time="01:06.336"
						level="Info"
						category="Delay">
						<message>
							Waiting for 4.5s.
						</message>
						<metainfo
							itemindex="1"
							codefile="c:\Users\JohnPloumis\Documents\Ranorex\RanorexStudio Projects\ranorex_testautomation\madaket_XP001\Plan_Creation.cs"
							codeline="85"
							loglvl="Info">
						</metainfo>
					</item>
					<item
						timeRelativeToTestSuiteStartTime="01:10.945"
						timeRelativeToTestModuleStartTime="00:06.524"
						timeWallClock="11:37:34"
						time="01:10.945"
						level="Info"
						category="Mouse">
						<message>
							Mouse Left Click item 'MadaketHealth.DataTablesScrollBody1' at LowerCenter.
						</message>
						<metainfo
							type="repoitem"
							path="/dom[@domain='edi-alpha.madakethealth.com']//div[#'planList_wrapper']/div[3]/div[2]"
							itempath=".//div[#'planList_wrapper']/div[3]/div[2]"
							fullname="madaket_XP001Repository.MadaketHealth.DataTablesScrollBody1"
							id="24641ab377e1414199910c7a5ef0efc6"
							timeout="60000"
							codefile="c:\Users\JohnPloumis\Documents\Ranorex\RanorexStudio Projects\ranorex_testautomation\madaket_XP001\Plan_Creation.cs"
							codeline="88"
							itemindex="2"
							loglvl="Info">
						</metainfo>
					</item>
					<item
						timeRelativeToTestSuiteStartTime="01:12.731"
						timeRelativeToTestModuleStartTime="00:08.311"
						timeWallClock="11:37:36"
						time="01:12.731"
						level="Info"
						category="Mouse">
						<message>
							Mouse Left Click item 'MadaketHealth.AddPlan' at 36;7.
						</message>
						<metainfo
							type="repoitem"
							path="/dom[@domain='edi-alpha.madakethealth.com']//a[#'addPlan']"
							itempath=".//a[#'addPlan']"
							fullname="madaket_XP001Repository.MadaketHealth.AddPlan"
							id="66c0eee316bd4ab080f4ac6fb9d08a52"
							timeout="60000"
							codefile="c:\Users\JohnPloumis\Documents\Ranorex\RanorexStudio Projects\ranorex_testautomation\madaket_XP001\Plan_Creation.cs"
							codeline="91"
							itemindex="3"
							loglvl="Info">
						</metainfo>
					</item>
					<item
						timeRelativeToTestSuiteStartTime="01:14.350"
						timeRelativeToTestModuleStartTime="00:09.929"
						timeWallClock="11:37:38"
						time="01:14.350"
						level="Info"
						category="Mouse">
						<message>
							Mouse Left Click item 'MadaketHealth.PopupScrollContainer4' at 679;399.
						</message>
						<metainfo
							type="repoitem"
							path="/dom[@domain='edi-alpha.madakethealth.com']//div[#'addOrUpdatePlanPopup']/div[2]"
							itempath=".//div[#'addOrUpdatePlanPopup']/div[2]"
							fullname="madaket_XP001Repository.MadaketHealth.PopupScrollContainer4"
							id="acb01864dd9f45ab9b8c227267ba503f"
							timeout="60000"
							codefile="c:\Users\JohnPloumis\Documents\Ranorex\RanorexStudio Projects\ranorex_testautomation\madaket_XP001\Plan_Creation.cs"
							codeline="94"
							itemindex="4"
							loglvl="Info">
						</metainfo>
					</item>
					<item
						timeRelativeToTestSuiteStartTime="01:16.164"
						timeRelativeToTestModuleStartTime="00:11.744"
						timeWallClock="11:37:40"
						time="01:16.164"
						level="Info"
						category="Mouse">
						<message>
							Mouse Left Click item 'MadaketHealth.SavePlan' at Center.
						</message>
						<metainfo
							type="repoitem"
							path="/dom[@domain='edi-alpha.madakethealth.com']//button[#'savePlan']"
							itempath=".//button[#'savePlan']"
							fullname="madaket_XP001Repository.MadaketHealth.SavePlan"
							id="88eec87dc8ff49e59ec19c60ea9b94ae"
							timeout="60000"
							codefile="c:\Users\JohnPloumis\Documents\Ranorex\RanorexStudio Projects\ranorex_testautomation\madaket_XP001\Plan_Creation.cs"
							codeline="97"
							itemindex="5"
							loglvl="Info">
						</metainfo>
					</item>
					<item
						timeRelativeToTestSuiteStartTime="01:17.931"
						timeRelativeToTestModuleStartTime="00:13.510"
						timeWallClock="11:37:41"
						time="01:17.931"
						level="Info"
						category="Mouse">
						<message>
							Mouse Left Click item 'MadaketHealth.PleaseEnterName' at 36;5.
						</message>
						<metainfo
							type="repoitem"
							path="/dom[@domain='edi-alpha.madakethealth.com']//div[#'planNameErrorContainer']/label[@innertext='Please enter name']"
							itempath=".//div[#'planNameErrorContainer']/label[@innertext='Please enter name']"
							fullname="madaket_XP001Repository.MadaketHealth.PleaseEnterName"
							id="a35ce17d1bb94f41bb4af13050eb2d6d"
							timeout="60000"
							codefile="c:\Users\JohnPloumis\Documents\Ranorex\RanorexStudio Projects\ranorex_testautomation\madaket_XP001\Plan_Creation.cs"
							codeline="100"
							itemindex="6"
							loglvl="Info">
						</metainfo>
					</item>
					<item
						timeRelativeToTestSuiteStartTime="01:19.947"
						timeRelativeToTestModuleStartTime="00:15.527"
						timeWallClock="11:37:43"
						time="01:19.947"
						level="Info"
						category="Mouse">
						<message>
							Mouse Left Click item 'MadaketHealth.PleaseEnterPlanId' at 39;8.
						</message>
						<metainfo
							type="repoitem"
							path="/dom[@domain='edi-alpha.madakethealth.com']//div[#'customPayerIdErrorContainer']/label[@innertext='Please enter plan id']"
							itempath=".//div[#'customPayerIdErrorContainer']/label[@innertext='Please enter plan id']"
							fullname="madaket_XP001Repository.MadaketHealth.PleaseEnterPlanId"
							id="4b5a463c7d3049de966697275ba8c410"
							timeout="60000"
							codefile="c:\Users\JohnPloumis\Documents\Ranorex\RanorexStudio Projects\ranorex_testautomation\madaket_XP001\Plan_Creation.cs"
							codeline="103"
							itemindex="7"
							loglvl="Info">
						</metainfo>
					</item>
					<item
						timeRelativeToTestSuiteStartTime="01:22.081"
						timeRelativeToTestModuleStartTime="00:17.660"
						timeWallClock="11:37:46"
						time="01:22.081"
						level="Info"
						category="Mouse">
						<message>
							Mouse Left Click item 'MadaketHealth.PleaseEnterPayerName' at 45;9.
						</message>
						<metainfo
							type="repoitem"
							path="/dom[@domain='edi-alpha.madakethealth.com']//div[#'payerErrorContainer']/label[@innertext~'^Please\ select\ payer\ from\ ']"
							itempath=".//div[#'payerErrorContainer']/label[@innertext~'^Please\ select\ payer\ from\ ']"
							fullname="madaket_XP001Repository.MadaketHealth.PleaseEnterPayerName"
							id="4c9893c40305426a8e1fb0914be576b5"
							timeout="60000"
							codefile="c:\Users\JohnPloumis\Documents\Ranorex\RanorexStudio Projects\ranorex_testautomation\madaket_XP001\Plan_Creation.cs"
							codeline="106"
							itemindex="8"
							loglvl="Info">
						</metainfo>
					</item>
					<item
						timeRelativeToTestSuiteStartTime="01:24.068"
						timeRelativeToTestModuleStartTime="00:19.647"
						timeWallClock="11:37:48"
						time="01:24.068"
						level="Info"
						category="Mouse">
						<message>
							Mouse Left Click item 'MadaketHealth.PleaseSelectPartnerAdmin' at 83;6.
						</message>
						<metainfo
							type="repoitem"
							path="/dom[@domain='edi-alpha.madakethealth.com']//div[#'partnerAdminGUIDErrorContainer']/label[@innertext~'^Please\ select\ partner\ adm']"
							itempath=".//div[#'partnerAdminGUIDErrorContainer']/label[@innertext~'^Please\ select\ partner\ adm']"
							fullname="madaket_XP001Repository.MadaketHealth.PleaseSelectPartnerAdmin"
							id="b203cbe7dc924ce09d1503d069095d64"
							timeout="60000"
							codefile="c:\Users\JohnPloumis\Documents\Ranorex\RanorexStudio Projects\ranorex_testautomation\madaket_XP001\Plan_Creation.cs"
							codeline="109"
							itemindex="9"
							loglvl="Info">
						</metainfo>
					</item>
					<item
						timeRelativeToTestSuiteStartTime="01:26.366"
						timeRelativeToTestModuleStartTime="00:21.946"
						timeWallClock="11:37:50"
						time="01:26.366"
						level="Info"
						category="Set value">
						<message>
							Setting attribute Value to 'test_aumation_uniqueID_002' on item 'MadaketHealth.UniquePlanId'.
						</message>
						<metainfo
							type="repoitem"
							path="/dom[@domain='edi-alpha.madakethealth.com']//input[#'uniquePlanId']"
							itempath=".//input[#'uniquePlanId']"
							fullname="madaket_XP001Repository.MadaketHealth.UniquePlanId"
							id="cfd1d67bd70d45a6a108acd7ba0153cd"
							timeout="60000"
							codefile="c:\Users\JohnPloumis\Documents\Ranorex\RanorexStudio Projects\ranorex_testautomation\madaket_XP001\Plan_Creation.cs"
							codeline="112"
							itemindex="10"
							loglvl="Info">
						</metainfo>
					</item>
					<item
						timeRelativeToTestSuiteStartTime="01:27.207"
						timeRelativeToTestModuleStartTime="00:22.787"
						timeWallClock="11:37:51"
						time="01:27.207"
						level="Info"
						category="Set value">
						<message>
							Setting attribute Value to 'test_payer_automation_XP002' on item 'MadaketHealth.Name'.
						</message>
						<metainfo
							type="repoitem"
							path="/dom[@domain='edi-alpha.madakethealth.com']//input[#'name']"
							itempath=".//input[#'name']"
							fullname="madaket_XP001Repository.MadaketHealth.Name"
							id="d469a389ded14e77a9e3a1bb2cdd2837"
							timeout="60000"
							codefile="c:\Users\JohnPloumis\Documents\Ranorex\RanorexStudio Projects\ranorex_testautomation\madaket_XP001\Plan_Creation.cs"
							codeline="115"
							itemindex="11"
							loglvl="Info">
						</metainfo>
					</item>
					<item
						timeRelativeToTestSuiteStartTime="01:28.014"
						timeRelativeToTestModuleStartTime="00:23.594"
						timeWallClock="11:37:51"
						time="01:28.014"
						level="Info"
						category="Set value">
						<message>
							Setting attribute Value to '9876543210' on item 'MadaketHealth.CustomPayerId'.
						</message>
						<metainfo
							type="repoitem"
							path="/dom[@domain='edi-alpha.madakethealth.com']//input[#'customPayerId']"
							itempath=".//input[#'customPayerId']"
							fullname="madaket_XP001Repository.MadaketHealth.CustomPayerId"
							id="96deed58e0594100a0dff142430fd737"
							timeout="60000"
							codefile="c:\Users\JohnPloumis\Documents\Ranorex\RanorexStudio Projects\ranorex_testautomation\madaket_XP001\Plan_Creation.cs"
							codeline="118"
							itemindex="12"
							loglvl="Info">
						</metainfo>
					</item>
					<item
						timeRelativeToTestSuiteStartTime="01:28.788"
						timeRelativeToTestModuleStartTime="00:24.368"
						timeWallClock="11:37:52"
						time="01:28.788"
						level="Info"
						category="Set value">
						<message>
							Setting attribute Value to 'test_payer_automation_XP002' on item 'MadaketHealth.PayerName'.
						</message>
						<metainfo
							type="repoitem"
							path="/dom[@domain='edi-alpha.madakethealth.com']//input[#'payerName']"
							itempath=".//input[#'payerName']"
							fullname="madaket_XP001Repository.MadaketHealth.PayerName"
							id="d13f36e3d9574502a0ea370497446279"
							timeout="60000"
							codefile="c:\Users\JohnPloumis\Documents\Ranorex\RanorexStudio Projects\ranorex_testautomation\madaket_XP001\Plan_Creation.cs"
							codeline="121"
							itemindex="13"
							loglvl="Info">
						</metainfo>
					</item>
					<item
						timeRelativeToTestSuiteStartTime="01:29.569"
						timeRelativeToTestModuleStartTime="00:25.149"
						timeWallClock="11:37:53"
						time="01:29.569"
						level="Info"
						category="Set value">
						<message>
							Setting attribute TagValue to '8a94a6c3-40c0-4889-8405-d3ecd18daaaa' on item 'MadaketHealth.PartnerAdminGUID'.
						</message>
						<metainfo
							type="repoitem"
							path="/dom[@domain='edi-alpha.madakethealth.com']//select[#'partnerAdminGUID']"
							itempath=".//select[#'partnerAdminGUID']"
							fullname="madaket_XP001Repository.MadaketHealth.PartnerAdminGUID"
							id="cf7ef1bb123d4aee98d7cc3411cdd0bc"
							timeout="60000"
							codefile="c:\Users\JohnPloumis\Documents\Ranorex\RanorexStudio Projects\ranorex_testautomation\madaket_XP001\Plan_Creation.cs"
							codeline="130"
							itemindex="16"
							loglvl="Info">
						</metainfo>
					</item>
					<item
						timeRelativeToTestSuiteStartTime="01:30.456"
						timeRelativeToTestModuleStartTime="00:26.035"
						timeWallClock="11:37:54"
						time="01:30.456"
						level="Info"
						category="Mouse">
						<message>
							Mouse Left Click item 'MadaketHealth.SomeLabelTag' at 12;3.
						</message>
						<metainfo
							type="repoitem"
							path="/dom[@domain='edi-alpha.madakethealth.com']//div[#'ttServiceTypeTable']/div[3]//label"
							itempath=".//div[#'ttServiceTypeTable']/div[3]//label"
							fullname="madaket_XP001Repository.MadaketHealth.SomeLabelTag"
							id="e3c1d996bcda44718c7f6b5a3533b399"
							timeout="60000"
							codefile="c:\Users\JohnPloumis\Documents\Ranorex\RanorexStudio Projects\ranorex_testautomation\madaket_XP001\Plan_Creation.cs"
							codeline="133"
							itemindex="17"
							loglvl="Info">
						</metainfo>
					</item>
					<item
						timeRelativeToTestSuiteStartTime="01:32.763"
						timeRelativeToTestModuleStartTime="00:28.343"
						timeWallClock="11:37:56"
						time="01:32.763"
						level="Info"
						category="Mouse">
						<message>
							Mouse Left Click item 'MadaketHealth.PopupScrollContainer4' at 677;397.
						</message>
						<metainfo
							type="repoitem"
							path="/dom[@domain='edi-alpha.madakethealth.com']//div[#'addOrUpdatePlanPopup']/div[2]"
							itempath=".//div[#'addOrUpdatePlanPopup']/div[2]"
							fullname="madaket_XP001Repository.MadaketHealth.PopupScrollContainer4"
							id="acb01864dd9f45ab9b8c227267ba503f"
							timeout="60000"
							codefile="c:\Users\JohnPloumis\Documents\Ranorex\RanorexStudio Projects\ranorex_testautomation\madaket_XP001\Plan_Creation.cs"
							codeline="136"
							itemindex="18"
							loglvl="Info">
						</metainfo>
					</item>
					<item
						timeRelativeToTestSuiteStartTime="01:34.430"
						timeRelativeToTestModuleStartTime="00:30.010"
						timeWallClock="11:37:58"
						time="01:34.430"
						level="Info"
						category="Invoke action">
						<message>
							Invoking Focus() on item 'MadaketHealth.SavePlan'.
						</message>
						<metainfo
							type="repoitem"
							path="/dom[@domain='edi-alpha.madakethealth.com']//button[#'savePlan']"
							itempath=".//button[#'savePlan']"
							fullname="madaket_XP001Repository.MadaketHealth.SavePlan"
							id="88eec87dc8ff49e59ec19c60ea9b94ae"
							timeout="60000"
							codefile="c:\Users\JohnPloumis\Documents\Ranorex\RanorexStudio Projects\ranorex_testautomation\madaket_XP001\Plan_Creation.cs"
							codeline="139"
							itemindex="19"
							loglvl="Info">
						</metainfo>
					</item>
					<item
						timeRelativeToTestSuiteStartTime="01:35.228"
						timeRelativeToTestModuleStartTime="00:30.808"
						timeWallClock="11:37:59"
						time="01:35.228"
						level="Info"
						category="Mouse">
						<message>
							Mouse Left Click item 'MadaketHealth.SavePlan' at Center.
						</message>
						<metainfo
							type="repoitem"
							path="/dom[@domain='edi-alpha.madakethealth.com']//button[#'savePlan']"
							itempath=".//button[#'savePlan']"
							fullname="madaket_XP001Repository.MadaketHealth.SavePlan"
							id="88eec87dc8ff49e59ec19c60ea9b94ae"
							timeout="60000"
							codefile="c:\Users\JohnPloumis\Documents\Ranorex\RanorexStudio Projects\ranorex_testautomation\madaket_XP001\Plan_Creation.cs"
							codeline="142"
							itemindex="20"
							loglvl="Info">
						</metainfo>
					</item>
					<item
						timeRelativeToTestSuiteStartTime="01:37.013"
						timeRelativeToTestModuleStartTime="00:32.593"
						timeWallClock="11:38:00"
						time="01:37.013"
						level="Info"
						category="Mouse">
						<message>
							Mouse Left Click item 'MadaketHealth.FilterButtonText' at 28;6.
						</message>
						<metainfo
							type="repoitem"
							path="/dom[@domain='edi-alpha.madakethealth.com']//span[#'filterButtonText']"
							itempath=".//span[#'filterButtonText']"
							fullname="madaket_XP001Repository.MadaketHealth.FilterButtonText"
							id="2c6a4e71fe454238941536dc8f0d5baf"
							timeout="60000"
							codefile="c:\Users\JohnPloumis\Documents\Ranorex\RanorexStudio Projects\ranorex_testautomation\madaket_XP001\Plan_Creation.cs"
							codeline="145"
							itemindex="21"
							loglvl="Info">
						</metainfo>
					</item>
				</activity>
				<activity
					result="Failed"
					duration="10.31s"
					durationms="10314"
					type="test-module"
					rid="d102c174603849"
					totalerrorcount="1"
					totalwarningcount="0"
					totalsuccesstestcasecount="0"
					totalfailedtestcasecount="0"
					totalblockedtestcasecount="0"
					childsuccesscount="0"
					childfailedcount="0"
					childblockedcount="0"
					totalsuccesscount="0"
					totalfailedcount="0"
					totalblockedcount="0"
					totalmaintenancemodecount="0"
					modulename="Plan_Verifcation"
					displayName="Plan_Verifcation"
					moduleid="12f6f6b8-dca2-4262-8104-2c0f6946fef7"
					moduletype="Recording"
					iteration="1"
					activity-exectype="execute"
					testentry-activity-type="testmodule">
					<detail>
						MH-2220
					</detail>
					<varbindings>
					</varbindings>
					<item
						timeRelativeToTestSuiteStartTime="01:38.956"
						timeRelativeToTestModuleStartTime="00:00.004"
						timeWallClock="11:38:02"
						time="01:38.956"
						level="Info"
						category="Mouse">
						<message>
							Mouse Left Click item 'MadaketHealth.DivTagPlans' at 9;16.
						</message>
						<metainfo
							type="repoitem"
							path="/dom[@domain='edi-alpha.madakethealth.com']//nav[#'mainNav']/ul//div[@innertext='Plans']"
							itempath=".//nav[#'mainNav']/ul//div[@innertext='Plans']"
							fullname="madaket_XP001Repository.MadaketHealth.DivTagPlans"
							id="4245ea03cf1f44b2977e9e08c91a4768"
							timeout="60000"
							codefile="c:\Users\JohnPloumis\Documents\Ranorex\RanorexStudio Projects\ranorex_testautomation\madaket_XP001\Plan_Verifcation.cs"
							codeline="82"
							itemindex="0"
							loglvl="Info">
						</metainfo>
					</item>
					<item
						timeRelativeToTestSuiteStartTime="01:40.865"
						timeRelativeToTestModuleStartTime="00:01.913"
						timeWallClock="11:38:04"
						time="01:40.865"
						level="Info"
						category="Mouse"
						errimg="images_madaket__8fcfe210\madaket__8fcfe210_ac997594_trace.jpg"
						errthumb="images_madaket__8fcfe210\madaket__8fcfe210_ac997594_trace_thumb.jpg">
						<message>
							Mouse Left Click item 'MadaketHealth.Filter' at 6;4.
						</message>
						<metainfo
							type="repoitem"
							path="/dom[@domain='edi-alpha.madakethealth.com']//img[#'filter']"
							itempath=".//img[#'filter']"
							fullname="madaket_XP001Repository.MadaketHealth.Filter"
							id="89684a8217f44f6ea2a119f297b3b683"
							timeout="60000"
							codefile="c:\Users\JohnPloumis\Documents\Ranorex\RanorexStudio Projects\ranorex_testautomation\madaket_XP001\Plan_Verifcation.cs"
							codeline="85"
							itemindex="1"
							loglvl="Info">
						</metainfo>
					</item>
					<item
						timeRelativeToTestSuiteStartTime="01:43.046"
						timeRelativeToTestModuleStartTime="00:04.094"
						timeWallClock="11:38:06"
						time="01:43.046"
						level="Info"
						category="Delay"
						errimg="images_madaket__8fcfe210\madaket__8fcfe210_1469f267_trace.jpg"
						errthumb="images_madaket__8fcfe210\madaket__8fcfe210_1469f267_trace_thumb.jpg">
						<message>
							Waiting for 500ms.
						</message>
						<metainfo
							itemindex="2"
							codefile="c:\Users\JohnPloumis\Documents\Ranorex\RanorexStudio Projects\ranorex_testautomation\madaket_XP001\Plan_Verifcation.cs"
							codeline="88"
							loglvl="Info">
						</metainfo>
					</item>
					<item
						timeRelativeToTestSuiteStartTime="01:43.600"
						timeRelativeToTestModuleStartTime="00:04.648"
						timeWallClock="11:38:07"
						time="01:43.600"
						level="Info"
						category="Mouse"
						errimg="images_madaket__8fcfe210\madaket__8fcfe210_52a60c0b_trace.jpg"
						errthumb="images_madaket__8fcfe210\madaket__8fcfe210_52a60c0b_trace_thumb.jpg">
						<message>
							Mouse Left Click item 'NewGroupAddress.ClearFilterButton' at 21;4.
						</message>
						<metainfo
							type="repoitem"
							path="/dom[@domain='edi-alpha.madakethealth.com']//button[#'clearFilterButton']"
							itempath=".//button[#'clearFilterButton']"
							fullname="madaket_XP001Repository.NewGroupAddress.ClearFilterButton"
							id="0471f98694fe462e9f538d35c05f73c1"
							timeout="60000"
							codefile="c:\Users\JohnPloumis\Documents\Ranorex\RanorexStudio Projects\ranorex_testautomation\madaket_XP001\Plan_Verifcation.cs"
							codeline="91"
							itemindex="3"
							loglvl="Info">
						</metainfo>
					</item>
					<item
						timeRelativeToTestSuiteStartTime="01:48.835"
						timeRelativeToTestModuleStartTime="00:09.883"
						timeWallClock="11:38:12"
						time="01:48.835"
						level="Error"
						category="Module">
						<message>
							The test run has been aborted by the user.
						</message>
						<metainfo
							loglvl="Error">
						</metainfo>
					</item>
				</activity>
			</activity>
		</activity>
	</activity>
</report>
