﻿<?xml version="1.0" encoding="utf-8"?>
<report
	progress="">
	<activity
		result="Success"
		duration="0ms"
		durationms="0"
		type="root"
		rid="4ac9af7c0247367"
		totalerrorcount="0"
		totalwarningcount="0"
		totalsuccesstestcasecount="0"
		totalfailedtestcasecount="0"
		totalblockedtestcasecount="0"
		childsuccesscount="0"
		childfailedcount="0"
		childblockedcount="0"
		totalsuccesscount="0"
		totalfailedcount="0"
		totalblockedcount="0"
		totalmaintenancemodecount="0"
		user="JohnPloumis"
		rxversion="8.2.1.0"
		host="LAPTOP-5EO8DNU1"
		osversion="Windows 10 64bit"
		runtimeversion="4.0.30319.42000"
		procarch="32bit"
		oslanguage="en-US"
		dtnlanguage="en-US"
		screenresolution="1366x768"
		timestamp="10/16/2018 9:14:26 AM"
		timestampiso="2018-10-16T13:14:26"
		endtime="10/16/2018 9:14:35 AM"
		timeoutfactor="1"
		module="Madaket_login">
		<detail>
			Madaket_login
		</detail>
		<varbindings>
		</varbindings>
		<item
			timeRelativeToTestSuiteStartTime="00:02.143"
			timeRelativeToTestModuleStartTime="00:02.143"
			timeWallClock="09:14:28"
			time="00:02.143"
			level="Info"
			category="Website">
			<message>
				Opening web site 'https://edi-alpha.madakethealth.com/services/logout' with browser 'IE' in normal mode.
			</message>
			<metainfo
				itemindex="0"
				codefile="c:\Users\JohnPloumis\Documents\Ranorex\RanorexStudio Projects\madaket_XP001\madaket_XP001\Madaket_login.cs"
				codeline="82"
				loglvl="Info">
			</metainfo>
		</item>
		<item
			timeRelativeToTestSuiteStartTime="00:02.345"
			timeRelativeToTestModuleStartTime="00:02.345"
			timeWallClock="09:14:28"
			time="00:02.345"
			level="Info"
			category="Mouse">
			<message>
				Mouse Left Click item 'MadaketHealth.txtUsername' at 34;8.
			</message>
			<metainfo
				type="repoitem"
				path="/dom[@caption='Madaket Health']//input[#'username']"
				itempath=".//input[#'username']"
				fullname="madaket_XP001Repository.MadaketHealth.txtUsername"
				id="ad40a45ba47543068e211d52f3633bf0"
				timeout="60000"
				codefile="c:\Users\JohnPloumis\Documents\Ranorex\RanorexStudio Projects\madaket_XP001\madaket_XP001\Madaket_login.cs"
				codeline="85"
				itemindex="1"
				loglvl="Info">
			</metainfo>
		</item>
		<item
			timeRelativeToTestSuiteStartTime="00:07.268"
			timeRelativeToTestModuleStartTime="00:07.268"
			timeWallClock="09:14:33"
			time="00:07.268"
			level="Info"
			category="Set value">
			<message>
				Setting attribute Value to 'jploumis@madakethealth.com' on item 'MadaketHealth.txtUsername'.
			</message>
			<metainfo
				type="repoitem"
				path="/dom[@caption='Madaket Health']//input[#'username']"
				itempath=".//input[#'username']"
				fullname="madaket_XP001Repository.MadaketHealth.txtUsername"
				id="ad40a45ba47543068e211d52f3633bf0"
				timeout="60000"
				codefile="c:\Users\JohnPloumis\Documents\Ranorex\RanorexStudio Projects\madaket_XP001\madaket_XP001\Madaket_login.cs"
				codeline="88"
				itemindex="2"
				loglvl="Info">
			</metainfo>
		</item>
		<item
			timeRelativeToTestSuiteStartTime="00:07.571"
			timeRelativeToTestModuleStartTime="00:07.571"
			timeWallClock="09:14:33"
			time="00:07.571"
			level="Info"
			category="Set value">
			<message>
				Setting attribute Value to 'Monkey1213!' on item 'MadaketHealth.txtPassword'.
			</message>
			<metainfo
				type="repoitem"
				path="/dom[@caption='Madaket Health']//input[#'password']"
				itempath=".//input[#'password']"
				fullname="madaket_XP001Repository.MadaketHealth.txtPassword"
				id="a351a5d74ad64269819a1ffbe4be0530"
				timeout="60000"
				codefile="c:\Users\JohnPloumis\Documents\Ranorex\RanorexStudio Projects\madaket_XP001\madaket_XP001\Madaket_login.cs"
				codeline="91"
				itemindex="3"
				loglvl="Info">
			</metainfo>
		</item>
		<item
			timeRelativeToTestSuiteStartTime="00:07.809"
			timeRelativeToTestModuleStartTime="00:07.809"
			timeWallClock="09:14:34"
			time="00:07.809"
			level="Info"
			category="Validation">
			<message>
				Validating Exists on item 'MadaketHealth.btnLogin'.
			</message>
			<metainfo
				type="repoitem"
				path="/dom[@caption='Madaket Health']//input[#'loginButton']"
				itempath=".//input[#'loginButton']"
				fullname="madaket_XP001Repository.MadaketHealth.btnLogin"
				id="29776b9350984c58bf5308f720d7bca4"
				timeout="60000"
				codefile="c:\Users\JohnPloumis\Documents\Ranorex\RanorexStudio Projects\madaket_XP001\madaket_XP001\Madaket_login.cs"
				codeline="94"
				itemindex="4"
				loglvl="Info">
			</metainfo>
		</item>
		<item
			timeRelativeToTestSuiteStartTime="00:08.059"
			timeRelativeToTestModuleStartTime="00:08.059"
			timeWallClock="09:14:34"
			time="00:08.059"
			level="Success"
			category="Validation">
			<message>
				Element for item 'btnLogin' does exist.
			</message>
			<metainfo
				type="repoitem"
				path="/dom[@caption='Madaket Health']//input[#'loginButton']"
				itempath=".//input[#'loginButton']"
				fullname="madaket_XP001Repository.MadaketHealth.btnLogin"
				id="29776b9350984c58bf5308f720d7bca4"
				timeout="60000"
				codefile="c:\Users\JohnPloumis\Documents\Ranorex\RanorexStudio Projects\madaket_XP001\madaket_XP001\Madaket_login.cs"
				codeline="95"
				loglvl="Success"
				itemindex="4">
			</metainfo>
		</item>
		<item
			timeRelativeToTestSuiteStartTime="00:08.059"
			timeRelativeToTestModuleStartTime="00:08.059"
			timeWallClock="09:14:34"
			time="00:08.059"
			level="Info"
			category="Mouse">
			<message>
				Mouse Left Click item 'MadaketHealth.btnLogin' at 62;12.
			</message>
			<metainfo
				type="repoitem"
				path="/dom[@caption='Madaket Health']//input[#'loginButton']"
				itempath=".//input[#'loginButton']"
				fullname="madaket_XP001Repository.MadaketHealth.btnLogin"
				id="29776b9350984c58bf5308f720d7bca4"
				timeout="60000"
				codefile="c:\Users\JohnPloumis\Documents\Ranorex\RanorexStudio Projects\madaket_XP001\madaket_XP001\Madaket_login.cs"
				codeline="97"
				itemindex="5"
				loglvl="Info">
			</metainfo>
		</item>
	</activity>
</report>
