﻿<?xml version="1.0" encoding="utf-8"?>
<report
	progress="">
	<activity
		result="Failed"
		duration="0ms"
		durationms="0"
		type="root"
		rid="218eb2b41a5ac450"
		totalerrorcount="1"
		totalwarningcount="0"
		totalsuccesstestcasecount="0"
		totalfailedtestcasecount="0"
		totalblockedtestcasecount="0"
		childsuccesscount="0"
		childfailedcount="0"
		childblockedcount="0"
		totalsuccesscount="0"
		totalfailedcount="0"
		totalblockedcount="0"
		totalmaintenancemodecount="0"
		user="johnc"
		rxversion="8.2.1.0"
		host="LAPTOP-0LK6SCE5"
		osversion="Windows 10 64bit"
		runtimeversion="4.0.30319.42000"
		procarch="32bit"
		oslanguage="en-US"
		dtnlanguage="en-US"
		screenresolution="1366x768"
		timestamp="10/2/2018 10:31:34 AM"
		timestampiso="2018-10-02T14:31:34"
		endtime="10/2/2018 10:32:38 AM"
		timeoutfactor="1"
		module="Madaket_login">
		<detail>
			Madaket_login
		</detail>
		<errormessage>
			Failed to find item 'madaket_XP001Repository.MadaketHealth.txtUsername'.
		</errormessage>
		<varbindings>
		</varbindings>
		<item
			timeRelativeToTestSuiteStartTime="00:02.286"
			timeRelativeToTestModuleStartTime="00:02.286"
			timeWallClock="10:31:36"
			time="00:02.286"
			level="Info"
			category="Website"
			errimg=".\Madaket__92119fc9_c8e1c998_trace.jpg"
			errthumb=".\Madaket__92119fc9_c8e1c998_trace_thumb.jpg">
			<message>
				Opening web site 'https://edi-alpha.madakethealth.com/services/logout' with browser 'IE' in normal mode.
			</message>
			<metainfo
				itemindex="0"
				codefile="c:\Users\johnc\OneDrive\Documents\Ranorex\RanorexStudio Projects\madaket_XP001\madaket_XP001\Madaket_login.cs"
				codeline="82"
				loglvl="Info">
			</metainfo>
		</item>
		<item
			timeRelativeToTestSuiteStartTime="00:03.095"
			timeRelativeToTestModuleStartTime="00:03.095"
			timeWallClock="10:31:37"
			time="00:03.095"
			level="Info"
			category="Mouse"
			errimg=".\Madaket__92119fc9_df1f029f_trace.jpg"
			errthumb=".\Madaket__92119fc9_df1f029f_trace_thumb.jpg">
			<message>
				Mouse Left Click item 'MadaketHealth.txtUsername' at 34;8.
			</message>
			<metainfo
				type="repoitem"
				path="/dom[@domain='test.madakethealth.com']//input[#'username']"
				itempath=".//input[#'username']"
				fullname="madaket_XP001Repository.MadaketHealth.txtUsername"
				id="ad40a45ba47543068e211d52f3633bf0"
				timeout="60000"
				codefile="c:\Users\johnc\OneDrive\Documents\Ranorex\RanorexStudio Projects\madaket_XP001\madaket_XP001\Madaket_login.cs"
				codeline="86"
				itemindex="1"
				loglvl="Info">
			</metainfo>
		</item>
		<item
			timeRelativeToTestSuiteStartTime="01:03.681"
			timeRelativeToTestModuleStartTime="01:03.681"
			timeWallClock="10:32:37"
			time="01:03.681"
			level="Error"
			category="Module"
			errimg=".\Madaket__92119fc9_6ceb07fc_trace.jpg"
			errthumb=".\Madaket__92119fc9_6ceb07fc_trace_thumb.jpg">
			<message>
				Failed to find item 'madaket_XP001Repository.MadaketHealth.txtUsername'.<br/>No element found for path '/dom[@domain='test.madakethealth.com']//input[#'username']' within 1m.
			</message>
			<metainfo
				stacktrace="   at Ranorex.Core.Repository.RepoItemInfo.FindInternal[T](Boolean findSingle, Boolean throwException, Duration effectiveTimeoutOverride)&#13;&#10;   at Ranorex.Core.Repository.RepoItemInfo.&lt;>c__DisplayClass75_0`1.&lt;Find>b__0()&#13;&#10;   at Ranorex.Core.Testing.Services.NoMaintenanceModeService.HandleElementNotFound[T](Func`1 action, RepoItemInfo entry)&#13;&#10;   at Ranorex.Core.Repository.RepoItemInfo.Find[T](Boolean findSingle, Boolean throwException, Duration effectiveTimeoutOverride)&#13;&#10;   at Ranorex.Core.Repository.RepoItemInfo.CreateAdapter[T](Boolean throwException, Duration waitTimeout)&#13;&#10;   at Ranorex.Core.Repository.RepoItemInfo.CreateAdapter[T](Boolean throwException)&#13;&#10;   at madaket_XP001.madaket_XP001RepositoryFolders.MadaketHealthAppFolder.get_txtUsername() in c:\Users\johnc\OneDrive\Documents\Ranorex\RanorexStudio Projects\madaket_XP001\madaket_XP001\madaket_XP001Repository.cs:line 167&#13;&#10;   at madaket_XP001.Madaket_login.Ranorex.Core.Testing.ITestModule.Run() in c:\Users\johnc\OneDrive\Documents\Ranorex\RanorexStudio Projects\madaket_XP001\madaket_XP001\Madaket_login.cs:line 87&#13;&#10;   at Ranorex.Core.Testing.TestModuleLeaf.RunInternal(DataContext parentDataContext, Int32 iteration, Int32 iterationCount, Boolean skipIteration)"
				codefile="c:\Users\johnc\OneDrive\Documents\Ranorex\RanorexStudio Projects\madaket_XP001\madaket_XP001\Madaket_login.cs"
				codeline="87"
				type="repoitem"
				path="/dom[@domain='test.madakethealth.com']//input[#'username']"
				itempath=".//input[#'username']"
				fullname="madaket_XP001Repository.MadaketHealth.txtUsername"
				id="ad40a45ba47543068e211d52f3633bf0"
				timeout="60000"
				loglvl="Error"
				itemindex="1">
			</metainfo>
		</item>
	</activity>
</report>
