﻿<?xml version="1.0" encoding="utf-8"?>
<report
	progress="">
	<activity
		result="Failed"
		duration="0ms"
		durationms="0"
		type="root"
		rid="11987585ab032840"
		totalerrorcount="1"
		totalwarningcount="1"
		totalsuccesstestcasecount="0"
		totalfailedtestcasecount="1"
		totalblockedtestcasecount="0"
		childsuccesscount="0"
		childfailedcount="1"
		childblockedcount="0"
		totalsuccesscount="0"
		totalfailedcount="1"
		totalblockedcount="0"
		totalmaintenancemodecount="0"
		user="JohnPloumis"
		rxversion="8.3.1.0"
		host="LAPTOP-5EO8DNU1"
		osversion="Windows 10 64bit"
		runtimeversion="4.0.30319.42000"
		procarch="32bit"
		oslanguage="en-US"
		dtnlanguage="en-US"
		screenresolution="1366x768"
		timestamp="12/4/2018 4:36:00 PM"
		timestampiso="2018-12-04T21:36:00"
		endtime="12/4/2018 4:40:28 PM"
		timeoutfactor="1">
		<detail>
			Ranorex Testscript
		</detail>
		<activity
			result="Failed"
			duration="4.5m"
			durationms="267260"
			type="test-suite"
			rid="75cbfc35a4c3d08"
			totalerrorcount="1"
			totalwarningcount="1"
			totalsuccesstestcasecount="0"
			totalfailedtestcasecount="1"
			totalblockedtestcasecount="0"
			childsuccesscount="0"
			childfailedcount="1"
			childblockedcount="0"
			totalsuccesscount="0"
			totalfailedcount="1"
			totalblockedcount="0"
			totalmaintenancemodecount="0"
			testsuitename="madaket_XP001"
			headertext="madaket_XP001"
			runconfigname="TestRun"
			runlabel="">
			<params>
			</params>
			<activity
				result="Failed"
				duration="4.5m"
				durationms="267218"
				type="test-case"
				rid="9b5bae8349368e3"
				totalerrorcount="1"
				totalwarningcount="1"
				totalsuccesstestcasecount="0"
				totalfailedtestcasecount="1"
				totalblockedtestcasecount="0"
				childsuccesscount="6"
				childfailedcount="1"
				childblockedcount="0"
				totalsuccesscount="0"
				totalfailedcount="1"
				totalblockedcount="0"
				totalmaintenancemodecount="0"
				testcontainername="Madaket_XP"
				testcontainerid="2b1c309f-44ad-4542-9e87-47b21dcdd499"
				headertext="Madaket_XP"
				displayName="Madaket_XP"
				iteration="1"
				activity-exectype="execute"
				conditionstate="none">
				<activity
					result="Success"
					duration="10.48s"
					durationms="10481"
					type="test-module"
					rid="32349b0e146ac0b"
					totalerrorcount="0"
					totalwarningcount="0"
					totalsuccesstestcasecount="0"
					totalfailedtestcasecount="0"
					totalblockedtestcasecount="0"
					childsuccesscount="0"
					childfailedcount="0"
					childblockedcount="0"
					totalsuccesscount="0"
					totalfailedcount="0"
					totalblockedcount="0"
					totalmaintenancemodecount="0"
					modulename="Madaket_login"
					displayName="Madaket_login"
					moduleid="7047a381-6113-4a38-ab95-4ef2d01b9d0f"
					moduletype="Recording"
					iteration="1"
					activity-exectype="execute"
					testentry-activity-type="testmodule">
					<detail>
						general qa
					</detail>
					<varbindings>
					</varbindings>
					<item
						timeRelativeToTestSuiteStartTime="00:01.155"
						timeRelativeToTestModuleStartTime="00:00.072"
						timeWallClock="16:36:01"
						time="00:01.155"
						level="Info"
						category="Website">
						<message>
							Opening web site 'https://edi-alpha.madakethealth.com/services/logout' with browser 'Chrome' in maximized mode.
						</message>
						<metainfo
							itemindex="0"
							codefile="c:\Users\JohnPloumis\Documents\Ranorex\RanorexStudio Projects\ranorex_testautomation\madaket_XP001\Madaket_login.cs"
							codeline="82"
							loglvl="Info">
						</metainfo>
					</item>
					<item
						timeRelativeToTestSuiteStartTime="00:02.122"
						timeRelativeToTestModuleStartTime="00:01.039"
						timeWallClock="16:36:02"
						time="00:02.122"
						level="Info"
						category="Set value">
						<message>
							Setting attribute Value to 'jploumis@madakethealth.com' on item 'MadaketHealth.txtUsername'.
						</message>
						<metainfo
							type="repoitem"
							path="/dom[@domain='edi-alpha.madakethealth.com']//input[#'username']"
							itempath=".//input[#'username']"
							fullname="madaket_XP001Repository.MadaketHealth.txtUsername"
							id="ad40a45ba47543068e211d52f3633bf0"
							timeout="60000"
							codefile="c:\Users\JohnPloumis\Documents\Ranorex\RanorexStudio Projects\ranorex_testautomation\madaket_XP001\Madaket_login.cs"
							codeline="85"
							itemindex="1"
							loglvl="Info">
						</metainfo>
					</item>
					<item
						timeRelativeToTestSuiteStartTime="00:07.571"
						timeRelativeToTestModuleStartTime="00:06.488"
						timeWallClock="16:36:07"
						time="00:07.571"
						level="Info"
						category="Set value">
						<message>
							Setting attribute Value to 'Monkey1213!' on item 'MadaketHealth.txtPassword'.
						</message>
						<metainfo
							type="repoitem"
							path="/dom[@domain='edi-alpha.madakethealth.com']//input[#'password']"
							itempath=".//input[#'password']"
							fullname="madaket_XP001Repository.MadaketHealth.txtPassword"
							id="a351a5d74ad64269819a1ffbe4be0530"
							timeout="60000"
							codefile="c:\Users\JohnPloumis\Documents\Ranorex\RanorexStudio Projects\ranorex_testautomation\madaket_XP001\Madaket_login.cs"
							codeline="88"
							itemindex="2"
							loglvl="Info">
						</metainfo>
					</item>
					<item
						timeRelativeToTestSuiteStartTime="00:08.353"
						timeRelativeToTestModuleStartTime="00:07.270"
						timeWallClock="16:36:08"
						time="00:08.353"
						level="Info"
						category="Validation">
						<message>
							Validating Exists on item 'MadaketHealth.btnLogin'.
						</message>
						<metainfo
							type="repoitem"
							path="/dom[@domain='edi-alpha.madakethealth.com']//input[#'loginButton']"
							itempath=".//input[#'loginButton']"
							fullname="madaket_XP001Repository.MadaketHealth.btnLogin"
							id="29776b9350984c58bf5308f720d7bca4"
							timeout="60000"
							codefile="c:\Users\JohnPloumis\Documents\Ranorex\RanorexStudio Projects\ranorex_testautomation\madaket_XP001\Madaket_login.cs"
							codeline="91"
							itemindex="3"
							loglvl="Info">
						</metainfo>
					</item>
					<item
						timeRelativeToTestSuiteStartTime="00:09.373"
						timeRelativeToTestModuleStartTime="00:08.290"
						timeWallClock="16:36:09"
						time="00:09.373"
						level="Success"
						category="Validation">
						<message>
							Element for item 'btnLogin' does exist.
						</message>
						<metainfo
							type="repoitem"
							path="/dom[@domain='edi-alpha.madakethealth.com']//input[#'loginButton']"
							itempath=".//input[#'loginButton']"
							fullname="madaket_XP001Repository.MadaketHealth.btnLogin"
							id="29776b9350984c58bf5308f720d7bca4"
							timeout="60000"
							codefile="c:\Users\JohnPloumis\Documents\Ranorex\RanorexStudio Projects\ranorex_testautomation\madaket_XP001\Madaket_login.cs"
							codeline="92"
							loglvl="Success"
							itemindex="3">
						</metainfo>
					</item>
					<item
						timeRelativeToTestSuiteStartTime="00:09.426"
						timeRelativeToTestModuleStartTime="00:08.343"
						timeWallClock="16:36:09"
						time="00:09.426"
						level="Info"
						category="Mouse">
						<message>
							Mouse Left Click item 'MadaketHealth.btnLogin' at 62;12.
						</message>
						<metainfo
							type="repoitem"
							path="/dom[@domain='edi-alpha.madakethealth.com']//input[#'loginButton']"
							itempath=".//input[#'loginButton']"
							fullname="madaket_XP001Repository.MadaketHealth.btnLogin"
							id="29776b9350984c58bf5308f720d7bca4"
							timeout="60000"
							codefile="c:\Users\JohnPloumis\Documents\Ranorex\RanorexStudio Projects\ranorex_testautomation\madaket_XP001\Madaket_login.cs"
							codeline="94"
							itemindex="4"
							loglvl="Info">
						</metainfo>
					</item>
				</activity>
				<activity
					result="Success"
					duration="70ms"
					durationms="70"
					type="test-module"
					rid="1465f4104cc502a"
					totalerrorcount="0"
					totalwarningcount="0"
					totalsuccesstestcasecount="0"
					totalfailedtestcasecount="0"
					totalblockedtestcasecount="0"
					childsuccesscount="0"
					childfailedcount="0"
					childblockedcount="0"
					totalsuccesscount="0"
					totalfailedcount="0"
					totalblockedcount="0"
					totalmaintenancemodecount="0"
					modulename="Fetch_TestData_Directory"
					displayName="Fetch_TestData_Directory"
					moduleid="2676acf6-35f0-4c96-9bd5-5fbbc4117574"
					moduletype="UserCode"
					iteration="1"
					activity-exectype="execute"
					testentry-activity-type="testmodule">
					<varbindings>
					</varbindings>
					<item
						timeRelativeToTestSuiteStartTime="00:11.576"
						timeRelativeToTestModuleStartTime="00:00.004"
						timeWallClock="16:36:11"
						time="00:11.576"
						level="Info"
						category="User">
						<message>
							C:\Users\JohnPloumis\Documents\Ranorex\RanorexStudio Projects\ranorex_testautomation\madaket_XP001\TestData
						</message>
						<metainfo
							codefile="c:\Users\JohnPloumis\Documents\Ranorex\RanorexStudio Projects\ranorex_testautomation\madaket_XP001\Fetch_TestData_Directory.cs"
							codeline="52"
							loglvl="Info">
						</metainfo>
					</item>
				</activity>
				<activity
					result="Success"
					duration="21.9s"
					durationms="21895"
					type="test-module"
					rid="1f14f584fcbb3126"
					totalerrorcount="0"
					totalwarningcount="0"
					totalsuccesstestcasecount="0"
					totalfailedtestcasecount="0"
					totalblockedtestcasecount="0"
					childsuccesscount="0"
					childfailedcount="0"
					childblockedcount="0"
					totalsuccesscount="0"
					totalfailedcount="0"
					totalblockedcount="0"
					totalmaintenancemodecount="0"
					modulename="New_Payer_NoData"
					displayName="New_Payer_NoData"
					moduleid="c2c3f592-c70a-4a42-9f69-8f7f27722dc4"
					moduletype="Recording"
					iteration="1"
					activity-exectype="execute"
					testentry-activity-type="testmodule">
					<detail>
						MH-2218
					</detail>
					<varbindings>
					</varbindings>
					<item
						timeRelativeToTestSuiteStartTime="00:11.663"
						timeRelativeToTestModuleStartTime="00:00.012"
						timeWallClock="16:36:12"
						time="00:11.663"
						level="Info"
						category="Mouse">
						<message>
							Mouse Left Click item 'MadaketHealth.DivTagPayers' at 16;21.
						</message>
						<metainfo
							type="repoitem"
							path="/dom[@domain='edi-alpha.madakethealth.com']//nav[#'mainNav']/ul//div[@innertext='Payers']"
							itempath=".//nav[#'mainNav']/ul//div[@innertext='Payers']"
							fullname="madaket_XP001Repository.MadaketHealth.DivTagPayers"
							id="29cc9e25aab349529ce160a3bd60a2f5"
							timeout="60000"
							codefile="c:\Users\JohnPloumis\Documents\Ranorex\RanorexStudio Projects\ranorex_testautomation\madaket_XP001\New_Payer_NoData.cs"
							codeline="82"
							itemindex="0"
							loglvl="Info">
						</metainfo>
					</item>
					<item
						timeRelativeToTestSuiteStartTime="00:20.547"
						timeRelativeToTestModuleStartTime="00:08.895"
						timeWallClock="16:36:20"
						time="00:20.547"
						level="Info"
						category="Mouse">
						<message>
							Mouse Left Click item 'MadaketHealth.linkNewPayer' at 46;12.
						</message>
						<metainfo
							type="repoitem"
							path="/dom[@domain='edi-alpha.madakethealth.com']//a[#'payorClick']"
							itempath=".//a[#'payorClick']"
							fullname="madaket_XP001Repository.MadaketHealth.linkNewPayer"
							id="0e40999c158242618af66e1af1edf093"
							timeout="60000"
							codefile="c:\Users\JohnPloumis\Documents\Ranorex\RanorexStudio Projects\ranorex_testautomation\madaket_XP001\New_Payer_NoData.cs"
							codeline="85"
							itemindex="1"
							loglvl="Info">
						</metainfo>
					</item>
					<item
						timeRelativeToTestSuiteStartTime="00:23.589"
						timeRelativeToTestModuleStartTime="00:11.937"
						timeWallClock="16:36:23"
						time="00:23.589"
						level="Info"
						category="Mouse">
						<message>
							Mouse Left Click item 'MadaketHealth.PopupScrollContainer' at Center.
						</message>
						<metainfo
							type="repoitem"
							path="/dom[@domain='edi-alpha.madakethealth.com']//div[#'editPayorPopup']/div[2]"
							itempath=".//div[#'editPayorPopup']/div[2]"
							fullname="madaket_XP001Repository.MadaketHealth.PopupScrollContainer"
							id="f53c44ed5bb14893839e2b7cdc4d3ef7"
							timeout="60000"
							codefile="c:\Users\JohnPloumis\Documents\Ranorex\RanorexStudio Projects\ranorex_testautomation\madaket_XP001\New_Payer_NoData.cs"
							codeline="88"
							itemindex="2"
							loglvl="Info">
						</metainfo>
					</item>
					<item
						timeRelativeToTestSuiteStartTime="00:25.929"
						timeRelativeToTestModuleStartTime="00:14.278"
						timeWallClock="16:36:26"
						time="00:25.929"
						level="Info"
						category="Mouse">
						<message>
							Mouse Left Click item 'MadaketHealth.PopupScrollContainer' at LowerRight.
						</message>
						<metainfo
							type="repoitem"
							path="/dom[@domain='edi-alpha.madakethealth.com']//div[#'editPayorPopup']/div[2]"
							itempath=".//div[#'editPayorPopup']/div[2]"
							fullname="madaket_XP001Repository.MadaketHealth.PopupScrollContainer"
							id="f53c44ed5bb14893839e2b7cdc4d3ef7"
							timeout="60000"
							codefile="c:\Users\JohnPloumis\Documents\Ranorex\RanorexStudio Projects\ranorex_testautomation\madaket_XP001\New_Payer_NoData.cs"
							codeline="91"
							itemindex="3"
							loglvl="Info">
						</metainfo>
					</item>
					<item
						timeRelativeToTestSuiteStartTime="00:27.647"
						timeRelativeToTestModuleStartTime="00:15.995"
						timeWallClock="16:36:28"
						time="00:27.647"
						level="Info"
						category="Mouse">
						<message>
							Mouse Left Click item 'MadaketHealth.btnSavePayor' at 71;7.
						</message>
						<metainfo
							type="repoitem"
							path="/dom[@domain='edi-alpha.madakethealth.com']//button[#'savePayorButton']"
							itempath=".//button[#'savePayorButton']"
							fullname="madaket_XP001Repository.MadaketHealth.btnSavePayor"
							id="ab96c6bd2749404d82d6f94d5830ab20"
							timeout="60000"
							codefile="c:\Users\JohnPloumis\Documents\Ranorex\RanorexStudio Projects\ranorex_testautomation\madaket_XP001\New_Payer_NoData.cs"
							codeline="94"
							itemindex="4"
							loglvl="Info">
						</metainfo>
					</item>
					<item
						timeRelativeToTestSuiteStartTime="00:29.379"
						timeRelativeToTestModuleStartTime="00:17.727"
						timeWallClock="16:36:29"
						time="00:29.379"
						level="Info"
						category="Mouse">
						<message>
							Mouse Left Click item 'MadaketHealth.errMsgPleaseEnterPayerName' at 89;11.
						</message>
						<metainfo
							type="repoitem"
							path="/dom[@domain='edi-alpha.madakethealth.com']//form[#'payorGeneralForm']/div[1]//label[@innertext='Please enter payer name']"
							itempath=".//form[#'payorGeneralForm']/div[1]//label[@innertext='Please enter payer name']"
							fullname="madaket_XP001Repository.MadaketHealth.errMsgPleaseEnterPayerName"
							id="4e8fcb6b94fa4fdfaa37a0b3a3c6c8d4"
							timeout="60000"
							codefile="c:\Users\JohnPloumis\Documents\Ranorex\RanorexStudio Projects\ranorex_testautomation\madaket_XP001\New_Payer_NoData.cs"
							codeline="97"
							itemindex="5"
							loglvl="Info">
						</metainfo>
					</item>
					<item
						timeRelativeToTestSuiteStartTime="00:31.530"
						timeRelativeToTestModuleStartTime="00:19.878"
						timeWallClock="16:36:31"
						time="00:31.530"
						level="Info"
						category="Mouse">
						<message>
							Mouse Left Click item 'MadaketHealth.HttpsTestMadakethealthComServices' at 18;22.
						</message>
						<metainfo
							type="repoitem"
							path="/dom[@domain='edi-alpha.madakethealth.com']//div[#'editPayorPopup']/a[@href~'^https://edi-alpha\.madaket']"
							itempath=".//div[#'editPayorPopup']/a[@href~'^https://edi-alpha\.madaket']"
							fullname="madaket_XP001Repository.MadaketHealth.HttpsTestMadakethealthComServices"
							id="ba73c9ad44884b9eb242b07457d62a68"
							timeout="60000"
							codefile="c:\Users\JohnPloumis\Documents\Ranorex\RanorexStudio Projects\ranorex_testautomation\madaket_XP001\New_Payer_NoData.cs"
							codeline="100"
							itemindex="6"
							loglvl="Info">
						</metainfo>
					</item>
				</activity>
				<activity
					result="Success"
					duration="40.14s"
					durationms="40143"
					type="test-module"
					rid="c106c3c0947c4c"
					totalerrorcount="0"
					totalwarningcount="0"
					totalsuccesstestcasecount="0"
					totalfailedtestcasecount="0"
					totalblockedtestcasecount="0"
					childsuccesscount="0"
					childfailedcount="0"
					childblockedcount="0"
					totalsuccesscount="0"
					totalfailedcount="0"
					totalblockedcount="0"
					totalmaintenancemodecount="0"
					modulename="New_Payer_ValidData"
					displayName="New_Payer_ValidData"
					moduleid="a2d47517-0a0b-47f5-b141-691f6f0b3abc"
					moduletype="Recording"
					iteration="1"
					activity-exectype="execute"
					testentry-activity-type="testmodule">
					<detail>
						MH-2218
					</detail>
					<varbindings>
					</varbindings>
					<item
						timeRelativeToTestSuiteStartTime="00:33.556"
						timeRelativeToTestModuleStartTime="00:00.007"
						timeWallClock="16:36:33"
						time="00:33.556"
						level="Info"
						category="Mouse">
						<message>
							Mouse Left Click item 'MadaketHealth.DivTagPayers' at 16;20.
						</message>
						<metainfo
							type="repoitem"
							path="/dom[@domain='edi-alpha.madakethealth.com']//nav[#'mainNav']/ul//div[@innertext='Payers']"
							itempath=".//nav[#'mainNav']/ul//div[@innertext='Payers']"
							fullname="madaket_XP001Repository.MadaketHealth.DivTagPayers"
							id="29cc9e25aab349529ce160a3bd60a2f5"
							timeout="60000"
							codefile="c:\Users\JohnPloumis\Documents\Ranorex\RanorexStudio Projects\ranorex_testautomation\madaket_XP001\New_Payer_ValidData.cs"
							codeline="82"
							itemindex="0"
							loglvl="Info">
						</metainfo>
					</item>
					<item
						timeRelativeToTestSuiteStartTime="00:36.147"
						timeRelativeToTestModuleStartTime="00:02.597"
						timeWallClock="16:36:36"
						time="00:36.147"
						level="Info"
						category="Mouse">
						<message>
							Mouse Left Click item 'MadaketHealth.linkNewPayer' at 34;13.
						</message>
						<metainfo
							type="repoitem"
							path="/dom[@domain='edi-alpha.madakethealth.com']//a[#'payorClick']"
							itempath=".//a[#'payorClick']"
							fullname="madaket_XP001Repository.MadaketHealth.linkNewPayer"
							id="0e40999c158242618af66e1af1edf093"
							timeout="60000"
							codefile="c:\Users\JohnPloumis\Documents\Ranorex\RanorexStudio Projects\ranorex_testautomation\madaket_XP001\New_Payer_ValidData.cs"
							codeline="85"
							itemindex="1"
							loglvl="Info">
						</metainfo>
					</item>
					<item
						timeRelativeToTestSuiteStartTime="00:38.535"
						timeRelativeToTestModuleStartTime="00:04.986"
						timeWallClock="16:36:38"
						time="00:38.535"
						level="Info"
						category="Mouse">
						<message>
							Mouse Left Click item 'MadaketHealth.PayorName' at Center.
						</message>
						<metainfo
							type="repoitem"
							path="/dom[@domain='edi-alpha.madakethealth.com']//input[#'payorName']"
							itempath=".//input[#'payorName']"
							fullname="madaket_XP001Repository.MadaketHealth.PayorName"
							id="c60f64d457204be3b0c571ec0261f3c7"
							timeout="60000"
							codefile="c:\Users\JohnPloumis\Documents\Ranorex\RanorexStudio Projects\ranorex_testautomation\madaket_XP001\New_Payer_ValidData.cs"
							codeline="88"
							itemindex="2"
							loglvl="Info">
						</metainfo>
					</item>
					<item
						timeRelativeToTestSuiteStartTime="00:41.284"
						timeRelativeToTestModuleStartTime="00:07.735"
						timeWallClock="16:36:41"
						time="00:41.284"
						level="Info"
						category="Set value">
						<message>
							Setting attribute Value to 'test_payer_automation_XP002' on item 'MadaketHealth.PayorName'.
						</message>
						<metainfo
							type="repoitem"
							path="/dom[@domain='edi-alpha.madakethealth.com']//input[#'payorName']"
							itempath=".//input[#'payorName']"
							fullname="madaket_XP001Repository.MadaketHealth.PayorName"
							id="c60f64d457204be3b0c571ec0261f3c7"
							timeout="60000"
							codefile="c:\Users\JohnPloumis\Documents\Ranorex\RanorexStudio Projects\ranorex_testautomation\madaket_XP001\New_Payer_ValidData.cs"
							codeline="91"
							itemindex="3"
							loglvl="Info">
						</metainfo>
					</item>
					<item
						timeRelativeToTestSuiteStartTime="00:42.251"
						timeRelativeToTestModuleStartTime="00:08.701"
						timeWallClock="16:36:42"
						time="00:42.251"
						level="Info"
						category="Delay">
						<message>
							Waiting for 500ms.
						</message>
						<metainfo
							itemindex="4"
							codefile="c:\Users\JohnPloumis\Documents\Ranorex\RanorexStudio Projects\ranorex_testautomation\madaket_XP001\New_Payer_ValidData.cs"
							codeline="94"
							loglvl="Info">
						</metainfo>
					</item>
					<item
						timeRelativeToTestSuiteStartTime="00:42.808"
						timeRelativeToTestModuleStartTime="00:09.259"
						timeWallClock="16:36:43"
						time="00:42.808"
						level="Info"
						category="Invoke action">
						<message>
							Invoking Focus() on item 'MadaketHealth.PopupScrollContainer'.
						</message>
						<metainfo
							type="repoitem"
							path="/dom[@domain='edi-alpha.madakethealth.com']//div[#'editPayorPopup']/div[2]"
							itempath=".//div[#'editPayorPopup']/div[2]"
							fullname="madaket_XP001Repository.MadaketHealth.PopupScrollContainer"
							id="f53c44ed5bb14893839e2b7cdc4d3ef7"
							timeout="60000"
							codefile="c:\Users\JohnPloumis\Documents\Ranorex\RanorexStudio Projects\ranorex_testautomation\madaket_XP001\New_Payer_ValidData.cs"
							codeline="97"
							itemindex="5"
							loglvl="Info">
						</metainfo>
					</item>
					<item
						timeRelativeToTestSuiteStartTime="00:43.635"
						timeRelativeToTestModuleStartTime="00:10.085"
						timeWallClock="16:36:44"
						time="00:43.635"
						level="Info"
						category="Mouse">
						<message>
							Mouse Left Click item 'MadaketHealth.PopupScrollContainer' at LowerRight.
						</message>
						<metainfo
							type="repoitem"
							path="/dom[@domain='edi-alpha.madakethealth.com']//div[#'editPayorPopup']/div[2]"
							itempath=".//div[#'editPayorPopup']/div[2]"
							fullname="madaket_XP001Repository.MadaketHealth.PopupScrollContainer"
							id="f53c44ed5bb14893839e2b7cdc4d3ef7"
							timeout="60000"
							codefile="c:\Users\JohnPloumis\Documents\Ranorex\RanorexStudio Projects\ranorex_testautomation\madaket_XP001\New_Payer_ValidData.cs"
							codeline="100"
							itemindex="6"
							loglvl="Info">
						</metainfo>
					</item>
					<item
						timeRelativeToTestSuiteStartTime="00:45.496"
						timeRelativeToTestModuleStartTime="00:11.946"
						timeWallClock="16:36:45"
						time="00:45.496"
						level="Info"
						category="Set value">
						<message>
							Setting attribute Value to '101 main street' on item 'MadaketHealth.TxtStreet1'.
						</message>
						<metainfo
							type="repoitem"
							path="/dom[@domain='edi-alpha.madakethealth.com']//input[#'txt_street1']"
							itempath=".//input[#'txt_street1']"
							fullname="madaket_XP001Repository.MadaketHealth.TxtStreet1"
							id="140f920df0e2418ca6177c3fcaa08df8"
							timeout="60000"
							codefile="c:\Users\JohnPloumis\Documents\Ranorex\RanorexStudio Projects\ranorex_testautomation\madaket_XP001\New_Payer_ValidData.cs"
							codeline="103"
							itemindex="7"
							loglvl="Info">
						</metainfo>
					</item>
					<item
						timeRelativeToTestSuiteStartTime="00:46.371"
						timeRelativeToTestModuleStartTime="00:12.822"
						timeWallClock="16:36:46"
						time="00:46.371"
						level="Info"
						category="Mouse">
						<message>
							Mouse Left Click item 'MadaketHealth.TxtCity' at 130;7.
						</message>
						<metainfo
							type="repoitem"
							path="/dom[@domain='edi-alpha.madakethealth.com']//input[#'txt_city']"
							itempath=".//input[#'txt_city']"
							fullname="madaket_XP001Repository.MadaketHealth.TxtCity"
							id="275ef8ae16904ae689a4001c02a10d08"
							timeout="60000"
							codefile="c:\Users\JohnPloumis\Documents\Ranorex\RanorexStudio Projects\ranorex_testautomation\madaket_XP001\New_Payer_ValidData.cs"
							codeline="106"
							itemindex="8"
							loglvl="Info">
						</metainfo>
					</item>
					<item
						timeRelativeToTestSuiteStartTime="00:48.412"
						timeRelativeToTestModuleStartTime="00:14.862"
						timeWallClock="16:36:48"
						time="00:48.412"
						level="Info"
						category="Set value">
						<message>
							Setting attribute Value to 'Boston' on item 'MadaketHealth.TxtCity'.
						</message>
						<metainfo
							type="repoitem"
							path="/dom[@domain='edi-alpha.madakethealth.com']//input[#'txt_city']"
							itempath=".//input[#'txt_city']"
							fullname="madaket_XP001Repository.MadaketHealth.TxtCity"
							id="275ef8ae16904ae689a4001c02a10d08"
							timeout="60000"
							codefile="c:\Users\JohnPloumis\Documents\Ranorex\RanorexStudio Projects\ranorex_testautomation\madaket_XP001\New_Payer_ValidData.cs"
							codeline="109"
							itemindex="9"
							loglvl="Info">
						</metainfo>
					</item>
					<item
						timeRelativeToTestSuiteStartTime="00:49.291"
						timeRelativeToTestModuleStartTime="00:15.741"
						timeWallClock="16:36:49"
						time="00:49.291"
						level="Info"
						category="Set value">
						<message>
							Setting attribute TagValue to 'MA' on item 'MadaketHealth.TxtState'.
						</message>
						<metainfo
							type="repoitem"
							path="/dom[@domain='edi-alpha.madakethealth.com']//select[#'txt_state']"
							itempath=".//select[#'txt_state']"
							fullname="madaket_XP001Repository.MadaketHealth.TxtState"
							id="ebe2033877a44d918170bb47fee05430"
							timeout="60000"
							codefile="c:\Users\JohnPloumis\Documents\Ranorex\RanorexStudio Projects\ranorex_testautomation\madaket_XP001\New_Payer_ValidData.cs"
							codeline="112"
							itemindex="10"
							loglvl="Info">
						</metainfo>
					</item>
					<item
						timeRelativeToTestSuiteStartTime="00:50.162"
						timeRelativeToTestModuleStartTime="00:16.613"
						timeWallClock="16:36:50"
						time="00:50.162"
						level="Info"
						category="Mouse">
						<message>
							Mouse Left Click item 'MadaketHealth.PopupScrollContainer' at LowerRight.
						</message>
						<metainfo
							type="repoitem"
							path="/dom[@domain='edi-alpha.madakethealth.com']//div[#'editPayorPopup']/div[2]"
							itempath=".//div[#'editPayorPopup']/div[2]"
							fullname="madaket_XP001Repository.MadaketHealth.PopupScrollContainer"
							id="f53c44ed5bb14893839e2b7cdc4d3ef7"
							timeout="60000"
							codefile="c:\Users\JohnPloumis\Documents\Ranorex\RanorexStudio Projects\ranorex_testautomation\madaket_XP001\New_Payer_ValidData.cs"
							codeline="115"
							itemindex="11"
							loglvl="Info">
						</metainfo>
					</item>
					<item
						timeRelativeToTestSuiteStartTime="00:52.078"
						timeRelativeToTestModuleStartTime="00:18.528"
						timeWallClock="16:36:52"
						time="00:52.078"
						level="Info"
						category="Mouse">
						<message>
							Mouse Left Click item 'MadaketHealth.FirstName' at 146;8.
						</message>
						<metainfo
							type="repoitem"
							path="/dom[@domain='edi-alpha.madakethealth.com']//input[#'firstName']"
							itempath=".//input[#'firstName']"
							fullname="madaket_XP001Repository.MadaketHealth.FirstName"
							id="d3da3f164ae640b5b1e62605679d50af"
							timeout="60000"
							codefile="c:\Users\JohnPloumis\Documents\Ranorex\RanorexStudio Projects\ranorex_testautomation\madaket_XP001\New_Payer_ValidData.cs"
							codeline="118"
							itemindex="12"
							loglvl="Info">
						</metainfo>
					</item>
					<item
						timeRelativeToTestSuiteStartTime="00:54.327"
						timeRelativeToTestModuleStartTime="00:20.777"
						timeWallClock="16:36:54"
						time="00:54.327"
						level="Info"
						category="Keyboard">
						<message>
							Key sequence 'test{Tab}payer' with focus on 'MadaketHealth.FirstName'.
						</message>
						<metainfo
							type="repoitem"
							path="/dom[@domain='edi-alpha.madakethealth.com']//input[#'firstName']"
							itempath=".//input[#'firstName']"
							fullname="madaket_XP001Repository.MadaketHealth.FirstName"
							id="d3da3f164ae640b5b1e62605679d50af"
							timeout="60000"
							codefile="c:\Users\JohnPloumis\Documents\Ranorex\RanorexStudio Projects\ranorex_testautomation\madaket_XP001\New_Payer_ValidData.cs"
							codeline="121"
							itemindex="13"
							loglvl="Info">
						</metainfo>
					</item>
					<item
						timeRelativeToTestSuiteStartTime="00:56.730"
						timeRelativeToTestModuleStartTime="00:23.180"
						timeWallClock="16:36:57"
						time="00:56.730"
						level="Info"
						category="Keyboard">
						<message>
							Key sequence '{Tab}'.
						</message>
						<metainfo
							itemindex="14"
							codefile="c:\Users\JohnPloumis\Documents\Ranorex\RanorexStudio Projects\ranorex_testautomation\madaket_XP001\New_Payer_ValidData.cs"
							codeline="124"
							loglvl="Info">
						</metainfo>
					</item>
					<item
						timeRelativeToTestSuiteStartTime="00:56.913"
						timeRelativeToTestModuleStartTime="00:23.364"
						timeWallClock="16:36:57"
						time="00:56.913"
						level="Info"
						category="Keyboard">
						<message>
							Key sequence 'test.payer{LShiftKey down}{@ down}{LShiftKey up}payer.com'.
						</message>
						<metainfo
							itemindex="15"
							codefile="c:\Users\JohnPloumis\Documents\Ranorex\RanorexStudio Projects\ranorex_testautomation\madaket_XP001\New_Payer_ValidData.cs"
							codeline="127"
							loglvl="Info">
						</metainfo>
					</item>
					<item
						timeRelativeToTestSuiteStartTime="00:57.578"
						timeRelativeToTestModuleStartTime="00:24.028"
						timeWallClock="16:36:57"
						time="00:57.578"
						level="Info"
						category="Mouse">
						<message>
							Mouse Left Click item 'MadaketHealth.btnSavePayor' at 50;9.
						</message>
						<metainfo
							type="repoitem"
							path="/dom[@domain='edi-alpha.madakethealth.com']//button[#'savePayorButton']"
							itempath=".//button[#'savePayorButton']"
							fullname="madaket_XP001Repository.MadaketHealth.btnSavePayor"
							id="ab96c6bd2749404d82d6f94d5830ab20"
							timeout="60000"
							codefile="c:\Users\JohnPloumis\Documents\Ranorex\RanorexStudio Projects\ranorex_testautomation\madaket_XP001\New_Payer_ValidData.cs"
							codeline="130"
							itemindex="16"
							loglvl="Info">
						</metainfo>
					</item>
					<item
						timeRelativeToTestSuiteStartTime="00:59.847"
						timeRelativeToTestModuleStartTime="00:26.298"
						timeWallClock="16:37:00"
						time="00:59.847"
						level="Info"
						category="Mouse">
						<message>
							Mouse Left Click item 'MadaketHealth.PayerGeneralDetailsDiv.DivTagTestPayerAutomationXP0' at 96;9.
						</message>
						<metainfo
							type="repoitem"
							path="/dom[@domain='edi-alpha.madakethealth.com']//div[#'payerGeneralDetailsDiv']//div[@innertext~'^test_payer_autom']"
							itempath=".//div[@innertext~'^test_payer_autom']"
							fullname="madaket_XP001Repository.MadaketHealth.PayerGeneralDetailsDiv.DivTagTestPayerAutomationXP0"
							id="0e44183f677548639bb83854085d8ec1"
							timeout="90000"
							codefile="c:\Users\JohnPloumis\Documents\Ranorex\RanorexStudio Projects\ranorex_testautomation\madaket_XP001\New_Payer_ValidData.cs"
							codeline="133"
							itemindex="17"
							loglvl="Info">
						</metainfo>
					</item>
					<item
						timeRelativeToTestSuiteStartTime="01:03.194"
						timeRelativeToTestModuleStartTime="00:29.644"
						timeWallClock="16:37:03"
						time="01:03.194"
						level="Info"
						category="Mouse">
						<message>
							Mouse Left Click item 'MadaketHealth.PayerGeneralDetailsDiv.PayerName' at Center.
						</message>
						<metainfo
							type="repoitem"
							path="/dom[@domain='edi-alpha.madakethealth.com']//div[#'payerGeneralDetailsDiv']/div[2]/div[1]/?/?/strong[@innertext='Payer name:']"
							itempath="div[2]/div[1]/?/?/strong[@innertext='Payer name:']"
							fullname="madaket_XP001Repository.MadaketHealth.PayerGeneralDetailsDiv.PayerName"
							id="761d8abaef054dda9ba0c9e8b5cb4084"
							timeout="90000"
							codefile="c:\Users\JohnPloumis\Documents\Ranorex\RanorexStudio Projects\ranorex_testautomation\madaket_XP001\New_Payer_ValidData.cs"
							codeline="136"
							itemindex="18"
							loglvl="Info">
						</metainfo>
					</item>
					<item
						timeRelativeToTestSuiteStartTime="01:05.294"
						timeRelativeToTestModuleStartTime="00:31.744"
						timeWallClock="16:37:05"
						time="01:05.294"
						level="Info"
						category="Mouse">
						<message>
							Mouse Left Click item 'MadaketHealth.PayerGeneralDetailsDiv.Address' at Center.
						</message>
						<metainfo
							type="repoitem"
							path="/dom[@domain='edi-alpha.madakethealth.com']//div[#'payerGeneralDetailsDiv']/div[2]/div[7]/?/?/span[@innertext='Address:']"
							itempath="div[2]/div[7]/?/?/span[@innertext='Address:']"
							fullname="madaket_XP001Repository.MadaketHealth.PayerGeneralDetailsDiv.Address"
							id="14645446fd584bf2a276b1938a1712e1"
							timeout="90000"
							codefile="c:\Users\JohnPloumis\Documents\Ranorex\RanorexStudio Projects\ranorex_testautomation\madaket_XP001\New_Payer_ValidData.cs"
							codeline="139"
							itemindex="19"
							loglvl="Info">
						</metainfo>
					</item>
					<item
						timeRelativeToTestSuiteStartTime="01:07.532"
						timeRelativeToTestModuleStartTime="00:33.983"
						timeWallClock="16:37:07"
						time="01:07.532"
						level="Info"
						category="Mouse">
						<message>
							Mouse Left Click item 'MadaketHealth.PayerGeneralDetailsDiv.DivTag101MainStreetW' at 35;17.
						</message>
						<metainfo
							type="repoitem"
							path="/dom[@domain='edi-alpha.madakethealth.com']//div[#'payerGeneralDetailsDiv']//div[@innertext~'^101\ main\ street']"
							itempath=".//div[@innertext~'^101\ main\ street']"
							fullname="madaket_XP001Repository.MadaketHealth.PayerGeneralDetailsDiv.DivTag101MainStreetW"
							id="6c7e3dd9a6004299ba43a1310c11a174"
							timeout="90000"
							codefile="c:\Users\JohnPloumis\Documents\Ranorex\RanorexStudio Projects\ranorex_testautomation\madaket_XP001\New_Payer_ValidData.cs"
							codeline="142"
							itemindex="20"
							loglvl="Info">
						</metainfo>
					</item>
					<item
						timeRelativeToTestSuiteStartTime="01:09.644"
						timeRelativeToTestModuleStartTime="00:36.094"
						timeWallClock="16:37:10"
						time="01:09.644"
						level="Info"
						category="Mouse">
						<message>
							Mouse Left Click item 'MadaketHealth.PayerGeneralDetailsDiv.Contact' at 32;5.
						</message>
						<metainfo
							type="repoitem"
							path="/dom[@domain='edi-alpha.madakethealth.com']//div[#'payerGeneralDetailsDiv']/div[2]/div[8]/?/?/span[@innertext='Contact:']"
							itempath="div[2]/div[8]/?/?/span[@innertext='Contact:']"
							fullname="madaket_XP001Repository.MadaketHealth.PayerGeneralDetailsDiv.Contact"
							id="f417a5fe94464a708c34508abc60a181"
							timeout="90000"
							codefile="c:\Users\JohnPloumis\Documents\Ranorex\RanorexStudio Projects\ranorex_testautomation\madaket_XP001\New_Payer_ValidData.cs"
							codeline="145"
							itemindex="21"
							loglvl="Info">
						</metainfo>
					</item>
					<item
						timeRelativeToTestSuiteStartTime="01:11.561"
						timeRelativeToTestModuleStartTime="00:38.011"
						timeWallClock="16:37:11"
						time="01:11.561"
						level="Info"
						category="Mouse">
						<message>
							Mouse Left Click item 'MadaketHealth.PayerGeneralDetailsDiv.DivTagTestPayerAtpayerCom' at 59;6.
						</message>
						<metainfo
							type="repoitem"
							path="/dom[@domain='edi-alpha.madakethealth.com']//div[#'payerGeneralDetailsDiv']//div[@innertext~'^test\.payer@payer']"
							itempath=".//div[@innertext~'^test\.payer@payer']"
							fullname="madaket_XP001Repository.MadaketHealth.PayerGeneralDetailsDiv.DivTagTestPayerAtpayerCom"
							id="54203ec5caae40ada0580344cddf82e5"
							timeout="90000"
							codefile="c:\Users\JohnPloumis\Documents\Ranorex\RanorexStudio Projects\ranorex_testautomation\madaket_XP001\New_Payer_ValidData.cs"
							codeline="148"
							itemindex="22"
							loglvl="Info">
						</metainfo>
					</item>
				</activity>
				<activity
					result="Success"
					duration="26.34s"
					durationms="26341"
					type="test-module"
					rid="11c02549a967a110"
					totalerrorcount="0"
					totalwarningcount="0"
					totalsuccesstestcasecount="0"
					totalfailedtestcasecount="0"
					totalblockedtestcasecount="0"
					childsuccesscount="0"
					childfailedcount="0"
					childblockedcount="0"
					totalsuccesscount="0"
					totalfailedcount="0"
					totalblockedcount="0"
					totalmaintenancemodecount="0"
					modulename="New_Member_ValidData"
					displayName="New_Member_ValidData"
					moduleid="a47e2d01-2974-4ebd-bf23-f753f84173e0"
					moduletype="Recording"
					iteration="1"
					activity-exectype="execute"
					testentry-activity-type="testmodule">
					<detail>
						MH-2218
					</detail>
					<varbindings>
					</varbindings>
					<item
						timeRelativeToTestSuiteStartTime="01:13.712"
						timeRelativeToTestModuleStartTime="00:00.010"
						timeWallClock="16:37:14"
						time="01:13.712"
						level="Info"
						category="Mouse">
						<message>
							Mouse Left Click item 'MadaketHealth.DivTagPayers1' at Center.
						</message>
						<metainfo
							type="repoitem"
							path="/dom[@domain='edi-alpha.madakethealth.com']//nav[#'mainNav']/ul//div[@innertext='Payers']"
							itempath=".//nav[#'mainNav']/ul//div[@innertext='Payers']"
							fullname="madaket_XP001Repository.MadaketHealth.DivTagPayers1"
							id="882caf034620419eb20e7528d0d3fd71"
							timeout="60000"
							codefile="c:\Users\JohnPloumis\Documents\Ranorex\RanorexStudio Projects\ranorex_testautomation\madaket_XP001\New_Member_ValidData.cs"
							codeline="82"
							itemindex="0"
							loglvl="Info">
						</metainfo>
					</item>
					<item
						timeRelativeToTestSuiteStartTime="01:15.643"
						timeRelativeToTestModuleStartTime="00:01.941"
						timeWallClock="16:37:16"
						time="01:15.643"
						level="Info"
						category="Set value">
						<message>
							Setting attribute Value to 'automation' on item 'MadaketHealth.PayorSearch'.
						</message>
						<metainfo
							type="repoitem"
							path="/dom[@domain='edi-alpha.madakethealth.com']//input[#'payorSearch']"
							itempath=".//input[#'payorSearch']"
							fullname="madaket_XP001Repository.MadaketHealth.PayorSearch"
							id="0991bbba55cd4dc4828713fdfbd98b4a"
							timeout="60000"
							codefile="c:\Users\JohnPloumis\Documents\Ranorex\RanorexStudio Projects\ranorex_testautomation\madaket_XP001\New_Member_ValidData.cs"
							codeline="85"
							itemindex="1"
							loglvl="Info">
						</metainfo>
					</item>
					<item
						timeRelativeToTestSuiteStartTime="01:16.829"
						timeRelativeToTestModuleStartTime="00:03.128"
						timeWallClock="16:37:17"
						time="01:16.829"
						level="Info"
						category="Mouse">
						<message>
							Mouse Left Click item 'MadaketHealth.SearchSubmitIcon1' at 9;6.
						</message>
						<metainfo
							type="repoitem"
							path="/dom[@domain='edi-alpha.madakethealth.com']//button[#'payorSearchSubmit']/span"
							itempath=".//button[#'payorSearchSubmit']/span"
							fullname="madaket_XP001Repository.MadaketHealth.SearchSubmitIcon1"
							id="0ebc0be7093f498bb6027331d8d55b87"
							timeout="60000"
							codefile="c:\Users\JohnPloumis\Documents\Ranorex\RanorexStudio Projects\ranorex_testautomation\madaket_XP001\New_Member_ValidData.cs"
							codeline="88"
							itemindex="2"
							loglvl="Info">
						</metainfo>
					</item>
					<item
						timeRelativeToTestSuiteStartTime="01:18.693"
						timeRelativeToTestModuleStartTime="00:04.992"
						timeWallClock="16:37:19"
						time="01:18.693"
						level="Info"
						category="Invoke action">
						<message>
							Invoking Focus() on item 'MadaketHealth.ATagTestAutomation'.
						</message>
						<metainfo
							type="repoitem"
							path="/dom[@domain='edi-alpha.madakethealth.com']//div[#'payorListTable']/?/?/?/a[@innertext~'^test_payer_auto']"
							itempath=".//div[#'payorListTable']/?/?/?/a[@innertext~'^test_payer_auto']"
							fullname="madaket_XP001Repository.MadaketHealth.ATagTestAutomation"
							id="3d3e050e86ad45a0b6050a54b595755c"
							timeout="60000"
							codefile="c:\Users\JohnPloumis\Documents\Ranorex\RanorexStudio Projects\ranorex_testautomation\madaket_XP001\New_Member_ValidData.cs"
							codeline="91"
							itemindex="3"
							loglvl="Info">
						</metainfo>
					</item>
					<item
						timeRelativeToTestSuiteStartTime="01:19.897"
						timeRelativeToTestModuleStartTime="00:06.195"
						timeWallClock="16:37:20"
						time="01:19.897"
						level="Info"
						category="Mouse">
						<message>
							Mouse Left Click item 'MadaketHealth.ATagTestAutomation' at Center.
						</message>
						<metainfo
							type="repoitem"
							path="/dom[@domain='edi-alpha.madakethealth.com']//div[#'payorListTable']/?/?/?/a[@innertext~'^test_payer_auto']"
							itempath=".//div[#'payorListTable']/?/?/?/a[@innertext~'^test_payer_auto']"
							fullname="madaket_XP001Repository.MadaketHealth.ATagTestAutomation"
							id="3d3e050e86ad45a0b6050a54b595755c"
							timeout="60000"
							codefile="c:\Users\JohnPloumis\Documents\Ranorex\RanorexStudio Projects\ranorex_testautomation\madaket_XP001\New_Member_ValidData.cs"
							codeline="94"
							itemindex="4"
							loglvl="Info">
						</metainfo>
					</item>
					<item
						timeRelativeToTestSuiteStartTime="01:21.811"
						timeRelativeToTestModuleStartTime="00:08.109"
						timeWallClock="16:37:22"
						time="01:21.811"
						level="Info"
						category="Mouse">
						<message>
							Mouse Left Click item 'MadaketHealth.Members' at Center.
						</message>
						<metainfo
							type="repoitem"
							path="/dom[@domain='edi-alpha.madakethealth.com']//div[#'bodyContent']/?/?/ul/?/?/a[@innertext='Members']"
							itempath=".//div[#'bodyContent']/?/?/ul/?/?/a[@innertext='Members']"
							fullname="madaket_XP001Repository.MadaketHealth.Members"
							id="ced0afd7621342768b5fc8cafc1f82ed"
							timeout="60000"
							codefile="c:\Users\JohnPloumis\Documents\Ranorex\RanorexStudio Projects\ranorex_testautomation\madaket_XP001\New_Member_ValidData.cs"
							codeline="97"
							itemindex="5"
							loglvl="Info">
						</metainfo>
					</item>
					<item
						timeRelativeToTestSuiteStartTime="01:24.162"
						timeRelativeToTestModuleStartTime="00:10.461"
						timeWallClock="16:37:24"
						time="01:24.162"
						level="Info"
						category="Mouse">
						<message>
							Mouse Left Click item 'MadaketHealth.AddPayerMember' at Center.
						</message>
						<metainfo
							type="repoitem"
							path="/dom[@domain='edi-alpha.madakethealth.com']//a[#'addPayerMember']"
							itempath=".//a[#'addPayerMember']"
							fullname="madaket_XP001Repository.MadaketHealth.AddPayerMember"
							id="fff53ee5af2a450c9764be9ad66e8458"
							timeout="60000"
							codefile="c:\Users\JohnPloumis\Documents\Ranorex\RanorexStudio Projects\ranorex_testautomation\madaket_XP001\New_Member_ValidData.cs"
							codeline="100"
							itemindex="6"
							loglvl="Info">
						</metainfo>
					</item>
					<item
						timeRelativeToTestSuiteStartTime="01:26.511"
						timeRelativeToTestModuleStartTime="00:12.810"
						timeWallClock="16:37:26"
						time="01:26.511"
						level="Info"
						category="Mouse">
						<message>
							Mouse Left Click item 'MadaketHealth.FirstName' at 150;8.
						</message>
						<metainfo
							type="repoitem"
							path="/dom[@domain='edi-alpha.madakethealth.com']//input[#'firstName']"
							itempath=".//input[#'firstName']"
							fullname="madaket_XP001Repository.MadaketHealth.FirstName"
							id="d3da3f164ae640b5b1e62605679d50af"
							timeout="60000"
							codefile="c:\Users\JohnPloumis\Documents\Ranorex\RanorexStudio Projects\ranorex_testautomation\madaket_XP001\New_Member_ValidData.cs"
							codeline="103"
							itemindex="7"
							loglvl="Info">
						</metainfo>
					</item>
					<item
						timeRelativeToTestSuiteStartTime="01:28.543"
						timeRelativeToTestModuleStartTime="00:14.841"
						timeWallClock="16:37:28"
						time="01:28.543"
						level="Info"
						category="Set value">
						<message>
							Setting attribute Value to 'test' on item 'MadaketHealth.FirstName'.
						</message>
						<metainfo
							type="repoitem"
							path="/dom[@domain='edi-alpha.madakethealth.com']//input[#'firstName']"
							itempath=".//input[#'firstName']"
							fullname="madaket_XP001Repository.MadaketHealth.FirstName"
							id="d3da3f164ae640b5b1e62605679d50af"
							timeout="60000"
							codefile="c:\Users\JohnPloumis\Documents\Ranorex\RanorexStudio Projects\ranorex_testautomation\madaket_XP001\New_Member_ValidData.cs"
							codeline="106"
							itemindex="8"
							loglvl="Info">
						</metainfo>
					</item>
					<item
						timeRelativeToTestSuiteStartTime="01:29.291"
						timeRelativeToTestModuleStartTime="00:15.589"
						timeWallClock="16:37:29"
						time="01:29.291"
						level="Info"
						category="Mouse">
						<message>
							Mouse Left Click item 'MadaketHealth.LastName' at 120;10.
						</message>
						<metainfo
							type="repoitem"
							path="/dom[@domain='edi-alpha.madakethealth.com']//input[#'lastName']"
							itempath=".//input[#'lastName']"
							fullname="madaket_XP001Repository.MadaketHealth.LastName"
							id="056f64c786c145148a021603e6cc968d"
							timeout="60000"
							codefile="c:\Users\JohnPloumis\Documents\Ranorex\RanorexStudio Projects\ranorex_testautomation\madaket_XP001\New_Member_ValidData.cs"
							codeline="109"
							itemindex="9"
							loglvl="Info">
						</metainfo>
					</item>
					<item
						timeRelativeToTestSuiteStartTime="01:31.172"
						timeRelativeToTestModuleStartTime="00:17.470"
						timeWallClock="16:37:31"
						time="01:31.172"
						level="Info"
						category="Set value">
						<message>
							Setting attribute Value to 'member_XP001' on item 'MadaketHealth.LastName'.
						</message>
						<metainfo
							type="repoitem"
							path="/dom[@domain='edi-alpha.madakethealth.com']//input[#'lastName']"
							itempath=".//input[#'lastName']"
							fullname="madaket_XP001Repository.MadaketHealth.LastName"
							id="056f64c786c145148a021603e6cc968d"
							timeout="60000"
							codefile="c:\Users\JohnPloumis\Documents\Ranorex\RanorexStudio Projects\ranorex_testautomation\madaket_XP001\New_Member_ValidData.cs"
							codeline="112"
							itemindex="10"
							loglvl="Info">
						</metainfo>
					</item>
					<item
						timeRelativeToTestSuiteStartTime="01:31.953"
						timeRelativeToTestModuleStartTime="00:18.252"
						timeWallClock="16:37:32"
						time="01:31.953"
						level="Info"
						category="Mouse">
						<message>
							Mouse Left Click item 'MadaketHealth.Email' at 109;14.
						</message>
						<metainfo
							type="repoitem"
							path="/dom[@domain='edi-alpha.madakethealth.com']//?/?/?/?/?/input[@id='email']"
							itempath=".//?/?/?/?/?/input[@id='email']"
							fullname="madaket_XP001Repository.MadaketHealth.Email"
							id="a3920f5fc83e40948d79cf6097767a6c"
							timeout="60000"
							codefile="c:\Users\JohnPloumis\Documents\Ranorex\RanorexStudio Projects\ranorex_testautomation\madaket_XP001\New_Member_ValidData.cs"
							codeline="115"
							itemindex="11"
							loglvl="Info">
						</metainfo>
					</item>
					<item
						timeRelativeToTestSuiteStartTime="01:35.525"
						timeRelativeToTestModuleStartTime="00:21.823"
						timeWallClock="16:37:35"
						time="01:35.525"
						level="Info"
						category="Set value">
						<message>
							Setting attribute Value to 'jploumis+AARP@madakethealth.com' on item 'MadaketHealth.Email'.
						</message>
						<metainfo
							type="repoitem"
							path="/dom[@domain='edi-alpha.madakethealth.com']//?/?/?/?/?/input[@id='email']"
							itempath=".//?/?/?/?/?/input[@id='email']"
							fullname="madaket_XP001Repository.MadaketHealth.Email"
							id="a3920f5fc83e40948d79cf6097767a6c"
							timeout="60000"
							codefile="c:\Users\JohnPloumis\Documents\Ranorex\RanorexStudio Projects\ranorex_testautomation\madaket_XP001\New_Member_ValidData.cs"
							codeline="118"
							itemindex="12"
							loglvl="Info">
						</metainfo>
					</item>
					<item
						timeRelativeToTestSuiteStartTime="01:37.950"
						timeRelativeToTestModuleStartTime="00:24.248"
						timeWallClock="16:37:38"
						time="01:37.950"
						level="Info"
						category="Keyboard">
						<message>
							Key sequence '{Tab}5087441234'.
						</message>
						<metainfo
							itemindex="13"
							codefile="c:\Users\JohnPloumis\Documents\Ranorex\RanorexStudio Projects\ranorex_testautomation\madaket_XP001\New_Member_ValidData.cs"
							codeline="121"
							loglvl="Info">
						</metainfo>
					</item>
					<item
						timeRelativeToTestSuiteStartTime="01:38.367"
						timeRelativeToTestModuleStartTime="00:24.665"
						timeWallClock="16:37:38"
						time="01:38.367"
						level="Info"
						category="Mouse">
						<message>
							Mouse Left Click item 'MadaketHealth.AddUserButton' at Center.
						</message>
						<metainfo
							type="repoitem"
							path="/dom[@domain='edi-alpha.madakethealth.com']//button[#'addUserButton']"
							itempath=".//button[#'addUserButton']"
							fullname="madaket_XP001Repository.MadaketHealth.AddUserButton"
							id="a035618750954cc79784608172634160"
							timeout="60000"
							codefile="c:\Users\JohnPloumis\Documents\Ranorex\RanorexStudio Projects\ranorex_testautomation\madaket_XP001\New_Member_ValidData.cs"
							codeline="124"
							itemindex="14"
							loglvl="Info">
						</metainfo>
					</item>
				</activity>
				<activity
					result="Success"
					duration="21.27s"
					durationms="21271"
					type="test-module"
					rid="2f36c4f463c45c9d"
					totalerrorcount="0"
					totalwarningcount="0"
					totalsuccesstestcasecount="0"
					totalfailedtestcasecount="0"
					totalblockedtestcasecount="0"
					childsuccesscount="0"
					childfailedcount="0"
					childblockedcount="0"
					totalsuccesscount="0"
					totalfailedcount="0"
					totalblockedcount="0"
					totalmaintenancemodecount="0"
					modulename="New_MedicalGroup_NoData"
					displayName="New_MedicalGroup_NoData"
					moduleid="9cf3ca69-ddc6-4936-98f2-29f7ab633287"
					moduletype="Recording"
					iteration="1"
					activity-exectype="execute"
					testentry-activity-type="testmodule">
					<detail>
						MH-3658
					</detail>
					<varbindings>
					</varbindings>
					<item
						timeRelativeToTestSuiteStartTime="01:40.077"
						timeRelativeToTestModuleStartTime="00:00.007"
						timeWallClock="16:37:40"
						time="01:40.077"
						level="Info"
						category="Mouse">
						<message>
							Mouse Left Click item 'MadaketHealth.DivTagMedicalGroups' at 51;18.
						</message>
						<metainfo
							type="repoitem"
							path="/dom[@domain='edi-alpha.madakethealth.com']//nav[#'mainNav']/ul//div[@innertext~'^Medical\ Groups']"
							itempath=".//nav[#'mainNav']/ul//div[@innertext~'^Medical\ Groups']"
							fullname="madaket_XP001Repository.MadaketHealth.DivTagMedicalGroups"
							id="b009e8773a4e4780a7cf8148c07c9d21"
							timeout="60000"
							codefile="c:\Users\JohnPloumis\Documents\Ranorex\RanorexStudio Projects\ranorex_testautomation\madaket_XP001\New_MedicalGroup_NoData.cs"
							codeline="82"
							itemindex="0"
							loglvl="Info">
						</metainfo>
					</item>
					<item
						timeRelativeToTestSuiteStartTime="01:42.359"
						timeRelativeToTestModuleStartTime="00:02.289"
						timeWallClock="16:37:42"
						time="01:42.359"
						level="Info"
						category="Mouse">
						<message>
							Mouse Left Click item 'MadaketHealth.MedicalGroupClickNewFlow' at 67;8.
						</message>
						<metainfo
							type="repoitem"
							path="/dom[@domain='edi-alpha.madakethealth.com']//a[#'medicalGroupClickNewFlow']"
							itempath=".//a[#'medicalGroupClickNewFlow']"
							fullname="madaket_XP001Repository.MadaketHealth.MedicalGroupClickNewFlow"
							id="1f976bff0a704cffb4e06ee1e8772048"
							timeout="60000"
							codefile="c:\Users\JohnPloumis\Documents\Ranorex\RanorexStudio Projects\ranorex_testautomation\madaket_XP001\New_MedicalGroup_NoData.cs"
							codeline="85"
							itemindex="1"
							loglvl="Info">
						</metainfo>
					</item>
					<item
						timeRelativeToTestSuiteStartTime="01:45.309"
						timeRelativeToTestModuleStartTime="00:05.239"
						timeWallClock="16:37:45"
						time="01:45.309"
						level="Info"
						category="Mouse">
						<message>
							Mouse Left Click item 'MadaketHealth.PopupScrollContainer1' at LowerRight.
						</message>
						<metainfo
							type="repoitem"
							path="/dom[@domain='edi-alpha.madakethealth.com']//div[#'addMedicalGroupPopupContainer']/div[3]"
							itempath=".//div[#'addMedicalGroupPopupContainer']/div[3]"
							fullname="madaket_XP001Repository.MadaketHealth.PopupScrollContainer1"
							id="4475c1ec0c3e4350840c3462d5408ab0"
							timeout="60000"
							codefile="c:\Users\JohnPloumis\Documents\Ranorex\RanorexStudio Projects\ranorex_testautomation\madaket_XP001\New_MedicalGroup_NoData.cs"
							codeline="88"
							itemindex="2"
							loglvl="Info">
						</metainfo>
					</item>
					<item
						timeRelativeToTestSuiteStartTime="01:50.792"
						timeRelativeToTestModuleStartTime="00:10.722"
						timeWallClock="16:37:51"
						time="01:50.792"
						level="Info"
						category="Mouse">
						<message>
							Mouse Left Click item 'MadaketHealth.TabIndex0' at 49;7.
						</message>
						<metainfo
							type="repoitem"
							path="/dom[@domain='edi-alpha.madakethealth.com']//button[#'tabIndex0']"
							itempath=".//button[#'tabIndex0']"
							fullname="madaket_XP001Repository.MadaketHealth.TabIndex0"
							id="ede082c547ae4f43bf3d32d91be01dd8"
							timeout="60000"
							codefile="c:\Users\JohnPloumis\Documents\Ranorex\RanorexStudio Projects\ranorex_testautomation\madaket_XP001\New_MedicalGroup_NoData.cs"
							codeline="91"
							itemindex="3"
							loglvl="Info">
						</metainfo>
					</item>
					<item
						timeRelativeToTestSuiteStartTime="01:52.724"
						timeRelativeToTestModuleStartTime="00:12.654"
						timeWallClock="16:37:53"
						time="01:52.724"
						level="Info"
						category="Mouse">
						<message>
							Mouse Left Click item 'MadaketHealth.EnterAGroupName' at 85;8.
						</message>
						<metainfo
							type="repoitem"
							path="/dom[@domain='edi-alpha.madakethealth.com']//div[#'medicalGroupAddNewFlow']/div/div[1]/?/?/label[@innertext='Enter a Group Name']"
							itempath=".//div[#'medicalGroupAddNewFlow']/div/div[1]/?/?/label[@innertext='Enter a Group Name']"
							fullname="madaket_XP001Repository.MadaketHealth.EnterAGroupName"
							id="db41856ceaf94901958ce4b63ffa8673"
							timeout="60000"
							codefile="c:\Users\JohnPloumis\Documents\Ranorex\RanorexStudio Projects\ranorex_testautomation\madaket_XP001\New_MedicalGroup_NoData.cs"
							codeline="94"
							itemindex="4"
							loglvl="Info">
						</metainfo>
					</item>
					<item
						timeRelativeToTestSuiteStartTime="01:54.896"
						timeRelativeToTestModuleStartTime="00:14.826"
						timeWallClock="16:37:55"
						time="01:54.896"
						level="Info"
						category="Mouse">
						<message>
							Mouse Left Click item 'MadaketHealth.EnterASiteId' at 62;5.
						</message>
						<metainfo
							type="repoitem"
							path="/dom[@domain='edi-alpha.madakethealth.com']//div[#'partnerIdRow']/?/?/label[@innertext='Enter a Site Id']"
							itempath=".//div[#'partnerIdRow']/?/?/label[@innertext='Enter a Site Id']"
							fullname="madaket_XP001Repository.MadaketHealth.EnterASiteId"
							id="15bcacdcc5e7463b8ca37009f3a750a3"
							timeout="60000"
							codefile="c:\Users\JohnPloumis\Documents\Ranorex\RanorexStudio Projects\ranorex_testautomation\madaket_XP001\New_MedicalGroup_NoData.cs"
							codeline="97"
							itemindex="5"
							loglvl="Info">
						</metainfo>
					</item>
					<item
						timeRelativeToTestSuiteStartTime="01:57.224"
						timeRelativeToTestModuleStartTime="00:17.154"
						timeWallClock="16:37:57"
						time="01:57.224"
						level="Info"
						category="Mouse">
						<message>
							Mouse Left Click item 'MadaketHealth.EnterATIN' at Center.
						</message>
						<metainfo
							type="repoitem"
							path="/dom[@domain='edi-alpha.madakethealth.com']//label[#'tinError']/label[@innertext='Enter a TIN']"
							itempath=".//label[#'tinError']/label[@innertext='Enter a TIN']"
							fullname="madaket_XP001Repository.MadaketHealth.EnterATIN"
							id="91b98ef7369e4e07ab03d62c5add9a5c"
							timeout="60000"
							codefile="c:\Users\JohnPloumis\Documents\Ranorex\RanorexStudio Projects\ranorex_testautomation\madaket_XP001\New_MedicalGroup_NoData.cs"
							codeline="100"
							itemindex="6"
							loglvl="Info">
						</metainfo>
					</item>
					<item
						timeRelativeToTestSuiteStartTime="01:59.557"
						timeRelativeToTestModuleStartTime="00:19.487"
						timeWallClock="16:37:59"
						time="01:59.557"
						level="Info"
						category="Mouse">
						<message>
							Mouse Left Click item 'MadaketHealth.HttpsEdiAlphaMadakethealthComServ' at 22;17.
						</message>
						<metainfo
							type="repoitem"
							path="/dom[@domain='edi-alpha.madakethealth.com']//div[#'addMedicalGroupPopupContainer']/a[@href~'^https://edi-alpha\.madaket']"
							itempath=".//div[#'addMedicalGroupPopupContainer']/a[@href~'^https://edi-alpha\.madaket']"
							fullname="madaket_XP001Repository.MadaketHealth.HttpsEdiAlphaMadakethealthComServ"
							id="fa8f43607af64a2a8b0603537312fa25"
							timeout="60000"
							codefile="c:\Users\JohnPloumis\Documents\Ranorex\RanorexStudio Projects\ranorex_testautomation\madaket_XP001\New_MedicalGroup_NoData.cs"
							codeline="103"
							itemindex="7"
							loglvl="Info">
						</metainfo>
					</item>
				</activity>
				<activity
					result="Failed"
					duration="2.4m"
					durationms="146772"
					type="test-module"
					rid="1a69ae99cc0db4f0"
					totalerrorcount="1"
					totalwarningcount="1"
					totalsuccesstestcasecount="0"
					totalfailedtestcasecount="0"
					totalblockedtestcasecount="0"
					childsuccesscount="0"
					childfailedcount="0"
					childblockedcount="0"
					totalsuccesscount="0"
					totalfailedcount="0"
					totalblockedcount="0"
					totalmaintenancemodecount="0"
					modulename="Four_New_Plans_Confirm_Deleted"
					displayName="Four_New_Plans_Confirm_Deleted"
					moduleid="632b8289-87d0-4ae4-9694-7b129b96df45"
					moduletype="Recording"
					iteration="1"
					activity-exectype="execute"
					testentry-activity-type="testmodule">
					<detail>
						general qa cleanup
					</detail>
					<errormessage>
						Failed to find item 'madaket_XP001Repository.NewGroupAddress.PlanList.NoDataAvailableInTable'.
					</errormessage>
					<varbindings>
					</varbindings>
					<item
						timeRelativeToTestSuiteStartTime="02:01.350"
						timeRelativeToTestModuleStartTime="00:00.004"
						timeWallClock="16:38:01"
						time="02:01.350"
						level="Info"
						category="Mouse">
						<message>
							Mouse Left Click item 'MadaketHealth.Filter' at 5;3.
						</message>
						<metainfo
							type="repoitem"
							path="/dom[@domain='edi-alpha.madakethealth.com']//img[#'filter']"
							itempath=".//img[#'filter']"
							fullname="madaket_XP001Repository.MadaketHealth.Filter"
							id="89684a8217f44f6ea2a119f297b3b683"
							timeout="60000"
							codefile="c:\Users\JohnPloumis\Documents\Ranorex\RanorexStudio Projects\ranorex_testautomation\madaket_XP001\Four_New_Plans_Confirm_Deleted.cs"
							codeline="82"
							itemindex="0"
							loglvl="Info">
						</metainfo>
					</item>
					<item
						timeRelativeToTestSuiteStartTime="02:07.126"
						timeRelativeToTestModuleStartTime="00:05.780"
						timeWallClock="16:38:07"
						time="02:07.126"
						level="Info"
						category="Mouse">
						<message>
							Mouse Left Click item 'NewGroupAddress.ClearFilterButton' at 25;10.
						</message>
						<metainfo
							type="repoitem"
							path="/dom[@domain='edi-alpha.madakethealth.com']//button[#'clearFilterButton']"
							itempath=".//button[#'clearFilterButton']"
							fullname="madaket_XP001Repository.NewGroupAddress.ClearFilterButton"
							id="0471f98694fe462e9f538d35c05f73c1"
							timeout="60000"
							codefile="c:\Users\JohnPloumis\Documents\Ranorex\RanorexStudio Projects\ranorex_testautomation\madaket_XP001\Four_New_Plans_Confirm_Deleted.cs"
							codeline="86"
							itemindex="1"
							loglvl="Info">
						</metainfo>
					</item>
					<item
						timeRelativeToTestSuiteStartTime="02:09.594"
						timeRelativeToTestModuleStartTime="00:08.248"
						timeWallClock="16:38:09"
						time="02:09.594"
						level="Info"
						category="Mouse">
						<message>
							Mouse Left Click item 'MadaketHealth.ConditionFilterValue' at 68;7.
						</message>
						<metainfo
							type="repoitem"
							path="/dom[@domain='edi-alpha.madakethealth.com']//input[#'conditionFilterValue']"
							itempath=".//input[#'conditionFilterValue']"
							fullname="madaket_XP001Repository.MadaketHealth.ConditionFilterValue"
							id="2487d95f5ad3474db869f84740003a53"
							timeout="60000"
							codefile="c:\Users\JohnPloumis\Documents\Ranorex\RanorexStudio Projects\ranorex_testautomation\madaket_XP001\Four_New_Plans_Confirm_Deleted.cs"
							codeline="90"
							itemindex="2"
							loglvl="Info">
						</metainfo>
					</item>
					<item
						timeRelativeToTestSuiteStartTime="02:10.483"
						timeRelativeToTestModuleStartTime="00:09.137"
						timeWallClock="16:38:10"
						time="02:10.483"
						level="Warn"
						category="Click">
						<message>
							The mouse action was performed outside the boundaries of the assigned UI element.<br/>(null)
						</message>
						<metainfo
							codefile="c:\Users\JohnPloumis\Documents\Ranorex\RanorexStudio Projects\ranorex_testautomation\madaket_XP001\Four_New_Plans_Confirm_Deleted.cs"
							codeline="91"
							loglvl="Warn">
						</metainfo>
					</item>
					<item
						timeRelativeToTestSuiteStartTime="02:12.140"
						timeRelativeToTestModuleStartTime="00:10.794"
						timeWallClock="16:38:12"
						time="02:12.140"
						level="Info"
						category="Keyboard">
						<message>
							Key sequence 'test plan - automation' with focus on 'MadaketHealth.ConditionFilterValue'.
						</message>
						<metainfo
							type="repoitem"
							path="/dom[@domain='edi-alpha.madakethealth.com']//input[#'conditionFilterValue']"
							itempath=".//input[#'conditionFilterValue']"
							fullname="madaket_XP001Repository.MadaketHealth.ConditionFilterValue"
							id="2487d95f5ad3474db869f84740003a53"
							timeout="60000"
							codefile="c:\Users\JohnPloumis\Documents\Ranorex\RanorexStudio Projects\ranorex_testautomation\madaket_XP001\Four_New_Plans_Confirm_Deleted.cs"
							codeline="94"
							itemindex="3"
							loglvl="Info">
						</metainfo>
					</item>
					<item
						timeRelativeToTestSuiteStartTime="02:54.688"
						timeRelativeToTestModuleStartTime="00:53.342"
						timeWallClock="16:38:55"
						time="02:54.688"
						level="Info"
						category="Mouse"
						errimg="images_madaket__7905e336\madaket__7905e336_4e3b484a_trace.jpg"
						errthumb="images_madaket__7905e336\madaket__7905e336_4e3b484a_trace_thumb.jpg">
						<message>
							Mouse Left Click item 'MadaketHealth.ApplyFilterButton' at 35;9.
						</message>
						<metainfo
							type="repoitem"
							path="/dom[@domain='edi-alpha.madakethealth.com']//button[#'applyFilterButton']"
							itempath=".//button[#'applyFilterButton']"
							fullname="madaket_XP001Repository.MadaketHealth.ApplyFilterButton"
							id="63d9436950b14096aba94e0e10c4a6e4"
							timeout="60000"
							codefile="c:\Users\JohnPloumis\Documents\Ranorex\RanorexStudio Projects\ranorex_testautomation\madaket_XP001\Four_New_Plans_Confirm_Deleted.cs"
							codeline="98"
							itemindex="4"
							loglvl="Info">
						</metainfo>
					</item>
					<item
						timeRelativeToTestSuiteStartTime="02:56.903"
						timeRelativeToTestModuleStartTime="00:55.557"
						timeWallClock="16:38:57"
						time="02:56.903"
						level="Info"
						category="Mouse"
						errimg="images_madaket__7905e336\madaket__7905e336_5c43833c_trace.jpg"
						errthumb="images_madaket__7905e336\madaket__7905e336_5c43833c_trace_thumb.jpg">
						<message>
							Mouse Left Click item 'NewGroupAddress.PlanList.NoDataAvailableInTable' at 633;15.
						</message>
						<metainfo
							type="repoitem"
							path="/dom[@domain='edi-alpha.madakethealth.com']//table[#'planList']//td[@innertext~'^No\ data\ available\ in\ tabl']"
							itempath=".//td[@innertext~'^No\ data\ available\ in\ tabl']"
							fullname="madaket_XP001Repository.NewGroupAddress.PlanList.NoDataAvailableInTable"
							id="9e15740f0663402a8f42e473bdb43d68"
							timeout="90000"
							codefile="c:\Users\JohnPloumis\Documents\Ranorex\RanorexStudio Projects\ranorex_testautomation\madaket_XP001\Four_New_Plans_Confirm_Deleted.cs"
							codeline="102"
							itemindex="5"
							loglvl="Info">
						</metainfo>
					</item>
					<item
						timeRelativeToTestSuiteStartTime="04:27.929"
						timeRelativeToTestModuleStartTime="02:26.582"
						timeWallClock="16:40:28"
						time="04:27.929"
						level="Error"
						category="Module"
						errimg="images_madaket__7905e336\madaket__7905e336_eaa10b7f_trace.jpg"
						errthumb="images_madaket__7905e336\madaket__7905e336_eaa10b7f_trace_thumb.jpg">
						<message>
							Failed to find item 'madaket_XP001Repository.NewGroupAddress.PlanList.NoDataAvailableInTable'.<br/>No element found for path '/dom[@domain='edi-alpha.madakethealth.com']//table[#'planList']//td[@innertext~'^No\ data\ available\ in\ tabl']' within 1.5m.
						</message>
						<metainfo
							stacktrace="   at Ranorex.Core.Repository.RepoItemInfo.FindInternal[T](Boolean findSingle, Boolean throwException, Duration effectiveTimeoutOverride)&#13;&#10;   at Ranorex.Core.Repository.RepoItemInfo.&lt;>c__DisplayClass75_0`1.&lt;Find>b__0()&#13;&#10;   at Ranorex.Core.Testing.Services.NoMaintenanceModeService.HandleElementNotFound[T](Func`1 action, RepoItemInfo entry)&#13;&#10;   at Ranorex.Core.Repository.RepoItemInfo.Find[T](Boolean findSingle, Boolean throwException, Duration effectiveTimeoutOverride)&#13;&#10;   at Ranorex.Core.Repository.RepoItemInfo.CreateAdapter[T](Boolean throwException, Duration waitTimeout)&#13;&#10;   at Ranorex.Core.Repository.RepoItemInfo.CreateAdapter[T](Boolean throwException)&#13;&#10;   at madaket_XP001.madaket_XP001RepositoryFolders.PlanListFolder.get_NoDataAvailableInTable() in c:\Users\JohnPloumis\Documents\Ranorex\RanorexStudio Projects\ranorex_testautomation\madaket_XP001\madaket_XP001Repository.cs:line 9621&#13;&#10;   at madaket_XP001.Four_New_Plans_Confirm_Deleted.Ranorex.Core.Testing.ITestModule.Run() in c:\Users\JohnPloumis\Documents\Ranorex\RanorexStudio Projects\ranorex_testautomation\madaket_XP001\Four_New_Plans_Confirm_Deleted.cs:line 103&#13;&#10;   at Ranorex.Core.Testing.TestModuleLeaf.RunInternal(DataContext parentDataContext, Int32 iteration, Int32 iterationCount, Boolean skipIteration)"
							codefile="c:\Users\JohnPloumis\Documents\Ranorex\RanorexStudio Projects\ranorex_testautomation\madaket_XP001\Four_New_Plans_Confirm_Deleted.cs"
							codeline="103"
							type="repoitem"
							path="/dom[@domain='edi-alpha.madakethealth.com']//table[#'planList']//td[@innertext~'^No\ data\ available\ in\ tabl']"
							itempath=".//td[@innertext~'^No\ data\ available\ in\ tabl']"
							fullname="madaket_XP001Repository.NewGroupAddress.PlanList.NoDataAvailableInTable"
							id="9e15740f0663402a8f42e473bdb43d68"
							timeout="90000"
							loglvl="Error"
							itemindex="5">
						</metainfo>
					</item>
				</activity>
			</activity>
		</activity>
	</activity>
</report>
