﻿<?xml version="1.0" encoding="utf-8"?>
<report
	progress="">
	<activity
		result="Failed"
		duration="0ms"
		durationms="0"
		type="root"
		rid="a365ac4dd265cd5"
		totalerrorcount="1"
		totalwarningcount="0"
		totalsuccesstestcasecount="0"
		totalfailedtestcasecount="0"
		totalblockedtestcasecount="0"
		childsuccesscount="0"
		childfailedcount="0"
		childblockedcount="0"
		totalsuccesscount="0"
		totalfailedcount="0"
		totalblockedcount="0"
		totalmaintenancemodecount="0"
		user="JohnPloumis"
		rxversion="8.3.1.0"
		host="LAPTOP-5EO8DNU1"
		osversion="Windows 10 64bit"
		runtimeversion="4.0.30319.42000"
		procarch="32bit"
		oslanguage="en-US"
		dtnlanguage="en-US"
		screenresolution="1366x768"
		timestamp="11/26/2018 3:17:32 PM"
		timestampiso="2018-11-26T20:17:32"
		endtime="11/26/2018 3:17:46 PM"
		timeoutfactor="1"
		module="Madaket_login">
		<detail>
			Madaket_login
		</detail>
		<errormessage>
			Setting attribute 'Value' failed on element '{List:groupItems}'.
		</errormessage>
		<varbindings>
		</varbindings>
		<item
			timeRelativeToTestSuiteStartTime="00:05.204"
			timeRelativeToTestModuleStartTime="00:05.213"
			timeWallClock="15:17:37"
			time="00:05.204"
			level="Info"
			category="Website"
			errimg=".\Madaket__3cd3cfc5_0bd35953_trace.jpg"
			errthumb=".\Madaket__3cd3cfc5_0bd35953_trace_thumb.jpg">
			<message>
				Opening web site 'https://edi-alpha.madakethealth.com/services/logout' with browser 'Chrome' in maximized mode.
			</message>
			<metainfo
				itemindex="0"
				codefile="c:\Users\JohnPloumis\Documents\Ranorex\RanorexStudio Projects\ranorex_testautomation\madaket_XP001\Madaket_login.cs"
				codeline="82"
				loglvl="Info">
			</metainfo>
		</item>
		<item
			timeRelativeToTestSuiteStartTime="00:05.575"
			timeRelativeToTestModuleStartTime="00:05.584"
			timeWallClock="15:17:37"
			time="00:05.575"
			level="Info"
			category="Set value"
			errimg=".\Madaket__3cd3cfc5_54e9fa10_trace.jpg"
			errthumb=".\Madaket__3cd3cfc5_54e9fa10_trace_thumb.jpg">
			<message>
				Setting attribute Value to 'jploumis@madakethealth.com' on item 'Start.user'.
			</message>
			<metainfo
				type="repoitem"
				path="/winapp[@appid='App' and @name='Start']/?/?/list[@automationid='groupItems']"
				itempath="?/?/list[@automationid='groupItems']"
				fullname="madaket_XP001Repository.Start.user"
				id="cc98c1e373ec43c588fdfb730fc3d325"
				timeout="60000"
				codefile="c:\Users\JohnPloumis\Documents\Ranorex\RanorexStudio Projects\ranorex_testautomation\madaket_XP001\Madaket_login.cs"
				codeline="89"
				itemindex="3"
				loglvl="Info">
			</metainfo>
		</item>
		<item
			timeRelativeToTestSuiteStartTime="00:13.941"
			timeRelativeToTestModuleStartTime="00:13.950"
			timeWallClock="15:17:46"
			time="00:13.941"
			level="Error"
			category="Module"
			errimg=".\Madaket__3cd3cfc5_c66937b1_trace.jpg"
			errthumb=".\Madaket__3cd3cfc5_c66937b1_trace_thumb.jpg">
			<message>
				Setting attribute 'Value' failed on element '{List:groupItems}'.<br/>The operation is not supported.
			</message>
			<metainfo
				stacktrace="   at Ranorex.Core.Element.SetAttributeValue(String name, Object value)
   at Ranorex.Core.Element.SetAttributeValue(String name, String value)
   at madaket_XP001.Madaket_login.Ranorex.Core.Testing.ITestModule.Run() in c:\Users\JohnPloumis\Documents\Ranorex\RanorexStudio Projects\ranorex_testautomation\madaket_XP001\Madaket_login.cs:line 90
   at Ranorex.Core.Testing.TestModuleLeaf.RunInternal(DataContext parentDataContext, Int32 iteration, Int32 iterationCount, Boolean skipIteration)"
				codefile="c:\Users\JohnPloumis\Documents\Ranorex\RanorexStudio Projects\ranorex_testautomation\madaket_XP001\Madaket_login.cs"
				codeline="90"
				loglvl="Error"
				itemindex="3">
			</metainfo>
		</item>
	</activity>
</report>
