﻿<?xml version="1.0" encoding="utf-8"?>
<report
	progress="">
	<activity
		result="Failed"
		duration="1.8m"
		durationms="108680"
		type="root"
		rid="19741ebb43b367d0"
		totalerrorcount="1"
		totalwarningcount="7"
		totalsuccesstestcasecount="0"
		totalfailedtestcasecount="1"
		totalblockedtestcasecount="0"
		childsuccesscount="0"
		childfailedcount="1"
		childblockedcount="0"
		totalsuccesscount="0"
		totalfailedcount="1"
		totalblockedcount="0"
		totalmaintenancemodecount="0"
		user="JohnPloumis"
		rxversion="8.2.1.0"
		host="LAPTOP-5EO8DNU1"
		osversion="Windows 10 64bit"
		runtimeversion="4.0.30319.42000"
		procarch="32bit"
		oslanguage="en-US"
		dtnlanguage="en-US"
		screenresolution="1366x768"
		timestamp="10/16/2018 1:40:28 PM"
		timestampiso="2018-10-16T17:40:28"
		endtime="10/16/2018 1:42:17 PM"
		timeoutfactor="1">
		<detail>
			Ranorex Testscript
		</detail>
		<activity
			result="Failed"
			duration="1.8m"
			durationms="108667"
			type="test-suite"
			rid="17cdabf59fb68340"
			totalerrorcount="1"
			totalwarningcount="7"
			totalsuccesstestcasecount="0"
			totalfailedtestcasecount="1"
			totalblockedtestcasecount="0"
			childsuccesscount="0"
			childfailedcount="1"
			childblockedcount="0"
			totalsuccesscount="0"
			totalfailedcount="1"
			totalblockedcount="0"
			totalmaintenancemodecount="0"
			testsuitename="madaket_XP001"
			headertext="madaket_XP001"
			runconfigname="TestRun"
			runlabel="">
			<params>
			</params>
			<activity
				result="Failed"
				duration="1.8m"
				durationms="108626"
				type="test-case"
				rid="ca6073284459149"
				totalerrorcount="1"
				totalwarningcount="7"
				totalsuccesstestcasecount="0"
				totalfailedtestcasecount="1"
				totalblockedtestcasecount="0"
				childsuccesscount="6"
				childfailedcount="1"
				childblockedcount="0"
				totalsuccesscount="0"
				totalfailedcount="1"
				totalblockedcount="0"
				totalmaintenancemodecount="0"
				testcontainername="Madaket_XP"
				testcontainerid="2b1c309f-44ad-4542-9e87-47b21dcdd499"
				headertext="Madaket_XP"
				displayName="Madaket_XP"
				iteration="1"
				activity-exectype="execute"
				conditionstate="none">
				<activity
					result="Success"
					duration="6.78s"
					durationms="6775"
					type="test-module"
					rid="230d91a5c9848fed"
					totalerrorcount="0"
					totalwarningcount="0"
					totalsuccesstestcasecount="0"
					totalfailedtestcasecount="0"
					totalblockedtestcasecount="0"
					childsuccesscount="0"
					childfailedcount="0"
					childblockedcount="0"
					totalsuccesscount="0"
					totalfailedcount="0"
					totalblockedcount="0"
					totalmaintenancemodecount="0"
					modulename="Madaket_login"
					displayName="Madaket_login"
					moduleid="7047a381-6113-4a38-ab95-4ef2d01b9d0f"
					moduletype="Recording"
					iteration="1"
					activity-exectype="execute"
					testentry-activity-type="testmodule">
					<detail>
						general qa
					</detail>
					<varbindings>
					</varbindings>
					<item
						timeRelativeToTestSuiteStartTime="00:00.529"
						timeRelativeToTestModuleStartTime="00:00.026"
						timeWallClock="13:40:29"
						time="00:00.529"
						level="Info"
						category="Website">
						<message>
							Opening web site 'https://edi-alpha.madakethealth.com/services/logout' with browser 'IE' in normal mode.
						</message>
						<metainfo
							itemindex="0"
							codefile="c:\Users\JohnPloumis\Documents\Ranorex\RanorexStudio Projects\madaket_XP001\madaket_XP001\Madaket_login.cs"
							codeline="82"
							loglvl="Info">
						</metainfo>
					</item>
					<item
						timeRelativeToTestSuiteStartTime="00:01.300"
						timeRelativeToTestModuleStartTime="00:00.796"
						timeWallClock="13:40:29"
						time="00:01.300"
						level="Info"
						category="Mouse">
						<message>
							Mouse Left Click item 'MadaketHealth.txtUsername' at 34;8.
						</message>
						<metainfo
							type="repoitem"
							path="/dom[@caption='Madaket Health']//input[#'username']"
							itempath=".//input[#'username']"
							fullname="madaket_XP001Repository.MadaketHealth.txtUsername"
							id="ad40a45ba47543068e211d52f3633bf0"
							timeout="60000"
							codefile="c:\Users\JohnPloumis\Documents\Ranorex\RanorexStudio Projects\madaket_XP001\madaket_XP001\Madaket_login.cs"
							codeline="85"
							itemindex="1"
							loglvl="Info">
						</metainfo>
					</item>
					<item
						timeRelativeToTestSuiteStartTime="00:05.560"
						timeRelativeToTestModuleStartTime="00:05.056"
						timeWallClock="13:40:34"
						time="00:05.560"
						level="Info"
						category="Set value">
						<message>
							Setting attribute Value to 'jploumis@madakethealth.com' on item 'MadaketHealth.txtUsername'.
						</message>
						<metainfo
							type="repoitem"
							path="/dom[@caption='Madaket Health']//input[#'username']"
							itempath=".//input[#'username']"
							fullname="madaket_XP001Repository.MadaketHealth.txtUsername"
							id="ad40a45ba47543068e211d52f3633bf0"
							timeout="60000"
							codefile="c:\Users\JohnPloumis\Documents\Ranorex\RanorexStudio Projects\madaket_XP001\madaket_XP001\Madaket_login.cs"
							codeline="88"
							itemindex="2"
							loglvl="Info">
						</metainfo>
					</item>
					<item
						timeRelativeToTestSuiteStartTime="00:05.879"
						timeRelativeToTestModuleStartTime="00:05.375"
						timeWallClock="13:40:34"
						time="00:05.879"
						level="Info"
						category="Set value">
						<message>
							Setting attribute Value to 'Monkey1213!' on item 'MadaketHealth.txtPassword'.
						</message>
						<metainfo
							type="repoitem"
							path="/dom[@caption='Madaket Health']//input[#'password']"
							itempath=".//input[#'password']"
							fullname="madaket_XP001Repository.MadaketHealth.txtPassword"
							id="a351a5d74ad64269819a1ffbe4be0530"
							timeout="60000"
							codefile="c:\Users\JohnPloumis\Documents\Ranorex\RanorexStudio Projects\madaket_XP001\madaket_XP001\Madaket_login.cs"
							codeline="91"
							itemindex="3"
							loglvl="Info">
						</metainfo>
					</item>
					<item
						timeRelativeToTestSuiteStartTime="00:06.172"
						timeRelativeToTestModuleStartTime="00:05.669"
						timeWallClock="13:40:34"
						time="00:06.172"
						level="Info"
						category="Validation">
						<message>
							Validating Exists on item 'MadaketHealth.btnLogin'.
						</message>
						<metainfo
							type="repoitem"
							path="/dom[@caption='Madaket Health']//input[#'loginButton']"
							itempath=".//input[#'loginButton']"
							fullname="madaket_XP001Repository.MadaketHealth.btnLogin"
							id="29776b9350984c58bf5308f720d7bca4"
							timeout="60000"
							codefile="c:\Users\JohnPloumis\Documents\Ranorex\RanorexStudio Projects\madaket_XP001\madaket_XP001\Madaket_login.cs"
							codeline="94"
							itemindex="4"
							loglvl="Info">
						</metainfo>
					</item>
					<item
						timeRelativeToTestSuiteStartTime="00:06.520"
						timeRelativeToTestModuleStartTime="00:06.016"
						timeWallClock="13:40:35"
						time="00:06.520"
						level="Success"
						category="Validation">
						<message>
							Element for item 'btnLogin' does exist.
						</message>
						<metainfo
							type="repoitem"
							path="/dom[@caption='Madaket Health']//input[#'loginButton']"
							itempath=".//input[#'loginButton']"
							fullname="madaket_XP001Repository.MadaketHealth.btnLogin"
							id="29776b9350984c58bf5308f720d7bca4"
							timeout="60000"
							codefile="c:\Users\JohnPloumis\Documents\Ranorex\RanorexStudio Projects\madaket_XP001\madaket_XP001\Madaket_login.cs"
							codeline="95"
							loglvl="Success"
							itemindex="4">
						</metainfo>
					</item>
					<item
						timeRelativeToTestSuiteStartTime="00:06.567"
						timeRelativeToTestModuleStartTime="00:06.064"
						timeWallClock="13:40:35"
						time="00:06.567"
						level="Info"
						category="Mouse">
						<message>
							Mouse Left Click item 'MadaketHealth.btnLogin' at 62;12.
						</message>
						<metainfo
							type="repoitem"
							path="/dom[@caption='Madaket Health']//input[#'loginButton']"
							itempath=".//input[#'loginButton']"
							fullname="madaket_XP001Repository.MadaketHealth.btnLogin"
							id="29776b9350984c58bf5308f720d7bca4"
							timeout="60000"
							codefile="c:\Users\JohnPloumis\Documents\Ranorex\RanorexStudio Projects\madaket_XP001\madaket_XP001\Madaket_login.cs"
							codeline="97"
							itemindex="5"
							loglvl="Info">
						</metainfo>
					</item>
				</activity>
				<activity
					result="Success"
					duration="9.4s"
					durationms="9403"
					type="test-module"
					rid="11806cbdd54141e6"
					totalerrorcount="0"
					totalwarningcount="2"
					totalsuccesstestcasecount="0"
					totalfailedtestcasecount="0"
					totalblockedtestcasecount="0"
					childsuccesscount="0"
					childfailedcount="0"
					childblockedcount="0"
					totalsuccesscount="0"
					totalfailedcount="0"
					totalblockedcount="0"
					totalmaintenancemodecount="0"
					modulename="New_Payer_NoData"
					displayName="New_Payer_NoData"
					moduleid="c2c3f592-c70a-4a42-9f69-8f7f27722dc4"
					moduletype="Recording"
					iteration="1"
					activity-exectype="execute"
					testentry-activity-type="testmodule">
					<detail>
						MH-2218
					</detail>
					<varbindings>
					</varbindings>
					<item
						timeRelativeToTestSuiteStartTime="00:07.299"
						timeRelativeToTestModuleStartTime="00:00.006"
						timeWallClock="13:40:35"
						time="00:07.299"
						level="Info"
						category="Mouse">
						<message>
							Mouse Left Click item 'MadaketHealth.DivTagPayers' at 16;21.
						</message>
						<metainfo
							type="repoitem"
							path="/dom[@caption='Madaket Health']//nav[#'mainNav']/ul//div[@innertext='Payers']"
							itempath=".//nav[#'mainNav']/ul//div[@innertext='Payers']"
							fullname="madaket_XP001Repository.MadaketHealth.DivTagPayers"
							id="29cc9e25aab349529ce160a3bd60a2f5"
							timeout="60000"
							codefile="c:\Users\JohnPloumis\Documents\Ranorex\RanorexStudio Projects\madaket_XP001\madaket_XP001\New_Payer_NoData.cs"
							codeline="82"
							itemindex="0"
							loglvl="Info">
						</metainfo>
					</item>
					<item
						timeRelativeToTestSuiteStartTime="00:11.480"
						timeRelativeToTestModuleStartTime="00:04.187"
						timeWallClock="13:40:40"
						time="00:11.480"
						level="Info"
						category="Mouse">
						<message>
							Mouse Left Click item 'MadaketHealth.linkNewPayer' at 46;12.
						</message>
						<metainfo
							type="repoitem"
							path="/dom[@caption='Madaket Health']//a[#'payorClick']"
							itempath=".//a[#'payorClick']"
							fullname="madaket_XP001Repository.MadaketHealth.linkNewPayer"
							id="0e40999c158242618af66e1af1edf093"
							timeout="60000"
							codefile="c:\Users\JohnPloumis\Documents\Ranorex\RanorexStudio Projects\madaket_XP001\madaket_XP001\New_Payer_NoData.cs"
							codeline="85"
							itemindex="1"
							loglvl="Info">
						</metainfo>
					</item>
					<item
						timeRelativeToTestSuiteStartTime="00:12.699"
						timeRelativeToTestModuleStartTime="00:05.407"
						timeWallClock="13:40:41"
						time="00:12.699"
						level="Info"
						category="Mouse">
						<message>
							Mouse Left Click item 'MadaketHealth.PopupScrollContainer' at 544;386.
						</message>
						<metainfo
							type="repoitem"
							path="/dom[@caption='Madaket Health']//div[#'editPayorPopup']/div[2]"
							itempath=".//div[#'editPayorPopup']/div[2]"
							fullname="madaket_XP001Repository.MadaketHealth.PopupScrollContainer"
							id="f53c44ed5bb14893839e2b7cdc4d3ef7"
							timeout="60000"
							codefile="c:\Users\JohnPloumis\Documents\Ranorex\RanorexStudio Projects\madaket_XP001\madaket_XP001\New_Payer_NoData.cs"
							codeline="88"
							itemindex="2"
							loglvl="Info">
						</metainfo>
					</item>
					<item
						timeRelativeToTestSuiteStartTime="00:13.179"
						timeRelativeToTestModuleStartTime="00:05.886"
						timeWallClock="13:40:41"
						time="00:13.179"
						level="Warn"
						category="Click"
						errimg="images_madaket__137fecd4\madaket__a46f512e_rxlog.jpg"
						errthumb="images_madaket__137fecd4\madaket__a46f512e_rxlog_thumb.jpg">
						<message>
							The mouse action was performed outside the boundaries of the assigned UI element.<br/>
						</message>
						<metainfo
							codefile="c:\Users\JohnPloumis\Documents\Ranorex\RanorexStudio Projects\madaket_XP001\madaket_XP001\New_Payer_NoData.cs"
							codeline="89"
							loglvl="Warn">
						</metainfo>
					</item>
					<item
						timeRelativeToTestSuiteStartTime="00:13.643"
						timeRelativeToTestModuleStartTime="00:06.350"
						timeWallClock="13:40:42"
						time="00:13.643"
						level="Info"
						category="Mouse">
						<message>
							Mouse Left Click item 'MadaketHealth.PopupScrollContainer' at 544;386.
						</message>
						<metainfo
							type="repoitem"
							path="/dom[@caption='Madaket Health']//div[#'editPayorPopup']/div[2]"
							itempath=".//div[#'editPayorPopup']/div[2]"
							fullname="madaket_XP001Repository.MadaketHealth.PopupScrollContainer"
							id="f53c44ed5bb14893839e2b7cdc4d3ef7"
							timeout="60000"
							codefile="c:\Users\JohnPloumis\Documents\Ranorex\RanorexStudio Projects\madaket_XP001\madaket_XP001\New_Payer_NoData.cs"
							codeline="91"
							itemindex="3"
							loglvl="Info">
						</metainfo>
					</item>
					<item
						timeRelativeToTestSuiteStartTime="00:13.984"
						timeRelativeToTestModuleStartTime="00:06.691"
						timeWallClock="13:40:42"
						time="00:13.984"
						level="Warn"
						category="Click"
						errimg="images_madaket__137fecd4\madaket__1c7dc93_rxlog.jpg"
						errthumb="images_madaket__137fecd4\madaket__1c7dc93_rxlog_thumb.jpg">
						<message>
							The mouse action was performed outside the boundaries of the assigned UI element.<br/>
						</message>
						<metainfo
							codefile="c:\Users\JohnPloumis\Documents\Ranorex\RanorexStudio Projects\madaket_XP001\madaket_XP001\New_Payer_NoData.cs"
							codeline="92"
							loglvl="Warn">
						</metainfo>
					</item>
					<item
						timeRelativeToTestSuiteStartTime="00:14.430"
						timeRelativeToTestModuleStartTime="00:07.137"
						timeWallClock="13:40:43"
						time="00:14.430"
						level="Info"
						category="Mouse">
						<message>
							Mouse Left Click item 'MadaketHealth.btnSavePayor' at 71;7.
						</message>
						<metainfo
							type="repoitem"
							path="/dom[@caption='Madaket Health']//button[#'savePayorButton']"
							itempath=".//button[#'savePayorButton']"
							fullname="madaket_XP001Repository.MadaketHealth.btnSavePayor"
							id="ab96c6bd2749404d82d6f94d5830ab20"
							timeout="60000"
							codefile="c:\Users\JohnPloumis\Documents\Ranorex\RanorexStudio Projects\madaket_XP001\madaket_XP001\New_Payer_NoData.cs"
							codeline="94"
							itemindex="4"
							loglvl="Info">
						</metainfo>
					</item>
					<item
						timeRelativeToTestSuiteStartTime="00:15.137"
						timeRelativeToTestModuleStartTime="00:07.846"
						timeWallClock="13:40:43"
						time="00:15.137"
						level="Info"
						category="Mouse">
						<message>
							Mouse Left Click item 'MadaketHealth.errMsgPleaseEnterPayerName' at 89;11.
						</message>
						<metainfo
							type="repoitem"
							path="/dom[@caption='Madaket Health']//form[#'payorGeneralForm']/div[1]//label[@innertext='Please enter payer name']"
							itempath=".//form[#'payorGeneralForm']/div[1]//label[@innertext='Please enter payer name']"
							fullname="madaket_XP001Repository.MadaketHealth.errMsgPleaseEnterPayerName"
							id="4e8fcb6b94fa4fdfaa37a0b3a3c6c8d4"
							timeout="60000"
							codefile="c:\Users\JohnPloumis\Documents\Ranorex\RanorexStudio Projects\madaket_XP001\madaket_XP001\New_Payer_NoData.cs"
							codeline="97"
							itemindex="5"
							loglvl="Info">
						</metainfo>
					</item>
					<item
						timeRelativeToTestSuiteStartTime="00:15.973"
						timeRelativeToTestModuleStartTime="00:08.680"
						timeWallClock="13:40:44"
						time="00:15.973"
						level="Info"
						category="Mouse">
						<message>
							Mouse Left Click item 'MadaketHealth.HttpsTestMadakethealthComServices' at 18;22.
						</message>
						<metainfo
							type="repoitem"
							path="/dom[@caption='Madaket Health']//div[#'editPayorPopup']/a[@href~'^https://edi-alpha\.madaket']"
							itempath=".//div[#'editPayorPopup']/a[@href~'^https://edi-alpha\.madaket']"
							fullname="madaket_XP001Repository.MadaketHealth.HttpsTestMadakethealthComServices"
							id="ba73c9ad44884b9eb242b07457d62a68"
							timeout="60000"
							codefile="c:\Users\JohnPloumis\Documents\Ranorex\RanorexStudio Projects\madaket_XP001\madaket_XP001\New_Payer_NoData.cs"
							codeline="100"
							itemindex="6"
							loglvl="Info">
						</metainfo>
					</item>
				</activity>
				<activity
					result="Success"
					duration="16.55s"
					durationms="16553"
					type="test-module"
					rid="359ff81664cad9d0"
					totalerrorcount="0"
					totalwarningcount="5"
					totalsuccesstestcasecount="0"
					totalfailedtestcasecount="0"
					totalblockedtestcasecount="0"
					childsuccesscount="0"
					childfailedcount="0"
					childblockedcount="0"
					totalsuccesscount="0"
					totalfailedcount="0"
					totalblockedcount="0"
					totalmaintenancemodecount="0"
					modulename="New_Payer_ValidData"
					displayName="New_Payer_ValidData"
					moduleid="a2d47517-0a0b-47f5-b141-691f6f0b3abc"
					moduletype="Recording"
					iteration="1"
					activity-exectype="execute"
					testentry-activity-type="testmodule">
					<detail>
						MH-2218
					</detail>
					<varbindings>
					</varbindings>
					<item
						timeRelativeToTestSuiteStartTime="00:16.704"
						timeRelativeToTestModuleStartTime="00:00.007"
						timeWallClock="13:40:45"
						time="00:16.704"
						level="Info"
						category="Mouse">
						<message>
							Mouse Left Click item 'MadaketHealth.DivTagPayers' at 16;20.
						</message>
						<metainfo
							type="repoitem"
							path="/dom[@caption='Madaket Health']//nav[#'mainNav']/ul//div[@innertext='Payers']"
							itempath=".//nav[#'mainNav']/ul//div[@innertext='Payers']"
							fullname="madaket_XP001Repository.MadaketHealth.DivTagPayers"
							id="29cc9e25aab349529ce160a3bd60a2f5"
							timeout="60000"
							codefile="c:\Users\JohnPloumis\Documents\Ranorex\RanorexStudio Projects\madaket_XP001\madaket_XP001\New_Payer_ValidData.cs"
							codeline="82"
							itemindex="0"
							loglvl="Info">
						</metainfo>
					</item>
					<item
						timeRelativeToTestSuiteStartTime="00:17.590"
						timeRelativeToTestModuleStartTime="00:00.893"
						timeWallClock="13:40:46"
						time="00:17.590"
						level="Info"
						category="Mouse">
						<message>
							Mouse Left Click item 'MadaketHealth.linkNewPayer' at 34;13.
						</message>
						<metainfo
							type="repoitem"
							path="/dom[@caption='Madaket Health']//a[#'payorClick']"
							itempath=".//a[#'payorClick']"
							fullname="madaket_XP001Repository.MadaketHealth.linkNewPayer"
							id="0e40999c158242618af66e1af1edf093"
							timeout="60000"
							codefile="c:\Users\JohnPloumis\Documents\Ranorex\RanorexStudio Projects\madaket_XP001\madaket_XP001\New_Payer_ValidData.cs"
							codeline="85"
							itemindex="1"
							loglvl="Info">
						</metainfo>
					</item>
					<item
						timeRelativeToTestSuiteStartTime="00:18.785"
						timeRelativeToTestModuleStartTime="00:02.089"
						timeWallClock="13:40:47"
						time="00:18.785"
						level="Info"
						category="Mouse">
						<message>
							Mouse Left Click item 'MadaketHealth.PayorName' at 258;15.
						</message>
						<metainfo
							type="repoitem"
							path="/dom[@caption='Madaket Health']//input[#'payorName']"
							itempath=".//input[#'payorName']"
							fullname="madaket_XP001Repository.MadaketHealth.PayorName"
							id="c60f64d457204be3b0c571ec0261f3c7"
							timeout="60000"
							codefile="c:\Users\JohnPloumis\Documents\Ranorex\RanorexStudio Projects\madaket_XP001\madaket_XP001\New_Payer_ValidData.cs"
							codeline="88"
							itemindex="2"
							loglvl="Info">
						</metainfo>
					</item>
					<item
						timeRelativeToTestSuiteStartTime="00:19.252"
						timeRelativeToTestModuleStartTime="00:02.555"
						timeWallClock="13:40:47"
						time="00:19.252"
						level="Warn"
						category="Click"
						errimg="images_madaket__137fecd4\madaket__e9be3a64_rxlog.jpg"
						errthumb="images_madaket__137fecd4\madaket__e9be3a64_rxlog_thumb.jpg">
						<message>
							The mouse action was performed outside the boundaries of the assigned UI element.<br/>
						</message>
						<metainfo
							codefile="c:\Users\JohnPloumis\Documents\Ranorex\RanorexStudio Projects\madaket_XP001\madaket_XP001\New_Payer_ValidData.cs"
							codeline="89"
							loglvl="Warn">
						</metainfo>
					</item>
					<item
						timeRelativeToTestSuiteStartTime="00:19.750"
						timeRelativeToTestModuleStartTime="00:03.053"
						timeWallClock="13:40:48"
						time="00:19.750"
						level="Info"
						category="Set value">
						<message>
							Setting attribute Value to 'test_payer_automation_XP001' on item 'MadaketHealth.PayorName'.
						</message>
						<metainfo
							type="repoitem"
							path="/dom[@caption='Madaket Health']//input[#'payorName']"
							itempath=".//input[#'payorName']"
							fullname="madaket_XP001Repository.MadaketHealth.PayorName"
							id="c60f64d457204be3b0c571ec0261f3c7"
							timeout="60000"
							codefile="c:\Users\JohnPloumis\Documents\Ranorex\RanorexStudio Projects\madaket_XP001\madaket_XP001\New_Payer_ValidData.cs"
							codeline="91"
							itemindex="3"
							loglvl="Info">
						</metainfo>
					</item>
					<item
						timeRelativeToTestSuiteStartTime="00:20.093"
						timeRelativeToTestModuleStartTime="00:03.396"
						timeWallClock="13:40:48"
						time="00:20.093"
						level="Info"
						category="Delay">
						<message>
							Waiting for 500ms.
						</message>
						<metainfo
							itemindex="4"
							codefile="c:\Users\JohnPloumis\Documents\Ranorex\RanorexStudio Projects\madaket_XP001\madaket_XP001\New_Payer_ValidData.cs"
							codeline="94"
							loglvl="Info">
						</metainfo>
					</item>
					<item
						timeRelativeToTestSuiteStartTime="00:20.660"
						timeRelativeToTestModuleStartTime="00:03.963"
						timeWallClock="13:40:49"
						time="00:20.660"
						level="Info"
						category="Invoke action">
						<message>
							Invoking Focus() on item 'MadaketHealth.PopupScrollContainer'.
						</message>
						<metainfo
							type="repoitem"
							path="/dom[@caption='Madaket Health']//div[#'editPayorPopup']/div[2]"
							itempath=".//div[#'editPayorPopup']/div[2]"
							fullname="madaket_XP001Repository.MadaketHealth.PopupScrollContainer"
							id="f53c44ed5bb14893839e2b7cdc4d3ef7"
							timeout="60000"
							codefile="c:\Users\JohnPloumis\Documents\Ranorex\RanorexStudio Projects\madaket_XP001\madaket_XP001\New_Payer_ValidData.cs"
							codeline="97"
							itemindex="5"
							loglvl="Info">
						</metainfo>
					</item>
					<item
						timeRelativeToTestSuiteStartTime="00:20.990"
						timeRelativeToTestModuleStartTime="00:04.293"
						timeWallClock="13:40:49"
						time="00:20.990"
						level="Info"
						category="Mouse">
						<message>
							Mouse Left Click item 'MadaketHealth.PopupScrollContainer' at 544;361.
						</message>
						<metainfo
							type="repoitem"
							path="/dom[@caption='Madaket Health']//div[#'editPayorPopup']/div[2]"
							itempath=".//div[#'editPayorPopup']/div[2]"
							fullname="madaket_XP001Repository.MadaketHealth.PopupScrollContainer"
							id="f53c44ed5bb14893839e2b7cdc4d3ef7"
							timeout="60000"
							codefile="c:\Users\JohnPloumis\Documents\Ranorex\RanorexStudio Projects\madaket_XP001\madaket_XP001\New_Payer_ValidData.cs"
							codeline="100"
							itemindex="6"
							loglvl="Info">
						</metainfo>
					</item>
					<item
						timeRelativeToTestSuiteStartTime="00:21.348"
						timeRelativeToTestModuleStartTime="00:04.652"
						timeWallClock="13:40:50"
						time="00:21.348"
						level="Warn"
						category="Click"
						errimg="images_madaket__137fecd4\madaket__4716c5c9_rxlog.jpg"
						errthumb="images_madaket__137fecd4\madaket__4716c5c9_rxlog_thumb.jpg">
						<message>
							The mouse action was performed outside the boundaries of the assigned UI element.<br/>
						</message>
						<metainfo
							codefile="c:\Users\JohnPloumis\Documents\Ranorex\RanorexStudio Projects\madaket_XP001\madaket_XP001\New_Payer_ValidData.cs"
							codeline="101"
							loglvl="Warn">
						</metainfo>
					</item>
					<item
						timeRelativeToTestSuiteStartTime="00:21.780"
						timeRelativeToTestModuleStartTime="00:05.083"
						timeWallClock="13:40:50"
						time="00:21.780"
						level="Info"
						category="Set value">
						<message>
							Setting attribute Value to '101 main street' on item 'MadaketHealth.TxtStreet1'.
						</message>
						<metainfo
							type="repoitem"
							path="/dom[@caption='Madaket Health']//input[#'txt_street1']"
							itempath=".//input[#'txt_street1']"
							fullname="madaket_XP001Repository.MadaketHealth.TxtStreet1"
							id="140f920df0e2418ca6177c3fcaa08df8"
							timeout="60000"
							codefile="c:\Users\JohnPloumis\Documents\Ranorex\RanorexStudio Projects\madaket_XP001\madaket_XP001\New_Payer_ValidData.cs"
							codeline="103"
							itemindex="7"
							loglvl="Info">
						</metainfo>
					</item>
					<item
						timeRelativeToTestSuiteStartTime="00:22.127"
						timeRelativeToTestModuleStartTime="00:05.430"
						timeWallClock="13:40:50"
						time="00:22.127"
						level="Info"
						category="Mouse">
						<message>
							Mouse Left Click item 'MadaketHealth.TxtCity' at 130;7.
						</message>
						<metainfo
							type="repoitem"
							path="/dom[@caption='Madaket Health']//input[#'txt_city']"
							itempath=".//input[#'txt_city']"
							fullname="madaket_XP001Repository.MadaketHealth.TxtCity"
							id="275ef8ae16904ae689a4001c02a10d08"
							timeout="60000"
							codefile="c:\Users\JohnPloumis\Documents\Ranorex\RanorexStudio Projects\madaket_XP001\madaket_XP001\New_Payer_ValidData.cs"
							codeline="106"
							itemindex="8"
							loglvl="Info">
						</metainfo>
					</item>
					<item
						timeRelativeToTestSuiteStartTime="00:22.920"
						timeRelativeToTestModuleStartTime="00:06.223"
						timeWallClock="13:40:51"
						time="00:22.920"
						level="Info"
						category="Set value">
						<message>
							Setting attribute Value to 'Boston' on item 'MadaketHealth.TxtCity'.
						</message>
						<metainfo
							type="repoitem"
							path="/dom[@caption='Madaket Health']//input[#'txt_city']"
							itempath=".//input[#'txt_city']"
							fullname="madaket_XP001Repository.MadaketHealth.TxtCity"
							id="275ef8ae16904ae689a4001c02a10d08"
							timeout="60000"
							codefile="c:\Users\JohnPloumis\Documents\Ranorex\RanorexStudio Projects\madaket_XP001\madaket_XP001\New_Payer_ValidData.cs"
							codeline="109"
							itemindex="9"
							loglvl="Info">
						</metainfo>
					</item>
					<item
						timeRelativeToTestSuiteStartTime="00:23.216"
						timeRelativeToTestModuleStartTime="00:06.519"
						timeWallClock="13:40:51"
						time="00:23.216"
						level="Info"
						category="Set value">
						<message>
							Setting attribute TagValue to 'MA' on item 'MadaketHealth.TxtState'.
						</message>
						<metainfo
							type="repoitem"
							path="/dom[@caption='Madaket Health']//select[#'txt_state']"
							itempath=".//select[#'txt_state']"
							fullname="madaket_XP001Repository.MadaketHealth.TxtState"
							id="ebe2033877a44d918170bb47fee05430"
							timeout="60000"
							codefile="c:\Users\JohnPloumis\Documents\Ranorex\RanorexStudio Projects\madaket_XP001\madaket_XP001\New_Payer_ValidData.cs"
							codeline="112"
							itemindex="10"
							loglvl="Info">
						</metainfo>
					</item>
					<item
						timeRelativeToTestSuiteStartTime="00:23.524"
						timeRelativeToTestModuleStartTime="00:06.828"
						timeWallClock="13:40:52"
						time="00:23.524"
						level="Info"
						category="Mouse">
						<message>
							Mouse Left Click item 'MadaketHealth.PopupScrollContainer' at 548;376.
						</message>
						<metainfo
							type="repoitem"
							path="/dom[@caption='Madaket Health']//div[#'editPayorPopup']/div[2]"
							itempath=".//div[#'editPayorPopup']/div[2]"
							fullname="madaket_XP001Repository.MadaketHealth.PopupScrollContainer"
							id="f53c44ed5bb14893839e2b7cdc4d3ef7"
							timeout="60000"
							codefile="c:\Users\JohnPloumis\Documents\Ranorex\RanorexStudio Projects\madaket_XP001\madaket_XP001\New_Payer_ValidData.cs"
							codeline="115"
							itemindex="11"
							loglvl="Info">
						</metainfo>
					</item>
					<item
						timeRelativeToTestSuiteStartTime="00:23.890"
						timeRelativeToTestModuleStartTime="00:07.193"
						timeWallClock="13:40:52"
						time="00:23.890"
						level="Warn"
						category="Click"
						errimg="images_madaket__137fecd4\madaket__2f0d239a_rxlog.jpg"
						errthumb="images_madaket__137fecd4\madaket__2f0d239a_rxlog_thumb.jpg">
						<message>
							The mouse action was performed outside the boundaries of the assigned UI element.<br/>
						</message>
						<metainfo
							codefile="c:\Users\JohnPloumis\Documents\Ranorex\RanorexStudio Projects\madaket_XP001\madaket_XP001\New_Payer_ValidData.cs"
							codeline="116"
							loglvl="Warn">
						</metainfo>
					</item>
					<item
						timeRelativeToTestSuiteStartTime="00:24.340"
						timeRelativeToTestModuleStartTime="00:07.643"
						timeWallClock="13:40:53"
						time="00:24.340"
						level="Info"
						category="Mouse">
						<message>
							Mouse Left Click item 'MadaketHealth.FirstName' at 146;8.
						</message>
						<metainfo
							type="repoitem"
							path="/dom[@caption='Madaket Health']//input[#'firstName']"
							itempath=".//input[#'firstName']"
							fullname="madaket_XP001Repository.MadaketHealth.FirstName"
							id="d3da3f164ae640b5b1e62605679d50af"
							timeout="60000"
							codefile="c:\Users\JohnPloumis\Documents\Ranorex\RanorexStudio Projects\madaket_XP001\madaket_XP001\New_Payer_ValidData.cs"
							codeline="118"
							itemindex="12"
							loglvl="Info">
						</metainfo>
					</item>
					<item
						timeRelativeToTestSuiteStartTime="00:25.058"
						timeRelativeToTestModuleStartTime="00:08.362"
						timeWallClock="13:40:53"
						time="00:25.058"
						level="Info"
						category="Keyboard">
						<message>
							Key sequence 'test{Tab}payer' with focus on 'MadaketHealth.FirstName'.
						</message>
						<metainfo
							type="repoitem"
							path="/dom[@caption='Madaket Health']//input[#'firstName']"
							itempath=".//input[#'firstName']"
							fullname="madaket_XP001Repository.MadaketHealth.FirstName"
							id="d3da3f164ae640b5b1e62605679d50af"
							timeout="60000"
							codefile="c:\Users\JohnPloumis\Documents\Ranorex\RanorexStudio Projects\madaket_XP001\madaket_XP001\New_Payer_ValidData.cs"
							codeline="121"
							itemindex="13"
							loglvl="Info">
						</metainfo>
					</item>
					<item
						timeRelativeToTestSuiteStartTime="00:26.120"
						timeRelativeToTestModuleStartTime="00:09.424"
						timeWallClock="13:40:54"
						time="00:26.120"
						level="Info"
						category="Keyboard">
						<message>
							Key sequence '{Tab}'.
						</message>
						<metainfo
							itemindex="14"
							codefile="c:\Users\JohnPloumis\Documents\Ranorex\RanorexStudio Projects\madaket_XP001\madaket_XP001\New_Payer_ValidData.cs"
							codeline="124"
							loglvl="Info">
						</metainfo>
					</item>
					<item
						timeRelativeToTestSuiteStartTime="00:26.316"
						timeRelativeToTestModuleStartTime="00:09.620"
						timeWallClock="13:40:54"
						time="00:26.316"
						level="Info"
						category="Keyboard">
						<message>
							Key sequence 'test.payer{LShiftKey down}{@ down}{LShiftKey up}payer.com'.
						</message>
						<metainfo
							itemindex="15"
							codefile="c:\Users\JohnPloumis\Documents\Ranorex\RanorexStudio Projects\madaket_XP001\madaket_XP001\New_Payer_ValidData.cs"
							codeline="127"
							loglvl="Info">
						</metainfo>
					</item>
					<item
						timeRelativeToTestSuiteStartTime="00:27.170"
						timeRelativeToTestModuleStartTime="00:10.474"
						timeWallClock="13:40:55"
						time="00:27.170"
						level="Info"
						category="Mouse">
						<message>
							Mouse Left Click item 'MadaketHealth.btnSavePayor' at 50;9.
						</message>
						<metainfo
							type="repoitem"
							path="/dom[@caption='Madaket Health']//button[#'savePayorButton']"
							itempath=".//button[#'savePayorButton']"
							fullname="madaket_XP001Repository.MadaketHealth.btnSavePayor"
							id="ab96c6bd2749404d82d6f94d5830ab20"
							timeout="60000"
							codefile="c:\Users\JohnPloumis\Documents\Ranorex\RanorexStudio Projects\madaket_XP001\madaket_XP001\New_Payer_ValidData.cs"
							codeline="130"
							itemindex="16"
							loglvl="Info">
						</metainfo>
					</item>
					<item
						timeRelativeToTestSuiteStartTime="00:27.920"
						timeRelativeToTestModuleStartTime="00:11.223"
						timeWallClock="13:40:56"
						time="00:27.920"
						level="Info"
						category="Mouse">
						<message>
							Mouse Left Click item 'MadaketHealth.PayerGeneralDetailsDiv.DivTagTestPayerAutomationXP0' at 96;9.
						</message>
						<metainfo
							type="repoitem"
							path="/dom[@caption='Madaket Health']//div[#'payerGeneralDetailsDiv']//div[@innertext~'^test_payer_autom']"
							itempath=".//div[@innertext~'^test_payer_autom']"
							fullname="madaket_XP001Repository.MadaketHealth.PayerGeneralDetailsDiv.DivTagTestPayerAutomationXP0"
							id="0e44183f677548639bb83854085d8ec1"
							timeout="90000"
							codefile="c:\Users\JohnPloumis\Documents\Ranorex\RanorexStudio Projects\madaket_XP001\madaket_XP001\New_Payer_ValidData.cs"
							codeline="133"
							itemindex="17"
							loglvl="Info">
						</metainfo>
					</item>
					<item
						timeRelativeToTestSuiteStartTime="00:29.590"
						timeRelativeToTestModuleStartTime="00:12.893"
						timeWallClock="13:40:58"
						time="00:29.590"
						level="Info"
						category="Mouse">
						<message>
							Mouse Left Click item 'MadaketHealth.PayerGeneralDetailsDiv.PayerName' at 39;12.
						</message>
						<metainfo
							type="repoitem"
							path="/dom[@caption='Madaket Health']//div[#'payerGeneralDetailsDiv']/div[2]/div[1]/?/?/strong[@innertext='Payer name:']"
							itempath="div[2]/div[1]/?/?/strong[@innertext='Payer name:']"
							fullname="madaket_XP001Repository.MadaketHealth.PayerGeneralDetailsDiv.PayerName"
							id="761d8abaef054dda9ba0c9e8b5cb4084"
							timeout="90000"
							codefile="c:\Users\JohnPloumis\Documents\Ranorex\RanorexStudio Projects\madaket_XP001\madaket_XP001\New_Payer_ValidData.cs"
							codeline="136"
							itemindex="18"
							loglvl="Info">
						</metainfo>
					</item>
					<item
						timeRelativeToTestSuiteStartTime="00:29.940"
						timeRelativeToTestModuleStartTime="00:13.243"
						timeWallClock="13:40:58"
						time="00:29.940"
						level="Warn"
						category="Click"
						errimg="images_madaket__137fecd4\madaket__8c65aeff_rxlog.jpg"
						errthumb="images_madaket__137fecd4\madaket__8c65aeff_rxlog_thumb.jpg">
						<message>
							The mouse action was performed outside the boundaries of the assigned UI element.<br/>
						</message>
						<metainfo
							codefile="c:\Users\JohnPloumis\Documents\Ranorex\RanorexStudio Projects\madaket_XP001\madaket_XP001\New_Payer_ValidData.cs"
							codeline="137"
							loglvl="Warn">
						</metainfo>
					</item>
					<item
						timeRelativeToTestSuiteStartTime="00:30.318"
						timeRelativeToTestModuleStartTime="00:13.621"
						timeWallClock="13:40:58"
						time="00:30.318"
						level="Info"
						category="Mouse">
						<message>
							Mouse Left Click item 'MadaketHealth.PayerGeneralDetailsDiv.Address' at 32;12.
						</message>
						<metainfo
							type="repoitem"
							path="/dom[@caption='Madaket Health']//div[#'payerGeneralDetailsDiv']/div[2]/div[7]/?/?/span[@innertext='Address:']"
							itempath="div[2]/div[7]/?/?/span[@innertext='Address:']"
							fullname="madaket_XP001Repository.MadaketHealth.PayerGeneralDetailsDiv.Address"
							id="14645446fd584bf2a276b1938a1712e1"
							timeout="90000"
							codefile="c:\Users\JohnPloumis\Documents\Ranorex\RanorexStudio Projects\madaket_XP001\madaket_XP001\New_Payer_ValidData.cs"
							codeline="139"
							itemindex="19"
							loglvl="Info">
						</metainfo>
					</item>
					<item
						timeRelativeToTestSuiteStartTime="00:30.681"
						timeRelativeToTestModuleStartTime="00:13.984"
						timeWallClock="13:40:59"
						time="00:30.681"
						level="Warn"
						category="Click"
						errimg="images_madaket__137fecd4\madaket__745c0cd0_rxlog.jpg"
						errthumb="images_madaket__137fecd4\madaket__745c0cd0_rxlog_thumb.jpg">
						<message>
							The mouse action was performed outside the boundaries of the assigned UI element.<br/>
						</message>
						<metainfo
							codefile="c:\Users\JohnPloumis\Documents\Ranorex\RanorexStudio Projects\madaket_XP001\madaket_XP001\New_Payer_ValidData.cs"
							codeline="140"
							loglvl="Warn">
						</metainfo>
					</item>
					<item
						timeRelativeToTestSuiteStartTime="00:31.047"
						timeRelativeToTestModuleStartTime="00:14.351"
						timeWallClock="13:40:59"
						time="00:31.047"
						level="Info"
						category="Mouse">
						<message>
							Mouse Left Click item 'MadaketHealth.PayerGeneralDetailsDiv.DivTag101MainStreetW' at 35;17.
						</message>
						<metainfo
							type="repoitem"
							path="/dom[@caption='Madaket Health']//div[#'payerGeneralDetailsDiv']//div[@innertext~'^101\ main\ street']"
							itempath=".//div[@innertext~'^101\ main\ street']"
							fullname="madaket_XP001Repository.MadaketHealth.PayerGeneralDetailsDiv.DivTag101MainStreetW"
							id="6c7e3dd9a6004299ba43a1310c11a174"
							timeout="90000"
							codefile="c:\Users\JohnPloumis\Documents\Ranorex\RanorexStudio Projects\madaket_XP001\madaket_XP001\New_Payer_ValidData.cs"
							codeline="142"
							itemindex="20"
							loglvl="Info">
						</metainfo>
					</item>
					<item
						timeRelativeToTestSuiteStartTime="00:31.787"
						timeRelativeToTestModuleStartTime="00:15.091"
						timeWallClock="13:41:00"
						time="00:31.787"
						level="Info"
						category="Mouse">
						<message>
							Mouse Left Click item 'MadaketHealth.PayerGeneralDetailsDiv.Contact' at 32;5.
						</message>
						<metainfo
							type="repoitem"
							path="/dom[@caption='Madaket Health']//div[#'payerGeneralDetailsDiv']/div[2]/div[8]/?/?/span[@innertext='Contact:']"
							itempath="div[2]/div[8]/?/?/span[@innertext='Contact:']"
							fullname="madaket_XP001Repository.MadaketHealth.PayerGeneralDetailsDiv.Contact"
							id="f417a5fe94464a708c34508abc60a181"
							timeout="90000"
							codefile="c:\Users\JohnPloumis\Documents\Ranorex\RanorexStudio Projects\madaket_XP001\madaket_XP001\New_Payer_ValidData.cs"
							codeline="145"
							itemindex="21"
							loglvl="Info">
						</metainfo>
					</item>
					<item
						timeRelativeToTestSuiteStartTime="00:32.510"
						timeRelativeToTestModuleStartTime="00:15.813"
						timeWallClock="13:41:01"
						time="00:32.510"
						level="Info"
						category="Mouse">
						<message>
							Mouse Left Click item 'MadaketHealth.PayerGeneralDetailsDiv.DivTagTestPayerAtpayerCom' at 59;6.
						</message>
						<metainfo
							type="repoitem"
							path="/dom[@caption='Madaket Health']//div[#'payerGeneralDetailsDiv']//div[@innertext~'^test\.payer@payer']"
							itempath=".//div[@innertext~'^test\.payer@payer']"
							fullname="madaket_XP001Repository.MadaketHealth.PayerGeneralDetailsDiv.DivTagTestPayerAtpayerCom"
							id="54203ec5caae40ada0580344cddf82e5"
							timeout="90000"
							codefile="c:\Users\JohnPloumis\Documents\Ranorex\RanorexStudio Projects\madaket_XP001\madaket_XP001\New_Payer_ValidData.cs"
							codeline="148"
							itemindex="22"
							loglvl="Info">
						</metainfo>
					</item>
				</activity>
				<activity
					result="Success"
					duration="22.16s"
					durationms="22157"
					type="test-module"
					rid="a26dfe70faac9cf"
					totalerrorcount="0"
					totalwarningcount="0"
					totalsuccesstestcasecount="0"
					totalfailedtestcasecount="0"
					totalblockedtestcasecount="0"
					childsuccesscount="0"
					childfailedcount="0"
					childblockedcount="0"
					totalsuccesscount="0"
					totalfailedcount="0"
					totalblockedcount="0"
					totalmaintenancemodecount="0"
					modulename="Plan_Creation"
					displayName="Plan_Creation"
					moduleid="b77c5061-2d4e-4a82-85d3-0ceff64e76a8"
					moduletype="Recording"
					iteration="1"
					activity-exectype="execute"
					testentry-activity-type="testmodule">
					<detail>
						MH-2220
					</detail>
					<varbindings>
					</varbindings>
					<item
						timeRelativeToTestSuiteStartTime="00:33.260"
						timeRelativeToTestModuleStartTime="00:00.007"
						timeWallClock="13:41:01"
						time="00:33.260"
						level="Info"
						category="Mouse">
						<message>
							Mouse Left Click item 'MadaketHealth.DivTagPlans' at 9;16.
						</message>
						<metainfo
							type="repoitem"
							path="/dom[@caption='Madaket Health']//nav[#'mainNav']/ul//div[@innertext='Plans']"
							itempath=".//nav[#'mainNav']/ul//div[@innertext='Plans']"
							fullname="madaket_XP001Repository.MadaketHealth.DivTagPlans"
							id="4245ea03cf1f44b2977e9e08c91a4768"
							timeout="60000"
							codefile="c:\Users\JohnPloumis\Documents\Ranorex\RanorexStudio Projects\madaket_XP001\madaket_XP001\Plan_Creation.cs"
							codeline="82"
							itemindex="0"
							loglvl="Info">
						</metainfo>
					</item>
					<item
						timeRelativeToTestSuiteStartTime="00:34.530"
						timeRelativeToTestModuleStartTime="00:01.277"
						timeWallClock="13:41:03"
						time="00:34.530"
						level="Info"
						category="Mouse">
						<message>
							Mouse Left Click item 'MadaketHealth.DataTablesScrollBody1' at 803;183.
						</message>
						<metainfo
							type="repoitem"
							path="/dom[@caption='Madaket Health']//div[#'planList_wrapper']/div[3]/div[2]"
							itempath=".//div[#'planList_wrapper']/div[3]/div[2]"
							fullname="madaket_XP001Repository.MadaketHealth.DataTablesScrollBody1"
							id="24641ab377e1414199910c7a5ef0efc6"
							timeout="60000"
							codefile="c:\Users\JohnPloumis\Documents\Ranorex\RanorexStudio Projects\madaket_XP001\madaket_XP001\Plan_Creation.cs"
							codeline="86"
							itemindex="1"
							loglvl="Info">
						</metainfo>
					</item>
					<item
						timeRelativeToTestSuiteStartTime="00:36.704"
						timeRelativeToTestModuleStartTime="00:03.451"
						timeWallClock="13:41:05"
						time="00:36.704"
						level="Info"
						category="Mouse">
						<message>
							Mouse Left Click item 'MadaketHealth.AddPlan' at 36;7.
						</message>
						<metainfo
							type="repoitem"
							path="/dom[@caption='Madaket Health']//a[#'addPlan']"
							itempath=".//a[#'addPlan']"
							fullname="madaket_XP001Repository.MadaketHealth.AddPlan"
							id="66c0eee316bd4ab080f4ac6fb9d08a52"
							timeout="60000"
							codefile="c:\Users\JohnPloumis\Documents\Ranorex\RanorexStudio Projects\madaket_XP001\madaket_XP001\Plan_Creation.cs"
							codeline="90"
							itemindex="2"
							loglvl="Info">
						</metainfo>
					</item>
					<item
						timeRelativeToTestSuiteStartTime="00:37.992"
						timeRelativeToTestModuleStartTime="00:04.739"
						timeWallClock="13:41:06"
						time="00:37.992"
						level="Info"
						category="Mouse">
						<message>
							Mouse Left Click item 'MadaketHealth.PopupScrollContainer4' at 679;399.
						</message>
						<metainfo
							type="repoitem"
							path="/dom[@caption='Madaket Health']//div[#'addOrUpdatePlanPopup']/div[2]"
							itempath=".//div[#'addOrUpdatePlanPopup']/div[2]"
							fullname="madaket_XP001Repository.MadaketHealth.PopupScrollContainer4"
							id="acb01864dd9f45ab9b8c227267ba503f"
							timeout="60000"
							codefile="c:\Users\JohnPloumis\Documents\Ranorex\RanorexStudio Projects\madaket_XP001\madaket_XP001\Plan_Creation.cs"
							codeline="94"
							itemindex="3"
							loglvl="Info">
						</metainfo>
					</item>
					<item
						timeRelativeToTestSuiteStartTime="00:39.321"
						timeRelativeToTestModuleStartTime="00:06.068"
						timeWallClock="13:41:07"
						time="00:39.321"
						level="Info"
						category="Mouse">
						<message>
							Mouse Left Click item 'MadaketHealth.SavePlan' at Center.
						</message>
						<metainfo
							type="repoitem"
							path="/dom[@caption='Madaket Health']//button[#'savePlan']"
							itempath=".//button[#'savePlan']"
							fullname="madaket_XP001Repository.MadaketHealth.SavePlan"
							id="88eec87dc8ff49e59ec19c60ea9b94ae"
							timeout="60000"
							codefile="c:\Users\JohnPloumis\Documents\Ranorex\RanorexStudio Projects\madaket_XP001\madaket_XP001\Plan_Creation.cs"
							codeline="98"
							itemindex="4"
							loglvl="Info">
						</metainfo>
					</item>
					<item
						timeRelativeToTestSuiteStartTime="00:40.576"
						timeRelativeToTestModuleStartTime="00:07.323"
						timeWallClock="13:41:09"
						time="00:40.576"
						level="Info"
						category="Mouse">
						<message>
							Mouse Left Click item 'MadaketHealth.PleaseEnterName' at 36;5.
						</message>
						<metainfo
							type="repoitem"
							path="/dom[@caption='Madaket Health']//div[#'planNameErrorContainer']/label[@innertext='Please enter name']"
							itempath=".//div[#'planNameErrorContainer']/label[@innertext='Please enter name']"
							fullname="madaket_XP001Repository.MadaketHealth.PleaseEnterName"
							id="a35ce17d1bb94f41bb4af13050eb2d6d"
							timeout="60000"
							codefile="c:\Users\JohnPloumis\Documents\Ranorex\RanorexStudio Projects\madaket_XP001\madaket_XP001\Plan_Creation.cs"
							codeline="102"
							itemindex="5"
							loglvl="Info">
						</metainfo>
					</item>
					<item
						timeRelativeToTestSuiteStartTime="00:41.870"
						timeRelativeToTestModuleStartTime="00:08.616"
						timeWallClock="13:41:10"
						time="00:41.870"
						level="Info"
						category="Mouse">
						<message>
							Mouse Left Click item 'MadaketHealth.PleaseEnterPlanId' at 39;8.
						</message>
						<metainfo
							type="repoitem"
							path="/dom[@caption='Madaket Health']//div[#'customPayerIdErrorContainer']/label[@innertext='Please enter plan id']"
							itempath=".//div[#'customPayerIdErrorContainer']/label[@innertext='Please enter plan id']"
							fullname="madaket_XP001Repository.MadaketHealth.PleaseEnterPlanId"
							id="4b5a463c7d3049de966697275ba8c410"
							timeout="60000"
							codefile="c:\Users\JohnPloumis\Documents\Ranorex\RanorexStudio Projects\madaket_XP001\madaket_XP001\Plan_Creation.cs"
							codeline="106"
							itemindex="6"
							loglvl="Info">
						</metainfo>
					</item>
					<item
						timeRelativeToTestSuiteStartTime="00:43.173"
						timeRelativeToTestModuleStartTime="00:09.920"
						timeWallClock="13:41:11"
						time="00:43.173"
						level="Info"
						category="Mouse">
						<message>
							Mouse Left Click item 'MadaketHealth.PleaseEnterPayerName' at 45;9.
						</message>
						<metainfo
							type="repoitem"
							path="/dom[@caption='Madaket Health']//div[#'payerErrorContainer']/label[@innertext='Please enter payer name']"
							itempath=".//div[#'payerErrorContainer']/label[@innertext='Please enter payer name']"
							fullname="madaket_XP001Repository.MadaketHealth.PleaseEnterPayerName"
							id="4c9893c40305426a8e1fb0914be576b5"
							timeout="60000"
							codefile="c:\Users\JohnPloumis\Documents\Ranorex\RanorexStudio Projects\madaket_XP001\madaket_XP001\Plan_Creation.cs"
							codeline="110"
							itemindex="7"
							loglvl="Info">
						</metainfo>
					</item>
					<item
						timeRelativeToTestSuiteStartTime="00:44.441"
						timeRelativeToTestModuleStartTime="00:11.187"
						timeWallClock="13:41:13"
						time="00:44.441"
						level="Info"
						category="Mouse">
						<message>
							Mouse Left Click item 'MadaketHealth.PleaseSelectPartnerAdmin' at 83;6.
						</message>
						<metainfo
							type="repoitem"
							path="/dom[@caption='Madaket Health']//div[#'partnerAdminGUIDErrorContainer']/label[@innertext~'^Please\ select\ partner\ adm']"
							itempath=".//div[#'partnerAdminGUIDErrorContainer']/label[@innertext~'^Please\ select\ partner\ adm']"
							fullname="madaket_XP001Repository.MadaketHealth.PleaseSelectPartnerAdmin"
							id="b203cbe7dc924ce09d1503d069095d64"
							timeout="60000"
							codefile="c:\Users\JohnPloumis\Documents\Ranorex\RanorexStudio Projects\madaket_XP001\madaket_XP001\Plan_Creation.cs"
							codeline="114"
							itemindex="8"
							loglvl="Info">
						</metainfo>
					</item>
					<item
						timeRelativeToTestSuiteStartTime="00:45.680"
						timeRelativeToTestModuleStartTime="00:12.427"
						timeWallClock="13:41:14"
						time="00:45.680"
						level="Info"
						category="Set value">
						<message>
							Setting attribute Value to 'test_automation_plan_XP001' on item 'MadaketHealth.Name'.
						</message>
						<metainfo
							type="repoitem"
							path="/dom[@caption='Madaket Health']//input[#'name']"
							itempath=".//input[#'name']"
							fullname="madaket_XP001Repository.MadaketHealth.Name"
							id="d469a389ded14e77a9e3a1bb2cdd2837"
							timeout="60000"
							codefile="c:\Users\JohnPloumis\Documents\Ranorex\RanorexStudio Projects\madaket_XP001\madaket_XP001\Plan_Creation.cs"
							codeline="118"
							itemindex="9"
							loglvl="Info">
						</metainfo>
					</item>
					<item
						timeRelativeToTestSuiteStartTime="00:45.990"
						timeRelativeToTestModuleStartTime="00:12.737"
						timeWallClock="13:41:14"
						time="00:45.990"
						level="Info"
						category="Set value">
						<message>
							Setting attribute Value to '9876543210' on item 'MadaketHealth.CustomPayerId'.
						</message>
						<metainfo
							type="repoitem"
							path="/dom[@caption='Madaket Health']//input[#'customPayerId']"
							itempath=".//input[#'customPayerId']"
							fullname="madaket_XP001Repository.MadaketHealth.CustomPayerId"
							id="96deed58e0594100a0dff142430fd737"
							timeout="60000"
							codefile="c:\Users\JohnPloumis\Documents\Ranorex\RanorexStudio Projects\madaket_XP001\madaket_XP001\Plan_Creation.cs"
							codeline="122"
							itemindex="10"
							loglvl="Info">
						</metainfo>
					</item>
					<item
						timeRelativeToTestSuiteStartTime="00:46.319"
						timeRelativeToTestModuleStartTime="00:13.065"
						timeWallClock="13:41:14"
						time="00:46.319"
						level="Info"
						category="Mouse">
						<message>
							Mouse Left Click item 'MadaketHealth.PayerName' at 41;13.
						</message>
						<metainfo
							type="repoitem"
							path="/dom[@caption='Madaket Health']//input[#'payerName']"
							itempath=".//input[#'payerName']"
							fullname="madaket_XP001Repository.MadaketHealth.PayerName"
							id="d13f36e3d9574502a0ea370497446279"
							timeout="60000"
							codefile="c:\Users\JohnPloumis\Documents\Ranorex\RanorexStudio Projects\madaket_XP001\madaket_XP001\Plan_Creation.cs"
							codeline="126"
							itemindex="11"
							loglvl="Info">
						</metainfo>
					</item>
					<item
						timeRelativeToTestSuiteStartTime="00:47.690"
						timeRelativeToTestModuleStartTime="00:14.437"
						timeWallClock="13:41:16"
						time="00:47.690"
						level="Info"
						category="Set value">
						<message>
							Setting attribute Value to 'test_automation' on item 'MadaketHealth.PayerName'.
						</message>
						<metainfo
							type="repoitem"
							path="/dom[@caption='Madaket Health']//input[#'payerName']"
							itempath=".//input[#'payerName']"
							fullname="madaket_XP001Repository.MadaketHealth.PayerName"
							id="d13f36e3d9574502a0ea370497446279"
							timeout="60000"
							codefile="c:\Users\JohnPloumis\Documents\Ranorex\RanorexStudio Projects\madaket_XP001\madaket_XP001\Plan_Creation.cs"
							codeline="130"
							itemindex="12"
							loglvl="Info">
						</metainfo>
					</item>
					<item
						timeRelativeToTestSuiteStartTime="00:48.030"
						timeRelativeToTestModuleStartTime="00:14.777"
						timeWallClock="13:41:16"
						time="00:48.030"
						level="Info"
						category="Set value">
						<message>
							Setting attribute TagValue to '8a94a6c3-40c0-4889-8405-d3ecd18daaaa' on item 'MadaketHealth.PartnerAdminGUID'.
						</message>
						<metainfo
							type="repoitem"
							path="/dom[@caption='Madaket Health']//select[#'partnerAdminGUID']"
							itempath=".//select[#'partnerAdminGUID']"
							fullname="madaket_XP001Repository.MadaketHealth.PartnerAdminGUID"
							id="cf7ef1bb123d4aee98d7cc3411cdd0bc"
							timeout="60000"
							codefile="c:\Users\JohnPloumis\Documents\Ranorex\RanorexStudio Projects\madaket_XP001\madaket_XP001\Plan_Creation.cs"
							codeline="134"
							itemindex="13"
							loglvl="Info">
						</metainfo>
					</item>
					<item
						timeRelativeToTestSuiteStartTime="00:48.460"
						timeRelativeToTestModuleStartTime="00:15.207"
						timeWallClock="13:41:17"
						time="00:48.460"
						level="Info"
						category="Mouse">
						<message>
							Mouse Left Click item 'MadaketHealth.SomeLabelTag' at 12;3.
						</message>
						<metainfo
							type="repoitem"
							path="/dom[@caption='Madaket Health']//div[#'ttServiceTypeTable']/div[3]//label"
							itempath=".//div[#'ttServiceTypeTable']/div[3]//label"
							fullname="madaket_XP001Repository.MadaketHealth.SomeLabelTag"
							id="e3c1d996bcda44718c7f6b5a3533b399"
							timeout="60000"
							codefile="c:\Users\JohnPloumis\Documents\Ranorex\RanorexStudio Projects\madaket_XP001\madaket_XP001\Plan_Creation.cs"
							codeline="138"
							itemindex="14"
							loglvl="Info">
						</metainfo>
					</item>
					<item
						timeRelativeToTestSuiteStartTime="00:49.790"
						timeRelativeToTestModuleStartTime="00:16.537"
						timeWallClock="13:41:18"
						time="00:49.790"
						level="Info"
						category="Mouse">
						<message>
							Mouse Left Click item 'MadaketHealth.PopupScrollContainer4' at 677;397.
						</message>
						<metainfo
							type="repoitem"
							path="/dom[@caption='Madaket Health']//div[#'addOrUpdatePlanPopup']/div[2]"
							itempath=".//div[#'addOrUpdatePlanPopup']/div[2]"
							fullname="madaket_XP001Repository.MadaketHealth.PopupScrollContainer4"
							id="acb01864dd9f45ab9b8c227267ba503f"
							timeout="60000"
							codefile="c:\Users\JohnPloumis\Documents\Ranorex\RanorexStudio Projects\madaket_XP001\madaket_XP001\Plan_Creation.cs"
							codeline="142"
							itemindex="15"
							loglvl="Info">
						</metainfo>
					</item>
					<item
						timeRelativeToTestSuiteStartTime="00:51.120"
						timeRelativeToTestModuleStartTime="00:17.867"
						timeWallClock="13:41:19"
						time="00:51.120"
						level="Info"
						category="Invoke action">
						<message>
							Invoking Focus() on item 'MadaketHealth.SavePlan'.
						</message>
						<metainfo
							type="repoitem"
							path="/dom[@caption='Madaket Health']//button[#'savePlan']"
							itempath=".//button[#'savePlan']"
							fullname="madaket_XP001Repository.MadaketHealth.SavePlan"
							id="88eec87dc8ff49e59ec19c60ea9b94ae"
							timeout="60000"
							codefile="c:\Users\JohnPloumis\Documents\Ranorex\RanorexStudio Projects\madaket_XP001\madaket_XP001\Plan_Creation.cs"
							codeline="146"
							itemindex="16"
							loglvl="Info">
						</metainfo>
					</item>
					<item
						timeRelativeToTestSuiteStartTime="00:51.433"
						timeRelativeToTestModuleStartTime="00:18.180"
						timeWallClock="13:41:20"
						time="00:51.433"
						level="Info"
						category="Mouse">
						<message>
							Mouse Left Click item 'MadaketHealth.SavePlan' at Center.
						</message>
						<metainfo
							type="repoitem"
							path="/dom[@caption='Madaket Health']//button[#'savePlan']"
							itempath=".//button[#'savePlan']"
							fullname="madaket_XP001Repository.MadaketHealth.SavePlan"
							id="88eec87dc8ff49e59ec19c60ea9b94ae"
							timeout="60000"
							codefile="c:\Users\JohnPloumis\Documents\Ranorex\RanorexStudio Projects\madaket_XP001\madaket_XP001\Plan_Creation.cs"
							codeline="150"
							itemindex="17"
							loglvl="Info">
						</metainfo>
					</item>
					<item
						timeRelativeToTestSuiteStartTime="00:52.770"
						timeRelativeToTestModuleStartTime="00:19.517"
						timeWallClock="13:41:21"
						time="00:52.770"
						level="Info"
						category="Mouse">
						<message>
							Mouse Left Click item 'MadaketHealth.FilterButtonText' at 28;6.
						</message>
						<metainfo
							type="repoitem"
							path="/dom[@caption='Madaket Health']//span[#'filterButtonText']"
							itempath=".//span[#'filterButtonText']"
							fullname="madaket_XP001Repository.MadaketHealth.FilterButtonText"
							id="2c6a4e71fe454238941536dc8f0d5baf"
							timeout="60000"
							codefile="c:\Users\JohnPloumis\Documents\Ranorex\RanorexStudio Projects\madaket_XP001\madaket_XP001\Plan_Creation.cs"
							codeline="154"
							itemindex="18"
							loglvl="Info">
						</metainfo>
					</item>
				</activity>
				<activity
					result="Success"
					duration="9.96s"
					durationms="9956"
					type="test-module"
					rid="944dc71f5ee54d"
					totalerrorcount="0"
					totalwarningcount="0"
					totalsuccesstestcasecount="0"
					totalfailedtestcasecount="0"
					totalblockedtestcasecount="0"
					childsuccesscount="0"
					childfailedcount="0"
					childblockedcount="0"
					totalsuccesscount="0"
					totalfailedcount="0"
					totalblockedcount="0"
					totalmaintenancemodecount="0"
					modulename="Plan_Verifcation"
					displayName="Plan_Verifcation"
					moduleid="12f6f6b8-dca2-4262-8104-2c0f6946fef7"
					moduletype="Recording"
					iteration="1"
					activity-exectype="execute"
					testentry-activity-type="testmodule">
					<detail>
						MH-2220
					</detail>
					<varbindings>
					</varbindings>
					<item
						timeRelativeToTestSuiteStartTime="00:55.413"
						timeRelativeToTestModuleStartTime="00:00.000"
						timeWallClock="13:41:24"
						time="00:55.413"
						level="Info"
						category="Mouse">
						<message>
							Mouse Left Click item 'MadaketHealth.Filter' at 6;4.
						</message>
						<metainfo
							type="repoitem"
							path="/dom[@caption='Madaket Health']//img[#'filter']"
							itempath=".//img[#'filter']"
							fullname="madaket_XP001Repository.MadaketHealth.Filter"
							id="89684a8217f44f6ea2a119f297b3b683"
							timeout="60000"
							codefile="c:\Users\JohnPloumis\Documents\Ranorex\RanorexStudio Projects\madaket_XP001\madaket_XP001\Plan_Verifcation.cs"
							codeline="82"
							itemindex="0"
							loglvl="Info">
						</metainfo>
					</item>
					<item
						timeRelativeToTestSuiteStartTime="00:57.055"
						timeRelativeToTestModuleStartTime="00:01.642"
						timeWallClock="13:41:25"
						time="00:57.055"
						level="Info"
						category="Mouse">
						<message>
							Mouse Left Click item 'MadaketHealth.SomeITag' at 6;4.
						</message>
						<metainfo
							type="repoitem"
							path="/dom[@caption='Madaket Health']/body/div[2]/div[2]/?/?/p/?/?/i"
							itempath="body/div[2]/div[2]/?/?/p/?/?/i"
							fullname="madaket_XP001Repository.MadaketHealth.SomeITag"
							id="50239d8da22a404aa241ca203d01cf75"
							timeout="60000"
							codefile="c:\Users\JohnPloumis\Documents\Ranorex\RanorexStudio Projects\madaket_XP001\madaket_XP001\Plan_Verifcation.cs"
							codeline="86"
							itemindex="1"
							loglvl="Info">
						</metainfo>
					</item>
					<item
						timeRelativeToTestSuiteStartTime="00:58.321"
						timeRelativeToTestModuleStartTime="00:02.907"
						timeWallClock="13:41:26"
						time="00:58.321"
						level="Info"
						category="Mouse">
						<message>
							Mouse Left Click item 'MadaketHealth.Contains' at 54;1.
						</message>
						<metainfo
							type="repoitem"
							path="/dom[@caption='Madaket Health']/body/div[2]//ul/li[4]/label[@innertext='Contains']"
							itempath="body/div[2]//ul/li[4]/label[@innertext='Contains']"
							fullname="madaket_XP001Repository.MadaketHealth.Contains"
							id="c527dad122fd499bae91f5ccda13179d"
							timeout="60000"
							codefile="c:\Users\JohnPloumis\Documents\Ranorex\RanorexStudio Projects\madaket_XP001\madaket_XP001\Plan_Verifcation.cs"
							codeline="90"
							itemindex="2"
							loglvl="Info">
						</metainfo>
					</item>
					<item
						timeRelativeToTestSuiteStartTime="00:59.530"
						timeRelativeToTestModuleStartTime="00:04.116"
						timeWallClock="13:41:28"
						time="00:59.530"
						level="Info"
						category="Mouse">
						<message>
							Mouse Left Click item 'MadaketHealth.ConditionFilterValue' at 45;10.
						</message>
						<metainfo
							type="repoitem"
							path="/dom[@caption='Madaket Health']//input[#'conditionFilterValue']"
							itempath=".//input[#'conditionFilterValue']"
							fullname="madaket_XP001Repository.MadaketHealth.ConditionFilterValue"
							id="2487d95f5ad3474db869f84740003a53"
							timeout="60000"
							codefile="c:\Users\JohnPloumis\Documents\Ranorex\RanorexStudio Projects\madaket_XP001\madaket_XP001\Plan_Verifcation.cs"
							codeline="94"
							itemindex="3"
							loglvl="Info">
						</metainfo>
					</item>
					<item
						timeRelativeToTestSuiteStartTime="01:00.770"
						timeRelativeToTestModuleStartTime="00:05.356"
						timeWallClock="13:41:29"
						time="01:00.770"
						level="Info"
						category="Keyboard">
						<message>
							Key sequence 'automation' with focus on 'MadaketHealth.ConditionFilterValue'.
						</message>
						<metainfo
							type="repoitem"
							path="/dom[@caption='Madaket Health']//input[#'conditionFilterValue']"
							itempath=".//input[#'conditionFilterValue']"
							fullname="madaket_XP001Repository.MadaketHealth.ConditionFilterValue"
							id="2487d95f5ad3474db869f84740003a53"
							timeout="60000"
							codefile="c:\Users\JohnPloumis\Documents\Ranorex\RanorexStudio Projects\madaket_XP001\madaket_XP001\Plan_Verifcation.cs"
							codeline="98"
							itemindex="4"
							loglvl="Info">
						</metainfo>
					</item>
					<item
						timeRelativeToTestSuiteStartTime="01:02.593"
						timeRelativeToTestModuleStartTime="00:07.179"
						timeWallClock="13:41:31"
						time="01:02.593"
						level="Info"
						category="Mouse">
						<message>
							Mouse Left Click item 'MadaketHealth.ApplyFilterButton' at 34;5.
						</message>
						<metainfo
							type="repoitem"
							path="/dom[@caption='Madaket Health']//button[#'applyFilterButton']"
							itempath=".//button[#'applyFilterButton']"
							fullname="madaket_XP001Repository.MadaketHealth.ApplyFilterButton"
							id="63d9436950b14096aba94e0e10c4a6e4"
							timeout="60000"
							codefile="c:\Users\JohnPloumis\Documents\Ranorex\RanorexStudio Projects\madaket_XP001\madaket_XP001\Plan_Verifcation.cs"
							codeline="102"
							itemindex="5"
							loglvl="Info">
						</metainfo>
					</item>
					<item
						timeRelativeToTestSuiteStartTime="01:03.840"
						timeRelativeToTestModuleStartTime="00:08.426"
						timeWallClock="13:41:32"
						time="01:03.840"
						level="Info"
						category="Mouse">
						<message>
							Mouse Left Click item 'MadaketHealth.TestAutomationPlanXP001' at 74;12.
						</message>
						<metainfo
							type="repoitem"
							path="/dom[@caption='Madaket Health']//table[#'planList']/tbody/?/?/td[@innertext='test_automation_plan_XP001']"
							itempath=".//table[#'planList']/tbody/?/?/td[@innertext='test_automation_plan_XP001']"
							fullname="madaket_XP001Repository.MadaketHealth.TestAutomationPlanXP001"
							id="15b3b41911ae4498ae2121306fe1696c"
							timeout="60000"
							codefile="c:\Users\JohnPloumis\Documents\Ranorex\RanorexStudio Projects\madaket_XP001\madaket_XP001\Plan_Verifcation.cs"
							codeline="106"
							itemindex="6"
							loglvl="Info">
						</metainfo>
					</item>
				</activity>
				<activity
					result="Success"
					duration="31s"
					durationms="31000"
					type="test-module"
					rid="39986a1cd691a00"
					totalerrorcount="0"
					totalwarningcount="0"
					totalsuccesstestcasecount="0"
					totalfailedtestcasecount="0"
					totalblockedtestcasecount="0"
					childsuccesscount="0"
					childfailedcount="0"
					childblockedcount="0"
					totalsuccesscount="0"
					totalfailedcount="0"
					totalblockedcount="0"
					totalmaintenancemodecount="0"
					modulename="Duplicate_Plan_Name"
					displayName="Duplicate_Plan_Name"
					moduleid="7c323a98-4bad-434d-bbd7-3e660ba37750"
					moduletype="Recording"
					iteration="1"
					activity-exectype="execute"
					testentry-activity-type="testmodule">
					<detail>
						MH-2220
					</detail>
					<varbindings>
					</varbindings>
					<item
						timeRelativeToTestSuiteStartTime="01:05.370"
						timeRelativeToTestModuleStartTime="00:00.000"
						timeWallClock="13:41:34"
						time="01:05.370"
						level="Info"
						category="Mouse">
						<message>
							Mouse Left Click item 'MadaketHealth.DivTagPlans' at 9;16.
						</message>
						<metainfo
							type="repoitem"
							path="/dom[@caption='Madaket Health']//nav[#'mainNav']/ul//div[@innertext='Plans']"
							itempath=".//nav[#'mainNav']/ul//div[@innertext='Plans']"
							fullname="madaket_XP001Repository.MadaketHealth.DivTagPlans"
							id="4245ea03cf1f44b2977e9e08c91a4768"
							timeout="60000"
							codefile="c:\Users\JohnPloumis\Documents\Ranorex\RanorexStudio Projects\madaket_XP001\madaket_XP001\Duplicate_Plan_Name.cs"
							codeline="82"
							itemindex="0"
							loglvl="Info">
						</metainfo>
					</item>
					<item
						timeRelativeToTestSuiteStartTime="01:06.730"
						timeRelativeToTestModuleStartTime="00:01.360"
						timeWallClock="13:41:35"
						time="01:06.730"
						level="Info"
						category="Mouse">
						<message>
							Mouse Left Click item 'MadaketHealth.ShowcountBtn' at 32;12.
						</message>
						<metainfo
							type="repoitem"
							path="/dom[@caption='Madaket Health']//div[#'showcountBtn']"
							itempath=".//div[#'showcountBtn']"
							fullname="madaket_XP001Repository.MadaketHealth.ShowcountBtn"
							id="a60e75f245d94c0aaf589c755aa1fccd"
							timeout="60000"
							codefile="c:\Users\JohnPloumis\Documents\Ranorex\RanorexStudio Projects\madaket_XP001\madaket_XP001\Duplicate_Plan_Name.cs"
							codeline="86"
							itemindex="1"
							loglvl="Info">
						</metainfo>
					</item>
					<item
						timeRelativeToTestSuiteStartTime="01:09.070"
						timeRelativeToTestModuleStartTime="00:03.700"
						timeWallClock="13:41:37"
						time="01:09.070"
						level="Info"
						category="Mouse">
						<message>
							Mouse Left Click item 'MadaketHealth.DataTablesScrollBody1' at 803;183.
						</message>
						<metainfo
							type="repoitem"
							path="/dom[@caption='Madaket Health']//div[#'planList_wrapper']/div[3]/div[2]"
							itempath=".//div[#'planList_wrapper']/div[3]/div[2]"
							fullname="madaket_XP001Repository.MadaketHealth.DataTablesScrollBody1"
							id="24641ab377e1414199910c7a5ef0efc6"
							timeout="60000"
							codefile="c:\Users\JohnPloumis\Documents\Ranorex\RanorexStudio Projects\madaket_XP001\madaket_XP001\Duplicate_Plan_Name.cs"
							codeline="90"
							itemindex="2"
							loglvl="Info">
						</metainfo>
					</item>
					<item
						timeRelativeToTestSuiteStartTime="01:10.340"
						timeRelativeToTestModuleStartTime="00:04.970"
						timeWallClock="13:41:39"
						time="01:10.340"
						level="Info"
						category="Mouse">
						<message>
							Mouse Left Click item 'MadaketHealth.AddPlan' at 36;7.
						</message>
						<metainfo
							type="repoitem"
							path="/dom[@caption='Madaket Health']//a[#'addPlan']"
							itempath=".//a[#'addPlan']"
							fullname="madaket_XP001Repository.MadaketHealth.AddPlan"
							id="66c0eee316bd4ab080f4ac6fb9d08a52"
							timeout="60000"
							codefile="c:\Users\JohnPloumis\Documents\Ranorex\RanorexStudio Projects\madaket_XP001\madaket_XP001\Duplicate_Plan_Name.cs"
							codeline="94"
							itemindex="3"
							loglvl="Info">
						</metainfo>
					</item>
					<item
						timeRelativeToTestSuiteStartTime="01:11.559"
						timeRelativeToTestModuleStartTime="00:06.189"
						timeWallClock="13:41:40"
						time="01:11.559"
						level="Info"
						category="Mouse">
						<message>
							Mouse Left Click item 'MadaketHealth.PopupScrollContainer4' at 679;399.
						</message>
						<metainfo
							type="repoitem"
							path="/dom[@caption='Madaket Health']//div[#'addOrUpdatePlanPopup']/div[2]"
							itempath=".//div[#'addOrUpdatePlanPopup']/div[2]"
							fullname="madaket_XP001Repository.MadaketHealth.PopupScrollContainer4"
							id="acb01864dd9f45ab9b8c227267ba503f"
							timeout="60000"
							codefile="c:\Users\JohnPloumis\Documents\Ranorex\RanorexStudio Projects\madaket_XP001\madaket_XP001\Duplicate_Plan_Name.cs"
							codeline="98"
							itemindex="4"
							loglvl="Info">
						</metainfo>
					</item>
					<item
						timeRelativeToTestSuiteStartTime="01:12.995"
						timeRelativeToTestModuleStartTime="00:07.625"
						timeWallClock="13:41:41"
						time="01:12.995"
						level="Info"
						category="Mouse">
						<message>
							Mouse Left Click item 'MadaketHealth.SavePlan' at Center.
						</message>
						<metainfo
							type="repoitem"
							path="/dom[@caption='Madaket Health']//button[#'savePlan']"
							itempath=".//button[#'savePlan']"
							fullname="madaket_XP001Repository.MadaketHealth.SavePlan"
							id="88eec87dc8ff49e59ec19c60ea9b94ae"
							timeout="60000"
							codefile="c:\Users\JohnPloumis\Documents\Ranorex\RanorexStudio Projects\madaket_XP001\madaket_XP001\Duplicate_Plan_Name.cs"
							codeline="102"
							itemindex="5"
							loglvl="Info">
						</metainfo>
					</item>
					<item
						timeRelativeToTestSuiteStartTime="01:14.330"
						timeRelativeToTestModuleStartTime="00:08.959"
						timeWallClock="13:41:42"
						time="01:14.330"
						level="Info"
						category="Mouse">
						<message>
							Mouse Left Click item 'MadaketHealth.PleaseEnterName' at 36;5.
						</message>
						<metainfo
							type="repoitem"
							path="/dom[@caption='Madaket Health']//div[#'planNameErrorContainer']/label[@innertext='Please enter name']"
							itempath=".//div[#'planNameErrorContainer']/label[@innertext='Please enter name']"
							fullname="madaket_XP001Repository.MadaketHealth.PleaseEnterName"
							id="a35ce17d1bb94f41bb4af13050eb2d6d"
							timeout="60000"
							codefile="c:\Users\JohnPloumis\Documents\Ranorex\RanorexStudio Projects\madaket_XP001\madaket_XP001\Duplicate_Plan_Name.cs"
							codeline="106"
							itemindex="6"
							loglvl="Info">
						</metainfo>
					</item>
					<item
						timeRelativeToTestSuiteStartTime="01:15.591"
						timeRelativeToTestModuleStartTime="00:10.221"
						timeWallClock="13:41:44"
						time="01:15.591"
						level="Info"
						category="Mouse">
						<message>
							Mouse Left Click item 'MadaketHealth.PleaseEnterPlanId' at 39;8.
						</message>
						<metainfo
							type="repoitem"
							path="/dom[@caption='Madaket Health']//div[#'customPayerIdErrorContainer']/label[@innertext='Please enter plan id']"
							itempath=".//div[#'customPayerIdErrorContainer']/label[@innertext='Please enter plan id']"
							fullname="madaket_XP001Repository.MadaketHealth.PleaseEnterPlanId"
							id="4b5a463c7d3049de966697275ba8c410"
							timeout="60000"
							codefile="c:\Users\JohnPloumis\Documents\Ranorex\RanorexStudio Projects\madaket_XP001\madaket_XP001\Duplicate_Plan_Name.cs"
							codeline="110"
							itemindex="7"
							loglvl="Info">
						</metainfo>
					</item>
					<item
						timeRelativeToTestSuiteStartTime="01:16.910"
						timeRelativeToTestModuleStartTime="00:11.539"
						timeWallClock="13:41:45"
						time="01:16.910"
						level="Info"
						category="Mouse">
						<message>
							Mouse Left Click item 'MadaketHealth.PleaseEnterPayerName' at 45;9.
						</message>
						<metainfo
							type="repoitem"
							path="/dom[@caption='Madaket Health']//div[#'payerErrorContainer']/label[@innertext='Please enter payer name']"
							itempath=".//div[#'payerErrorContainer']/label[@innertext='Please enter payer name']"
							fullname="madaket_XP001Repository.MadaketHealth.PleaseEnterPayerName"
							id="4c9893c40305426a8e1fb0914be576b5"
							timeout="60000"
							codefile="c:\Users\JohnPloumis\Documents\Ranorex\RanorexStudio Projects\madaket_XP001\madaket_XP001\Duplicate_Plan_Name.cs"
							codeline="114"
							itemindex="8"
							loglvl="Info">
						</metainfo>
					</item>
					<item
						timeRelativeToTestSuiteStartTime="01:18.199"
						timeRelativeToTestModuleStartTime="00:12.828"
						timeWallClock="13:41:46"
						time="01:18.199"
						level="Info"
						category="Mouse">
						<message>
							Mouse Left Click item 'MadaketHealth.PleaseSelectPartnerAdmin' at 83;6.
						</message>
						<metainfo
							type="repoitem"
							path="/dom[@caption='Madaket Health']//div[#'partnerAdminGUIDErrorContainer']/label[@innertext~'^Please\ select\ partner\ adm']"
							itempath=".//div[#'partnerAdminGUIDErrorContainer']/label[@innertext~'^Please\ select\ partner\ adm']"
							fullname="madaket_XP001Repository.MadaketHealth.PleaseSelectPartnerAdmin"
							id="b203cbe7dc924ce09d1503d069095d64"
							timeout="60000"
							codefile="c:\Users\JohnPloumis\Documents\Ranorex\RanorexStudio Projects\madaket_XP001\madaket_XP001\Duplicate_Plan_Name.cs"
							codeline="118"
							itemindex="9"
							loglvl="Info">
						</metainfo>
					</item>
					<item
						timeRelativeToTestSuiteStartTime="01:19.480"
						timeRelativeToTestModuleStartTime="00:14.110"
						timeWallClock="13:41:48"
						time="01:19.480"
						level="Info"
						category="Mouse">
						<message>
							Mouse Left Click item 'MadaketHealth.Name' at 90;16.
						</message>
						<metainfo
							type="repoitem"
							path="/dom[@caption='Madaket Health']//input[#'name']"
							itempath=".//input[#'name']"
							fullname="madaket_XP001Repository.MadaketHealth.Name"
							id="d469a389ded14e77a9e3a1bb2cdd2837"
							timeout="60000"
							codefile="c:\Users\JohnPloumis\Documents\Ranorex\RanorexStudio Projects\madaket_XP001\madaket_XP001\Duplicate_Plan_Name.cs"
							codeline="122"
							itemindex="10"
							loglvl="Info">
						</metainfo>
					</item>
					<item
						timeRelativeToTestSuiteStartTime="01:20.813"
						timeRelativeToTestModuleStartTime="00:15.443"
						timeWallClock="13:41:49"
						time="01:20.813"
						level="Info"
						category="Set value">
						<message>
							Setting attribute Value to 'test_automation_plan_XP001' on item 'MadaketHealth.Name'.
						</message>
						<metainfo
							type="repoitem"
							path="/dom[@caption='Madaket Health']//input[#'name']"
							itempath=".//input[#'name']"
							fullname="madaket_XP001Repository.MadaketHealth.Name"
							id="d469a389ded14e77a9e3a1bb2cdd2837"
							timeout="60000"
							codefile="c:\Users\JohnPloumis\Documents\Ranorex\RanorexStudio Projects\madaket_XP001\madaket_XP001\Duplicate_Plan_Name.cs"
							codeline="126"
							itemindex="11"
							loglvl="Info">
						</metainfo>
					</item>
					<item
						timeRelativeToTestSuiteStartTime="01:21.149"
						timeRelativeToTestModuleStartTime="00:15.779"
						timeWallClock="13:41:49"
						time="01:21.149"
						level="Info"
						category="Mouse">
						<message>
							Mouse Left Click item 'MadaketHealth.CustomPayerId' at 45;17.
						</message>
						<metainfo
							type="repoitem"
							path="/dom[@caption='Madaket Health']//input[#'customPayerId']"
							itempath=".//input[#'customPayerId']"
							fullname="madaket_XP001Repository.MadaketHealth.CustomPayerId"
							id="96deed58e0594100a0dff142430fd737"
							timeout="60000"
							codefile="c:\Users\JohnPloumis\Documents\Ranorex\RanorexStudio Projects\madaket_XP001\madaket_XP001\Duplicate_Plan_Name.cs"
							codeline="130"
							itemindex="12"
							loglvl="Info">
						</metainfo>
					</item>
					<item
						timeRelativeToTestSuiteStartTime="01:22.509"
						timeRelativeToTestModuleStartTime="00:17.139"
						timeWallClock="13:41:51"
						time="01:22.509"
						level="Info"
						category="Keyboard">
						<message>
							Key sequence '9876543210' with focus on 'MadaketHealth.CustomPayerId'.
						</message>
						<metainfo
							type="repoitem"
							path="/dom[@caption='Madaket Health']//input[#'customPayerId']"
							itempath=".//input[#'customPayerId']"
							fullname="madaket_XP001Repository.MadaketHealth.CustomPayerId"
							id="96deed58e0594100a0dff142430fd737"
							timeout="60000"
							codefile="c:\Users\JohnPloumis\Documents\Ranorex\RanorexStudio Projects\madaket_XP001\madaket_XP001\Duplicate_Plan_Name.cs"
							codeline="134"
							itemindex="13"
							loglvl="Info">
						</metainfo>
					</item>
					<item
						timeRelativeToTestSuiteStartTime="01:24.539"
						timeRelativeToTestModuleStartTime="00:19.169"
						timeWallClock="13:41:53"
						time="01:24.539"
						level="Info"
						category="Mouse">
						<message>
							Mouse Left Click item 'MadaketHealth.PayerName' at 41;13.
						</message>
						<metainfo
							type="repoitem"
							path="/dom[@caption='Madaket Health']//input[#'payerName']"
							itempath=".//input[#'payerName']"
							fullname="madaket_XP001Repository.MadaketHealth.PayerName"
							id="d13f36e3d9574502a0ea370497446279"
							timeout="60000"
							codefile="c:\Users\JohnPloumis\Documents\Ranorex\RanorexStudio Projects\madaket_XP001\madaket_XP001\Duplicate_Plan_Name.cs"
							codeline="138"
							itemindex="14"
							loglvl="Info">
						</metainfo>
					</item>
					<item
						timeRelativeToTestSuiteStartTime="01:25.870"
						timeRelativeToTestModuleStartTime="00:20.499"
						timeWallClock="13:41:54"
						time="01:25.870"
						level="Info"
						category="Set value">
						<message>
							Setting attribute Value to 'test_automation_payer_XP001' on item 'MadaketHealth.PayerName'.
						</message>
						<metainfo
							type="repoitem"
							path="/dom[@caption='Madaket Health']//input[#'payerName']"
							itempath=".//input[#'payerName']"
							fullname="madaket_XP001Repository.MadaketHealth.PayerName"
							id="d13f36e3d9574502a0ea370497446279"
							timeout="60000"
							codefile="c:\Users\JohnPloumis\Documents\Ranorex\RanorexStudio Projects\madaket_XP001\madaket_XP001\Duplicate_Plan_Name.cs"
							codeline="142"
							itemindex="15"
							loglvl="Info">
						</metainfo>
					</item>
					<item
						timeRelativeToTestSuiteStartTime="01:26.206"
						timeRelativeToTestModuleStartTime="00:20.836"
						timeWallClock="13:41:54"
						time="01:26.206"
						level="Info"
						category="Set value">
						<message>
							Setting attribute TagValue to '8a94a6c3-40c0-4889-8405-d3ecd18daaaa' on item 'MadaketHealth.PartnerAdminGUID'.
						</message>
						<metainfo
							type="repoitem"
							path="/dom[@caption='Madaket Health']//select[#'partnerAdminGUID']"
							itempath=".//select[#'partnerAdminGUID']"
							fullname="madaket_XP001Repository.MadaketHealth.PartnerAdminGUID"
							id="cf7ef1bb123d4aee98d7cc3411cdd0bc"
							timeout="60000"
							codefile="c:\Users\JohnPloumis\Documents\Ranorex\RanorexStudio Projects\madaket_XP001\madaket_XP001\Duplicate_Plan_Name.cs"
							codeline="146"
							itemindex="16"
							loglvl="Info">
						</metainfo>
					</item>
					<item
						timeRelativeToTestSuiteStartTime="01:26.673"
						timeRelativeToTestModuleStartTime="00:21.303"
						timeWallClock="13:41:55"
						time="01:26.673"
						level="Info"
						category="Mouse">
						<message>
							Mouse Left Click item 'MadaketHealth.SomeLabelTag' at 12;3.
						</message>
						<metainfo
							type="repoitem"
							path="/dom[@caption='Madaket Health']//div[#'ttServiceTypeTable']/div[3]//label"
							itempath=".//div[#'ttServiceTypeTable']/div[3]//label"
							fullname="madaket_XP001Repository.MadaketHealth.SomeLabelTag"
							id="e3c1d996bcda44718c7f6b5a3533b399"
							timeout="60000"
							codefile="c:\Users\JohnPloumis\Documents\Ranorex\RanorexStudio Projects\madaket_XP001\madaket_XP001\Duplicate_Plan_Name.cs"
							codeline="150"
							itemindex="17"
							loglvl="Info">
						</metainfo>
					</item>
					<item
						timeRelativeToTestSuiteStartTime="01:28.080"
						timeRelativeToTestModuleStartTime="00:22.710"
						timeWallClock="13:41:56"
						time="01:28.080"
						level="Info"
						category="Mouse">
						<message>
							Mouse Left Click item 'MadaketHealth.PopupScrollContainer4' at 677;397.
						</message>
						<metainfo
							type="repoitem"
							path="/dom[@caption='Madaket Health']//div[#'addOrUpdatePlanPopup']/div[2]"
							itempath=".//div[#'addOrUpdatePlanPopup']/div[2]"
							fullname="madaket_XP001Repository.MadaketHealth.PopupScrollContainer4"
							id="acb01864dd9f45ab9b8c227267ba503f"
							timeout="60000"
							codefile="c:\Users\JohnPloumis\Documents\Ranorex\RanorexStudio Projects\madaket_XP001\madaket_XP001\Duplicate_Plan_Name.cs"
							codeline="154"
							itemindex="18"
							loglvl="Info">
						</metainfo>
					</item>
					<item
						timeRelativeToTestSuiteStartTime="01:29.382"
						timeRelativeToTestModuleStartTime="00:24.012"
						timeWallClock="13:41:58"
						time="01:29.382"
						level="Info"
						category="Mouse">
						<message>
							Mouse Left Click item 'MadaketHealth.SavePlan' at Center.
						</message>
						<metainfo
							type="repoitem"
							path="/dom[@caption='Madaket Health']//button[#'savePlan']"
							itempath=".//button[#'savePlan']"
							fullname="madaket_XP001Repository.MadaketHealth.SavePlan"
							id="88eec87dc8ff49e59ec19c60ea9b94ae"
							timeout="60000"
							codefile="c:\Users\JohnPloumis\Documents\Ranorex\RanorexStudio Projects\madaket_XP001\madaket_XP001\Duplicate_Plan_Name.cs"
							codeline="158"
							itemindex="19"
							loglvl="Info">
						</metainfo>
					</item>
					<item
						timeRelativeToTestSuiteStartTime="01:30.700"
						timeRelativeToTestModuleStartTime="00:25.330"
						timeWallClock="13:41:59"
						time="01:30.700"
						level="Info"
						category="Mouse">
						<message>
							Mouse Left Click item 'MadaketHealth.PopupScrollContainer4' at Center.
						</message>
						<metainfo
							type="repoitem"
							path="/dom[@caption='Madaket Health']//div[#'addOrUpdatePlanPopup']/div[2]"
							itempath=".//div[#'addOrUpdatePlanPopup']/div[2]"
							fullname="madaket_XP001Repository.MadaketHealth.PopupScrollContainer4"
							id="acb01864dd9f45ab9b8c227267ba503f"
							timeout="60000"
							codefile="c:\Users\JohnPloumis\Documents\Ranorex\RanorexStudio Projects\madaket_XP001\madaket_XP001\Duplicate_Plan_Name.cs"
							codeline="162"
							itemindex="20"
							loglvl="Info">
						</metainfo>
					</item>
					<item
						timeRelativeToTestSuiteStartTime="01:32.083"
						timeRelativeToTestModuleStartTime="00:26.713"
						timeWallClock="13:42:00"
						time="01:32.083"
						level="Info"
						category="Mouse">
						<message>
							Mouse Left Click item 'MadaketHealth.PopupScrollContainer4' at Center.
						</message>
						<metainfo
							type="repoitem"
							path="/dom[@caption='Madaket Health']//div[#'addOrUpdatePlanPopup']/div[2]"
							itempath=".//div[#'addOrUpdatePlanPopup']/div[2]"
							fullname="madaket_XP001Repository.MadaketHealth.PopupScrollContainer4"
							id="acb01864dd9f45ab9b8c227267ba503f"
							timeout="60000"
							codefile="c:\Users\JohnPloumis\Documents\Ranorex\RanorexStudio Projects\madaket_XP001\madaket_XP001\Duplicate_Plan_Name.cs"
							codeline="166"
							itemindex="21"
							loglvl="Info">
						</metainfo>
					</item>
					<item
						timeRelativeToTestSuiteStartTime="01:33.490"
						timeRelativeToTestModuleStartTime="00:28.120"
						timeWallClock="13:42:02"
						time="01:33.490"
						level="Info"
						category="Mouse">
						<message>
							Mouse Left Click item 'MadaketHealth.PleaseEnterUniquePlanNameOrSelect' at 189;3.
						</message>
						<metainfo
							type="repoitem"
							path="/dom[@caption='Madaket Health']//div[#'planNameErrorContainer']/label[@innertext~'^Please\ enter\ unique\ plan\ ']"
							itempath=".//div[#'planNameErrorContainer']/label[@innertext~'^Please\ enter\ unique\ plan\ ']"
							fullname="madaket_XP001Repository.MadaketHealth.PleaseEnterUniquePlanNameOrSelect"
							id="d178f2c7273b4cb994441fea0122fe05"
							timeout="60000"
							codefile="c:\Users\JohnPloumis\Documents\Ranorex\RanorexStudio Projects\madaket_XP001\madaket_XP001\Duplicate_Plan_Name.cs"
							codeline="170"
							itemindex="22"
							loglvl="Info">
						</metainfo>
					</item>
					<item
						timeRelativeToTestSuiteStartTime="01:34.910"
						timeRelativeToTestModuleStartTime="00:29.539"
						timeWallClock="13:42:03"
						time="01:34.910"
						level="Info"
						category="Mouse">
						<message>
							Mouse Left Click item 'MadaketHealth.Cancel' at 44;6.
						</message>
						<metainfo
							type="repoitem"
							path="/dom[@caption='Madaket Health']//div[#'addOrUpdatePlanPopup']//button[@innertext='Cancel']"
							itempath=".//div[#'addOrUpdatePlanPopup']//button[@innertext='Cancel']"
							fullname="madaket_XP001Repository.MadaketHealth.Cancel"
							id="ac6682144c224d4480044ec56a306fc9"
							timeout="60000"
							codefile="c:\Users\JohnPloumis\Documents\Ranorex\RanorexStudio Projects\madaket_XP001\madaket_XP001\Duplicate_Plan_Name.cs"
							codeline="174"
							itemindex="23"
							loglvl="Info">
						</metainfo>
					</item>
				</activity>
				<activity
					result="Failed"
					duration="12.7s"
					durationms="12697"
					type="test-module"
					rid="263f46def785cd07"
					totalerrorcount="1"
					totalwarningcount="0"
					totalsuccesstestcasecount="0"
					totalfailedtestcasecount="0"
					totalblockedtestcasecount="0"
					childsuccesscount="0"
					childfailedcount="0"
					childblockedcount="0"
					totalsuccesscount="0"
					totalfailedcount="0"
					totalblockedcount="0"
					totalmaintenancemodecount="0"
					modulename="New_Member_ValidData"
					displayName="New_Member_ValidData"
					moduleid="a47e2d01-2974-4ebd-bf23-f753f84173e0"
					moduletype="Recording"
					iteration="1"
					activity-exectype="execute"
					testentry-activity-type="testmodule">
					<detail>
						MH-2218
					</detail>
					<varbindings>
					</varbindings>
					<item
						timeRelativeToTestSuiteStartTime="01:36.383"
						timeRelativeToTestModuleStartTime="00:00.011"
						timeWallClock="13:42:05"
						time="01:36.383"
						level="Info"
						category="Mouse">
						<message>
							Mouse Left Click item 'MadaketHealth.DivTagPlans' at Center.
						</message>
						<metainfo
							type="repoitem"
							path="/dom[@caption='Madaket Health']//nav[#'mainNav']/ul//div[@innertext='Plans']"
							itempath=".//nav[#'mainNav']/ul//div[@innertext='Plans']"
							fullname="madaket_XP001Repository.MadaketHealth.DivTagPlans"
							id="4245ea03cf1f44b2977e9e08c91a4768"
							timeout="60000"
							codefile="c:\Users\JohnPloumis\Documents\Ranorex\RanorexStudio Projects\madaket_XP001\madaket_XP001\New_Member_ValidData.cs"
							codeline="82"
							itemindex="0"
							loglvl="Info">
						</metainfo>
					</item>
					<item
						timeRelativeToTestSuiteStartTime="01:37.328"
						timeRelativeToTestModuleStartTime="00:00.955"
						timeWallClock="13:42:05"
						time="01:37.328"
						level="Info"
						category="Mouse">
						<message>
							Mouse Left Click item 'MadaketHealth.FilterButtonText' at 18;5.
						</message>
						<metainfo
							type="repoitem"
							path="/dom[@caption='Madaket Health']//span[#'filterButtonText']"
							itempath=".//span[#'filterButtonText']"
							fullname="madaket_XP001Repository.MadaketHealth.FilterButtonText"
							id="2c6a4e71fe454238941536dc8f0d5baf"
							timeout="60000"
							codefile="c:\Users\JohnPloumis\Documents\Ranorex\RanorexStudio Projects\madaket_XP001\madaket_XP001\New_Member_ValidData.cs"
							codeline="85"
							itemindex="1"
							loglvl="Info">
						</metainfo>
					</item>
					<item
						timeRelativeToTestSuiteStartTime="01:39.315"
						timeRelativeToTestModuleStartTime="00:02.942"
						timeWallClock="13:42:07"
						time="01:39.315"
						level="Info"
						category="Mouse">
						<message>
							Mouse Left Click item 'MadaketHealth.Filter' at 1;5.
						</message>
						<metainfo
							type="repoitem"
							path="/dom[@caption='Madaket Health']//img[#'filter']"
							itempath=".//img[#'filter']"
							fullname="madaket_XP001Repository.MadaketHealth.Filter"
							id="89684a8217f44f6ea2a119f297b3b683"
							timeout="60000"
							codefile="c:\Users\JohnPloumis\Documents\Ranorex\RanorexStudio Projects\madaket_XP001\madaket_XP001\New_Member_ValidData.cs"
							codeline="88"
							itemindex="2"
							loglvl="Info">
						</metainfo>
					</item>
					<item
						timeRelativeToTestSuiteStartTime="01:40.563"
						timeRelativeToTestModuleStartTime="00:04.190"
						timeWallClock="13:42:09"
						time="01:40.563"
						level="Info"
						category="Mouse">
						<message>
							Mouse Left Click item 'MadaketHealth.Contains' at 27;5.
						</message>
						<metainfo
							type="repoitem"
							path="/dom[@caption='Madaket Health']/body/div[2]//ul/li[4]/label[@innertext='Contains']"
							itempath="body/div[2]//ul/li[4]/label[@innertext='Contains']"
							fullname="madaket_XP001Repository.MadaketHealth.Contains"
							id="c527dad122fd499bae91f5ccda13179d"
							timeout="60000"
							codefile="c:\Users\JohnPloumis\Documents\Ranorex\RanorexStudio Projects\madaket_XP001\madaket_XP001\New_Member_ValidData.cs"
							codeline="91"
							itemindex="3"
							loglvl="Info">
						</metainfo>
					</item>
					<item
						timeRelativeToTestSuiteStartTime="01:41.399"
						timeRelativeToTestModuleStartTime="00:05.027"
						timeWallClock="13:42:10"
						time="01:41.399"
						level="Info"
						category="Set value"
						errimg="images_madaket__137fecd4\madaket__137fecd4_6b57e145_trace.jpg"
						errthumb="images_madaket__137fecd4\madaket__137fecd4_6b57e145_trace_thumb.jpg">
						<message>
							Setting attribute Value to 'automation' on item 'MadaketHealth.ConditionFilterValue'.
						</message>
						<metainfo
							type="repoitem"
							path="/dom[@caption='Madaket Health']//input[#'conditionFilterValue']"
							itempath=".//input[#'conditionFilterValue']"
							fullname="madaket_XP001Repository.MadaketHealth.ConditionFilterValue"
							id="2487d95f5ad3474db869f84740003a53"
							timeout="60000"
							codefile="c:\Users\JohnPloumis\Documents\Ranorex\RanorexStudio Projects\madaket_XP001\madaket_XP001\New_Member_ValidData.cs"
							codeline="94"
							itemindex="4"
							loglvl="Info">
						</metainfo>
					</item>
					<item
						timeRelativeToTestSuiteStartTime="01:41.720"
						timeRelativeToTestModuleStartTime="00:05.347"
						timeWallClock="13:42:10"
						time="01:41.720"
						level="Info"
						category="Mouse"
						errimg="images_madaket__137fecd4\madaket__137fecd4_a89b3b04_trace.jpg"
						errthumb="images_madaket__137fecd4\madaket__137fecd4_a89b3b04_trace_thumb.jpg">
						<message>
							Mouse Left Click item 'MadaketHealth.ApplyFilterButton' at 23;9.
						</message>
						<metainfo
							type="repoitem"
							path="/dom[@caption='Madaket Health']//button[#'applyFilterButton']"
							itempath=".//button[#'applyFilterButton']"
							fullname="madaket_XP001Repository.MadaketHealth.ApplyFilterButton"
							id="63d9436950b14096aba94e0e10c4a6e4"
							timeout="60000"
							codefile="c:\Users\JohnPloumis\Documents\Ranorex\RanorexStudio Projects\madaket_XP001\madaket_XP001\New_Member_ValidData.cs"
							codeline="97"
							itemindex="5"
							loglvl="Info">
						</metainfo>
					</item>
					<item
						timeRelativeToTestSuiteStartTime="01:42.400"
						timeRelativeToTestModuleStartTime="00:06.027"
						timeWallClock="13:42:11"
						time="01:42.400"
						level="Info"
						category="Mouse"
						errimg="images_madaket__137fecd4\madaket__137fecd4_55ccb669_trace.jpg"
						errthumb="images_madaket__137fecd4\madaket__137fecd4_55ccb669_trace_thumb.jpg">
						<message>
							Mouse Left Click item 'MadaketHealth.Members' at 15;16.
						</message>
						<metainfo
							type="repoitem"
							path="/dom[@caption='Madaket Health']//div[#'bodyContent']/?/?/ul/?/?/a[@innertext='Members']"
							itempath=".//div[#'bodyContent']/?/?/ul/?/?/a[@innertext='Members']"
							fullname="madaket_XP001Repository.MadaketHealth.Members"
							id="ced0afd7621342768b5fc8cafc1f82ed"
							timeout="60000"
							codefile="c:\Users\JohnPloumis\Documents\Ranorex\RanorexStudio Projects\madaket_XP001\madaket_XP001\New_Member_ValidData.cs"
							codeline="100"
							itemindex="6"
							loglvl="Info">
						</metainfo>
					</item>
					<item
						timeRelativeToTestSuiteStartTime="01:48.680"
						timeRelativeToTestModuleStartTime="00:12.307"
						timeWallClock="13:42:17"
						time="01:48.680"
						level="Error"
						category="Module">
						<message>
							The test run has been aborted by the user.
						</message>
						<metainfo
							loglvl="Error">
						</metainfo>
					</item>
				</activity>
			</activity>
		</activity>
	</activity>
</report>
