﻿<?xml version="1.0" encoding="utf-8"?>
<report
	progress="">
	<activity
		result="Failed"
		duration="0ms"
		durationms="0"
		type="root"
		rid="2cc11fffb15d3b58"
		totalerrorcount="1"
		totalwarningcount="0"
		totalsuccesstestcasecount="0"
		totalfailedtestcasecount="1"
		totalblockedtestcasecount="0"
		childsuccesscount="0"
		childfailedcount="1"
		childblockedcount="0"
		totalsuccesscount="0"
		totalfailedcount="1"
		totalblockedcount="0"
		totalmaintenancemodecount="0"
		user="JohnPloumis"
		rxversion="8.3.1.0"
		host="LAPTOP-5EO8DNU1"
		osversion="Windows 10 64bit"
		runtimeversion="4.0.30319.42000"
		procarch="32bit"
		oslanguage="en-US"
		dtnlanguage="en-US"
		screenresolution="1366x768"
		timestamp="12/5/2018 4:04:27 PM"
		timestampiso="2018-12-05T21:04:27"
		endtime="12/5/2018 4:06:47 PM"
		timeoutfactor="1">
		<detail>
			Ranorex Testscript
		</detail>
		<activity
			result="Failed"
			duration="2.3m"
			durationms="139182"
			type="test-suite"
			rid="2a131bbbf9685fd6"
			totalerrorcount="1"
			totalwarningcount="0"
			totalsuccesstestcasecount="0"
			totalfailedtestcasecount="1"
			totalblockedtestcasecount="0"
			childsuccesscount="0"
			childfailedcount="1"
			childblockedcount="0"
			totalsuccesscount="0"
			totalfailedcount="1"
			totalblockedcount="0"
			totalmaintenancemodecount="0"
			testsuitename="madaket_XP001"
			headertext="madaket_XP001"
			runconfigname="TestRun"
			runlabel="">
			<params>
			</params>
			<activity
				result="Failed"
				duration="2.3m"
				durationms="139135"
				type="test-case"
				rid="242b86e0dd6a9b2e"
				totalerrorcount="1"
				totalwarningcount="0"
				totalsuccesstestcasecount="0"
				totalfailedtestcasecount="1"
				totalblockedtestcasecount="0"
				childsuccesscount="5"
				childfailedcount="1"
				childblockedcount="0"
				totalsuccesscount="0"
				totalfailedcount="1"
				totalblockedcount="0"
				totalmaintenancemodecount="0"
				testcontainername="Madaket_XP"
				testcontainerid="2b1c309f-44ad-4542-9e87-47b21dcdd499"
				headertext="Madaket_XP"
				displayName="Madaket_XP"
				iteration="1"
				activity-exectype="execute"
				conditionstate="none">
				<activity
					result="Success"
					duration="6.22s"
					durationms="6222"
					type="test-module"
					rid="3a62f6340695b28"
					totalerrorcount="0"
					totalwarningcount="0"
					totalsuccesstestcasecount="0"
					totalfailedtestcasecount="0"
					totalblockedtestcasecount="0"
					childsuccesscount="0"
					childfailedcount="0"
					childblockedcount="0"
					totalsuccesscount="0"
					totalfailedcount="0"
					totalblockedcount="0"
					totalmaintenancemodecount="0"
					modulename="Madaket_login"
					displayName="Madaket_login"
					moduleid="7047a381-6113-4a38-ab95-4ef2d01b9d0f"
					moduletype="Recording"
					iteration="1"
					activity-exectype="execute"
					testentry-activity-type="testmodule">
					<detail>
						general qa
					</detail>
					<varbindings>
					</varbindings>
					<item
						timeRelativeToTestSuiteStartTime="00:01.203"
						timeRelativeToTestModuleStartTime="00:00.031"
						timeWallClock="16:04:28"
						time="00:01.203"
						level="Info"
						category="Website">
						<message>
							Opening web site 'https://edi-alpha.madakethealth.com/services/logout' with browser 'Chrome' in maximized mode.
						</message>
						<metainfo
							itemindex="0"
							codefile="c:\Users\JohnPloumis\Documents\Ranorex\RanorexStudio Projects\ranorex_testautomation\madaket_XP001\Madaket_login.cs"
							codeline="82"
							loglvl="Info">
						</metainfo>
					</item>
					<item
						timeRelativeToTestSuiteStartTime="00:01.984"
						timeRelativeToTestModuleStartTime="00:00.812"
						timeWallClock="16:04:29"
						time="00:01.984"
						level="Info"
						category="Set value">
						<message>
							Setting attribute Value to 'jploumis@madakethealth.com' on item 'MadaketHealth.txtUsername'.
						</message>
						<metainfo
							type="repoitem"
							path="/dom[@domain='edi-alpha.madakethealth.com']//input[#'username']"
							itempath=".//input[#'username']"
							fullname="madaket_XP001Repository.MadaketHealth.txtUsername"
							id="ad40a45ba47543068e211d52f3633bf0"
							timeout="60000"
							codefile="c:\Users\JohnPloumis\Documents\Ranorex\RanorexStudio Projects\ranorex_testautomation\madaket_XP001\Madaket_login.cs"
							codeline="85"
							itemindex="1"
							loglvl="Info">
						</metainfo>
					</item>
					<item
						timeRelativeToTestSuiteStartTime="00:05.905"
						timeRelativeToTestModuleStartTime="00:04.733"
						timeWallClock="16:04:33"
						time="00:05.905"
						level="Info"
						category="Set value">
						<message>
							Setting attribute Value to 'Monkey1213!' on item 'MadaketHealth.txtPassword'.
						</message>
						<metainfo
							type="repoitem"
							path="/dom[@domain='edi-alpha.madakethealth.com']//input[#'password']"
							itempath=".//input[#'password']"
							fullname="madaket_XP001Repository.MadaketHealth.txtPassword"
							id="a351a5d74ad64269819a1ffbe4be0530"
							timeout="60000"
							codefile="c:\Users\JohnPloumis\Documents\Ranorex\RanorexStudio Projects\ranorex_testautomation\madaket_XP001\Madaket_login.cs"
							codeline="88"
							itemindex="2"
							loglvl="Info">
						</metainfo>
					</item>
					<item
						timeRelativeToTestSuiteStartTime="00:06.234"
						timeRelativeToTestModuleStartTime="00:05.063"
						timeWallClock="16:04:33"
						time="00:06.234"
						level="Info"
						category="Validation">
						<message>
							Validating Exists on item 'MadaketHealth.btnLogin'.
						</message>
						<metainfo
							type="repoitem"
							path="/dom[@domain='edi-alpha.madakethealth.com']//input[#'loginButton']"
							itempath=".//input[#'loginButton']"
							fullname="madaket_XP001Repository.MadaketHealth.btnLogin"
							id="29776b9350984c58bf5308f720d7bca4"
							timeout="60000"
							codefile="c:\Users\JohnPloumis\Documents\Ranorex\RanorexStudio Projects\ranorex_testautomation\madaket_XP001\Madaket_login.cs"
							codeline="91"
							itemindex="3"
							loglvl="Info">
						</metainfo>
					</item>
					<item
						timeRelativeToTestSuiteStartTime="00:06.523"
						timeRelativeToTestModuleStartTime="00:05.351"
						timeWallClock="16:04:34"
						time="00:06.523"
						level="Success"
						category="Validation">
						<message>
							Element for item 'btnLogin' does exist.
						</message>
						<metainfo
							type="repoitem"
							path="/dom[@domain='edi-alpha.madakethealth.com']//input[#'loginButton']"
							itempath=".//input[#'loginButton']"
							fullname="madaket_XP001Repository.MadaketHealth.btnLogin"
							id="29776b9350984c58bf5308f720d7bca4"
							timeout="60000"
							codefile="c:\Users\JohnPloumis\Documents\Ranorex\RanorexStudio Projects\ranorex_testautomation\madaket_XP001\Madaket_login.cs"
							codeline="92"
							loglvl="Success"
							itemindex="3">
						</metainfo>
					</item>
					<item
						timeRelativeToTestSuiteStartTime="00:06.570"
						timeRelativeToTestModuleStartTime="00:05.398"
						timeWallClock="16:04:34"
						time="00:06.570"
						level="Info"
						category="Mouse">
						<message>
							Mouse Left Click item 'MadaketHealth.btnLogin' at 62;12.
						</message>
						<metainfo
							type="repoitem"
							path="/dom[@domain='edi-alpha.madakethealth.com']//input[#'loginButton']"
							itempath=".//input[#'loginButton']"
							fullname="madaket_XP001Repository.MadaketHealth.btnLogin"
							id="29776b9350984c58bf5308f720d7bca4"
							timeout="60000"
							codefile="c:\Users\JohnPloumis\Documents\Ranorex\RanorexStudio Projects\ranorex_testautomation\madaket_XP001\Madaket_login.cs"
							codeline="94"
							itemindex="4"
							loglvl="Info">
						</metainfo>
					</item>
				</activity>
				<activity
					result="Success"
					duration="60ms"
					durationms="60"
					type="test-module"
					rid="a00aba2140c4ede"
					totalerrorcount="0"
					totalwarningcount="0"
					totalsuccesstestcasecount="0"
					totalfailedtestcasecount="0"
					totalblockedtestcasecount="0"
					childsuccesscount="0"
					childfailedcount="0"
					childblockedcount="0"
					totalsuccesscount="0"
					totalfailedcount="0"
					totalblockedcount="0"
					totalmaintenancemodecount="0"
					modulename="Fetch_TestData_Directory"
					displayName="Fetch_TestData_Directory"
					moduleid="2676acf6-35f0-4c96-9bd5-5fbbc4117574"
					moduletype="UserCode"
					iteration="1"
					activity-exectype="execute"
					testentry-activity-type="testmodule">
					<varbindings>
					</varbindings>
					<item
						timeRelativeToTestSuiteStartTime="00:07.404"
						timeRelativeToTestModuleStartTime="00:00.003"
						timeWallClock="16:04:34"
						time="00:07.404"
						level="Info"
						category="User">
						<message>
							C:\Users\JohnPloumis\Documents\Ranorex\RanorexStudio Projects\ranorex_testautomation\madaket_XP001\TestData
						</message>
						<metainfo
							codefile="c:\Users\JohnPloumis\Documents\Ranorex\RanorexStudio Projects\ranorex_testautomation\madaket_XP001\Fetch_TestData_Directory.cs"
							codeline="52"
							loglvl="Info">
						</metainfo>
					</item>
				</activity>
				<activity
					result="Success"
					duration="9.19s"
					durationms="9193"
					type="test-module"
					rid="4d5a799d5ed1225"
					totalerrorcount="0"
					totalwarningcount="0"
					totalsuccesstestcasecount="0"
					totalfailedtestcasecount="0"
					totalblockedtestcasecount="0"
					childsuccesscount="0"
					childfailedcount="0"
					childblockedcount="0"
					totalsuccesscount="0"
					totalfailedcount="0"
					totalblockedcount="0"
					totalmaintenancemodecount="0"
					modulename="New_Payer_NoData"
					displayName="New_Payer_NoData"
					moduleid="c2c3f592-c70a-4a42-9f69-8f7f27722dc4"
					moduletype="Recording"
					iteration="1"
					activity-exectype="execute"
					testentry-activity-type="testmodule">
					<detail>
						MH-2218
					</detail>
					<varbindings>
					</varbindings>
					<item
						timeRelativeToTestSuiteStartTime="00:07.472"
						timeRelativeToTestModuleStartTime="00:00.008"
						timeWallClock="16:04:34"
						time="00:07.472"
						level="Info"
						category="Mouse">
						<message>
							Mouse Left Click item 'MadaketHealth.DivTagPayers' at 16;21.
						</message>
						<metainfo
							type="repoitem"
							path="/dom[@domain='edi-alpha.madakethealth.com']//nav[#'mainNav']/ul//div[@innertext='Payers']"
							itempath=".//nav[#'mainNav']/ul//div[@innertext='Payers']"
							fullname="madaket_XP001Repository.MadaketHealth.DivTagPayers"
							id="29cc9e25aab349529ce160a3bd60a2f5"
							timeout="60000"
							codefile="c:\Users\JohnPloumis\Documents\Ranorex\RanorexStudio Projects\ranorex_testautomation\madaket_XP001\New_Payer_NoData.cs"
							codeline="82"
							itemindex="0"
							loglvl="Info">
						</metainfo>
					</item>
					<item
						timeRelativeToTestSuiteStartTime="00:10.027"
						timeRelativeToTestModuleStartTime="00:02.562"
						timeWallClock="16:04:37"
						time="00:10.027"
						level="Info"
						category="Mouse">
						<message>
							Mouse Left Click item 'MadaketHealth.linkNewPayer' at 46;12.
						</message>
						<metainfo
							type="repoitem"
							path="/dom[@domain='edi-alpha.madakethealth.com']//a[#'payorClick']"
							itempath=".//a[#'payorClick']"
							fullname="madaket_XP001Repository.MadaketHealth.linkNewPayer"
							id="0e40999c158242618af66e1af1edf093"
							timeout="60000"
							codefile="c:\Users\JohnPloumis\Documents\Ranorex\RanorexStudio Projects\ranorex_testautomation\madaket_XP001\New_Payer_NoData.cs"
							codeline="85"
							itemindex="1"
							loglvl="Info">
						</metainfo>
					</item>
					<item
						timeRelativeToTestSuiteStartTime="00:12.261"
						timeRelativeToTestModuleStartTime="00:04.796"
						timeWallClock="16:04:39"
						time="00:12.261"
						level="Info"
						category="Mouse">
						<message>
							Mouse Left Click item 'MadaketHealth.PopupScrollContainer' at Center.
						</message>
						<metainfo
							type="repoitem"
							path="/dom[@domain='edi-alpha.madakethealth.com']//div[#'editPayorPopup']/div[2]"
							itempath=".//div[#'editPayorPopup']/div[2]"
							fullname="madaket_XP001Repository.MadaketHealth.PopupScrollContainer"
							id="f53c44ed5bb14893839e2b7cdc4d3ef7"
							timeout="60000"
							codefile="c:\Users\JohnPloumis\Documents\Ranorex\RanorexStudio Projects\ranorex_testautomation\madaket_XP001\New_Payer_NoData.cs"
							codeline="88"
							itemindex="2"
							loglvl="Info">
						</metainfo>
					</item>
					<item
						timeRelativeToTestSuiteStartTime="00:13.207"
						timeRelativeToTestModuleStartTime="00:05.742"
						timeWallClock="16:04:40"
						time="00:13.207"
						level="Info"
						category="Mouse">
						<message>
							Mouse Left Click item 'MadaketHealth.PopupScrollContainer' at LowerRight.
						</message>
						<metainfo
							type="repoitem"
							path="/dom[@domain='edi-alpha.madakethealth.com']//div[#'editPayorPopup']/div[2]"
							itempath=".//div[#'editPayorPopup']/div[2]"
							fullname="madaket_XP001Repository.MadaketHealth.PopupScrollContainer"
							id="f53c44ed5bb14893839e2b7cdc4d3ef7"
							timeout="60000"
							codefile="c:\Users\JohnPloumis\Documents\Ranorex\RanorexStudio Projects\ranorex_testautomation\madaket_XP001\New_Payer_NoData.cs"
							codeline="91"
							itemindex="3"
							loglvl="Info">
						</metainfo>
					</item>
					<item
						timeRelativeToTestSuiteStartTime="00:13.957"
						timeRelativeToTestModuleStartTime="00:06.492"
						timeWallClock="16:04:41"
						time="00:13.957"
						level="Info"
						category="Mouse">
						<message>
							Mouse Left Click item 'MadaketHealth.btnSavePayor' at 71;7.
						</message>
						<metainfo
							type="repoitem"
							path="/dom[@domain='edi-alpha.madakethealth.com']//button[#'savePayorButton']"
							itempath=".//button[#'savePayorButton']"
							fullname="madaket_XP001Repository.MadaketHealth.btnSavePayor"
							id="ab96c6bd2749404d82d6f94d5830ab20"
							timeout="60000"
							codefile="c:\Users\JohnPloumis\Documents\Ranorex\RanorexStudio Projects\ranorex_testautomation\madaket_XP001\New_Payer_NoData.cs"
							codeline="94"
							itemindex="4"
							loglvl="Info">
						</metainfo>
					</item>
					<item
						timeRelativeToTestSuiteStartTime="00:14.743"
						timeRelativeToTestModuleStartTime="00:07.277"
						timeWallClock="16:04:42"
						time="00:14.743"
						level="Info"
						category="Mouse">
						<message>
							Mouse Left Click item 'MadaketHealth.errMsgPleaseEnterPayerName' at 89;11.
						</message>
						<metainfo
							type="repoitem"
							path="/dom[@domain='edi-alpha.madakethealth.com']//form[#'payorGeneralForm']/div[1]//label[@innertext='Please enter payer name']"
							itempath=".//form[#'payorGeneralForm']/div[1]//label[@innertext='Please enter payer name']"
							fullname="madaket_XP001Repository.MadaketHealth.errMsgPleaseEnterPayerName"
							id="4e8fcb6b94fa4fdfaa37a0b3a3c6c8d4"
							timeout="60000"
							codefile="c:\Users\JohnPloumis\Documents\Ranorex\RanorexStudio Projects\ranorex_testautomation\madaket_XP001\New_Payer_NoData.cs"
							codeline="97"
							itemindex="5"
							loglvl="Info">
						</metainfo>
					</item>
					<item
						timeRelativeToTestSuiteStartTime="00:15.807"
						timeRelativeToTestModuleStartTime="00:08.342"
						timeWallClock="16:04:43"
						time="00:15.807"
						level="Info"
						category="Mouse">
						<message>
							Mouse Left Click item 'MadaketHealth.HttpsTestMadakethealthComServices' at 18;22.
						</message>
						<metainfo
							type="repoitem"
							path="/dom[@domain='edi-alpha.madakethealth.com']//div[#'editPayorPopup']/a[@href~'^https://edi-alpha\.madaket']"
							itempath=".//div[#'editPayorPopup']/a[@href~'^https://edi-alpha\.madaket']"
							fullname="madaket_XP001Repository.MadaketHealth.HttpsTestMadakethealthComServices"
							id="ba73c9ad44884b9eb242b07457d62a68"
							timeout="60000"
							codefile="c:\Users\JohnPloumis\Documents\Ranorex\RanorexStudio Projects\ranorex_testautomation\madaket_XP001\New_Payer_NoData.cs"
							codeline="100"
							itemindex="6"
							loglvl="Info">
						</metainfo>
					</item>
				</activity>
				<activity
					result="Success"
					duration="19.96s"
					durationms="19962"
					type="test-module"
					rid="e0818d5fef239fd"
					totalerrorcount="0"
					totalwarningcount="0"
					totalsuccesstestcasecount="0"
					totalfailedtestcasecount="0"
					totalblockedtestcasecount="0"
					childsuccesscount="0"
					childfailedcount="0"
					childblockedcount="0"
					totalsuccesscount="0"
					totalfailedcount="0"
					totalblockedcount="0"
					totalmaintenancemodecount="0"
					modulename="New_Payer_ValidData"
					displayName="New_Payer_ValidData"
					moduleid="a2d47517-0a0b-47f5-b141-691f6f0b3abc"
					moduletype="Recording"
					iteration="1"
					activity-exectype="execute"
					testentry-activity-type="testmodule">
					<detail>
						MH-2218
					</detail>
					<varbindings>
					</varbindings>
					<item
						timeRelativeToTestSuiteStartTime="00:16.669"
						timeRelativeToTestModuleStartTime="00:00.007"
						timeWallClock="16:04:44"
						time="00:16.669"
						level="Info"
						category="Mouse">
						<message>
							Mouse Left Click item 'MadaketHealth.DivTagPayers' at 16;20.
						</message>
						<metainfo
							type="repoitem"
							path="/dom[@domain='edi-alpha.madakethealth.com']//nav[#'mainNav']/ul//div[@innertext='Payers']"
							itempath=".//nav[#'mainNav']/ul//div[@innertext='Payers']"
							fullname="madaket_XP001Repository.MadaketHealth.DivTagPayers"
							id="29cc9e25aab349529ce160a3bd60a2f5"
							timeout="60000"
							codefile="c:\Users\JohnPloumis\Documents\Ranorex\RanorexStudio Projects\ranorex_testautomation\madaket_XP001\New_Payer_ValidData.cs"
							codeline="82"
							itemindex="0"
							loglvl="Info">
						</metainfo>
					</item>
					<item
						timeRelativeToTestSuiteStartTime="00:17.995"
						timeRelativeToTestModuleStartTime="00:01.332"
						timeWallClock="16:04:45"
						time="00:17.995"
						level="Info"
						category="Mouse">
						<message>
							Mouse Left Click item 'MadaketHealth.linkNewPayer' at 34;13.
						</message>
						<metainfo
							type="repoitem"
							path="/dom[@domain='edi-alpha.madakethealth.com']//a[#'payorClick']"
							itempath=".//a[#'payorClick']"
							fullname="madaket_XP001Repository.MadaketHealth.linkNewPayer"
							id="0e40999c158242618af66e1af1edf093"
							timeout="60000"
							codefile="c:\Users\JohnPloumis\Documents\Ranorex\RanorexStudio Projects\ranorex_testautomation\madaket_XP001\New_Payer_ValidData.cs"
							codeline="85"
							itemindex="1"
							loglvl="Info">
						</metainfo>
					</item>
					<item
						timeRelativeToTestSuiteStartTime="00:19.416"
						timeRelativeToTestModuleStartTime="00:02.754"
						timeWallClock="16:04:46"
						time="00:19.416"
						level="Info"
						category="Mouse">
						<message>
							Mouse Left Click item 'MadaketHealth.PayorName' at Center.
						</message>
						<metainfo
							type="repoitem"
							path="/dom[@domain='edi-alpha.madakethealth.com']//input[#'payorName']"
							itempath=".//input[#'payorName']"
							fullname="madaket_XP001Repository.MadaketHealth.PayorName"
							id="c60f64d457204be3b0c571ec0261f3c7"
							timeout="60000"
							codefile="c:\Users\JohnPloumis\Documents\Ranorex\RanorexStudio Projects\ranorex_testautomation\madaket_XP001\New_Payer_ValidData.cs"
							codeline="88"
							itemindex="2"
							loglvl="Info">
						</metainfo>
					</item>
					<item
						timeRelativeToTestSuiteStartTime="00:20.525"
						timeRelativeToTestModuleStartTime="00:03.863"
						timeWallClock="16:04:48"
						time="00:20.525"
						level="Info"
						category="Set value">
						<message>
							Setting attribute Value to 'test_payer_automation_XP002' on item 'MadaketHealth.PayorName'.
						</message>
						<metainfo
							type="repoitem"
							path="/dom[@domain='edi-alpha.madakethealth.com']//input[#'payorName']"
							itempath=".//input[#'payorName']"
							fullname="madaket_XP001Repository.MadaketHealth.PayorName"
							id="c60f64d457204be3b0c571ec0261f3c7"
							timeout="60000"
							codefile="c:\Users\JohnPloumis\Documents\Ranorex\RanorexStudio Projects\ranorex_testautomation\madaket_XP001\New_Payer_ValidData.UserCode.cs"
							codeline="38"
							itemindex="3"
							loglvl="Info">
						</metainfo>
					</item>
					<item
						timeRelativeToTestSuiteStartTime="00:20.841"
						timeRelativeToTestModuleStartTime="00:04.178"
						timeWallClock="16:04:48"
						time="00:20.841"
						level="Info"
						category="Delay">
						<message>
							Waiting for 500ms.
						</message>
						<metainfo
							itemindex="4"
							codefile="c:\Users\JohnPloumis\Documents\Ranorex\RanorexStudio Projects\ranorex_testautomation\madaket_XP001\New_Payer_ValidData.cs"
							codeline="93"
							loglvl="Info">
						</metainfo>
					</item>
					<item
						timeRelativeToTestSuiteStartTime="00:21.399"
						timeRelativeToTestModuleStartTime="00:04.737"
						timeWallClock="16:04:48"
						time="00:21.399"
						level="Info"
						category="Invoke action">
						<message>
							Invoking Focus() on item 'MadaketHealth.PopupScrollContainer'.
						</message>
						<metainfo
							type="repoitem"
							path="/dom[@domain='edi-alpha.madakethealth.com']//div[#'editPayorPopup']/div[2]"
							itempath=".//div[#'editPayorPopup']/div[2]"
							fullname="madaket_XP001Repository.MadaketHealth.PopupScrollContainer"
							id="f53c44ed5bb14893839e2b7cdc4d3ef7"
							timeout="60000"
							codefile="c:\Users\JohnPloumis\Documents\Ranorex\RanorexStudio Projects\ranorex_testautomation\madaket_XP001\New_Payer_ValidData.cs"
							codeline="96"
							itemindex="5"
							loglvl="Info">
						</metainfo>
					</item>
					<item
						timeRelativeToTestSuiteStartTime="00:21.707"
						timeRelativeToTestModuleStartTime="00:05.044"
						timeWallClock="16:04:49"
						time="00:21.707"
						level="Info"
						category="Mouse">
						<message>
							Mouse Left Click item 'MadaketHealth.PopupScrollContainer' at LowerRight.
						</message>
						<metainfo
							type="repoitem"
							path="/dom[@domain='edi-alpha.madakethealth.com']//div[#'editPayorPopup']/div[2]"
							itempath=".//div[#'editPayorPopup']/div[2]"
							fullname="madaket_XP001Repository.MadaketHealth.PopupScrollContainer"
							id="f53c44ed5bb14893839e2b7cdc4d3ef7"
							timeout="60000"
							codefile="c:\Users\JohnPloumis\Documents\Ranorex\RanorexStudio Projects\ranorex_testautomation\madaket_XP001\New_Payer_ValidData.cs"
							codeline="99"
							itemindex="6"
							loglvl="Info">
						</metainfo>
					</item>
					<item
						timeRelativeToTestSuiteStartTime="00:22.462"
						timeRelativeToTestModuleStartTime="00:05.800"
						timeWallClock="16:04:49"
						time="00:22.462"
						level="Info"
						category="Set value">
						<message>
							Setting attribute Value to '101 main street' on item 'MadaketHealth.TxtStreet1'.
						</message>
						<metainfo
							type="repoitem"
							path="/dom[@domain='edi-alpha.madakethealth.com']//input[#'txt_street1']"
							itempath=".//input[#'txt_street1']"
							fullname="madaket_XP001Repository.MadaketHealth.TxtStreet1"
							id="140f920df0e2418ca6177c3fcaa08df8"
							timeout="60000"
							codefile="c:\Users\JohnPloumis\Documents\Ranorex\RanorexStudio Projects\ranorex_testautomation\madaket_XP001\New_Payer_ValidData.cs"
							codeline="102"
							itemindex="7"
							loglvl="Info">
						</metainfo>
					</item>
					<item
						timeRelativeToTestSuiteStartTime="00:22.787"
						timeRelativeToTestModuleStartTime="00:06.125"
						timeWallClock="16:04:50"
						time="00:22.787"
						level="Info"
						category="Mouse">
						<message>
							Mouse Left Click item 'MadaketHealth.TxtCity' at 130;7.
						</message>
						<metainfo
							type="repoitem"
							path="/dom[@domain='edi-alpha.madakethealth.com']//input[#'txt_city']"
							itempath=".//input[#'txt_city']"
							fullname="madaket_XP001Repository.MadaketHealth.TxtCity"
							id="275ef8ae16904ae689a4001c02a10d08"
							timeout="60000"
							codefile="c:\Users\JohnPloumis\Documents\Ranorex\RanorexStudio Projects\ranorex_testautomation\madaket_XP001\New_Payer_ValidData.cs"
							codeline="105"
							itemindex="8"
							loglvl="Info">
						</metainfo>
					</item>
					<item
						timeRelativeToTestSuiteStartTime="00:23.793"
						timeRelativeToTestModuleStartTime="00:07.131"
						timeWallClock="16:04:51"
						time="00:23.793"
						level="Info"
						category="Set value">
						<message>
							Setting attribute Value to 'Boston' on item 'MadaketHealth.TxtCity'.
						</message>
						<metainfo
							type="repoitem"
							path="/dom[@domain='edi-alpha.madakethealth.com']//input[#'txt_city']"
							itempath=".//input[#'txt_city']"
							fullname="madaket_XP001Repository.MadaketHealth.TxtCity"
							id="275ef8ae16904ae689a4001c02a10d08"
							timeout="60000"
							codefile="c:\Users\JohnPloumis\Documents\Ranorex\RanorexStudio Projects\ranorex_testautomation\madaket_XP001\New_Payer_ValidData.cs"
							codeline="108"
							itemindex="9"
							loglvl="Info">
						</metainfo>
					</item>
					<item
						timeRelativeToTestSuiteStartTime="00:24.159"
						timeRelativeToTestModuleStartTime="00:07.497"
						timeWallClock="16:04:51"
						time="00:24.159"
						level="Info"
						category="Set value">
						<message>
							Setting attribute TagValue to 'MA' on item 'MadaketHealth.TxtState'.
						</message>
						<metainfo
							type="repoitem"
							path="/dom[@domain='edi-alpha.madakethealth.com']//select[#'txt_state']"
							itempath=".//select[#'txt_state']"
							fullname="madaket_XP001Repository.MadaketHealth.TxtState"
							id="ebe2033877a44d918170bb47fee05430"
							timeout="60000"
							codefile="c:\Users\JohnPloumis\Documents\Ranorex\RanorexStudio Projects\ranorex_testautomation\madaket_XP001\New_Payer_ValidData.cs"
							codeline="111"
							itemindex="10"
							loglvl="Info">
						</metainfo>
					</item>
					<item
						timeRelativeToTestSuiteStartTime="00:24.499"
						timeRelativeToTestModuleStartTime="00:07.837"
						timeWallClock="16:04:51"
						time="00:24.499"
						level="Info"
						category="Mouse">
						<message>
							Mouse Left Click item 'MadaketHealth.PopupScrollContainer' at LowerRight.
						</message>
						<metainfo
							type="repoitem"
							path="/dom[@domain='edi-alpha.madakethealth.com']//div[#'editPayorPopup']/div[2]"
							itempath=".//div[#'editPayorPopup']/div[2]"
							fullname="madaket_XP001Repository.MadaketHealth.PopupScrollContainer"
							id="f53c44ed5bb14893839e2b7cdc4d3ef7"
							timeout="60000"
							codefile="c:\Users\JohnPloumis\Documents\Ranorex\RanorexStudio Projects\ranorex_testautomation\madaket_XP001\New_Payer_ValidData.cs"
							codeline="114"
							itemindex="11"
							loglvl="Info">
						</metainfo>
					</item>
					<item
						timeRelativeToTestSuiteStartTime="00:25.259"
						timeRelativeToTestModuleStartTime="00:08.597"
						timeWallClock="16:04:52"
						time="00:25.259"
						level="Info"
						category="Mouse">
						<message>
							Mouse Left Click item 'MadaketHealth.FirstName' at 146;8.
						</message>
						<metainfo
							type="repoitem"
							path="/dom[@domain='edi-alpha.madakethealth.com']//input[#'firstName']"
							itempath=".//input[#'firstName']"
							fullname="madaket_XP001Repository.MadaketHealth.FirstName"
							id="d3da3f164ae640b5b1e62605679d50af"
							timeout="60000"
							codefile="c:\Users\JohnPloumis\Documents\Ranorex\RanorexStudio Projects\ranorex_testautomation\madaket_XP001\New_Payer_ValidData.cs"
							codeline="117"
							itemindex="12"
							loglvl="Info">
						</metainfo>
					</item>
					<item
						timeRelativeToTestSuiteStartTime="00:26.286"
						timeRelativeToTestModuleStartTime="00:09.624"
						timeWallClock="16:04:53"
						time="00:26.286"
						level="Info"
						category="Keyboard">
						<message>
							Key sequence 'test{Tab}payer' with focus on 'MadaketHealth.FirstName'.
						</message>
						<metainfo
							type="repoitem"
							path="/dom[@domain='edi-alpha.madakethealth.com']//input[#'firstName']"
							itempath=".//input[#'firstName']"
							fullname="madaket_XP001Repository.MadaketHealth.FirstName"
							id="d3da3f164ae640b5b1e62605679d50af"
							timeout="60000"
							codefile="c:\Users\JohnPloumis\Documents\Ranorex\RanorexStudio Projects\ranorex_testautomation\madaket_XP001\New_Payer_ValidData.cs"
							codeline="120"
							itemindex="13"
							loglvl="Info">
						</metainfo>
					</item>
					<item
						timeRelativeToTestSuiteStartTime="00:27.521"
						timeRelativeToTestModuleStartTime="00:10.859"
						timeWallClock="16:04:54"
						time="00:27.521"
						level="Info"
						category="Keyboard">
						<message>
							Key sequence '{Tab}'.
						</message>
						<metainfo
							itemindex="14"
							codefile="c:\Users\JohnPloumis\Documents\Ranorex\RanorexStudio Projects\ranorex_testautomation\madaket_XP001\New_Payer_ValidData.cs"
							codeline="123"
							loglvl="Info">
						</metainfo>
					</item>
					<item
						timeRelativeToTestSuiteStartTime="00:27.711"
						timeRelativeToTestModuleStartTime="00:11.048"
						timeWallClock="16:04:55"
						time="00:27.711"
						level="Info"
						category="Keyboard">
						<message>
							Key sequence 'test.payer{LShiftKey down}{@ down}{LShiftKey up}payer.com'.
						</message>
						<metainfo
							itemindex="15"
							codefile="c:\Users\JohnPloumis\Documents\Ranorex\RanorexStudio Projects\ranorex_testautomation\madaket_XP001\New_Payer_ValidData.cs"
							codeline="126"
							loglvl="Info">
						</metainfo>
					</item>
					<item
						timeRelativeToTestSuiteStartTime="00:28.339"
						timeRelativeToTestModuleStartTime="00:11.677"
						timeWallClock="16:04:55"
						time="00:28.339"
						level="Info"
						category="Mouse">
						<message>
							Mouse Left Click item 'MadaketHealth.btnSavePayor' at 50;9.
						</message>
						<metainfo
							type="repoitem"
							path="/dom[@domain='edi-alpha.madakethealth.com']//button[#'savePayorButton']"
							itempath=".//button[#'savePayorButton']"
							fullname="madaket_XP001Repository.MadaketHealth.btnSavePayor"
							id="ab96c6bd2749404d82d6f94d5830ab20"
							timeout="60000"
							codefile="c:\Users\JohnPloumis\Documents\Ranorex\RanorexStudio Projects\ranorex_testautomation\madaket_XP001\New_Payer_ValidData.cs"
							codeline="129"
							itemindex="16"
							loglvl="Info">
						</metainfo>
					</item>
					<item
						timeRelativeToTestSuiteStartTime="00:29.243"
						timeRelativeToTestModuleStartTime="00:12.581"
						timeWallClock="16:04:56"
						time="00:29.243"
						level="Info"
						category="Mouse">
						<message>
							Mouse Left Click item 'MadaketHealth.PayerGeneralDetailsDiv.DivTagTestPayerAutomationXP0' at 96;9.
						</message>
						<metainfo
							type="repoitem"
							path="/dom[@domain='edi-alpha.madakethealth.com']//div[#'payerGeneralDetailsDiv']//div[@innertext~'^test_payer_autom']"
							itempath=".//div[@innertext~'^test_payer_autom']"
							fullname="madaket_XP001Repository.MadaketHealth.PayerGeneralDetailsDiv.DivTagTestPayerAutomationXP0"
							id="0e44183f677548639bb83854085d8ec1"
							timeout="90000"
							codefile="c:\Users\JohnPloumis\Documents\Ranorex\RanorexStudio Projects\ranorex_testautomation\madaket_XP001\New_Payer_ValidData.cs"
							codeline="132"
							itemindex="17"
							loglvl="Info">
						</metainfo>
					</item>
					<item
						timeRelativeToTestSuiteStartTime="00:31.395"
						timeRelativeToTestModuleStartTime="00:14.732"
						timeWallClock="16:04:58"
						time="00:31.395"
						level="Info"
						category="Mouse">
						<message>
							Mouse Left Click item 'MadaketHealth.PayerGeneralDetailsDiv.PayerName' at Center.
						</message>
						<metainfo
							type="repoitem"
							path="/dom[@domain='edi-alpha.madakethealth.com']//div[#'payerGeneralDetailsDiv']/div[2]/div[1]/?/?/strong[@innertext='Payer name:']"
							itempath="div[2]/div[1]/?/?/strong[@innertext='Payer name:']"
							fullname="madaket_XP001Repository.MadaketHealth.PayerGeneralDetailsDiv.PayerName"
							id="761d8abaef054dda9ba0c9e8b5cb4084"
							timeout="90000"
							codefile="c:\Users\JohnPloumis\Documents\Ranorex\RanorexStudio Projects\ranorex_testautomation\madaket_XP001\New_Payer_ValidData.cs"
							codeline="135"
							itemindex="18"
							loglvl="Info">
						</metainfo>
					</item>
					<item
						timeRelativeToTestSuiteStartTime="00:32.389"
						timeRelativeToTestModuleStartTime="00:15.727"
						timeWallClock="16:04:59"
						time="00:32.389"
						level="Info"
						category="Mouse">
						<message>
							Mouse Left Click item 'MadaketHealth.PayerGeneralDetailsDiv.Address' at Center.
						</message>
						<metainfo
							type="repoitem"
							path="/dom[@domain='edi-alpha.madakethealth.com']//div[#'payerGeneralDetailsDiv']/div[2]/div[7]/?/?/span[@innertext='Address:']"
							itempath="div[2]/div[7]/?/?/span[@innertext='Address:']"
							fullname="madaket_XP001Repository.MadaketHealth.PayerGeneralDetailsDiv.Address"
							id="14645446fd584bf2a276b1938a1712e1"
							timeout="90000"
							codefile="c:\Users\JohnPloumis\Documents\Ranorex\RanorexStudio Projects\ranorex_testautomation\madaket_XP001\New_Payer_ValidData.cs"
							codeline="138"
							itemindex="19"
							loglvl="Info">
						</metainfo>
					</item>
					<item
						timeRelativeToTestSuiteStartTime="00:33.305"
						timeRelativeToTestModuleStartTime="00:16.643"
						timeWallClock="16:05:00"
						time="00:33.305"
						level="Info"
						category="Mouse">
						<message>
							Mouse Left Click item 'MadaketHealth.PayerGeneralDetailsDiv.DivTag101MainStreetW' at 35;17.
						</message>
						<metainfo
							type="repoitem"
							path="/dom[@domain='edi-alpha.madakethealth.com']//div[#'payerGeneralDetailsDiv']//div[@innertext~'^101\ main\ street']"
							itempath=".//div[@innertext~'^101\ main\ street']"
							fullname="madaket_XP001Repository.MadaketHealth.PayerGeneralDetailsDiv.DivTag101MainStreetW"
							id="6c7e3dd9a6004299ba43a1310c11a174"
							timeout="90000"
							codefile="c:\Users\JohnPloumis\Documents\Ranorex\RanorexStudio Projects\ranorex_testautomation\madaket_XP001\New_Payer_ValidData.cs"
							codeline="141"
							itemindex="20"
							loglvl="Info">
						</metainfo>
					</item>
					<item
						timeRelativeToTestSuiteStartTime="00:34.458"
						timeRelativeToTestModuleStartTime="00:17.796"
						timeWallClock="16:05:01"
						time="00:34.458"
						level="Info"
						category="Mouse">
						<message>
							Mouse Left Click item 'MadaketHealth.PayerGeneralDetailsDiv.Contact' at 32;5.
						</message>
						<metainfo
							type="repoitem"
							path="/dom[@domain='edi-alpha.madakethealth.com']//div[#'payerGeneralDetailsDiv']/div[2]/div[8]/?/?/span[@innertext='Contact:']"
							itempath="div[2]/div[8]/?/?/span[@innertext='Contact:']"
							fullname="madaket_XP001Repository.MadaketHealth.PayerGeneralDetailsDiv.Contact"
							id="f417a5fe94464a708c34508abc60a181"
							timeout="90000"
							codefile="c:\Users\JohnPloumis\Documents\Ranorex\RanorexStudio Projects\ranorex_testautomation\madaket_XP001\New_Payer_ValidData.cs"
							codeline="144"
							itemindex="21"
							loglvl="Info">
						</metainfo>
					</item>
					<item
						timeRelativeToTestSuiteStartTime="00:35.423"
						timeRelativeToTestModuleStartTime="00:18.761"
						timeWallClock="16:05:02"
						time="00:35.423"
						level="Info"
						category="Mouse">
						<message>
							Mouse Left Click item 'MadaketHealth.PayerGeneralDetailsDiv.DivTagTestPayerAtpayerCom' at 59;6.
						</message>
						<metainfo
							type="repoitem"
							path="/dom[@domain='edi-alpha.madakethealth.com']//div[#'payerGeneralDetailsDiv']//div[@innertext~'^test\.payer@payer']"
							itempath=".//div[@innertext~'^test\.payer@payer']"
							fullname="madaket_XP001Repository.MadaketHealth.PayerGeneralDetailsDiv.DivTagTestPayerAtpayerCom"
							id="54203ec5caae40ada0580344cddf82e5"
							timeout="90000"
							codefile="c:\Users\JohnPloumis\Documents\Ranorex\RanorexStudio Projects\ranorex_testautomation\madaket_XP001\New_Payer_ValidData.cs"
							codeline="147"
							itemindex="22"
							loglvl="Info">
						</metainfo>
					</item>
				</activity>
				<activity
					result="Success"
					duration="38.51s"
					durationms="38514"
					type="test-module"
					rid="6008045a4e60364"
					totalerrorcount="0"
					totalwarningcount="0"
					totalsuccesstestcasecount="0"
					totalfailedtestcasecount="0"
					totalblockedtestcasecount="0"
					childsuccesscount="0"
					childfailedcount="0"
					childblockedcount="0"
					totalsuccesscount="0"
					totalfailedcount="0"
					totalblockedcount="0"
					totalmaintenancemodecount="0"
					modulename="Plan_Creation"
					displayName="Plan_Creation"
					moduleid="b77c5061-2d4e-4a82-85d3-0ceff64e76a8"
					moduletype="Recording"
					iteration="1"
					activity-exectype="execute"
					testentry-activity-type="testmodule">
					<detail>
						MH-2220
					</detail>
					<varbindings>
					</varbindings>
					<item
						timeRelativeToTestSuiteStartTime="00:36.640"
						timeRelativeToTestModuleStartTime="00:00.015"
						timeWallClock="16:05:04"
						time="00:36.640"
						level="Info"
						category="Mouse">
						<message>
							Mouse Left Click item 'MadaketHealth.DivTagPlans' at 9;16.
						</message>
						<metainfo
							type="repoitem"
							path="/dom[@domain='edi-alpha.madakethealth.com']//nav[#'mainNav']/ul//div[@innertext='Plans']"
							itempath=".//nav[#'mainNav']/ul//div[@innertext='Plans']"
							fullname="madaket_XP001Repository.MadaketHealth.DivTagPlans"
							id="4245ea03cf1f44b2977e9e08c91a4768"
							timeout="60000"
							codefile="c:\Users\JohnPloumis\Documents\Ranorex\RanorexStudio Projects\ranorex_testautomation\madaket_XP001\Plan_Creation.cs"
							codeline="82"
							itemindex="0"
							loglvl="Info">
						</metainfo>
					</item>
					<item
						timeRelativeToTestSuiteStartTime="00:37.728"
						timeRelativeToTestModuleStartTime="00:01.103"
						timeWallClock="16:05:05"
						time="00:37.728"
						level="Info"
						category="Delay">
						<message>
							Waiting for 4.5s.
						</message>
						<metainfo
							itemindex="1"
							codefile="c:\Users\JohnPloumis\Documents\Ranorex\RanorexStudio Projects\ranorex_testautomation\madaket_XP001\Plan_Creation.cs"
							codeline="85"
							loglvl="Info">
						</metainfo>
					</item>
					<item
						timeRelativeToTestSuiteStartTime="00:42.298"
						timeRelativeToTestModuleStartTime="00:05.673"
						timeWallClock="16:05:09"
						time="00:42.298"
						level="Info"
						category="Mouse">
						<message>
							Mouse Left Click item 'MadaketHealth.DataTablesScrollBody1' at LowerCenter.
						</message>
						<metainfo
							type="repoitem"
							path="/dom[@domain='edi-alpha.madakethealth.com']//div[#'planList_wrapper']/div[3]/div[2]"
							itempath=".//div[#'planList_wrapper']/div[3]/div[2]"
							fullname="madaket_XP001Repository.MadaketHealth.DataTablesScrollBody1"
							id="24641ab377e1414199910c7a5ef0efc6"
							timeout="60000"
							codefile="c:\Users\JohnPloumis\Documents\Ranorex\RanorexStudio Projects\ranorex_testautomation\madaket_XP001\Plan_Creation.cs"
							codeline="88"
							itemindex="2"
							loglvl="Info">
						</metainfo>
					</item>
					<item
						timeRelativeToTestSuiteStartTime="00:43.254"
						timeRelativeToTestModuleStartTime="00:06.629"
						timeWallClock="16:05:10"
						time="00:43.254"
						level="Info"
						category="Mouse">
						<message>
							Mouse Left Click item 'MadaketHealth.AddPlan' at 36;7.
						</message>
						<metainfo
							type="repoitem"
							path="/dom[@domain='edi-alpha.madakethealth.com']//a[#'addPlan']"
							itempath=".//a[#'addPlan']"
							fullname="madaket_XP001Repository.MadaketHealth.AddPlan"
							id="66c0eee316bd4ab080f4ac6fb9d08a52"
							timeout="60000"
							codefile="c:\Users\JohnPloumis\Documents\Ranorex\RanorexStudio Projects\ranorex_testautomation\madaket_XP001\Plan_Creation.cs"
							codeline="91"
							itemindex="3"
							loglvl="Info">
						</metainfo>
					</item>
					<item
						timeRelativeToTestSuiteStartTime="00:44.045"
						timeRelativeToTestModuleStartTime="00:07.420"
						timeWallClock="16:05:11"
						time="00:44.045"
						level="Info"
						category="Mouse">
						<message>
							Mouse Left Click item 'MadaketHealth.PopupScrollContainer4' at 679;399.
						</message>
						<metainfo
							type="repoitem"
							path="/dom[@domain='edi-alpha.madakethealth.com']//div[#'addOrUpdatePlanPopup']/div[2]"
							itempath=".//div[#'addOrUpdatePlanPopup']/div[2]"
							fullname="madaket_XP001Repository.MadaketHealth.PopupScrollContainer4"
							id="acb01864dd9f45ab9b8c227267ba503f"
							timeout="60000"
							codefile="c:\Users\JohnPloumis\Documents\Ranorex\RanorexStudio Projects\ranorex_testautomation\madaket_XP001\Plan_Creation.cs"
							codeline="94"
							itemindex="4"
							loglvl="Info">
						</metainfo>
					</item>
					<item
						timeRelativeToTestSuiteStartTime="00:45.091"
						timeRelativeToTestModuleStartTime="00:08.466"
						timeWallClock="16:05:12"
						time="00:45.091"
						level="Info"
						category="Mouse">
						<message>
							Mouse Left Click item 'MadaketHealth.SavePlan' at Center.
						</message>
						<metainfo
							type="repoitem"
							path="/dom[@domain='edi-alpha.madakethealth.com']//button[#'savePlan']"
							itempath=".//button[#'savePlan']"
							fullname="madaket_XP001Repository.MadaketHealth.SavePlan"
							id="88eec87dc8ff49e59ec19c60ea9b94ae"
							timeout="60000"
							codefile="c:\Users\JohnPloumis\Documents\Ranorex\RanorexStudio Projects\ranorex_testautomation\madaket_XP001\Plan_Creation.cs"
							codeline="97"
							itemindex="5"
							loglvl="Info">
						</metainfo>
					</item>
					<item
						timeRelativeToTestSuiteStartTime="00:45.891"
						timeRelativeToTestModuleStartTime="00:09.266"
						timeWallClock="16:05:13"
						time="00:45.891"
						level="Info"
						category="Mouse">
						<message>
							Mouse Left Click item 'MadaketHealth.PleaseEnterName' at 36;5.
						</message>
						<metainfo
							type="repoitem"
							path="/dom[@domain='edi-alpha.madakethealth.com']//div[#'planNameErrorContainer']/label[@innertext='Please enter name']"
							itempath=".//div[#'planNameErrorContainer']/label[@innertext='Please enter name']"
							fullname="madaket_XP001Repository.MadaketHealth.PleaseEnterName"
							id="a35ce17d1bb94f41bb4af13050eb2d6d"
							timeout="60000"
							codefile="c:\Users\JohnPloumis\Documents\Ranorex\RanorexStudio Projects\ranorex_testautomation\madaket_XP001\Plan_Creation.cs"
							codeline="100"
							itemindex="6"
							loglvl="Info">
						</metainfo>
					</item>
					<item
						timeRelativeToTestSuiteStartTime="00:47.168"
						timeRelativeToTestModuleStartTime="00:10.543"
						timeWallClock="16:05:14"
						time="00:47.168"
						level="Info"
						category="Mouse">
						<message>
							Mouse Left Click item 'MadaketHealth.PleaseEnterPlanId' at 39;8.
						</message>
						<metainfo
							type="repoitem"
							path="/dom[@domain='edi-alpha.madakethealth.com']//div[#'customPayerIdErrorContainer']/label[@innertext='Please enter plan id']"
							itempath=".//div[#'customPayerIdErrorContainer']/label[@innertext='Please enter plan id']"
							fullname="madaket_XP001Repository.MadaketHealth.PleaseEnterPlanId"
							id="4b5a463c7d3049de966697275ba8c410"
							timeout="60000"
							codefile="c:\Users\JohnPloumis\Documents\Ranorex\RanorexStudio Projects\ranorex_testautomation\madaket_XP001\Plan_Creation.cs"
							codeline="103"
							itemindex="7"
							loglvl="Info">
						</metainfo>
					</item>
					<item
						timeRelativeToTestSuiteStartTime="00:48.368"
						timeRelativeToTestModuleStartTime="00:11.743"
						timeWallClock="16:05:15"
						time="00:48.368"
						level="Info"
						category="Mouse">
						<message>
							Mouse Left Click item 'MadaketHealth.PleaseEnterPayerName' at 45;9.
						</message>
						<metainfo
							type="repoitem"
							path="/dom[@domain='edi-alpha.madakethealth.com']//div[#'payerErrorContainer']/label[@innertext~'^Please\ select\ payer\ from\ ']"
							itempath=".//div[#'payerErrorContainer']/label[@innertext~'^Please\ select\ payer\ from\ ']"
							fullname="madaket_XP001Repository.MadaketHealth.PleaseEnterPayerName"
							id="4c9893c40305426a8e1fb0914be576b5"
							timeout="60000"
							codefile="c:\Users\JohnPloumis\Documents\Ranorex\RanorexStudio Projects\ranorex_testautomation\madaket_XP001\Plan_Creation.cs"
							codeline="106"
							itemindex="8"
							loglvl="Info">
						</metainfo>
					</item>
					<item
						timeRelativeToTestSuiteStartTime="00:49.556"
						timeRelativeToTestModuleStartTime="00:12.931"
						timeWallClock="16:05:17"
						time="00:49.556"
						level="Info"
						category="Mouse">
						<message>
							Mouse Left Click item 'MadaketHealth.PleaseSelectPartnerAdmin' at 83;6.
						</message>
						<metainfo
							type="repoitem"
							path="/dom[@domain='edi-alpha.madakethealth.com']//div[#'partnerAdminGUIDErrorContainer']/label[@innertext~'^Please\ select\ partner\ adm']"
							itempath=".//div[#'partnerAdminGUIDErrorContainer']/label[@innertext~'^Please\ select\ partner\ adm']"
							fullname="madaket_XP001Repository.MadaketHealth.PleaseSelectPartnerAdmin"
							id="b203cbe7dc924ce09d1503d069095d64"
							timeout="60000"
							codefile="c:\Users\JohnPloumis\Documents\Ranorex\RanorexStudio Projects\ranorex_testautomation\madaket_XP001\Plan_Creation.cs"
							codeline="109"
							itemindex="9"
							loglvl="Info">
						</metainfo>
					</item>
					<item
						timeRelativeToTestSuiteStartTime="00:50.641"
						timeRelativeToTestModuleStartTime="00:14.016"
						timeWallClock="16:05:18"
						time="00:50.641"
						level="Info"
						category="Set value">
						<message>
							Setting attribute Value to 'test_automation_uniqueID_002' on item 'MadaketHealth.UniquePlanId'.
						</message>
						<metainfo
							type="repoitem"
							path="/dom[@domain='edi-alpha.madakethealth.com']//input[#'uniquePlanId']"
							itempath=".//input[#'uniquePlanId']"
							fullname="madaket_XP001Repository.MadaketHealth.UniquePlanId"
							id="cfd1d67bd70d45a6a108acd7ba0153cd"
							timeout="60000"
							codefile="c:\Users\JohnPloumis\Documents\Ranorex\RanorexStudio Projects\ranorex_testautomation\madaket_XP001\Plan_Creation.cs"
							codeline="112"
							itemindex="10"
							loglvl="Info">
						</metainfo>
					</item>
					<item
						timeRelativeToTestSuiteStartTime="00:50.958"
						timeRelativeToTestModuleStartTime="00:14.332"
						timeWallClock="16:05:18"
						time="00:50.958"
						level="Info"
						category="Mouse">
						<message>
							Mouse Left Click item 'MadaketHealth.UniquePlanId' at Center.
						</message>
						<metainfo
							type="repoitem"
							path="/dom[@domain='edi-alpha.madakethealth.com']//input[#'uniquePlanId']"
							itempath=".//input[#'uniquePlanId']"
							fullname="madaket_XP001Repository.MadaketHealth.UniquePlanId"
							id="cfd1d67bd70d45a6a108acd7ba0153cd"
							timeout="60000"
							codefile="c:\Users\JohnPloumis\Documents\Ranorex\RanorexStudio Projects\ranorex_testautomation\madaket_XP001\Plan_Creation.cs"
							codeline="115"
							itemindex="11"
							loglvl="Info">
						</metainfo>
					</item>
					<item
						timeRelativeToTestSuiteStartTime="00:52.019"
						timeRelativeToTestModuleStartTime="00:15.394"
						timeWallClock="16:05:19"
						time="00:52.019"
						level="Info"
						category="Mouse">
						<message>
							Mouse Left Click item 'NewGroupAddress.PlanContainer' at 9;70.
						</message>
						<metainfo
							type="repoitem"
							path="/dom[@domain='edi-alpha.madakethealth.com']//form[#'planForm']/div/fieldset[1]"
							itempath=".//form[#'planForm']/div/fieldset[1]"
							fullname="madaket_XP001Repository.NewGroupAddress.PlanContainer"
							id="53bacd46d26541ceb49888f220832121"
							timeout="60000"
							codefile="c:\Users\JohnPloumis\Documents\Ranorex\RanorexStudio Projects\ranorex_testautomation\madaket_XP001\Plan_Creation.cs"
							codeline="118"
							itemindex="12"
							loglvl="Info">
						</metainfo>
					</item>
					<item
						timeRelativeToTestSuiteStartTime="00:52.972"
						timeRelativeToTestModuleStartTime="00:16.347"
						timeWallClock="16:05:20"
						time="00:52.972"
						level="Info"
						category="Set value">
						<message>
							Setting attribute Value to 'test_plan_automation_XP002' on item 'MadaketHealth.Name'.
						</message>
						<metainfo
							type="repoitem"
							path="/dom[@domain='edi-alpha.madakethealth.com']//input[#'name']"
							itempath=".//input[#'name']"
							fullname="madaket_XP001Repository.MadaketHealth.Name"
							id="d469a389ded14e77a9e3a1bb2cdd2837"
							timeout="60000"
							codefile="c:\Users\JohnPloumis\Documents\Ranorex\RanorexStudio Projects\ranorex_testautomation\madaket_XP001\Plan_Creation.cs"
							codeline="121"
							itemindex="13"
							loglvl="Info">
						</metainfo>
					</item>
					<item
						timeRelativeToTestSuiteStartTime="00:53.281"
						timeRelativeToTestModuleStartTime="00:16.656"
						timeWallClock="16:05:20"
						time="00:53.281"
						level="Info"
						category="Mouse">
						<message>
							Mouse Left Click item 'MadaketHealth.Name' at Center.
						</message>
						<metainfo
							type="repoitem"
							path="/dom[@domain='edi-alpha.madakethealth.com']//input[#'name']"
							itempath=".//input[#'name']"
							fullname="madaket_XP001Repository.MadaketHealth.Name"
							id="d469a389ded14e77a9e3a1bb2cdd2837"
							timeout="60000"
							codefile="c:\Users\JohnPloumis\Documents\Ranorex\RanorexStudio Projects\ranorex_testautomation\madaket_XP001\Plan_Creation.cs"
							codeline="124"
							itemindex="14"
							loglvl="Info">
						</metainfo>
					</item>
					<item
						timeRelativeToTestSuiteStartTime="00:54.402"
						timeRelativeToTestModuleStartTime="00:17.777"
						timeWallClock="16:05:21"
						time="00:54.402"
						level="Info"
						category="Mouse">
						<message>
							Mouse Left Click item 'NewGroupAddress.PlanContainer' at 9;70.
						</message>
						<metainfo
							type="repoitem"
							path="/dom[@domain='edi-alpha.madakethealth.com']//form[#'planForm']/div/fieldset[1]"
							itempath=".//form[#'planForm']/div/fieldset[1]"
							fullname="madaket_XP001Repository.NewGroupAddress.PlanContainer"
							id="53bacd46d26541ceb49888f220832121"
							timeout="60000"
							codefile="c:\Users\JohnPloumis\Documents\Ranorex\RanorexStudio Projects\ranorex_testautomation\madaket_XP001\Plan_Creation.cs"
							codeline="127"
							itemindex="15"
							loglvl="Info">
						</metainfo>
					</item>
					<item
						timeRelativeToTestSuiteStartTime="00:55.358"
						timeRelativeToTestModuleStartTime="00:18.733"
						timeWallClock="16:05:22"
						time="00:55.358"
						level="Info"
						category="Set value">
						<message>
							Setting attribute Value to '9876543210' on item 'MadaketHealth.CustomPayerId'.
						</message>
						<metainfo
							type="repoitem"
							path="/dom[@domain='edi-alpha.madakethealth.com']//input[#'customPayerId']"
							itempath=".//input[#'customPayerId']"
							fullname="madaket_XP001Repository.MadaketHealth.CustomPayerId"
							id="96deed58e0594100a0dff142430fd737"
							timeout="60000"
							codefile="c:\Users\JohnPloumis\Documents\Ranorex\RanorexStudio Projects\ranorex_testautomation\madaket_XP001\Plan_Creation.cs"
							codeline="130"
							itemindex="16"
							loglvl="Info">
						</metainfo>
					</item>
					<item
						timeRelativeToTestSuiteStartTime="00:55.680"
						timeRelativeToTestModuleStartTime="00:19.055"
						timeWallClock="16:05:23"
						time="00:55.680"
						level="Info"
						category="Mouse">
						<message>
							Mouse Left Click item 'MadaketHealth.CustomPayerId' at Center.
						</message>
						<metainfo
							type="repoitem"
							path="/dom[@domain='edi-alpha.madakethealth.com']//input[#'customPayerId']"
							itempath=".//input[#'customPayerId']"
							fullname="madaket_XP001Repository.MadaketHealth.CustomPayerId"
							id="96deed58e0594100a0dff142430fd737"
							timeout="60000"
							codefile="c:\Users\JohnPloumis\Documents\Ranorex\RanorexStudio Projects\ranorex_testautomation\madaket_XP001\Plan_Creation.cs"
							codeline="133"
							itemindex="17"
							loglvl="Info">
						</metainfo>
					</item>
					<item
						timeRelativeToTestSuiteStartTime="00:56.919"
						timeRelativeToTestModuleStartTime="00:20.294"
						timeWallClock="16:05:24"
						time="00:56.919"
						level="Info"
						category="Mouse">
						<message>
							Mouse Left Click item 'NewGroupAddress.PlanContainer' at 9;70.
						</message>
						<metainfo
							type="repoitem"
							path="/dom[@domain='edi-alpha.madakethealth.com']//form[#'planForm']/div/fieldset[1]"
							itempath=".//form[#'planForm']/div/fieldset[1]"
							fullname="madaket_XP001Repository.NewGroupAddress.PlanContainer"
							id="53bacd46d26541ceb49888f220832121"
							timeout="60000"
							codefile="c:\Users\JohnPloumis\Documents\Ranorex\RanorexStudio Projects\ranorex_testautomation\madaket_XP001\Plan_Creation.cs"
							codeline="136"
							itemindex="18"
							loglvl="Info">
						</metainfo>
					</item>
					<item
						timeRelativeToTestSuiteStartTime="00:57.887"
						timeRelativeToTestModuleStartTime="00:21.262"
						timeWallClock="16:05:25"
						time="00:57.887"
						level="Info"
						category="Keyboard">
						<message>
							Key sequence 'test' with focus on 'MadaketHealth.PayerName'.
						</message>
						<metainfo
							type="repoitem"
							path="/dom[@domain='edi-alpha.madakethealth.com']//input[#'payerName']"
							itempath=".//input[#'payerName']"
							fullname="madaket_XP001Repository.MadaketHealth.PayerName"
							id="d13f36e3d9574502a0ea370497446279"
							timeout="60000"
							codefile="c:\Users\JohnPloumis\Documents\Ranorex\RanorexStudio Projects\ranorex_testautomation\madaket_XP001\Plan_Creation.cs"
							codeline="139"
							itemindex="19"
							loglvl="Info">
						</metainfo>
					</item>
					<item
						timeRelativeToTestSuiteStartTime="00:59.081"
						timeRelativeToTestModuleStartTime="00:22.456"
						timeWallClock="16:05:26"
						time="00:59.081"
						level="Info"
						category="Delay">
						<message>
							Waiting for 5s.
						</message>
						<metainfo
							itemindex="20"
							codefile="c:\Users\JohnPloumis\Documents\Ranorex\RanorexStudio Projects\ranorex_testautomation\madaket_XP001\Plan_Creation.cs"
							codeline="142"
							loglvl="Info">
						</metainfo>
					</item>
					<item
						timeRelativeToTestSuiteStartTime="01:04.140"
						timeRelativeToTestModuleStartTime="00:27.515"
						timeWallClock="16:05:31"
						time="01:04.140"
						level="Info"
						category="Mouse">
						<message>
							Mouse Left Click item 'NewGroupAddress.TestPayerAutomationXP002' at 129;14.
						</message>
						<metainfo
							type="repoitem"
							path="/dom[@domain='edi-alpha.madakethealth.com']/?/?/ul/?/?/a[@innertext~'^test_payer_automation_XP0']"
							itempath="?/?/ul/?/?/a[@innertext~'^test_payer_automation_XP0']"
							fullname="madaket_XP001Repository.NewGroupAddress.TestPayerAutomationXP002"
							id="efa96f2096d4481283ba4ac9e5a76fb5"
							timeout="60000"
							codefile="c:\Users\JohnPloumis\Documents\Ranorex\RanorexStudio Projects\ranorex_testautomation\madaket_XP001\Plan_Creation.cs"
							codeline="145"
							itemindex="21"
							loglvl="Info">
						</metainfo>
					</item>
					<item
						timeRelativeToTestSuiteStartTime="01:08.326"
						timeRelativeToTestModuleStartTime="00:31.701"
						timeWallClock="16:05:35"
						time="01:08.326"
						level="Info"
						category="Mouse">
						<message>
							Mouse Left Click item 'MadaketHealth.PayerName' at Center.
						</message>
						<metainfo
							type="repoitem"
							path="/dom[@domain='edi-alpha.madakethealth.com']//input[#'payerName']"
							itempath=".//input[#'payerName']"
							fullname="madaket_XP001Repository.MadaketHealth.PayerName"
							id="d13f36e3d9574502a0ea370497446279"
							timeout="60000"
							codefile="c:\Users\JohnPloumis\Documents\Ranorex\RanorexStudio Projects\ranorex_testautomation\madaket_XP001\Plan_Creation.cs"
							codeline="148"
							itemindex="22"
							loglvl="Info">
						</metainfo>
					</item>
					<item
						timeRelativeToTestSuiteStartTime="01:09.357"
						timeRelativeToTestModuleStartTime="00:32.731"
						timeWallClock="16:05:36"
						time="01:09.357"
						level="Info"
						category="Mouse">
						<message>
							Mouse Left Click item 'NewGroupAddress.PlanContainer' at Center.
						</message>
						<metainfo
							type="repoitem"
							path="/dom[@domain='edi-alpha.madakethealth.com']//form[#'planForm']/div/fieldset[1]"
							itempath=".//form[#'planForm']/div/fieldset[1]"
							fullname="madaket_XP001Repository.NewGroupAddress.PlanContainer"
							id="53bacd46d26541ceb49888f220832121"
							timeout="60000"
							codefile="c:\Users\JohnPloumis\Documents\Ranorex\RanorexStudio Projects\ranorex_testautomation\madaket_XP001\Plan_Creation.cs"
							codeline="151"
							itemindex="23"
							loglvl="Info">
						</metainfo>
					</item>
					<item
						timeRelativeToTestSuiteStartTime="01:10.139"
						timeRelativeToTestModuleStartTime="00:33.514"
						timeWallClock="16:05:37"
						time="01:10.139"
						level="Info"
						category="Set value">
						<message>
							Setting attribute TagValue to '8a94a6c3-40c0-4889-8405-d3ecd18daaaa' on item 'MadaketHealth.PartnerAdminGUID'.
						</message>
						<metainfo
							type="repoitem"
							path="/dom[@domain='edi-alpha.madakethealth.com']//select[#'partnerAdminGUID']"
							itempath=".//select[#'partnerAdminGUID']"
							fullname="madaket_XP001Repository.MadaketHealth.PartnerAdminGUID"
							id="cf7ef1bb123d4aee98d7cc3411cdd0bc"
							timeout="60000"
							codefile="c:\Users\JohnPloumis\Documents\Ranorex\RanorexStudio Projects\ranorex_testautomation\madaket_XP001\Plan_Creation.cs"
							codeline="154"
							itemindex="24"
							loglvl="Info">
						</metainfo>
					</item>
					<item
						timeRelativeToTestSuiteStartTime="01:10.436"
						timeRelativeToTestModuleStartTime="00:33.811"
						timeWallClock="16:05:37"
						time="01:10.436"
						level="Info"
						category="Mouse">
						<message>
							Mouse Left Click item 'MadaketHealth.SomeLabelTag' at 12;3.
						</message>
						<metainfo
							type="repoitem"
							path="/dom[@domain='edi-alpha.madakethealth.com']//div[#'ttServiceTypeTable']/div[3]//label"
							itempath=".//div[#'ttServiceTypeTable']/div[3]//label"
							fullname="madaket_XP001Repository.MadaketHealth.SomeLabelTag"
							id="e3c1d996bcda44718c7f6b5a3533b399"
							timeout="60000"
							codefile="c:\Users\JohnPloumis\Documents\Ranorex\RanorexStudio Projects\ranorex_testautomation\madaket_XP001\Plan_Creation.cs"
							codeline="157"
							itemindex="25"
							loglvl="Info">
						</metainfo>
					</item>
					<item
						timeRelativeToTestSuiteStartTime="01:11.690"
						timeRelativeToTestModuleStartTime="00:35.065"
						timeWallClock="16:05:39"
						time="01:11.690"
						level="Info"
						category="Mouse">
						<message>
							Mouse Left Click item 'MadaketHealth.PopupScrollContainer4' at 677;397.
						</message>
						<metainfo
							type="repoitem"
							path="/dom[@domain='edi-alpha.madakethealth.com']//div[#'addOrUpdatePlanPopup']/div[2]"
							itempath=".//div[#'addOrUpdatePlanPopup']/div[2]"
							fullname="madaket_XP001Repository.MadaketHealth.PopupScrollContainer4"
							id="acb01864dd9f45ab9b8c227267ba503f"
							timeout="60000"
							codefile="c:\Users\JohnPloumis\Documents\Ranorex\RanorexStudio Projects\ranorex_testautomation\madaket_XP001\Plan_Creation.cs"
							codeline="160"
							itemindex="26"
							loglvl="Info">
						</metainfo>
					</item>
					<item
						timeRelativeToTestSuiteStartTime="01:12.404"
						timeRelativeToTestModuleStartTime="00:35.779"
						timeWallClock="16:05:39"
						time="01:12.404"
						level="Info"
						category="Invoke action">
						<message>
							Invoking Focus() on item 'MadaketHealth.SavePlan'.
						</message>
						<metainfo
							type="repoitem"
							path="/dom[@domain='edi-alpha.madakethealth.com']//button[#'savePlan']"
							itempath=".//button[#'savePlan']"
							fullname="madaket_XP001Repository.MadaketHealth.SavePlan"
							id="88eec87dc8ff49e59ec19c60ea9b94ae"
							timeout="60000"
							codefile="c:\Users\JohnPloumis\Documents\Ranorex\RanorexStudio Projects\ranorex_testautomation\madaket_XP001\Plan_Creation.cs"
							codeline="163"
							itemindex="27"
							loglvl="Info">
						</metainfo>
					</item>
					<item
						timeRelativeToTestSuiteStartTime="01:12.670"
						timeRelativeToTestModuleStartTime="00:36.045"
						timeWallClock="16:05:40"
						time="01:12.670"
						level="Info"
						category="Mouse">
						<message>
							Mouse Left Click item 'MadaketHealth.SavePlan' at Center.
						</message>
						<metainfo
							type="repoitem"
							path="/dom[@domain='edi-alpha.madakethealth.com']//button[#'savePlan']"
							itempath=".//button[#'savePlan']"
							fullname="madaket_XP001Repository.MadaketHealth.SavePlan"
							id="88eec87dc8ff49e59ec19c60ea9b94ae"
							timeout="60000"
							codefile="c:\Users\JohnPloumis\Documents\Ranorex\RanorexStudio Projects\ranorex_testautomation\madaket_XP001\Plan_Creation.cs"
							codeline="166"
							itemindex="28"
							loglvl="Info">
						</metainfo>
					</item>
					<item
						timeRelativeToTestSuiteStartTime="01:13.493"
						timeRelativeToTestModuleStartTime="00:36.868"
						timeWallClock="16:05:40"
						time="01:13.493"
						level="Info"
						category="Mouse">
						<message>
							Mouse Left Click item 'MadaketHealth.FilterButtonText' at 28;6.
						</message>
						<metainfo
							type="repoitem"
							path="/dom[@domain='edi-alpha.madakethealth.com']//span[#'filterButtonText']"
							itempath=".//span[#'filterButtonText']"
							fullname="madaket_XP001Repository.MadaketHealth.FilterButtonText"
							id="2c6a4e71fe454238941536dc8f0d5baf"
							timeout="60000"
							codefile="c:\Users\JohnPloumis\Documents\Ranorex\RanorexStudio Projects\ranorex_testautomation\madaket_XP001\Plan_Creation.cs"
							codeline="169"
							itemindex="29"
							loglvl="Info">
						</metainfo>
					</item>
				</activity>
				<activity
					result="Failed"
					duration="1.1m"
					durationms="65069"
					type="test-module"
					rid="28ab9077a1542cc7"
					totalerrorcount="1"
					totalwarningcount="0"
					totalsuccesstestcasecount="0"
					totalfailedtestcasecount="0"
					totalblockedtestcasecount="0"
					childsuccesscount="0"
					childfailedcount="0"
					childblockedcount="0"
					totalsuccesscount="0"
					totalfailedcount="0"
					totalblockedcount="0"
					totalmaintenancemodecount="0"
					modulename="Plan_Verifcation"
					displayName="Plan_Verifcation"
					moduleid="12f6f6b8-dca2-4262-8104-2c0f6946fef7"
					moduletype="Recording"
					iteration="1"
					activity-exectype="execute"
					testentry-activity-type="testmodule">
					<detail>
						MH-2220
					</detail>
					<errormessage>
						Failed to find item 'madaket_XP001Repository.NewGroupAddress.ClearFilterButton'.
					</errormessage>
					<varbindings>
					</varbindings>
					<item
						timeRelativeToTestSuiteStartTime="01:15.151"
						timeRelativeToTestModuleStartTime="00:00.007"
						timeWallClock="16:05:42"
						time="01:15.151"
						level="Info"
						category="Mouse">
						<message>
							Mouse Left Click item 'MadaketHealth.DivTagPlans' at 9;16.
						</message>
						<metainfo
							type="repoitem"
							path="/dom[@domain='edi-alpha.madakethealth.com']//nav[#'mainNav']/ul//div[@innertext='Plans']"
							itempath=".//nav[#'mainNav']/ul//div[@innertext='Plans']"
							fullname="madaket_XP001Repository.MadaketHealth.DivTagPlans"
							id="4245ea03cf1f44b2977e9e08c91a4768"
							timeout="60000"
							codefile="c:\Users\JohnPloumis\Documents\Ranorex\RanorexStudio Projects\ranorex_testautomation\madaket_XP001\Plan_Verifcation.cs"
							codeline="82"
							itemindex="0"
							loglvl="Info">
						</metainfo>
					</item>
					<item
						timeRelativeToTestSuiteStartTime="01:17.660"
						timeRelativeToTestModuleStartTime="00:02.515"
						timeWallClock="16:05:45"
						time="01:17.660"
						level="Info"
						category="Mouse">
						<message>
							Mouse Left Click item 'MadaketHealth.Filter' at 6;4.
						</message>
						<metainfo
							type="repoitem"
							path="/dom[@domain='edi-alpha.madakethealth.com']//img[#'filter']"
							itempath=".//img[#'filter']"
							fullname="madaket_XP001Repository.MadaketHealth.Filter"
							id="89684a8217f44f6ea2a119f297b3b683"
							timeout="60000"
							codefile="c:\Users\JohnPloumis\Documents\Ranorex\RanorexStudio Projects\ranorex_testautomation\madaket_XP001\Plan_Verifcation.cs"
							codeline="85"
							itemindex="1"
							loglvl="Info">
						</metainfo>
					</item>
					<item
						timeRelativeToTestSuiteStartTime="01:19.089"
						timeRelativeToTestModuleStartTime="00:03.944"
						timeWallClock="16:05:46"
						time="01:19.089"
						level="Info"
						category="Delay"
						errimg="images_madaket__dde2cc6b\madaket__dde2cc6b_6cfc7c67_trace.jpg"
						errthumb="images_madaket__dde2cc6b\madaket__dde2cc6b_6cfc7c67_trace_thumb.jpg">
						<message>
							Waiting for 500ms.
						</message>
						<metainfo
							itemindex="2"
							codefile="c:\Users\JohnPloumis\Documents\Ranorex\RanorexStudio Projects\ranorex_testautomation\madaket_XP001\Plan_Verifcation.cs"
							codeline="88"
							loglvl="Info">
						</metainfo>
					</item>
					<item
						timeRelativeToTestSuiteStartTime="01:19.648"
						timeRelativeToTestModuleStartTime="00:04.504"
						timeWallClock="16:05:47"
						time="01:19.648"
						level="Info"
						category="Mouse"
						errimg="images_madaket__dde2cc6b\madaket__dde2cc6b_dfad97dd_trace.jpg"
						errthumb="images_madaket__dde2cc6b\madaket__dde2cc6b_dfad97dd_trace_thumb.jpg">
						<message>
							Mouse Left Click item 'NewGroupAddress.ClearFilterButton' at 21;4.
						</message>
						<metainfo
							type="repoitem"
							path="/dom[@domain='edi-alpha.madakethealth.com']//button[#'clearFilterButton']"
							itempath=".//button[#'clearFilterButton']"
							fullname="madaket_XP001Repository.NewGroupAddress.ClearFilterButton"
							id="0471f98694fe462e9f538d35c05f73c1"
							timeout="60000"
							codefile="c:\Users\JohnPloumis\Documents\Ranorex\RanorexStudio Projects\ranorex_testautomation\madaket_XP001\Plan_Verifcation.cs"
							codeline="91"
							itemindex="3"
							loglvl="Info">
						</metainfo>
					</item>
					<item
						timeRelativeToTestSuiteStartTime="02:20.058"
						timeRelativeToTestModuleStartTime="01:04.913"
						timeWallClock="16:06:47"
						time="02:20.058"
						level="Error"
						category="Module"
						errimg="images_madaket__dde2cc6b\madaket__dde2cc6b_de98a365_trace.jpg"
						errthumb="images_madaket__dde2cc6b\madaket__dde2cc6b_de98a365_trace_thumb.jpg">
						<message>
							Failed to find item 'madaket_XP001Repository.NewGroupAddress.ClearFilterButton'.<br/>No element found for path '/dom[@domain='edi-alpha.madakethealth.com']//button[#'clearFilterButton']' within 1m.
						</message>
						<metainfo
							stacktrace="   at Ranorex.Core.Repository.RepoItemInfo.FindInternal[T](Boolean findSingle, Boolean throwException, Duration effectiveTimeoutOverride)&#13;&#10;   at Ranorex.Core.Repository.RepoItemInfo.&lt;>c__DisplayClass75_0`1.&lt;Find>b__0()&#13;&#10;   at Ranorex.Core.Testing.Services.NoMaintenanceModeService.HandleElementNotFound[T](Func`1 action, RepoItemInfo entry)&#13;&#10;   at Ranorex.Core.Repository.RepoItemInfo.Find[T](Boolean findSingle, Boolean throwException, Duration effectiveTimeoutOverride)&#13;&#10;   at Ranorex.Core.Repository.RepoItemInfo.CreateAdapter[T](Boolean throwException, Duration waitTimeout)&#13;&#10;   at Ranorex.Core.Repository.RepoItemInfo.CreateAdapter[T](Boolean throwException)&#13;&#10;   at madaket_XP001.madaket_XP001RepositoryFolders.NewGroupAddressAppFolder.get_ClearFilterButton() in c:\Users\JohnPloumis\Documents\Ranorex\RanorexStudio Projects\ranorex_testautomation\madaket_XP001\madaket_XP001Repository.cs:line 6472&#13;&#10;   at madaket_XP001.Plan_Verifcation.Ranorex.Core.Testing.ITestModule.Run() in c:\Users\JohnPloumis\Documents\Ranorex\RanorexStudio Projects\ranorex_testautomation\madaket_XP001\Plan_Verifcation.cs:line 92&#13;&#10;   at Ranorex.Core.Testing.TestModuleLeaf.RunInternal(DataContext parentDataContext, Int32 iteration, Int32 iterationCount, Boolean skipIteration)"
							codefile="c:\Users\JohnPloumis\Documents\Ranorex\RanorexStudio Projects\ranorex_testautomation\madaket_XP001\Plan_Verifcation.cs"
							codeline="92"
							type="repoitem"
							path="/dom[@domain='edi-alpha.madakethealth.com']//button[#'clearFilterButton']"
							itempath=".//button[#'clearFilterButton']"
							fullname="madaket_XP001Repository.NewGroupAddress.ClearFilterButton"
							id="0471f98694fe462e9f538d35c05f73c1"
							timeout="60000"
							loglvl="Error"
							itemindex="3">
						</metainfo>
					</item>
				</activity>
			</activity>
		</activity>
	</activity>
</report>
