﻿<?xml version="1.0" encoding="utf-8"?>
<report
	progress="">
	<activity
		result="Failed"
		duration="50.05s"
		durationms="50047"
		type="root"
		rid="153b017f05bad62"
		totalerrorcount="1"
		totalwarningcount="4"
		totalsuccesstestcasecount="0"
		totalfailedtestcasecount="0"
		totalblockedtestcasecount="0"
		childsuccesscount="0"
		childfailedcount="0"
		childblockedcount="0"
		totalsuccesscount="0"
		totalfailedcount="0"
		totalblockedcount="0"
		totalmaintenancemodecount="0"
		user="JohnPloumis"
		rxversion="8.2.1.0"
		host="LAPTOP-5EO8DNU1"
		osversion="Windows 10 64bit"
		runtimeversion="4.0.30319.42000"
		procarch="32bit"
		oslanguage="en-US"
		dtnlanguage="en-US"
		screenresolution="1366x768"
		timestamp="10/12/2018 2:33:07 PM"
		timestampiso="2018-10-12T18:33:07"
		endtime="10/12/2018 2:33:57 PM"
		timeoutfactor="1"
		module="Modify_Location">
		<detail>
			Modify_Location
		</detail>
		<varbindings>
		</varbindings>
		<item
			timeRelativeToTestSuiteStartTime="00:02.575"
			timeRelativeToTestModuleStartTime="00:02.579"
			timeWallClock="14:33:09"
			time="00:02.575"
			level="Info"
			category="Mouse">
			<message>
				Mouse Left Click item 'MadaketHealth.EditLocationNPI' at 6;4.
			</message>
			<metainfo
				type="repoitem"
				path="/dom[@caption='Madaket Health']//div[#'tabs']/div/div/div/div[2]/div[2]/div[3]/div[@innertext='Edit']/img[@title='Edit Location NPI']"
				itempath=".//div[#'tabs']/div/div/div/div[2]/div[2]/div[3]/div[@innertext='Edit']/img[@title='Edit Location NPI']"
				fullname="madaket_XP001Repository.MadaketHealth.EditLocationNPI"
				id="cfa9fdac4e8e422aa6f9cec6081fc8e3"
				timeout="60000"
				codefile="c:\Users\JohnPloumis\Documents\Ranorex\RanorexStudio Projects\madaket_XP001\madaket_XP001\Modify_Location.cs"
				codeline="82"
				itemindex="0"
				loglvl="Info">
			</metainfo>
		</item>
		<item
			timeRelativeToTestSuiteStartTime="00:06.684"
			timeRelativeToTestModuleStartTime="00:06.688"
			timeWallClock="14:33:13"
			time="00:06.684"
			level="Info"
			category="Mouse">
			<message>
				Mouse Left Click item 'MadaketHealth.Street1' at 114;14.
			</message>
			<metainfo
				type="repoitem"
				path="/dom[@caption='Madaket Health']//div[#'address-section']/?/?/?/input[@id='street1']"
				itempath=".//div[#'address-section']/?/?/?/input[@id='street1']"
				fullname="madaket_XP001Repository.MadaketHealth.Street1"
				id="a7663cf55f2e4afdae9568c52ce4128e"
				timeout="60000"
				codefile="c:\Users\JohnPloumis\Documents\Ranorex\RanorexStudio Projects\madaket_XP001\madaket_XP001\Modify_Location.cs"
				codeline="85"
				itemindex="1"
				loglvl="Info">
			</metainfo>
		</item>
		<item
			timeRelativeToTestSuiteStartTime="00:07.635"
			timeRelativeToTestModuleStartTime="00:07.639"
			timeWallClock="14:33:14"
			time="00:07.635"
			level="Warn"
			category="Click">
			<message>
				The mouse action was performed outside the boundaries of the assigned UI element.<br/>(null)
			</message>
			<metainfo
				codefile="c:\Users\JohnPloumis\Documents\Ranorex\RanorexStudio Projects\madaket_XP001\madaket_XP001\Modify_Location.cs"
				codeline="86"
				loglvl="Warn">
			</metainfo>
		</item>
		<item
			timeRelativeToTestSuiteStartTime="00:08.098"
			timeRelativeToTestModuleStartTime="00:08.102"
			timeWallClock="14:33:15"
			time="00:08.098"
			level="Info"
			category="Keyboard">
			<message>
				Key sequence '{LShiftKey down}{Home}{LShiftKey up}202 west street' with focus on 'MadaketHealth.Street1'.
			</message>
			<metainfo
				type="repoitem"
				path="/dom[@caption='Madaket Health']//div[#'address-section']/?/?/?/input[@id='street1']"
				itempath=".//div[#'address-section']/?/?/?/input[@id='street1']"
				fullname="madaket_XP001Repository.MadaketHealth.Street1"
				id="a7663cf55f2e4afdae9568c52ce4128e"
				timeout="60000"
				codefile="c:\Users\JohnPloumis\Documents\Ranorex\RanorexStudio Projects\madaket_XP001\madaket_XP001\Modify_Location.cs"
				codeline="88"
				itemindex="2"
				loglvl="Info">
			</metainfo>
		</item>
		<item
			timeRelativeToTestSuiteStartTime="00:09.369"
			timeRelativeToTestModuleStartTime="00:09.373"
			timeWallClock="14:33:16"
			time="00:09.369"
			level="Info"
			category="Mouse">
			<message>
				Mouse Left Click item 'MadaketHealth.City' at 88;12.
			</message>
			<metainfo
				type="repoitem"
				path="/dom[@caption='Madaket Health']//div[#'address-section']/?/?/?/input[@id='city']"
				itempath=".//div[#'address-section']/?/?/?/input[@id='city']"
				fullname="madaket_XP001Repository.MadaketHealth.City"
				id="9e3518c95609497194d0bf4ee213d6d3"
				timeout="60000"
				codefile="c:\Users\JohnPloumis\Documents\Ranorex\RanorexStudio Projects\madaket_XP001\madaket_XP001\Modify_Location.cs"
				codeline="91"
				itemindex="3"
				loglvl="Info">
			</metainfo>
		</item>
		<item
			timeRelativeToTestSuiteStartTime="00:09.759"
			timeRelativeToTestModuleStartTime="00:09.763"
			timeWallClock="14:33:16"
			time="00:09.759"
			level="Warn"
			category="Click">
			<message>
				The mouse action was performed outside the boundaries of the assigned UI element.<br/>(null)
			</message>
			<metainfo
				codefile="c:\Users\JohnPloumis\Documents\Ranorex\RanorexStudio Projects\madaket_XP001\madaket_XP001\Modify_Location.cs"
				codeline="92"
				loglvl="Warn">
			</metainfo>
		</item>
		<item
			timeRelativeToTestSuiteStartTime="00:10.214"
			timeRelativeToTestModuleStartTime="00:10.218"
			timeWallClock="14:33:17"
			time="00:10.214"
			level="Info"
			category="Keyboard">
			<message>
				Key sequence '{LShiftKey down}{Home}{LShiftKey up}new britain' with focus on 'MadaketHealth.City'.
			</message>
			<metainfo
				type="repoitem"
				path="/dom[@caption='Madaket Health']//div[#'address-section']/?/?/?/input[@id='city']"
				itempath=".//div[#'address-section']/?/?/?/input[@id='city']"
				fullname="madaket_XP001Repository.MadaketHealth.City"
				id="9e3518c95609497194d0bf4ee213d6d3"
				timeout="60000"
				codefile="c:\Users\JohnPloumis\Documents\Ranorex\RanorexStudio Projects\madaket_XP001\madaket_XP001\Modify_Location.cs"
				codeline="94"
				itemindex="4"
				loglvl="Info">
			</metainfo>
		</item>
		<item
			timeRelativeToTestSuiteStartTime="00:11.280"
			timeRelativeToTestModuleStartTime="00:11.284"
			timeWallClock="14:33:18"
			time="00:11.280"
			level="Info"
			category="Mouse">
			<message>
				Mouse Left Click item 'MadaketHealth.State' at 29;12.
			</message>
			<metainfo
				type="repoitem"
				path="/dom[@caption='Madaket Health']//select[#'state']"
				itempath=".//select[#'state']"
				fullname="madaket_XP001Repository.MadaketHealth.State"
				id="7fe63a663f39421eb7f847c8cf550b69"
				timeout="60000"
				codefile="c:\Users\JohnPloumis\Documents\Ranorex\RanorexStudio Projects\madaket_XP001\madaket_XP001\Modify_Location.cs"
				codeline="97"
				itemindex="5"
				loglvl="Info">
			</metainfo>
		</item>
		<item
			timeRelativeToTestSuiteStartTime="00:11.650"
			timeRelativeToTestModuleStartTime="00:11.653"
			timeWallClock="14:33:18"
			time="00:11.650"
			level="Warn"
			category="Click">
			<message>
				The mouse action was performed outside the boundaries of the assigned UI element.<br/>(null)
			</message>
			<metainfo
				codefile="c:\Users\JohnPloumis\Documents\Ranorex\RanorexStudio Projects\madaket_XP001\madaket_XP001\Modify_Location.cs"
				codeline="98"
				loglvl="Warn">
			</metainfo>
		</item>
		<item
			timeRelativeToTestSuiteStartTime="00:12.072"
			timeRelativeToTestModuleStartTime="00:12.076"
			timeWallClock="14:33:19"
			time="00:12.072"
			level="Info"
			category="Keyboard">
			<message>
				Key sequence 'ct{Return}' with focus on 'MadaketHealth.State'.
			</message>
			<metainfo
				type="repoitem"
				path="/dom[@caption='Madaket Health']//select[#'state']"
				itempath=".//select[#'state']"
				fullname="madaket_XP001Repository.MadaketHealth.State"
				id="7fe63a663f39421eb7f847c8cf550b69"
				timeout="60000"
				codefile="c:\Users\JohnPloumis\Documents\Ranorex\RanorexStudio Projects\madaket_XP001\madaket_XP001\Modify_Location.cs"
				codeline="100"
				itemindex="6"
				loglvl="Info">
			</metainfo>
		</item>
		<item
			timeRelativeToTestSuiteStartTime="00:12.993"
			timeRelativeToTestModuleStartTime="00:12.997"
			timeWallClock="14:33:20"
			time="00:12.993"
			level="Info"
			category="Mouse">
			<message>
				Mouse Left Click item 'MadaketHealth.InputTagZip' at 49;9.
			</message>
			<metainfo
				type="repoitem"
				path="/dom[@caption='Madaket Health']//div[#'address-section']/?/div/div/?/input[@id='zip']"
				itempath=".//div[#'address-section']/?/div/div/?/input[@id='zip']"
				fullname="madaket_XP001Repository.MadaketHealth.InputTagZip"
				id="6a242eb88e6d4f6592e458527898ffdb"
				timeout="60000"
				codefile="c:\Users\JohnPloumis\Documents\Ranorex\RanorexStudio Projects\madaket_XP001\madaket_XP001\Modify_Location.cs"
				codeline="103"
				itemindex="7"
				loglvl="Info">
			</metainfo>
		</item>
		<item
			timeRelativeToTestSuiteStartTime="00:13.416"
			timeRelativeToTestModuleStartTime="00:13.420"
			timeWallClock="14:33:20"
			time="00:13.416"
			level="Warn"
			category="Click">
			<message>
				The mouse action was performed outside the boundaries of the assigned UI element.<br/>(null)
			</message>
			<metainfo
				codefile="c:\Users\JohnPloumis\Documents\Ranorex\RanorexStudio Projects\madaket_XP001\madaket_XP001\Modify_Location.cs"
				codeline="104"
				loglvl="Warn">
			</metainfo>
		</item>
		<item
			timeRelativeToTestSuiteStartTime="00:13.848"
			timeRelativeToTestModuleStartTime="00:13.852"
			timeWallClock="14:33:21"
			time="00:13.848"
			level="Info"
			category="Keyboard">
			<message>
				Key sequence '01677{Return}{Down}{Down}' with focus on 'MadaketHealth.InputTagZip'.
			</message>
			<metainfo
				type="repoitem"
				path="/dom[@caption='Madaket Health']//div[#'address-section']/?/div/div/?/input[@id='zip']"
				itempath=".//div[#'address-section']/?/div/div/?/input[@id='zip']"
				fullname="madaket_XP001Repository.MadaketHealth.InputTagZip"
				id="6a242eb88e6d4f6592e458527898ffdb"
				timeout="60000"
				codefile="c:\Users\JohnPloumis\Documents\Ranorex\RanorexStudio Projects\madaket_XP001\madaket_XP001\Modify_Location.cs"
				codeline="106"
				itemindex="8"
				loglvl="Info">
			</metainfo>
		</item>
		<item
			timeRelativeToTestSuiteStartTime="00:14.894"
			timeRelativeToTestModuleStartTime="00:14.898"
			timeWallClock="14:33:22"
			time="00:14.894"
			level="Info"
			category="Mouse">
			<message>
				Mouse Left Click item 'MadaketHealth.PopupScrollContainer2' at 775;493.
			</message>
			<metainfo
				type="repoitem"
				path="/dom[@caption='Madaket Health']//div[#'medicalGroupLocationsPopup']/div[2]"
				itempath=".//div[#'medicalGroupLocationsPopup']/div[2]"
				fullname="madaket_XP001Repository.MadaketHealth.PopupScrollContainer2"
				id="aa34411882c344bfa77131eb1b109c0d"
				timeout="60000"
				codefile="c:\Users\JohnPloumis\Documents\Ranorex\RanorexStudio Projects\madaket_XP001\madaket_XP001\Modify_Location.cs"
				codeline="109"
				itemindex="9"
				loglvl="Info">
			</metainfo>
		</item>
		<item
			timeRelativeToTestSuiteStartTime="00:15.761"
			timeRelativeToTestModuleStartTime="00:15.765"
			timeWallClock="14:33:22"
			time="00:15.761"
			level="Info"
			category="Mouse">
			<message>
				Mouse Left Click item 'MadaketHealth.SaveLocation' at 59;15.
			</message>
			<metainfo
				type="repoitem"
				path="/dom[@caption='Madaket Health']//button[#'saveLocation']"
				itempath=".//button[#'saveLocation']"
				fullname="madaket_XP001Repository.MadaketHealth.SaveLocation"
				id="96e2b0a6416347ad9b7c8966f30421ba"
				timeout="60000"
				codefile="c:\Users\JohnPloumis\Documents\Ranorex\RanorexStudio Projects\madaket_XP001\madaket_XP001\Modify_Location.cs"
				codeline="112"
				itemindex="10"
				loglvl="Info">
			</metainfo>
		</item>
		<item
			timeRelativeToTestSuiteStartTime="00:16.610"
			timeRelativeToTestModuleStartTime="00:16.614"
			timeWallClock="14:33:23"
			time="00:16.610"
			level="Info"
			category="Keyboard">
			<message>
				Key sequence '{Down}{Down}'.
			</message>
			<metainfo
				itemindex="11"
				codefile="c:\Users\JohnPloumis\Documents\Ranorex\RanorexStudio Projects\madaket_XP001\madaket_XP001\Modify_Location.cs"
				codeline="115"
				loglvl="Info">
			</metainfo>
		</item>
		<item
			timeRelativeToTestSuiteStartTime="00:16.788"
			timeRelativeToTestModuleStartTime="00:16.792"
			timeWallClock="14:33:23"
			time="00:16.788"
			level="Info"
			category="Mouse">
			<message>
				Mouse Left Click item 'MadaketHealth.DivTag202WestStreetNewB' at 29;13.
			</message>
			<metainfo
				type="repoitem"
				path="/dom[@caption='Madaket Health']//div[#'tabs']/div/div/div/div[2]/?/?/div[@innertext~'^202\ west\ street\ ']"
				itempath=".//div[#'tabs']/div/div/div/div[2]/?/?/div[@innertext~'^202\ west\ street\ ']"
				fullname="madaket_XP001Repository.MadaketHealth.DivTag202WestStreetNewB"
				id="5ca3a28c8c8640939ee329d6cfb313ce"
				timeout="60000"
				codefile="c:\Users\JohnPloumis\Documents\Ranorex\RanorexStudio Projects\madaket_XP001\madaket_XP001\Modify_Location.cs"
				codeline="118"
				itemindex="12"
				loglvl="Info">
			</metainfo>
		</item>
		<item
			timeRelativeToTestSuiteStartTime="00:50.047"
			timeRelativeToTestModuleStartTime="00:50.051"
			timeWallClock="14:33:57"
			time="00:50.047"
			level="Error"
			category="Module">
			<message>
				The test run has been aborted by the user.
			</message>
			<metainfo
				loglvl="Error">
			</metainfo>
		</item>
	</activity>
</report>
