﻿<?xml version="1.0" encoding="utf-8"?>
<report
	progress="">
	<activity
		result="Success"
		duration="0ms"
		durationms="0"
		type="root"
		rid="1b2da6ca73658d5e"
		totalerrorcount="0"
		totalwarningcount="2"
		totalsuccesstestcasecount="0"
		totalfailedtestcasecount="0"
		totalblockedtestcasecount="0"
		childsuccesscount="0"
		childfailedcount="0"
		childblockedcount="0"
		totalsuccesscount="0"
		totalfailedcount="0"
		totalblockedcount="0"
		totalmaintenancemodecount="0"
		user="JohnPloumis"
		rxversion="8.2.1.0"
		host="LAPTOP-5EO8DNU1"
		osversion="Windows 10 64bit"
		runtimeversion="4.0.30319.42000"
		procarch="32bit"
		oslanguage="en-US"
		dtnlanguage="en-US"
		screenresolution="1366x768"
		timestamp="10/16/2018 9:47:12 AM"
		timestampiso="2018-10-16T13:47:12"
		endtime="10/16/2018 9:47:43 AM"
		timeoutfactor="1"
		module="New_Payer_ValidData">
		<detail>
			New_Payer_ValidData
		</detail>
		<varbindings>
		</varbindings>
		<item
			timeRelativeToTestSuiteStartTime="00:01.966"
			timeRelativeToTestModuleStartTime="00:01.968"
			timeWallClock="09:47:14"
			time="00:01.966"
			level="Info"
			category="Mouse">
			<message>
				Mouse Left Click item 'MadaketHealth.DivTagPayers' at 16;20.
			</message>
			<metainfo
				type="repoitem"
				path="/dom[@caption='Madaket Health']//nav[#'mainNav']/ul//div[@innertext='Payers']"
				itempath=".//nav[#'mainNav']/ul//div[@innertext='Payers']"
				fullname="madaket_XP001Repository.MadaketHealth.DivTagPayers"
				id="29cc9e25aab349529ce160a3bd60a2f5"
				timeout="60000"
				codefile="c:\Users\JohnPloumis\Documents\Ranorex\RanorexStudio Projects\madaket_XP001\madaket_XP001\New_Payer_ValidData.cs"
				codeline="82"
				itemindex="0"
				loglvl="Info">
			</metainfo>
		</item>
		<item
			timeRelativeToTestSuiteStartTime="00:06.354"
			timeRelativeToTestModuleStartTime="00:06.356"
			timeWallClock="09:47:19"
			time="00:06.354"
			level="Info"
			category="Mouse">
			<message>
				Mouse Left Click item 'MadaketHealth.linkNewPayer' at 34;13.
			</message>
			<metainfo
				type="repoitem"
				path="/dom[@caption='Madaket Health']//a[#'payorClick']"
				itempath=".//a[#'payorClick']"
				fullname="madaket_XP001Repository.MadaketHealth.linkNewPayer"
				id="0e40999c158242618af66e1af1edf093"
				timeout="60000"
				codefile="c:\Users\JohnPloumis\Documents\Ranorex\RanorexStudio Projects\madaket_XP001\madaket_XP001\New_Payer_ValidData.cs"
				codeline="85"
				itemindex="1"
				loglvl="Info">
			</metainfo>
		</item>
		<item
			timeRelativeToTestSuiteStartTime="00:08.172"
			timeRelativeToTestModuleStartTime="00:08.174"
			timeWallClock="09:47:21"
			time="00:08.172"
			level="Info"
			category="Mouse">
			<message>
				Mouse Left Click item 'MadaketHealth.PayorName' at 258;15.
			</message>
			<metainfo
				type="repoitem"
				path="/dom[@caption='Madaket Health']//input[#'payorName']"
				itempath=".//input[#'payorName']"
				fullname="madaket_XP001Repository.MadaketHealth.PayorName"
				id="c60f64d457204be3b0c571ec0261f3c7"
				timeout="60000"
				codefile="c:\Users\JohnPloumis\Documents\Ranorex\RanorexStudio Projects\madaket_XP001\madaket_XP001\New_Payer_ValidData.cs"
				codeline="88"
				itemindex="2"
				loglvl="Info">
			</metainfo>
		</item>
		<item
			timeRelativeToTestSuiteStartTime="00:09.668"
			timeRelativeToTestModuleStartTime="00:09.670"
			timeWallClock="09:47:22"
			time="00:09.668"
			level="Info"
			category="Set value">
			<message>
				Setting attribute Value to 'test_payer_automation_XP001' on item 'MadaketHealth.PayorName'.
			</message>
			<metainfo
				type="repoitem"
				path="/dom[@caption='Madaket Health']//input[#'payorName']"
				itempath=".//input[#'payorName']"
				fullname="madaket_XP001Repository.MadaketHealth.PayorName"
				id="c60f64d457204be3b0c571ec0261f3c7"
				timeout="60000"
				codefile="c:\Users\JohnPloumis\Documents\Ranorex\RanorexStudio Projects\madaket_XP001\madaket_XP001\New_Payer_ValidData.cs"
				codeline="91"
				itemindex="3"
				loglvl="Info">
			</metainfo>
		</item>
		<item
			timeRelativeToTestSuiteStartTime="00:10.130"
			timeRelativeToTestModuleStartTime="00:10.132"
			timeWallClock="09:47:23"
			time="00:10.130"
			level="Info"
			category="Delay">
			<message>
				Waiting for 500ms.
			</message>
			<metainfo
				itemindex="4"
				codefile="c:\Users\JohnPloumis\Documents\Ranorex\RanorexStudio Projects\madaket_XP001\madaket_XP001\New_Payer_ValidData.cs"
				codeline="94"
				loglvl="Info">
			</metainfo>
		</item>
		<item
			timeRelativeToTestSuiteStartTime="00:10.648"
			timeRelativeToTestModuleStartTime="00:10.650"
			timeWallClock="09:47:23"
			time="00:10.648"
			level="Info"
			category="Invoke action">
			<message>
				Invoking Focus() on item 'MadaketHealth.PopupScrollContainer'.
			</message>
			<metainfo
				type="repoitem"
				path="/dom[@caption='Madaket Health']//div[#'editPayorPopup']/div[2]"
				itempath=".//div[#'editPayorPopup']/div[2]"
				fullname="madaket_XP001Repository.MadaketHealth.PopupScrollContainer"
				id="f53c44ed5bb14893839e2b7cdc4d3ef7"
				timeout="60000"
				codefile="c:\Users\JohnPloumis\Documents\Ranorex\RanorexStudio Projects\madaket_XP001\madaket_XP001\New_Payer_ValidData.cs"
				codeline="97"
				itemindex="5"
				loglvl="Info">
			</metainfo>
		</item>
		<item
			timeRelativeToTestSuiteStartTime="00:11.110"
			timeRelativeToTestModuleStartTime="00:11.112"
			timeWallClock="09:47:24"
			time="00:11.110"
			level="Info"
			category="Mouse">
			<message>
				Mouse Left Click item 'MadaketHealth.PopupScrollContainer' at 544;361.
			</message>
			<metainfo
				type="repoitem"
				path="/dom[@caption='Madaket Health']//div[#'editPayorPopup']/div[2]"
				itempath=".//div[#'editPayorPopup']/div[2]"
				fullname="madaket_XP001Repository.MadaketHealth.PopupScrollContainer"
				id="f53c44ed5bb14893839e2b7cdc4d3ef7"
				timeout="60000"
				codefile="c:\Users\JohnPloumis\Documents\Ranorex\RanorexStudio Projects\madaket_XP001\madaket_XP001\New_Payer_ValidData.cs"
				codeline="100"
				itemindex="6"
				loglvl="Info">
			</metainfo>
		</item>
		<item
			timeRelativeToTestSuiteStartTime="00:11.799"
			timeRelativeToTestModuleStartTime="00:11.801"
			timeWallClock="09:47:24"
			time="00:11.799"
			level="Warn"
			category="Click"
			errimg=".\New_Paye_94e263_rxlog.jpg"
			errthumb=".\New_Paye_94e263_rxlog_thumb.jpg">
			<message>
				The mouse action was performed outside the boundaries of the assigned UI element.<br/>
			</message>
			<metainfo
				codefile="c:\Users\JohnPloumis\Documents\Ranorex\RanorexStudio Projects\madaket_XP001\madaket_XP001\New_Payer_ValidData.cs"
				codeline="101"
				loglvl="Warn">
			</metainfo>
		</item>
		<item
			timeRelativeToTestSuiteStartTime="00:12.437"
			timeRelativeToTestModuleStartTime="00:12.439"
			timeWallClock="09:47:25"
			time="00:12.437"
			level="Info"
			category="Set value">
			<message>
				Setting attribute Value to '101 main street' on item 'MadaketHealth.TxtStreet1'.
			</message>
			<metainfo
				type="repoitem"
				path="/dom[@caption='Madaket Health']//input[#'txt_street1']"
				itempath=".//input[#'txt_street1']"
				fullname="madaket_XP001Repository.MadaketHealth.TxtStreet1"
				id="140f920df0e2418ca6177c3fcaa08df8"
				timeout="60000"
				codefile="c:\Users\JohnPloumis\Documents\Ranorex\RanorexStudio Projects\madaket_XP001\madaket_XP001\New_Payer_ValidData.cs"
				codeline="103"
				itemindex="7"
				loglvl="Info">
			</metainfo>
		</item>
		<item
			timeRelativeToTestSuiteStartTime="00:12.886"
			timeRelativeToTestModuleStartTime="00:12.888"
			timeWallClock="09:47:25"
			time="00:12.886"
			level="Info"
			category="Mouse">
			<message>
				Mouse Left Click item 'MadaketHealth.TxtCity' at 130;7.
			</message>
			<metainfo
				type="repoitem"
				path="/dom[@caption='Madaket Health']//input[#'txt_city']"
				itempath=".//input[#'txt_city']"
				fullname="madaket_XP001Repository.MadaketHealth.TxtCity"
				id="275ef8ae16904ae689a4001c02a10d08"
				timeout="60000"
				codefile="c:\Users\JohnPloumis\Documents\Ranorex\RanorexStudio Projects\madaket_XP001\madaket_XP001\New_Payer_ValidData.cs"
				codeline="106"
				itemindex="8"
				loglvl="Info">
			</metainfo>
		</item>
		<item
			timeRelativeToTestSuiteStartTime="00:14.257"
			timeRelativeToTestModuleStartTime="00:14.259"
			timeWallClock="09:47:27"
			time="00:14.257"
			level="Info"
			category="Set value">
			<message>
				Setting attribute Value to 'Boston' on item 'MadaketHealth.TxtCity'.
			</message>
			<metainfo
				type="repoitem"
				path="/dom[@caption='Madaket Health']//input[#'txt_city']"
				itempath=".//input[#'txt_city']"
				fullname="madaket_XP001Repository.MadaketHealth.TxtCity"
				id="275ef8ae16904ae689a4001c02a10d08"
				timeout="60000"
				codefile="c:\Users\JohnPloumis\Documents\Ranorex\RanorexStudio Projects\madaket_XP001\madaket_XP001\New_Payer_ValidData.cs"
				codeline="109"
				itemindex="9"
				loglvl="Info">
			</metainfo>
		</item>
		<item
			timeRelativeToTestSuiteStartTime="00:14.666"
			timeRelativeToTestModuleStartTime="00:14.668"
			timeWallClock="09:47:27"
			time="00:14.666"
			level="Info"
			category="Set value">
			<message>
				Setting attribute TagValue to 'MA' on item 'MadaketHealth.TxtState'.
			</message>
			<metainfo
				type="repoitem"
				path="/dom[@caption='Madaket Health']//select[#'txt_state']"
				itempath=".//select[#'txt_state']"
				fullname="madaket_XP001Repository.MadaketHealth.TxtState"
				id="ebe2033877a44d918170bb47fee05430"
				timeout="60000"
				codefile="c:\Users\JohnPloumis\Documents\Ranorex\RanorexStudio Projects\madaket_XP001\madaket_XP001\New_Payer_ValidData.cs"
				codeline="112"
				itemindex="10"
				loglvl="Info">
			</metainfo>
		</item>
		<item
			timeRelativeToTestSuiteStartTime="00:15.192"
			timeRelativeToTestModuleStartTime="00:15.194"
			timeWallClock="09:47:28"
			time="00:15.192"
			level="Info"
			category="Mouse">
			<message>
				Mouse Left Click item 'MadaketHealth.PopupScrollContainer' at 548;376.
			</message>
			<metainfo
				type="repoitem"
				path="/dom[@caption='Madaket Health']//div[#'editPayorPopup']/div[2]"
				itempath=".//div[#'editPayorPopup']/div[2]"
				fullname="madaket_XP001Repository.MadaketHealth.PopupScrollContainer"
				id="f53c44ed5bb14893839e2b7cdc4d3ef7"
				timeout="60000"
				codefile="c:\Users\JohnPloumis\Documents\Ranorex\RanorexStudio Projects\madaket_XP001\madaket_XP001\New_Payer_ValidData.cs"
				codeline="115"
				itemindex="11"
				loglvl="Info">
			</metainfo>
		</item>
		<item
			timeRelativeToTestSuiteStartTime="00:15.776"
			timeRelativeToTestModuleStartTime="00:15.778"
			timeWallClock="09:47:28"
			time="00:15.776"
			level="Warn"
			category="Click"
			errimg=".\New_Paye_8bf9e263_rxlog.jpg"
			errthumb=".\New_Paye_8bf9e263_rxlog_thumb.jpg">
			<message>
				The mouse action was performed outside the boundaries of the assigned UI element.<br/>
			</message>
			<metainfo
				codefile="c:\Users\JohnPloumis\Documents\Ranorex\RanorexStudio Projects\madaket_XP001\madaket_XP001\New_Payer_ValidData.cs"
				codeline="116"
				loglvl="Warn">
			</metainfo>
		</item>
		<item
			timeRelativeToTestSuiteStartTime="00:16.338"
			timeRelativeToTestModuleStartTime="00:16.340"
			timeWallClock="09:47:29"
			time="00:16.338"
			level="Info"
			category="Mouse">
			<message>
				Mouse Left Click item 'MadaketHealth.FirstName' at 146;8.
			</message>
			<metainfo
				type="repoitem"
				path="/dom[@caption='Madaket Health']//input[#'firstName']"
				itempath=".//input[#'firstName']"
				fullname="madaket_XP001Repository.MadaketHealth.FirstName"
				id="d3da3f164ae640b5b1e62605679d50af"
				timeout="60000"
				codefile="c:\Users\JohnPloumis\Documents\Ranorex\RanorexStudio Projects\madaket_XP001\madaket_XP001\New_Payer_ValidData.cs"
				codeline="118"
				itemindex="12"
				loglvl="Info">
			</metainfo>
		</item>
		<item
			timeRelativeToTestSuiteStartTime="00:17.786"
			timeRelativeToTestModuleStartTime="00:17.788"
			timeWallClock="09:47:30"
			time="00:17.786"
			level="Info"
			category="Keyboard">
			<message>
				Key sequence 'test{Tab}payer' with focus on 'MadaketHealth.FirstName'.
			</message>
			<metainfo
				type="repoitem"
				path="/dom[@caption='Madaket Health']//input[#'firstName']"
				itempath=".//input[#'firstName']"
				fullname="madaket_XP001Repository.MadaketHealth.FirstName"
				id="d3da3f164ae640b5b1e62605679d50af"
				timeout="60000"
				codefile="c:\Users\JohnPloumis\Documents\Ranorex\RanorexStudio Projects\madaket_XP001\madaket_XP001\New_Payer_ValidData.cs"
				codeline="121"
				itemindex="13"
				loglvl="Info">
			</metainfo>
		</item>
		<item
			timeRelativeToTestSuiteStartTime="00:19.356"
			timeRelativeToTestModuleStartTime="00:19.358"
			timeWallClock="09:47:32"
			time="00:19.356"
			level="Info"
			category="Keyboard">
			<message>
				Key sequence '{Tab}'.
			</message>
			<metainfo
				itemindex="14"
				codefile="c:\Users\JohnPloumis\Documents\Ranorex\RanorexStudio Projects\madaket_XP001\madaket_XP001\New_Payer_ValidData.cs"
				codeline="124"
				loglvl="Info">
			</metainfo>
		</item>
		<item
			timeRelativeToTestSuiteStartTime="00:19.493"
			timeRelativeToTestModuleStartTime="00:19.495"
			timeWallClock="09:47:32"
			time="00:19.493"
			level="Info"
			category="Keyboard">
			<message>
				Key sequence 'test.payer{LShiftKey down}{@ down}{LShiftKey up}payer.com'.
			</message>
			<metainfo
				itemindex="15"
				codefile="c:\Users\JohnPloumis\Documents\Ranorex\RanorexStudio Projects\madaket_XP001\madaket_XP001\New_Payer_ValidData.cs"
				codeline="127"
				loglvl="Info">
			</metainfo>
		</item>
		<item
			timeRelativeToTestSuiteStartTime="00:20.061"
			timeRelativeToTestModuleStartTime="00:20.063"
			timeWallClock="09:47:32"
			time="00:20.061"
			level="Info"
			category="Mouse">
			<message>
				Mouse Left Click item 'MadaketHealth.btnSavePayor' at 50;9.
			</message>
			<metainfo
				type="repoitem"
				path="/dom[@caption='Madaket Health']//button[#'savePayorButton']"
				itempath=".//button[#'savePayorButton']"
				fullname="madaket_XP001Repository.MadaketHealth.btnSavePayor"
				id="ab96c6bd2749404d82d6f94d5830ab20"
				timeout="60000"
				codefile="c:\Users\JohnPloumis\Documents\Ranorex\RanorexStudio Projects\madaket_XP001\madaket_XP001\New_Payer_ValidData.cs"
				codeline="130"
				itemindex="16"
				loglvl="Info">
			</metainfo>
		</item>
		<item
			timeRelativeToTestSuiteStartTime="00:21.087"
			timeRelativeToTestModuleStartTime="00:21.089"
			timeWallClock="09:47:34"
			time="00:21.087"
			level="Info"
			category="Mouse">
			<message>
				Mouse Left Click item 'MadaketHealth.PayerGeneralDetailsDiv.DivTagTestPayerAutomationXP0' at 96;9.
			</message>
			<metainfo
				type="repoitem"
				path="/dom[@caption='Madaket Health']//div[#'payerGeneralDetailsDiv']//div[@innertext~'^test_payer_autom']"
				itempath=".//div[@innertext~'^test_payer_autom']"
				fullname="madaket_XP001Repository.MadaketHealth.PayerGeneralDetailsDiv.DivTagTestPayerAutomationXP0"
				id="0e44183f677548639bb83854085d8ec1"
				timeout="90000"
				codefile="c:\Users\JohnPloumis\Documents\Ranorex\RanorexStudio Projects\madaket_XP001\madaket_XP001\New_Payer_ValidData.cs"
				codeline="133"
				itemindex="17"
				loglvl="Info">
			</metainfo>
		</item>
		<item
			timeRelativeToTestSuiteStartTime="00:23.433"
			timeRelativeToTestModuleStartTime="00:23.435"
			timeWallClock="09:47:36"
			time="00:23.433"
			level="Info"
			category="Mouse">
			<message>
				Mouse Left Click item 'MadaketHealth.PayerGeneralDetailsDiv.PayerName' at 39;12.
			</message>
			<metainfo
				type="repoitem"
				path="/dom[@caption='Madaket Health']//div[#'payerGeneralDetailsDiv']/div[2]/div[1]/?/?/strong[@innertext='Payer name:']"
				itempath="div[2]/div[1]/?/?/strong[@innertext='Payer name:']"
				fullname="madaket_XP001Repository.MadaketHealth.PayerGeneralDetailsDiv.PayerName"
				id="761d8abaef054dda9ba0c9e8b5cb4084"
				timeout="90000"
				codefile="c:\Users\JohnPloumis\Documents\Ranorex\RanorexStudio Projects\madaket_XP001\madaket_XP001\New_Payer_ValidData.cs"
				codeline="136"
				itemindex="18"
				loglvl="Info">
			</metainfo>
		</item>
		<item
			timeRelativeToTestSuiteStartTime="00:24.669"
			timeRelativeToTestModuleStartTime="00:24.671"
			timeWallClock="09:47:37"
			time="00:24.669"
			level="Info"
			category="Mouse">
			<message>
				Mouse Left Click item 'MadaketHealth.PayerGeneralDetailsDiv.Address' at 32;12.
			</message>
			<metainfo
				type="repoitem"
				path="/dom[@caption='Madaket Health']//div[#'payerGeneralDetailsDiv']/div[2]/div[7]/?/?/span[@innertext='Address:']"
				itempath="div[2]/div[7]/?/?/span[@innertext='Address:']"
				fullname="madaket_XP001Repository.MadaketHealth.PayerGeneralDetailsDiv.Address"
				id="14645446fd584bf2a276b1938a1712e1"
				timeout="90000"
				codefile="c:\Users\JohnPloumis\Documents\Ranorex\RanorexStudio Projects\madaket_XP001\madaket_XP001\New_Payer_ValidData.cs"
				codeline="139"
				itemindex="19"
				loglvl="Info">
			</metainfo>
		</item>
		<item
			timeRelativeToTestSuiteStartTime="00:26.254"
			timeRelativeToTestModuleStartTime="00:26.256"
			timeWallClock="09:47:39"
			time="00:26.254"
			level="Info"
			category="Mouse">
			<message>
				Mouse Left Click item 'MadaketHealth.PayerGeneralDetailsDiv.DivTag101MainStreetW' at 35;17.
			</message>
			<metainfo
				type="repoitem"
				path="/dom[@caption='Madaket Health']//div[#'payerGeneralDetailsDiv']//div[@innertext~'^101\ main\ street']"
				itempath=".//div[@innertext~'^101\ main\ street']"
				fullname="madaket_XP001Repository.MadaketHealth.PayerGeneralDetailsDiv.DivTag101MainStreetW"
				id="6c7e3dd9a6004299ba43a1310c11a174"
				timeout="90000"
				codefile="c:\Users\JohnPloumis\Documents\Ranorex\RanorexStudio Projects\madaket_XP001\madaket_XP001\New_Payer_ValidData.cs"
				codeline="142"
				itemindex="20"
				loglvl="Info">
			</metainfo>
		</item>
		<item
			timeRelativeToTestSuiteStartTime="00:28.003"
			timeRelativeToTestModuleStartTime="00:28.005"
			timeWallClock="09:47:40"
			time="00:28.003"
			level="Info"
			category="Mouse">
			<message>
				Mouse Left Click item 'MadaketHealth.PayerGeneralDetailsDiv.Contact' at 32;5.
			</message>
			<metainfo
				type="repoitem"
				path="/dom[@caption='Madaket Health']//div[#'payerGeneralDetailsDiv']/div[2]/div[8]/?/?/span[@innertext='Contact:']"
				itempath="div[2]/div[8]/?/?/span[@innertext='Contact:']"
				fullname="madaket_XP001Repository.MadaketHealth.PayerGeneralDetailsDiv.Contact"
				id="f417a5fe94464a708c34508abc60a181"
				timeout="90000"
				codefile="c:\Users\JohnPloumis\Documents\Ranorex\RanorexStudio Projects\madaket_XP001\madaket_XP001\New_Payer_ValidData.cs"
				codeline="145"
				itemindex="21"
				loglvl="Info">
			</metainfo>
		</item>
		<item
			timeRelativeToTestSuiteStartTime="00:29.153"
			timeRelativeToTestModuleStartTime="00:29.155"
			timeWallClock="09:47:42"
			time="00:29.153"
			level="Info"
			category="Mouse">
			<message>
				Mouse Left Click item 'MadaketHealth.PayerGeneralDetailsDiv.DivTagTestPayerAtpayerCom' at 59;6.
			</message>
			<metainfo
				type="repoitem"
				path="/dom[@caption='Madaket Health']//div[#'payerGeneralDetailsDiv']//div[@innertext~'^test\.payer@payer']"
				itempath=".//div[@innertext~'^test\.payer@payer']"
				fullname="madaket_XP001Repository.MadaketHealth.PayerGeneralDetailsDiv.DivTagTestPayerAtpayerCom"
				id="54203ec5caae40ada0580344cddf82e5"
				timeout="90000"
				codefile="c:\Users\JohnPloumis\Documents\Ranorex\RanorexStudio Projects\madaket_XP001\madaket_XP001\New_Payer_ValidData.cs"
				codeline="148"
				itemindex="22"
				loglvl="Info">
			</metainfo>
		</item>
	</activity>
</report>
