﻿<?xml version="1.0" encoding="utf-8"?>
<report
	progress="">
	<activity
		result="Success"
		duration="0ms"
		durationms="0"
		type="root"
		rid="9341a97f8c9f3a5"
		totalerrorcount="0"
		totalwarningcount="0"
		totalsuccesstestcasecount="0"
		totalfailedtestcasecount="0"
		totalblockedtestcasecount="0"
		childsuccesscount="0"
		childfailedcount="0"
		childblockedcount="0"
		totalsuccesscount="0"
		totalfailedcount="0"
		totalblockedcount="0"
		totalmaintenancemodecount="0"
		user="JohnPloumis"
		rxversion="8.2.1.0"
		host="LAPTOP-5EO8DNU1"
		osversion="Windows 10 64bit"
		runtimeversion="4.0.30319.42000"
		procarch="32bit"
		oslanguage="en-US"
		dtnlanguage="en-US"
		screenresolution="1366x768"
		timestamp="10/17/2018 3:35:38 PM"
		timestampiso="2018-10-17T19:35:38"
		endtime="10/17/2018 3:36:58 PM"
		timeoutfactor="1"
		module="New_MedicalGroup_ValidData">
		<detail>
			New_MedicalGroup_ValidData
		</detail>
		<varbindings>
		</varbindings>
		<item
			timeRelativeToTestSuiteStartTime="00:02.881"
			timeRelativeToTestModuleStartTime="00:02.881"
			timeWallClock="15:35:40"
			time="00:02.881"
			level="Info"
			category="Mouse">
			<message>
				Mouse Left Click item 'MadaketHealth.DivTagMedicalGroups' at 68;20.
			</message>
			<metainfo
				type="repoitem"
				path="/dom[@caption='Madaket Health']//nav[#'mainNav']/ul//div[@innertext~'^Medical\ Groups']"
				itempath=".//nav[#'mainNav']/ul//div[@innertext~'^Medical\ Groups']"
				fullname="madaket_XP001Repository.MadaketHealth.DivTagMedicalGroups"
				id="b009e8773a4e4780a7cf8148c07c9d21"
				timeout="60000"
				codefile="c:\Users\JohnPloumis\Documents\Ranorex\RanorexStudio Projects\ranorex_testautomation\madaket_XP001\New_MedicalGroup_ValidData.cs"
				codeline="82"
				itemindex="0"
				loglvl="Info">
			</metainfo>
		</item>
		<item
			timeRelativeToTestSuiteStartTime="00:07.206"
			timeRelativeToTestModuleStartTime="00:07.206"
			timeWallClock="15:35:45"
			time="00:07.206"
			level="Info"
			category="Mouse">
			<message>
				Mouse Left Click item 'MadaketHealth.MedicalGroupClickNewFlow' at 58;6.
			</message>
			<metainfo
				type="repoitem"
				path="/dom[@caption='Madaket Health']//a[#'medicalGroupClickNewFlow']"
				itempath=".//a[#'medicalGroupClickNewFlow']"
				fullname="madaket_XP001Repository.MadaketHealth.MedicalGroupClickNewFlow"
				id="1f976bff0a704cffb4e06ee1e8772048"
				timeout="60000"
				codefile="c:\Users\JohnPloumis\Documents\Ranorex\RanorexStudio Projects\ranorex_testautomation\madaket_XP001\New_MedicalGroup_ValidData.cs"
				codeline="85"
				itemindex="1"
				loglvl="Info">
			</metainfo>
		</item>
		<item
			timeRelativeToTestSuiteStartTime="00:09.012"
			timeRelativeToTestModuleStartTime="00:09.012"
			timeWallClock="15:35:47"
			time="00:09.012"
			level="Info"
			category="Mouse">
			<message>
				Mouse Left Click item 'MadaketHealth.GroupName' at 169;18.
			</message>
			<metainfo
				type="repoitem"
				path="/dom[@caption='Madaket Health']//input[#'groupName']"
				itempath=".//input[#'groupName']"
				fullname="madaket_XP001Repository.MadaketHealth.GroupName"
				id="cbe7b5312e134eb1aaf6d6d6657062f4"
				timeout="60000"
				codefile="c:\Users\JohnPloumis\Documents\Ranorex\RanorexStudio Projects\ranorex_testautomation\madaket_XP001\New_MedicalGroup_ValidData.cs"
				codeline="88"
				itemindex="2"
				loglvl="Info">
			</metainfo>
		</item>
		<item
			timeRelativeToTestSuiteStartTime="00:30.828"
			timeRelativeToTestModuleStartTime="00:30.828"
			timeWallClock="15:36:08"
			time="00:30.828"
			level="Info"
			category="Keyboard">
			<message>
				Key sequence 'test{LShiftKey down}_{LShiftKey up}automation{LShiftKey down}_XP{LShiftKey up}001' with focus on 'MadaketHealth.GroupName'.
			</message>
			<metainfo
				type="repoitem"
				path="/dom[@caption='Madaket Health']//input[#'groupName']"
				itempath=".//input[#'groupName']"
				fullname="madaket_XP001Repository.MadaketHealth.GroupName"
				id="cbe7b5312e134eb1aaf6d6d6657062f4"
				timeout="60000"
				codefile="c:\Users\JohnPloumis\Documents\Ranorex\RanorexStudio Projects\ranorex_testautomation\madaket_XP001\New_MedicalGroup_ValidData.cs"
				codeline="91"
				itemindex="3"
				loglvl="Info">
			</metainfo>
		</item>
		<item
			timeRelativeToTestSuiteStartTime="00:32.388"
			timeRelativeToTestModuleStartTime="00:32.388"
			timeWallClock="15:36:10"
			time="00:32.388"
			level="Info"
			category="Mouse">
			<message>
				Mouse Left Click item 'MadaketHealth.SiteId' at 111;10.
			</message>
			<metainfo
				type="repoitem"
				path="/dom[@caption='Madaket Health']//input[#'siteId']"
				itempath=".//input[#'siteId']"
				fullname="madaket_XP001Repository.MadaketHealth.SiteId"
				id="d800e804633a43a49e0bf7abdcaae03d"
				timeout="60000"
				codefile="c:\Users\JohnPloumis\Documents\Ranorex\RanorexStudio Projects\ranorex_testautomation\madaket_XP001\New_MedicalGroup_ValidData.cs"
				codeline="94"
				itemindex="4"
				loglvl="Info">
			</metainfo>
		</item>
		<item
			timeRelativeToTestSuiteStartTime="00:33.138"
			timeRelativeToTestModuleStartTime="00:33.138"
			timeWallClock="15:36:11"
			time="00:33.138"
			level="Info"
			category="Keyboard">
			<message>
				Key sequence 'XP001' with focus on 'MadaketHealth.SiteId'.
			</message>
			<metainfo
				type="repoitem"
				path="/dom[@caption='Madaket Health']//input[#'siteId']"
				itempath=".//input[#'siteId']"
				fullname="madaket_XP001Repository.MadaketHealth.SiteId"
				id="d800e804633a43a49e0bf7abdcaae03d"
				timeout="60000"
				codefile="c:\Users\JohnPloumis\Documents\Ranorex\RanorexStudio Projects\ranorex_testautomation\madaket_XP001\New_MedicalGroup_ValidData.cs"
				codeline="97"
				itemindex="5"
				loglvl="Info">
			</metainfo>
		</item>
		<item
			timeRelativeToTestSuiteStartTime="00:33.959"
			timeRelativeToTestModuleStartTime="00:33.959"
			timeWallClock="15:36:12"
			time="00:33.959"
			level="Info"
			category="Mouse">
			<message>
				Mouse Left Click item 'MadaketHealth.InputTagTin' at 57;15.
			</message>
			<metainfo
				type="repoitem"
				path="/dom[@caption='Madaket Health']//input[#'tin']"
				itempath=".//input[#'tin']"
				fullname="madaket_XP001Repository.MadaketHealth.InputTagTin"
				id="6b2b2218334346e3bce93576672801f7"
				timeout="60000"
				codefile="c:\Users\JohnPloumis\Documents\Ranorex\RanorexStudio Projects\ranorex_testautomation\madaket_XP001\New_MedicalGroup_ValidData.cs"
				codeline="100"
				itemindex="6"
				loglvl="Info">
			</metainfo>
		</item>
		<item
			timeRelativeToTestSuiteStartTime="00:34.803"
			timeRelativeToTestModuleStartTime="00:34.803"
			timeWallClock="15:36:12"
			time="00:34.803"
			level="Info"
			category="Keyboard">
			<message>
				Key sequence '897644112' with focus on 'MadaketHealth.InputTagTin'.
			</message>
			<metainfo
				type="repoitem"
				path="/dom[@caption='Madaket Health']//input[#'tin']"
				itempath=".//input[#'tin']"
				fullname="madaket_XP001Repository.MadaketHealth.InputTagTin"
				id="6b2b2218334346e3bce93576672801f7"
				timeout="60000"
				codefile="c:\Users\JohnPloumis\Documents\Ranorex\RanorexStudio Projects\ranorex_testautomation\madaket_XP001\New_MedicalGroup_ValidData.cs"
				codeline="103"
				itemindex="7"
				loglvl="Info">
			</metainfo>
		</item>
		<item
			timeRelativeToTestSuiteStartTime="00:35.817"
			timeRelativeToTestModuleStartTime="00:35.817"
			timeWallClock="15:36:13"
			time="00:35.817"
			level="Info"
			category="Mouse">
			<message>
				Mouse Left Click item 'MadaketHealth.PopupScrollContainer1' at Center.
			</message>
			<metainfo
				type="repoitem"
				path="/dom[@caption='Madaket Health']//div[#'addMedicalGroupPopupContainer']/div[3]"
				itempath=".//div[#'addMedicalGroupPopupContainer']/div[3]"
				fullname="madaket_XP001Repository.MadaketHealth.PopupScrollContainer1"
				id="4475c1ec0c3e4350840c3462d5408ab0"
				timeout="60000"
				codefile="c:\Users\JohnPloumis\Documents\Ranorex\RanorexStudio Projects\ranorex_testautomation\madaket_XP001\New_MedicalGroup_ValidData.cs"
				codeline="106"
				itemindex="8"
				loglvl="Info">
			</metainfo>
		</item>
		<item
			timeRelativeToTestSuiteStartTime="00:36.571"
			timeRelativeToTestModuleStartTime="00:36.571"
			timeWallClock="15:36:14"
			time="00:36.571"
			level="Info"
			category="Mouse">
			<message>
				Mouse Left Down item 'MadaketHealth.TabIndex0' at 47;11.
			</message>
			<metainfo
				type="repoitem"
				path="/dom[@caption='Madaket Health']//button[#'tabIndex0']"
				itempath=".//button[#'tabIndex0']"
				fullname="madaket_XP001Repository.MadaketHealth.TabIndex0"
				id="ede082c547ae4f43bf3d32d91be01dd8"
				timeout="60000"
				codefile="c:\Users\JohnPloumis\Documents\Ranorex\RanorexStudio Projects\ranorex_testautomation\madaket_XP001\New_MedicalGroup_ValidData.cs"
				codeline="109"
				itemindex="9"
				loglvl="Info">
			</metainfo>
		</item>
		<item
			timeRelativeToTestSuiteStartTime="00:37.158"
			timeRelativeToTestModuleStartTime="00:37.158"
			timeWallClock="15:36:15"
			time="00:37.158"
			level="Info"
			category="Mouse">
			<message>
				Mouse Left Up item 'MadaketHealth.TabIndex0' at 47;11.
			</message>
			<metainfo
				type="repoitem"
				path="/dom[@caption='Madaket Health']//button[#'tabIndex0']"
				itempath=".//button[#'tabIndex0']"
				fullname="madaket_XP001Repository.MadaketHealth.TabIndex0"
				id="ede082c547ae4f43bf3d32d91be01dd8"
				timeout="60000"
				codefile="c:\Users\JohnPloumis\Documents\Ranorex\RanorexStudio Projects\ranorex_testautomation\madaket_XP001\New_MedicalGroup_ValidData.cs"
				codeline="113"
				itemindex="10"
				loglvl="Info">
			</metainfo>
		</item>
		<item
			timeRelativeToTestSuiteStartTime="00:37.827"
			timeRelativeToTestModuleStartTime="00:37.827"
			timeWallClock="15:36:15"
			time="00:37.827"
			level="Info"
			category="Mouse">
			<message>
				Mouse Left Click item 'MadaketHealth.SiteId' at Center.
			</message>
			<metainfo
				type="repoitem"
				path="/dom[@caption='Madaket Health']//input[#'siteId']"
				itempath=".//input[#'siteId']"
				fullname="madaket_XP001Repository.MadaketHealth.SiteId"
				id="d800e804633a43a49e0bf7abdcaae03d"
				timeout="60000"
				codefile="c:\Users\JohnPloumis\Documents\Ranorex\RanorexStudio Projects\ranorex_testautomation\madaket_XP001\New_MedicalGroup_ValidData.cs"
				codeline="117"
				itemindex="11"
				loglvl="Info">
			</metainfo>
		</item>
		<item
			timeRelativeToTestSuiteStartTime="00:38.685"
			timeRelativeToTestModuleStartTime="00:38.685"
			timeWallClock="15:36:16"
			time="00:38.685"
			level="Info"
			category="Keyboard">
			<message>
				Key sequence '010101' with focus on 'MadaketHealth.SiteId'.
			</message>
			<metainfo
				type="repoitem"
				path="/dom[@caption='Madaket Health']//input[#'siteId']"
				itempath=".//input[#'siteId']"
				fullname="madaket_XP001Repository.MadaketHealth.SiteId"
				id="d800e804633a43a49e0bf7abdcaae03d"
				timeout="60000"
				codefile="c:\Users\JohnPloumis\Documents\Ranorex\RanorexStudio Projects\ranorex_testautomation\madaket_XP001\New_MedicalGroup_ValidData.cs"
				codeline="120"
				itemindex="12"
				loglvl="Info">
			</metainfo>
		</item>
		<item
			timeRelativeToTestSuiteStartTime="00:39.638"
			timeRelativeToTestModuleStartTime="00:39.638"
			timeWallClock="15:36:17"
			time="00:39.638"
			level="Info"
			category="Mouse">
			<message>
				Mouse Left Click item 'MadaketHealth.TabIndex0' at Center.
			</message>
			<metainfo
				type="repoitem"
				path="/dom[@caption='Madaket Health']//button[#'tabIndex0']"
				itempath=".//button[#'tabIndex0']"
				fullname="madaket_XP001Repository.MadaketHealth.TabIndex0"
				id="ede082c547ae4f43bf3d32d91be01dd8"
				timeout="60000"
				codefile="c:\Users\JohnPloumis\Documents\Ranorex\RanorexStudio Projects\ranorex_testautomation\madaket_XP001\New_MedicalGroup_ValidData.cs"
				codeline="123"
				itemindex="13"
				loglvl="Info">
			</metainfo>
		</item>
		<item
			timeRelativeToTestSuiteStartTime="00:40.438"
			timeRelativeToTestModuleStartTime="00:40.438"
			timeWallClock="15:36:18"
			time="00:40.438"
			level="Info"
			category="Mouse">
			<message>
				Mouse Left Click item 'MadaketHealth.FirstName' at Center.
			</message>
			<metainfo
				type="repoitem"
				path="/dom[@caption='Madaket Health']//input[#'firstName']"
				itempath=".//input[#'firstName']"
				fullname="madaket_XP001Repository.MadaketHealth.FirstName"
				id="d3da3f164ae640b5b1e62605679d50af"
				timeout="60000"
				codefile="c:\Users\JohnPloumis\Documents\Ranorex\RanorexStudio Projects\ranorex_testautomation\madaket_XP001\New_MedicalGroup_ValidData.cs"
				codeline="126"
				itemindex="14"
				loglvl="Info">
			</metainfo>
		</item>
		<item
			timeRelativeToTestSuiteStartTime="00:41.217"
			timeRelativeToTestModuleStartTime="00:41.217"
			timeWallClock="15:36:19"
			time="00:41.217"
			level="Info"
			category="Keyboard">
			<message>
				Key sequence 'test{Tab down}' with focus on 'MadaketHealth.FirstName'.
			</message>
			<metainfo
				type="repoitem"
				path="/dom[@caption='Madaket Health']//input[#'firstName']"
				itempath=".//input[#'firstName']"
				fullname="madaket_XP001Repository.MadaketHealth.FirstName"
				id="d3da3f164ae640b5b1e62605679d50af"
				timeout="60000"
				codefile="c:\Users\JohnPloumis\Documents\Ranorex\RanorexStudio Projects\ranorex_testautomation\madaket_XP001\New_MedicalGroup_ValidData.cs"
				codeline="129"
				itemindex="15"
				loglvl="Info">
			</metainfo>
		</item>
		<item
			timeRelativeToTestSuiteStartTime="00:42.147"
			timeRelativeToTestModuleStartTime="00:42.147"
			timeWallClock="15:36:20"
			time="00:42.147"
			level="Info"
			category="Keyboard">
			<message>
				Key 'Tab' Up.
			</message>
			<metainfo
				itemindex="16"
				codefile="c:\Users\JohnPloumis\Documents\Ranorex\RanorexStudio Projects\ranorex_testautomation\madaket_XP001\New_MedicalGroup_ValidData.cs"
				codeline="132"
				loglvl="Info">
			</metainfo>
		</item>
		<item
			timeRelativeToTestSuiteStartTime="00:42.151"
			timeRelativeToTestModuleStartTime="00:42.151"
			timeWallClock="15:36:20"
			time="00:42.151"
			level="Info"
			category="Keyboard">
			<message>
				Key sequence 'automation'.
			</message>
			<metainfo
				itemindex="17"
				codefile="c:\Users\JohnPloumis\Documents\Ranorex\RanorexStudio Projects\ranorex_testautomation\madaket_XP001\New_MedicalGroup_ValidData.cs"
				codeline="135"
				loglvl="Info">
			</metainfo>
		</item>
		<item
			timeRelativeToTestSuiteStartTime="00:42.672"
			timeRelativeToTestModuleStartTime="00:42.672"
			timeWallClock="15:36:20"
			time="00:42.672"
			level="Info"
			category="Mouse">
			<message>
				Mouse Left Click item 'MadaketHealth.Title' at Center.
			</message>
			<metainfo
				type="repoitem"
				path="/dom[@caption='Madaket Health']//input[#'title']"
				itempath=".//input[#'title']"
				fullname="madaket_XP001Repository.MadaketHealth.Title"
				id="56842e9fbfcb49fa8de411082716611e"
				timeout="60000"
				codefile="c:\Users\JohnPloumis\Documents\Ranorex\RanorexStudio Projects\ranorex_testautomation\madaket_XP001\New_MedicalGroup_ValidData.cs"
				codeline="138"
				itemindex="18"
				loglvl="Info">
			</metainfo>
		</item>
		<item
			timeRelativeToTestSuiteStartTime="00:43.527"
			timeRelativeToTestModuleStartTime="00:43.527"
			timeWallClock="15:36:21"
			time="00:43.527"
			level="Info"
			category="Keyboard">
			<message>
				Key sequence 'quality' with focus on 'MadaketHealth.Title'.
			</message>
			<metainfo
				type="repoitem"
				path="/dom[@caption='Madaket Health']//input[#'title']"
				itempath=".//input[#'title']"
				fullname="madaket_XP001Repository.MadaketHealth.Title"
				id="56842e9fbfcb49fa8de411082716611e"
				timeout="60000"
				codefile="c:\Users\JohnPloumis\Documents\Ranorex\RanorexStudio Projects\ranorex_testautomation\madaket_XP001\New_MedicalGroup_ValidData.cs"
				codeline="141"
				itemindex="19"
				loglvl="Info">
			</metainfo>
		</item>
		<item
			timeRelativeToTestSuiteStartTime="00:44.611"
			timeRelativeToTestModuleStartTime="00:44.611"
			timeWallClock="15:36:22"
			time="00:44.611"
			level="Info"
			category="Mouse">
			<message>
				Mouse Left Click item 'MadaketHealth.Email' at Center.
			</message>
			<metainfo
				type="repoitem"
				path="/dom[@caption='Madaket Health']//?/?/?/?/?/input[@id='email']"
				itempath=".//?/?/?/?/?/input[@id='email']"
				fullname="madaket_XP001Repository.MadaketHealth.Email"
				id="a3920f5fc83e40948d79cf6097767a6c"
				timeout="60000"
				codefile="c:\Users\JohnPloumis\Documents\Ranorex\RanorexStudio Projects\ranorex_testautomation\madaket_XP001\New_MedicalGroup_ValidData.cs"
				codeline="144"
				itemindex="20"
				loglvl="Info">
			</metainfo>
		</item>
		<item
			timeRelativeToTestSuiteStartTime="00:46.568"
			timeRelativeToTestModuleStartTime="00:46.568"
			timeWallClock="15:36:24"
			time="00:46.568"
			level="Info"
			category="Keyboard">
			<message>
				Key sequence 'quality{LShiftKey down}{@ down}{LShiftKey up}quality.com' with focus on 'MadaketHealth.Email'.
			</message>
			<metainfo
				type="repoitem"
				path="/dom[@caption='Madaket Health']//?/?/?/?/?/input[@id='email']"
				itempath=".//?/?/?/?/?/input[@id='email']"
				fullname="madaket_XP001Repository.MadaketHealth.Email"
				id="a3920f5fc83e40948d79cf6097767a6c"
				timeout="60000"
				codefile="c:\Users\JohnPloumis\Documents\Ranorex\RanorexStudio Projects\ranorex_testautomation\madaket_XP001\New_MedicalGroup_ValidData.cs"
				codeline="147"
				itemindex="21"
				loglvl="Info">
			</metainfo>
		</item>
		<item
			timeRelativeToTestSuiteStartTime="00:48.958"
			timeRelativeToTestModuleStartTime="00:48.958"
			timeWallClock="15:36:27"
			time="00:48.958"
			level="Info"
			category="Keyboard">
			<message>
				Key sequence '617555432110101' with focus on 'MadaketHealth.Phone'.
			</message>
			<metainfo
				type="repoitem"
				path="/dom[@caption='Madaket Health']//?/?/?/?/?/input[@id='phone']"
				itempath=".//?/?/?/?/?/input[@id='phone']"
				fullname="madaket_XP001Repository.MadaketHealth.Phone"
				id="c31719291d5f4cba95a957bf572aca50"
				timeout="60000"
				codefile="c:\Users\JohnPloumis\Documents\Ranorex\RanorexStudio Projects\ranorex_testautomation\madaket_XP001\New_MedicalGroup_ValidData.cs"
				codeline="150"
				itemindex="22"
				loglvl="Info">
			</metainfo>
		</item>
		<item
			timeRelativeToTestSuiteStartTime="00:51.120"
			timeRelativeToTestModuleStartTime="00:51.120"
			timeWallClock="15:36:29"
			time="00:51.120"
			level="Info"
			category="Keyboard">
			<message>
				Key sequence '5085554321' with focus on 'MadaketHealth.InputTagFax'.
			</message>
			<metainfo
				type="repoitem"
				path="/dom[@caption='Madaket Health']//input[#'fax']"
				itempath=".//input[#'fax']"
				fullname="madaket_XP001Repository.MadaketHealth.InputTagFax"
				id="855caf5473ba405fb0082f2eeb77e701"
				timeout="60000"
				codefile="c:\Users\JohnPloumis\Documents\Ranorex\RanorexStudio Projects\ranorex_testautomation\madaket_XP001\New_MedicalGroup_ValidData.cs"
				codeline="153"
				itemindex="23"
				loglvl="Info">
			</metainfo>
		</item>
		<item
			timeRelativeToTestSuiteStartTime="00:52.268"
			timeRelativeToTestModuleStartTime="00:52.268"
			timeWallClock="15:36:30"
			time="00:52.268"
			level="Info"
			category="Keyboard">
			<message>
				Key sequence '100 main street' with focus on 'NewGroupAddress.group_street'.
			</message>
			<metainfo
				type="repoitem"
				path="/dom[@domain='edi-alpha.madakethealth.com']//input[#'street1']"
				itempath=".//input[#'street1']"
				fullname="madaket_XP001Repository.NewGroupAddress.group_street"
				id="9a1ff5f0428e405f835bd342aa52f521"
				timeout="60000"
				codefile="c:\Users\JohnPloumis\Documents\Ranorex\RanorexStudio Projects\ranorex_testautomation\madaket_XP001\New_MedicalGroup_ValidData.cs"
				codeline="156"
				itemindex="24"
				loglvl="Info">
			</metainfo>
		</item>
		<item
			timeRelativeToTestSuiteStartTime="00:53.568"
			timeRelativeToTestModuleStartTime="00:53.568"
			timeWallClock="15:36:31"
			time="00:53.568"
			level="Info"
			category="Keyboard">
			<message>
				Key sequence 'boston{Tab down}' with focus on 'NewGroupAddress.group_city'.
			</message>
			<metainfo
				type="repoitem"
				path="/dom[@domain='edi-alpha.madakethealth.com']//input[#'city']"
				itempath=".//input[#'city']"
				fullname="madaket_XP001Repository.NewGroupAddress.group_city"
				id="e2680fa88bcc4965a2631833f3bbfddd"
				timeout="60000"
				codefile="c:\Users\JohnPloumis\Documents\Ranorex\RanorexStudio Projects\ranorex_testautomation\madaket_XP001\New_MedicalGroup_ValidData.cs"
				codeline="159"
				itemindex="25"
				loglvl="Info">
			</metainfo>
		</item>
		<item
			timeRelativeToTestSuiteStartTime="00:54.228"
			timeRelativeToTestModuleStartTime="00:54.228"
			timeWallClock="15:36:32"
			time="00:54.228"
			level="Info"
			category="Mouse">
			<message>
				Mouse Left Click item 'NewGroupAddress.group_state' at Center.
			</message>
			<metainfo
				type="repoitem"
				path="/dom[@domain='edi-alpha.madakethealth.com']//select[#'state']"
				itempath=".//select[#'state']"
				fullname="madaket_XP001Repository.NewGroupAddress.group_state"
				id="99987f19cc764a60a035f0d245ba44c0"
				timeout="60000"
				codefile="c:\Users\JohnPloumis\Documents\Ranorex\RanorexStudio Projects\ranorex_testautomation\madaket_XP001\New_MedicalGroup_ValidData.cs"
				codeline="162"
				itemindex="26"
				loglvl="Info">
			</metainfo>
		</item>
		<item
			timeRelativeToTestSuiteStartTime="00:54.688"
			timeRelativeToTestModuleStartTime="00:54.688"
			timeWallClock="15:36:32"
			time="00:54.688"
			level="Info"
			category="Mouse">
			<message>
				Mouse Left Click item 'NewGroupAddress.group_state' at 18;9.
			</message>
			<metainfo
				type="repoitem"
				path="/dom[@domain='edi-alpha.madakethealth.com']//select[#'state']"
				itempath=".//select[#'state']"
				fullname="madaket_XP001Repository.NewGroupAddress.group_state"
				id="99987f19cc764a60a035f0d245ba44c0"
				timeout="60000"
				codefile="c:\Users\JohnPloumis\Documents\Ranorex\RanorexStudio Projects\ranorex_testautomation\madaket_XP001\New_MedicalGroup_ValidData.cs"
				codeline="165"
				itemindex="27"
				loglvl="Info">
			</metainfo>
		</item>
		<item
			timeRelativeToTestSuiteStartTime="00:55.288"
			timeRelativeToTestModuleStartTime="00:55.288"
			timeWallClock="15:36:33"
			time="00:55.288"
			level="Info"
			category="Mouse">
			<message>
				Mouse Left Click item 'NewGroupAddress.group_zip' at 43;10.
			</message>
			<metainfo
				type="repoitem"
				path="/dom[@domain='edi-alpha.madakethealth.com']//input[#'zip']"
				itempath=".//input[#'zip']"
				fullname="madaket_XP001Repository.NewGroupAddress.group_zip"
				id="149b47faba5d4c1f8c8b55685d363e2a"
				timeout="60000"
				codefile="c:\Users\JohnPloumis\Documents\Ranorex\RanorexStudio Projects\ranorex_testautomation\madaket_XP001\New_MedicalGroup_ValidData.cs"
				codeline="168"
				itemindex="28"
				loglvl="Info">
			</metainfo>
		</item>
		<item
			timeRelativeToTestSuiteStartTime="00:55.857"
			timeRelativeToTestModuleStartTime="00:55.857"
			timeWallClock="15:36:33"
			time="00:55.857"
			level="Info"
			category="Keyboard">
			<message>
				Key sequence '02111' with focus on 'NewGroupAddress.group_zip'.
			</message>
			<metainfo
				type="repoitem"
				path="/dom[@domain='edi-alpha.madakethealth.com']//input[#'zip']"
				itempath=".//input[#'zip']"
				fullname="madaket_XP001Repository.NewGroupAddress.group_zip"
				id="149b47faba5d4c1f8c8b55685d363e2a"
				timeout="60000"
				codefile="c:\Users\JohnPloumis\Documents\Ranorex\RanorexStudio Projects\ranorex_testautomation\madaket_XP001\New_MedicalGroup_ValidData.cs"
				codeline="171"
				itemindex="29"
				loglvl="Info">
			</metainfo>
		</item>
		<item
			timeRelativeToTestSuiteStartTime="00:56.424"
			timeRelativeToTestModuleStartTime="00:56.424"
			timeWallClock="15:36:34"
			time="00:56.424"
			level="Info"
			category="Mouse">
			<message>
				Mouse Left Down item 'MadaketHealth.PopupScrollContainer1' at Center.
			</message>
			<metainfo
				type="repoitem"
				path="/dom[@caption='Madaket Health']//div[#'addMedicalGroupPopupContainer']/div[3]"
				itempath=".//div[#'addMedicalGroupPopupContainer']/div[3]"
				fullname="madaket_XP001Repository.MadaketHealth.PopupScrollContainer1"
				id="4475c1ec0c3e4350840c3462d5408ab0"
				timeout="60000"
				codefile="c:\Users\JohnPloumis\Documents\Ranorex\RanorexStudio Projects\ranorex_testautomation\madaket_XP001\New_MedicalGroup_ValidData.cs"
				codeline="174"
				itemindex="30"
				loglvl="Info">
			</metainfo>
		</item>
		<item
			timeRelativeToTestSuiteStartTime="00:57.170"
			timeRelativeToTestModuleStartTime="00:57.170"
			timeWallClock="15:36:35"
			time="00:57.170"
			level="Info"
			category="Mouse">
			<message>
				Mouse Left Up item 'MadaketHealth.PopupScrollContainer1' at Center.
			</message>
			<metainfo
				type="repoitem"
				path="/dom[@caption='Madaket Health']//div[#'addMedicalGroupPopupContainer']/div[3]"
				itempath=".//div[#'addMedicalGroupPopupContainer']/div[3]"
				fullname="madaket_XP001Repository.MadaketHealth.PopupScrollContainer1"
				id="4475c1ec0c3e4350840c3462d5408ab0"
				timeout="60000"
				codefile="c:\Users\JohnPloumis\Documents\Ranorex\RanorexStudio Projects\ranorex_testautomation\madaket_XP001\New_MedicalGroup_ValidData.cs"
				codeline="178"
				itemindex="31"
				loglvl="Info">
			</metainfo>
		</item>
		<item
			timeRelativeToTestSuiteStartTime="00:57.919"
			timeRelativeToTestModuleStartTime="00:57.919"
			timeWallClock="15:36:36"
			time="00:57.919"
			level="Info"
			category="Delay">
			<message>
				Waiting for 500ms.
			</message>
			<metainfo
				itemindex="32"
				codefile="c:\Users\JohnPloumis\Documents\Ranorex\RanorexStudio Projects\ranorex_testautomation\madaket_XP001\New_MedicalGroup_ValidData.cs"
				codeline="182"
				loglvl="Info">
			</metainfo>
		</item>
		<item
			timeRelativeToTestSuiteStartTime="00:58.433"
			timeRelativeToTestModuleStartTime="00:58.433"
			timeWallClock="15:36:36"
			time="00:58.433"
			level="Info"
			category="Validation">
			<message>
				Validating Exists on item 'MadaketHealth.TabIndex1'.
			</message>
			<metainfo
				type="repoitem"
				path="/dom[@caption='Madaket Health']//button[#'tabIndex1']"
				itempath=".//button[#'tabIndex1']"
				fullname="madaket_XP001Repository.MadaketHealth.TabIndex1"
				id="bb35bdcee29f447cb19ad5c688b7e721"
				timeout="60000"
				codefile="c:\Users\JohnPloumis\Documents\Ranorex\RanorexStudio Projects\ranorex_testautomation\madaket_XP001\New_MedicalGroup_ValidData.cs"
				codeline="185"
				itemindex="33"
				loglvl="Info">
			</metainfo>
		</item>
		<item
			timeRelativeToTestSuiteStartTime="00:59.089"
			timeRelativeToTestModuleStartTime="00:59.089"
			timeWallClock="15:36:37"
			time="00:59.089"
			level="Success"
			category="Validation">
			<message>
				Element for item 'TabIndex1' does exist.
			</message>
			<metainfo
				type="repoitem"
				path="/dom[@caption='Madaket Health']//button[#'tabIndex1']"
				itempath=".//button[#'tabIndex1']"
				fullname="madaket_XP001Repository.MadaketHealth.TabIndex1"
				id="bb35bdcee29f447cb19ad5c688b7e721"
				timeout="60000"
				codefile="c:\Users\JohnPloumis\Documents\Ranorex\RanorexStudio Projects\ranorex_testautomation\madaket_XP001\New_MedicalGroup_ValidData.cs"
				codeline="186"
				loglvl="Success"
				itemindex="33">
			</metainfo>
		</item>
		<item
			timeRelativeToTestSuiteStartTime="00:59.093"
			timeRelativeToTestModuleStartTime="00:59.093"
			timeWallClock="15:36:37"
			time="00:59.093"
			level="Info"
			category="Mouse">
			<message>
				Mouse Left Down item 'MadaketHealth.TabIndex1' at 54;13.
			</message>
			<metainfo
				type="repoitem"
				path="/dom[@caption='Madaket Health']//button[#'tabIndex1']"
				itempath=".//button[#'tabIndex1']"
				fullname="madaket_XP001Repository.MadaketHealth.TabIndex1"
				id="bb35bdcee29f447cb19ad5c688b7e721"
				timeout="60000"
				codefile="c:\Users\JohnPloumis\Documents\Ranorex\RanorexStudio Projects\ranorex_testautomation\madaket_XP001\New_MedicalGroup_ValidData.cs"
				codeline="188"
				itemindex="34"
				loglvl="Info">
			</metainfo>
		</item>
		<item
			timeRelativeToTestSuiteStartTime="01:00.101"
			timeRelativeToTestModuleStartTime="01:00.101"
			timeWallClock="15:36:38"
			time="01:00.101"
			level="Info"
			category="Mouse">
			<message>
				Mouse Left Up item 'MadaketHealth.TabIndex1' at Center.
			</message>
			<metainfo
				type="repoitem"
				path="/dom[@caption='Madaket Health']//button[#'tabIndex1']"
				itempath=".//button[#'tabIndex1']"
				fullname="madaket_XP001Repository.MadaketHealth.TabIndex1"
				id="bb35bdcee29f447cb19ad5c688b7e721"
				timeout="60000"
				codefile="c:\Users\JohnPloumis\Documents\Ranorex\RanorexStudio Projects\ranorex_testautomation\madaket_XP001\New_MedicalGroup_ValidData.cs"
				codeline="192"
				itemindex="35"
				loglvl="Info">
			</metainfo>
		</item>
		<item
			timeRelativeToTestSuiteStartTime="01:01.408"
			timeRelativeToTestModuleStartTime="01:01.408"
			timeWallClock="15:36:39"
			time="01:01.408"
			level="Info"
			category="Mouse">
			<message>
				Mouse Left Click item 'MadaketHealth.SignatureName' at Center.
			</message>
			<metainfo
				type="repoitem"
				path="/dom[@caption='Madaket Health']//input[#'signatureName']"
				itempath=".//input[#'signatureName']"
				fullname="madaket_XP001Repository.MadaketHealth.SignatureName"
				id="76ab4449b7f24a34b5906861262fc4ac"
				timeout="60000"
				codefile="c:\Users\JohnPloumis\Documents\Ranorex\RanorexStudio Projects\ranorex_testautomation\madaket_XP001\New_MedicalGroup_ValidData.cs"
				codeline="196"
				itemindex="36"
				loglvl="Info">
			</metainfo>
		</item>
		<item
			timeRelativeToTestSuiteStartTime="01:02.751"
			timeRelativeToTestModuleStartTime="01:02.751"
			timeWallClock="15:36:40"
			time="01:02.751"
			level="Info"
			category="Keyboard">
			<message>
				Key sequence 'test automation' with focus on 'MadaketHealth.SignatureName'.
			</message>
			<metainfo
				type="repoitem"
				path="/dom[@caption='Madaket Health']//input[#'signatureName']"
				itempath=".//input[#'signatureName']"
				fullname="madaket_XP001Repository.MadaketHealth.SignatureName"
				id="76ab4449b7f24a34b5906861262fc4ac"
				timeout="60000"
				codefile="c:\Users\JohnPloumis\Documents\Ranorex\RanorexStudio Projects\ranorex_testautomation\madaket_XP001\New_MedicalGroup_ValidData.cs"
				codeline="199"
				itemindex="37"
				loglvl="Info">
			</metainfo>
		</item>
		<item
			timeRelativeToTestSuiteStartTime="01:04.235"
			timeRelativeToTestModuleStartTime="01:04.235"
			timeWallClock="15:36:42"
			time="01:04.235"
			level="Info"
			category="Mouse">
			<message>
				Mouse Left Down item 'MadaketHealth.PopupScrollContainer1' at Center.
			</message>
			<metainfo
				type="repoitem"
				path="/dom[@caption='Madaket Health']//div[#'addMedicalGroupPopupContainer']/div[3]"
				itempath=".//div[#'addMedicalGroupPopupContainer']/div[3]"
				fullname="madaket_XP001Repository.MadaketHealth.PopupScrollContainer1"
				id="4475c1ec0c3e4350840c3462d5408ab0"
				timeout="60000"
				codefile="c:\Users\JohnPloumis\Documents\Ranorex\RanorexStudio Projects\ranorex_testautomation\madaket_XP001\New_MedicalGroup_ValidData.cs"
				codeline="202"
				itemindex="38"
				loglvl="Info">
			</metainfo>
		</item>
		<item
			timeRelativeToTestSuiteStartTime="01:04.902"
			timeRelativeToTestModuleStartTime="01:04.902"
			timeWallClock="15:36:43"
			time="01:04.902"
			level="Info"
			category="Mouse">
			<message>
				Mouse Left Up item 'MadaketHealth.PopupScrollContainer1' at Center.
			</message>
			<metainfo
				type="repoitem"
				path="/dom[@caption='Madaket Health']//div[#'addMedicalGroupPopupContainer']/div[3]"
				itempath=".//div[#'addMedicalGroupPopupContainer']/div[3]"
				fullname="madaket_XP001Repository.MadaketHealth.PopupScrollContainer1"
				id="4475c1ec0c3e4350840c3462d5408ab0"
				timeout="60000"
				codefile="c:\Users\JohnPloumis\Documents\Ranorex\RanorexStudio Projects\ranorex_testautomation\madaket_XP001\New_MedicalGroup_ValidData.cs"
				codeline="206"
				itemindex="39"
				loglvl="Info">
			</metainfo>
		</item>
		<item
			timeRelativeToTestSuiteStartTime="01:05.547"
			timeRelativeToTestModuleStartTime="01:05.547"
			timeWallClock="15:36:43"
			time="01:05.547"
			level="Info"
			category="Mouse">
			<message>
				Mouse Left Down item 'MadaketHealth.EDISelect' at Center.
			</message>
			<metainfo
				type="repoitem"
				path="/dom[@caption='Madaket Health']//input[#'EDISelect']"
				itempath=".//input[#'EDISelect']"
				fullname="madaket_XP001Repository.MadaketHealth.EDISelect"
				id="3464b4fb73e5464081d13bc091dbeebc"
				timeout="60000"
				codefile="c:\Users\JohnPloumis\Documents\Ranorex\RanorexStudio Projects\ranorex_testautomation\madaket_XP001\New_MedicalGroup_ValidData.cs"
				codeline="210"
				itemindex="40"
				loglvl="Info">
			</metainfo>
		</item>
		<item
			timeRelativeToTestSuiteStartTime="01:06.298"
			timeRelativeToTestModuleStartTime="01:06.298"
			timeWallClock="15:36:44"
			time="01:06.298"
			level="Info"
			category="Mouse">
			<message>
				Mouse Left Up item 'MadaketHealth.EDISelect' at Center.
			</message>
			<metainfo
				type="repoitem"
				path="/dom[@caption='Madaket Health']//input[#'EDISelect']"
				itempath=".//input[#'EDISelect']"
				fullname="madaket_XP001Repository.MadaketHealth.EDISelect"
				id="3464b4fb73e5464081d13bc091dbeebc"
				timeout="60000"
				codefile="c:\Users\JohnPloumis\Documents\Ranorex\RanorexStudio Projects\ranorex_testautomation\madaket_XP001\New_MedicalGroup_ValidData.cs"
				codeline="214"
				itemindex="41"
				loglvl="Info">
			</metainfo>
		</item>
		<item
			timeRelativeToTestSuiteStartTime="01:06.937"
			timeRelativeToTestModuleStartTime="01:06.937"
			timeWallClock="15:36:45"
			time="01:06.937"
			level="Info"
			category="Mouse">
			<message>
				Mouse Left Click item 'MadaketHealth.Finish' at Center.
			</message>
			<metainfo
				type="repoitem"
				path="/dom[@caption='Madaket Health']//div[#'transactions']/?/?/button[@innertext='Finish']"
				itempath=".//div[#'transactions']/?/?/button[@innertext='Finish']"
				fullname="madaket_XP001Repository.MadaketHealth.Finish"
				id="1b5a1beda57149a09e52e5d641994717"
				timeout="60000"
				codefile="c:\Users\JohnPloumis\Documents\Ranorex\RanorexStudio Projects\ranorex_testautomation\madaket_XP001\New_MedicalGroup_ValidData.cs"
				codeline="218"
				itemindex="42"
				loglvl="Info">
			</metainfo>
		</item>
		<item
			timeRelativeToTestSuiteStartTime="01:07.677"
			timeRelativeToTestModuleStartTime="01:07.677"
			timeWallClock="15:36:45"
			time="01:07.677"
			level="Info"
			category="Mouse">
			<message>
				Mouse Left Down item 'MadaketHealth.MedicalGroupDetailsSection.TestAutomationXP001' at 63;12.
			</message>
			<metainfo
				type="repoitem"
				path="/dom[@caption='Madaket Health']//div[#'medicalGroupDetailsSection']//div[@innertext='test_automation_XP001']"
				itempath=".//div[@innertext='test_automation_XP001']"
				fullname="madaket_XP001Repository.MadaketHealth.MedicalGroupDetailsSection.TestAutomationXP001"
				id="aceffa46dc474762a82f20598044c84c"
				timeout="90000"
				codefile="c:\Users\JohnPloumis\Documents\Ranorex\RanorexStudio Projects\ranorex_testautomation\madaket_XP001\New_MedicalGroup_ValidData.cs"
				codeline="221"
				itemindex="43"
				loglvl="Info">
			</metainfo>
		</item>
		<item
			timeRelativeToTestSuiteStartTime="01:09.552"
			timeRelativeToTestModuleStartTime="01:09.552"
			timeWallClock="15:36:47"
			time="01:09.552"
			level="Info"
			category="Mouse">
			<message>
				Mouse Left Up item 'MadaketHealth.MedicalGroupDetailsSection.TestAutomationXP001' at 63;12.
			</message>
			<metainfo
				type="repoitem"
				path="/dom[@caption='Madaket Health']//div[#'medicalGroupDetailsSection']//div[@innertext='test_automation_XP001']"
				itempath=".//div[@innertext='test_automation_XP001']"
				fullname="madaket_XP001Repository.MadaketHealth.MedicalGroupDetailsSection.TestAutomationXP001"
				id="aceffa46dc474762a82f20598044c84c"
				timeout="90000"
				codefile="c:\Users\JohnPloumis\Documents\Ranorex\RanorexStudio Projects\ranorex_testautomation\madaket_XP001\New_MedicalGroup_ValidData.cs"
				codeline="225"
				itemindex="44"
				loglvl="Info">
			</metainfo>
		</item>
		<item
			timeRelativeToTestSuiteStartTime="01:10.181"
			timeRelativeToTestModuleStartTime="01:10.181"
			timeWallClock="15:36:48"
			time="01:10.181"
			level="Info"
			category="Mouse">
			<message>
				Mouse Left Down item 'MadaketHealth.MedicalGroupDetailsSection.DivTagNameLegal' at 89;12.
			</message>
			<metainfo
				type="repoitem"
				path="/dom[@caption='Madaket Health']//div[#'medicalGroupDetailsSection']//div[@innertext~'^Name\(legal\)']"
				itempath=".//div[@innertext~'^Name\(legal\)']"
				fullname="madaket_XP001Repository.MadaketHealth.MedicalGroupDetailsSection.DivTagNameLegal"
				id="8c82e3085a0a43d2865b5e47c2f4c6ad"
				timeout="90000"
				codefile="c:\Users\JohnPloumis\Documents\Ranorex\RanorexStudio Projects\ranorex_testautomation\madaket_XP001\New_MedicalGroup_ValidData.cs"
				codeline="229"
				itemindex="45"
				loglvl="Info">
			</metainfo>
		</item>
		<item
			timeRelativeToTestSuiteStartTime="01:10.987"
			timeRelativeToTestModuleStartTime="01:10.987"
			timeWallClock="15:36:49"
			time="01:10.987"
			level="Info"
			category="Mouse">
			<message>
				Mouse Left Up item 'MadaketHealth.MedicalGroupDetailsSection.DivTagNameLegal' at 89;12.
			</message>
			<metainfo
				type="repoitem"
				path="/dom[@caption='Madaket Health']//div[#'medicalGroupDetailsSection']//div[@innertext~'^Name\(legal\)']"
				itempath=".//div[@innertext~'^Name\(legal\)']"
				fullname="madaket_XP001Repository.MadaketHealth.MedicalGroupDetailsSection.DivTagNameLegal"
				id="8c82e3085a0a43d2865b5e47c2f4c6ad"
				timeout="90000"
				codefile="c:\Users\JohnPloumis\Documents\Ranorex\RanorexStudio Projects\ranorex_testautomation\madaket_XP001\New_MedicalGroup_ValidData.cs"
				codeline="233"
				itemindex="46"
				loglvl="Info">
			</metainfo>
		</item>
		<item
			timeRelativeToTestSuiteStartTime="01:11.688"
			timeRelativeToTestModuleStartTime="01:11.688"
			timeWallClock="15:36:49"
			time="01:11.688"
			level="Info"
			category="Mouse">
			<message>
				Mouse Left Down item 'MadaketHealth.TableLayoutPrimaryEnrollmentAddress.BTagTestAutomation' at 34;5.
			</message>
			<metainfo
				type="repoitem"
				path="/dom[@caption='Madaket Health']//div[#'contactContainer']/table//span[@innertext='            quality']/b[@innertext=' test automation']"
				itempath=".//span[@innertext='            quality']/b[@innertext=' test automation']"
				fullname="madaket_XP001Repository.MadaketHealth.TableLayoutPrimaryEnrollmentAddress.BTagTestAutomation"
				id="d402a00850ed4d718e12c26775a16bbf"
				timeout="90000"
				codefile="c:\Users\JohnPloumis\Documents\Ranorex\RanorexStudio Projects\ranorex_testautomation\madaket_XP001\New_MedicalGroup_ValidData.cs"
				codeline="237"
				itemindex="47"
				loglvl="Info">
			</metainfo>
		</item>
		<item
			timeRelativeToTestSuiteStartTime="01:12.401"
			timeRelativeToTestModuleStartTime="01:12.401"
			timeWallClock="15:36:50"
			time="01:12.401"
			level="Info"
			category="Mouse">
			<message>
				Mouse Left Up item 'MadaketHealth.TableLayoutPrimaryEnrollmentAddress.BTagTestAutomation' at 34;5.
			</message>
			<metainfo
				type="repoitem"
				path="/dom[@caption='Madaket Health']//div[#'contactContainer']/table//span[@innertext='            quality']/b[@innertext=' test automation']"
				itempath=".//span[@innertext='            quality']/b[@innertext=' test automation']"
				fullname="madaket_XP001Repository.MadaketHealth.TableLayoutPrimaryEnrollmentAddress.BTagTestAutomation"
				id="d402a00850ed4d718e12c26775a16bbf"
				timeout="90000"
				codefile="c:\Users\JohnPloumis\Documents\Ranorex\RanorexStudio Projects\ranorex_testautomation\madaket_XP001\New_MedicalGroup_ValidData.cs"
				codeline="241"
				itemindex="48"
				loglvl="Info">
			</metainfo>
		</item>
		<item
			timeRelativeToTestSuiteStartTime="01:13.157"
			timeRelativeToTestModuleStartTime="01:13.157"
			timeWallClock="15:36:51"
			time="01:13.157"
			level="Info"
			category="Mouse">
			<message>
				Mouse Left Click item 'MadaketHealth.TableLayoutPrimaryEnrollmentAddress.DivTag6175554321E' at 72;8.
			</message>
			<metainfo
				type="repoitem"
				path="/dom[@caption='Madaket Health']//div[#'contactContainer']/table/?/?/tr/td[1]//div[@innertext~'^\ \ \ \ \ \ \ \ \ \ \ \ \ \ \ \(617\)\ 5']"
				itempath="?/?/tr/td[1]//div[@innertext~'^\ \ \ \ \ \ \ \ \ \ \ \ \ \ \ \(617\)\ 5']"
				fullname="madaket_XP001Repository.MadaketHealth.TableLayoutPrimaryEnrollmentAddress.DivTag6175554321E"
				id="0acd97e9ba774fafa3a910a232700416"
				timeout="90000"
				codefile="c:\Users\JohnPloumis\Documents\Ranorex\RanorexStudio Projects\ranorex_testautomation\madaket_XP001\New_MedicalGroup_ValidData.cs"
				codeline="245"
				itemindex="49"
				loglvl="Info">
			</metainfo>
		</item>
		<item
			timeRelativeToTestSuiteStartTime="01:13.988"
			timeRelativeToTestModuleStartTime="01:13.988"
			timeWallClock="15:36:52"
			time="01:13.988"
			level="Info"
			category="Mouse">
			<message>
				Mouse Left Down item 'MadaketHealth.TableLayoutPrimaryEnrollmentAddress.DivTag100MainStreet' at 15;9.
			</message>
			<metainfo
				type="repoitem"
				path="/dom[@caption='Madaket Health']//div[#'contactContainer']/table/?/?/tr/td[2]/?/?/div[@innertext='100 main street']"
				itempath="?/?/tr/td[2]/?/?/div[@innertext='100 main street']"
				fullname="madaket_XP001Repository.MadaketHealth.TableLayoutPrimaryEnrollmentAddress.DivTag100MainStreet"
				id="db9e2720f7a24a6580b1403a81a87119"
				timeout="90000"
				codefile="c:\Users\JohnPloumis\Documents\Ranorex\RanorexStudio Projects\ranorex_testautomation\madaket_XP001\New_MedicalGroup_ValidData.cs"
				codeline="248"
				itemindex="50"
				loglvl="Info">
			</metainfo>
		</item>
		<item
			timeRelativeToTestSuiteStartTime="01:14.588"
			timeRelativeToTestModuleStartTime="01:14.588"
			timeWallClock="15:36:52"
			time="01:14.588"
			level="Info"
			category="Mouse">
			<message>
				Mouse Left Up item 'MadaketHealth.TableLayoutPrimaryEnrollmentAddress.DivTag100MainStreet' at 15;9.
			</message>
			<metainfo
				type="repoitem"
				path="/dom[@caption='Madaket Health']//div[#'contactContainer']/table/?/?/tr/td[2]/?/?/div[@innertext='100 main street']"
				itempath="?/?/tr/td[2]/?/?/div[@innertext='100 main street']"
				fullname="madaket_XP001Repository.MadaketHealth.TableLayoutPrimaryEnrollmentAddress.DivTag100MainStreet"
				id="db9e2720f7a24a6580b1403a81a87119"
				timeout="90000"
				codefile="c:\Users\JohnPloumis\Documents\Ranorex\RanorexStudio Projects\ranorex_testautomation\madaket_XP001\New_MedicalGroup_ValidData.cs"
				codeline="252"
				itemindex="51"
				loglvl="Info">
			</metainfo>
		</item>
		<item
			timeRelativeToTestSuiteStartTime="01:15.287"
			timeRelativeToTestModuleStartTime="01:15.287"
			timeWallClock="15:36:53"
			time="01:15.287"
			level="Info"
			category="Mouse">
			<message>
				Mouse Left Down item 'MadaketHealth.MedicalGroupDetailsSection.DivTag897644112' at 14;7.
			</message>
			<metainfo
				type="repoitem"
				path="/dom[@caption='Madaket Health']//div[#'medicalGroupDetailsSection']//div[@innertext~'^89-7644112']"
				itempath=".//div[@innertext~'^89-7644112']"
				fullname="madaket_XP001Repository.MadaketHealth.MedicalGroupDetailsSection.DivTag897644112"
				id="663ca9d8c14c4617a0482ab03383d79c"
				timeout="90000"
				codefile="c:\Users\JohnPloumis\Documents\Ranorex\RanorexStudio Projects\ranorex_testautomation\madaket_XP001\New_MedicalGroup_ValidData.cs"
				codeline="256"
				itemindex="52"
				loglvl="Info">
			</metainfo>
		</item>
		<item
			timeRelativeToTestSuiteStartTime="01:15.957"
			timeRelativeToTestModuleStartTime="01:15.957"
			timeWallClock="15:36:54"
			time="01:15.957"
			level="Info"
			category="Mouse">
			<message>
				Mouse Left Up item 'MadaketHealth.MedicalGroupDetailsSection.DivTag897644112' at 14;7.
			</message>
			<metainfo
				type="repoitem"
				path="/dom[@caption='Madaket Health']//div[#'medicalGroupDetailsSection']//div[@innertext~'^89-7644112']"
				itempath=".//div[@innertext~'^89-7644112']"
				fullname="madaket_XP001Repository.MadaketHealth.MedicalGroupDetailsSection.DivTag897644112"
				id="663ca9d8c14c4617a0482ab03383d79c"
				timeout="90000"
				codefile="c:\Users\JohnPloumis\Documents\Ranorex\RanorexStudio Projects\ranorex_testautomation\madaket_XP001\New_MedicalGroup_ValidData.cs"
				codeline="260"
				itemindex="53"
				loglvl="Info">
			</metainfo>
		</item>
		<item
			timeRelativeToTestSuiteStartTime="01:16.608"
			timeRelativeToTestModuleStartTime="01:16.608"
			timeWallClock="15:36:54"
			time="01:16.608"
			level="Info"
			category="Mouse">
			<message>
				Mouse Left Down item 'MadaketHealth.MedicalGroupDetailsSection.DivTag010101' at 14;13.
			</message>
			<metainfo
				type="repoitem"
				path="/dom[@caption='Madaket Health']//div[#'medicalGroupDetailsSection']//div[@innertext='XP001']"
				itempath=".//div[@innertext='XP001']"
				fullname="madaket_XP001Repository.MadaketHealth.MedicalGroupDetailsSection.DivTag010101"
				id="9af8c91def364a048105e0caff89654d"
				timeout="90000"
				codefile="c:\Users\JohnPloumis\Documents\Ranorex\RanorexStudio Projects\ranorex_testautomation\madaket_XP001\New_MedicalGroup_ValidData.cs"
				codeline="264"
				itemindex="54"
				loglvl="Info">
			</metainfo>
		</item>
		<item
			timeRelativeToTestSuiteStartTime="01:17.278"
			timeRelativeToTestModuleStartTime="01:17.278"
			timeWallClock="15:36:55"
			time="01:17.278"
			level="Info"
			category="Mouse">
			<message>
				Mouse Left Up item 'MadaketHealth.MedicalGroupDetailsSection.DivTag010101' at 14;13.
			</message>
			<metainfo
				type="repoitem"
				path="/dom[@caption='Madaket Health']//div[#'medicalGroupDetailsSection']//div[@innertext='XP001']"
				itempath=".//div[@innertext='XP001']"
				fullname="madaket_XP001Repository.MadaketHealth.MedicalGroupDetailsSection.DivTag010101"
				id="9af8c91def364a048105e0caff89654d"
				timeout="90000"
				codefile="c:\Users\JohnPloumis\Documents\Ranorex\RanorexStudio Projects\ranorex_testautomation\madaket_XP001\New_MedicalGroup_ValidData.cs"
				codeline="268"
				itemindex="55"
				loglvl="Info">
			</metainfo>
		</item>
		<item
			timeRelativeToTestSuiteStartTime="01:17.848"
			timeRelativeToTestModuleStartTime="01:17.848"
			timeWallClock="15:36:55"
			time="01:17.848"
			level="Info"
			category="Mouse">
			<message>
				Mouse Left Down item 'MadaketHealth' at 1097;405.
			</message>
			<metainfo
				type="repoitem"
				path="/dom[@caption='Madaket Health']"
				itempath="/dom[@caption='Madaket Health']"
				fullname="madaket_XP001Repository.MadaketHealth.Self"
				id="4332fd4a9edf411eb75ed5d962b8010b"
				timeout="30000"
				codefile="c:\Users\JohnPloumis\Documents\Ranorex\RanorexStudio Projects\ranorex_testautomation\madaket_XP001\New_MedicalGroup_ValidData.cs"
				codeline="272"
				itemindex="56"
				loglvl="Info">
			</metainfo>
		</item>
		<item
			timeRelativeToTestSuiteStartTime="01:18.348"
			timeRelativeToTestModuleStartTime="01:18.348"
			timeWallClock="15:36:56"
			time="01:18.348"
			level="Info"
			category="Mouse">
			<message>
				Mouse Left Click item 'MadaketHealth' at 1097;405.
			</message>
			<metainfo
				type="repoitem"
				path="/dom[@caption='Madaket Health']"
				itempath="/dom[@caption='Madaket Health']"
				fullname="madaket_XP001Repository.MadaketHealth.Self"
				id="4332fd4a9edf411eb75ed5d962b8010b"
				timeout="30000"
				codefile="c:\Users\JohnPloumis\Documents\Ranorex\RanorexStudio Projects\ranorex_testautomation\madaket_XP001\New_MedicalGroup_ValidData.cs"
				codeline="276"
				itemindex="57"
				loglvl="Info">
			</metainfo>
		</item>
		<item
			timeRelativeToTestSuiteStartTime="01:19.022"
			timeRelativeToTestModuleStartTime="01:19.022"
			timeWallClock="15:36:57"
			time="01:19.022"
			level="Info"
			category="Mouse">
			<message>
				Mouse Left Click item 'MadaketHealth.TableLayoutPrimaryEnrollmentAddress.DivTag6175554321E' at 62;8.
			</message>
			<metainfo
				type="repoitem"
				path="/dom[@caption='Madaket Health']//div[#'contactContainer']/table/?/?/tr/td[1]//div[@innertext~'^\ \ \ \ \ \ \ \ \ \ \ \ \ \ \ \(617\)\ 5']"
				itempath="?/?/tr/td[1]//div[@innertext~'^\ \ \ \ \ \ \ \ \ \ \ \ \ \ \ \(617\)\ 5']"
				fullname="madaket_XP001Repository.MadaketHealth.TableLayoutPrimaryEnrollmentAddress.DivTag6175554321E"
				id="0acd97e9ba774fafa3a910a232700416"
				timeout="90000"
				codefile="c:\Users\JohnPloumis\Documents\Ranorex\RanorexStudio Projects\ranorex_testautomation\madaket_XP001\New_MedicalGroup_ValidData.cs"
				codeline="279"
				itemindex="58"
				loglvl="Info">
			</metainfo>
		</item>
		<item
			timeRelativeToTestSuiteStartTime="01:19.725"
			timeRelativeToTestModuleStartTime="01:19.725"
			timeWallClock="15:36:57"
			time="01:19.725"
			level="Info"
			category="Mouse">
			<message>
				Mouse Left Click item 'MadaketHealth.TableLayoutPrimaryEnrollmentAddress.DivTag5085554321' at 58;4.
			</message>
			<metainfo
				type="repoitem"
				path="/dom[@caption='Madaket Health']//div[#'contactContainer']/table/?/?/tr/td[1]//div[@innertext~'^\ \ \ \ \ \ \ \ \ \ \ \ \ \ \ \(508\)\ 5']"
				itempath="?/?/tr/td[1]//div[@innertext~'^\ \ \ \ \ \ \ \ \ \ \ \ \ \ \ \(508\)\ 5']"
				fullname="madaket_XP001Repository.MadaketHealth.TableLayoutPrimaryEnrollmentAddress.DivTag5085554321"
				id="5cf21e5fd17d45849e5b185df6e7d558"
				timeout="90000"
				codefile="c:\Users\JohnPloumis\Documents\Ranorex\RanorexStudio Projects\ranorex_testautomation\madaket_XP001\New_MedicalGroup_ValidData.cs"
				codeline="282"
				itemindex="59"
				loglvl="Info">
			</metainfo>
		</item>
	</activity>
</report>
