﻿<?xml version="1.0" encoding="utf-8"?>
<report
	progress="">
	<activity
		result="Failed"
		duration="0ms"
		durationms="0"
		type="root"
		rid="56f27b300bd2d38"
		totalerrorcount="1"
		totalwarningcount="1"
		totalsuccesstestcasecount="0"
		totalfailedtestcasecount="0"
		totalblockedtestcasecount="0"
		childsuccesscount="0"
		childfailedcount="0"
		childblockedcount="0"
		totalsuccesscount="0"
		totalfailedcount="0"
		totalblockedcount="0"
		totalmaintenancemodecount="0"
		user="JohnPloumis"
		rxversion="8.2.1.0"
		host="LAPTOP-5EO8DNU1"
		osversion="Windows 10 64bit"
		runtimeversion="4.0.30319.42000"
		procarch="32bit"
		oslanguage="en-US"
		dtnlanguage="en-US"
		screenresolution="1366x768"
		timestamp="11/7/2018 1:03:30 PM"
		timestampiso="2018-11-07T18:03:30"
		endtime="11/7/2018 1:04:00 PM"
		timeoutfactor="1"
		module="New_Site">
		<detail>
			New_Site
		</detail>
		<errormessage>
			The method or operation is not implemented.
		</errormessage>
		<varbindings>
		</varbindings>
		<item
			timeRelativeToTestSuiteStartTime="00:02.380"
			timeRelativeToTestModuleStartTime="00:02.382"
			timeWallClock="13:03:32"
			time="00:02.380"
			level="Info"
			category="Mouse">
			<message>
				Mouse Left Click item 'NewGroupAddress.DivTagAdmin' at 7;14.
			</message>
			<metainfo
				type="repoitem"
				path="/dom[@domain='edi-alpha.madakethealth.com']//nav[#'mainNav']/ul//div[@innertext='Admin']"
				itempath=".//nav[#'mainNav']/ul//div[@innertext='Admin']"
				fullname="madaket_XP001Repository.NewGroupAddress.DivTagAdmin"
				id="63be45259ced46ffa3254b26b9a5a8c1"
				timeout="60000"
				codefile="c:\Users\JohnPloumis\Documents\Ranorex\RanorexStudio Projects\ranorex_testautomation\madaket_XP001\New_Site.UserCode.cs"
				codeline="38"
				itemindex="9"
				loglvl="Info">
			</metainfo>
		</item>
		<item
			timeRelativeToTestSuiteStartTime="00:06.130"
			timeRelativeToTestModuleStartTime="00:06.132"
			timeWallClock="13:03:36"
			time="00:06.130"
			level="Info"
			category="Mouse">
			<message>
				Mouse Left Click item 'MadaketHealth.SomeSpanTag' at 4;-4.
			</message>
			<metainfo
				type="repoitem"
				path="/dom[@domain='edi-alpha.madakethealth.com']//div[#'bodyContent']/nav/?/?/span"
				itempath=".//div[#'bodyContent']/nav/?/?/span"
				fullname="madaket_XP001Repository.MadaketHealth.SomeSpanTag"
				id="86c8c277063b43dc869bfdb2b054f141"
				timeout="60000"
				codefile="c:\Users\JohnPloumis\Documents\Ranorex\RanorexStudio Projects\ranorex_testautomation\madaket_XP001\New_Site.UserCode.cs"
				codeline="42"
				itemindex="10"
				loglvl="Info">
			</metainfo>
		</item>
		<item
			timeRelativeToTestSuiteStartTime="00:07.287"
			timeRelativeToTestModuleStartTime="00:07.289"
			timeWallClock="13:03:37"
			time="00:07.287"
			level="Warn"
			category="Click"
			errimg=".\New_Site_48693315_rxlog.jpg"
			errthumb=".\New_Site_48693315_rxlog_thumb.jpg">
			<message>
				The mouse action was performed outside the boundaries of the assigned UI element.<br/>
			</message>
			<metainfo
				codefile="c:\Users\JohnPloumis\Documents\Ranorex\RanorexStudio Projects\ranorex_testautomation\madaket_XP001\New_Site.UserCode.cs"
				codeline="43"
				loglvl="Warn">
			</metainfo>
		</item>
		<item
			timeRelativeToTestSuiteStartTime="00:08.844"
			timeRelativeToTestModuleStartTime="00:08.846"
			timeWallClock="13:03:39"
			time="00:08.844"
			level="Info"
			category="Mouse">
			<message>
				Mouse Left Click item 'NewGroupAddress.Sites' at 171;13.
			</message>
			<metainfo
				type="repoitem"
				path="/dom[@domain='edi-alpha.madakethealth.com']//a[#'admin-sites']/span[@innertext='Sites']"
				itempath=".//a[#'admin-sites']/span[@innertext='Sites']"
				fullname="madaket_XP001Repository.NewGroupAddress.Sites"
				id="845189eea30a4836aaf4b44672aa2ba5"
				timeout="60000"
				codefile="c:\Users\JohnPloumis\Documents\Ranorex\RanorexStudio Projects\ranorex_testautomation\madaket_XP001\New_Site.UserCode.cs"
				codeline="46"
				itemindex="11"
				loglvl="Info">
			</metainfo>
		</item>
		<item
			timeRelativeToTestSuiteStartTime="00:10.113"
			timeRelativeToTestModuleStartTime="00:10.115"
			timeWallClock="13:03:40"
			time="00:10.113"
			level="Info"
			category="Mouse">
			<message>
				Mouse Left Click item 'NewGroupAddress.AddSite' at 36;1.
			</message>
			<metainfo
				type="repoitem"
				path="/dom[@domain='edi-alpha.madakethealth.com']//a[#'addSite']"
				itempath=".//a[#'addSite']"
				fullname="madaket_XP001Repository.NewGroupAddress.AddSite"
				id="b6f79c0996ff45bda8c9c076d7e961b4"
				timeout="60000"
				codefile="c:\Users\JohnPloumis\Documents\Ranorex\RanorexStudio Projects\ranorex_testautomation\madaket_XP001\New_Site.UserCode.cs"
				codeline="50"
				itemindex="12"
				loglvl="Info">
			</metainfo>
		</item>
		<item
			timeRelativeToTestSuiteStartTime="00:12.605"
			timeRelativeToTestModuleStartTime="00:12.607"
			timeWallClock="13:03:42"
			time="00:12.605"
			level="Info"
			category="Mouse">
			<message>
				Mouse Left Click item 'NewGroupAddress.SiteName' at 100;12.
			</message>
			<metainfo
				type="repoitem"
				path="/dom[@domain='edi-alpha.madakethealth.com']//input[#'siteName']"
				itempath=".//input[#'siteName']"
				fullname="madaket_XP001Repository.NewGroupAddress.SiteName"
				id="cab675a5044a4a73bc1b4a31b4c87397"
				timeout="60000"
				codefile="c:\Users\JohnPloumis\Documents\Ranorex\RanorexStudio Projects\ranorex_testautomation\madaket_XP001\New_Site.UserCode.cs"
				codeline="54"
				itemindex="13"
				loglvl="Info">
			</metainfo>
		</item>
		<item
			timeRelativeToTestSuiteStartTime="00:18.215"
			timeRelativeToTestModuleStartTime="00:18.217"
			timeWallClock="13:03:48"
			time="00:18.215"
			level="Info"
			category="Mouse">
			<message>
				Mouse Left Click item 'MadaketHealth.SiteId' at 52;10.
			</message>
			<metainfo
				type="repoitem"
				path="/dom[@domain='edi-alpha.madakethealth.com']//input[#'siteId']"
				itempath=".//input[#'siteId']"
				fullname="madaket_XP001Repository.MadaketHealth.SiteId"
				id="d800e804633a43a49e0bf7abdcaae03d"
				timeout="60000"
				codefile="c:\Users\JohnPloumis\Documents\Ranorex\RanorexStudio Projects\ranorex_testautomation\madaket_XP001\New_Site.UserCode.cs"
				codeline="62"
				itemindex="15"
				loglvl="Info">
			</metainfo>
		</item>
		<item
			timeRelativeToTestSuiteStartTime="00:21.434"
			timeRelativeToTestModuleStartTime="00:21.436"
			timeWallClock="13:03:51"
			time="00:21.434"
			level="Info"
			category="Mouse">
			<message>
				Mouse Left Click item 'NewGroupAddress.Partners' at 51;7.
			</message>
			<metainfo
				type="repoitem"
				path="/dom[@domain='edi-alpha.madakethealth.com']//select[#'partners']"
				itempath=".//select[#'partners']"
				fullname="madaket_XP001Repository.NewGroupAddress.Partners"
				id="2ce58ebcfc0f4929a10c21b90580ef70"
				timeout="60000"
				codefile="c:\Users\JohnPloumis\Documents\Ranorex\RanorexStudio Projects\ranorex_testautomation\madaket_XP001\New_Site.UserCode.cs"
				codeline="71"
				itemindex="17"
				loglvl="Info">
			</metainfo>
		</item>
		<item
			timeRelativeToTestSuiteStartTime="00:22.640"
			timeRelativeToTestModuleStartTime="00:22.642"
			timeWallClock="13:03:53"
			time="00:22.640"
			level="Info"
			category="Set value"
			errimg=".\New_Site_3744f291_3d078a9d_trace.jpg"
			errthumb=".\New_Site_3744f291_3d078a9d_trace_thumb.jpg">
			<message>
				Setting attribute TagValue to '5ad1f92c-6405-4169-b914-cb635adb84c2' on item 'NewGroupAddress.Partners'.
			</message>
			<metainfo
				type="repoitem"
				path="/dom[@domain='edi-alpha.madakethealth.com']//select[#'partners']"
				itempath=".//select[#'partners']"
				fullname="madaket_XP001Repository.NewGroupAddress.Partners"
				id="2ce58ebcfc0f4929a10c21b90580ef70"
				timeout="60000"
				codefile="c:\Users\JohnPloumis\Documents\Ranorex\RanorexStudio Projects\ranorex_testautomation\madaket_XP001\New_Site.UserCode.cs"
				codeline="75"
				itemindex="18"
				loglvl="Info">
			</metainfo>
		</item>
		<item
			timeRelativeToTestSuiteStartTime="00:26.273"
			timeRelativeToTestModuleStartTime="00:26.275"
			timeWallClock="13:03:56"
			time="00:26.273"
			level="Info"
			category="Mouse"
			errimg=".\New_Site_3744f291_00db32ec_trace.jpg"
			errthumb=".\New_Site_3744f291_00db32ec_trace_thumb.jpg">
			<message>
				Mouse Left Click item 'NewGroupAddress.AddOrUpdateSiteButton' at 48;5.
			</message>
			<metainfo
				type="repoitem"
				path="/dom[@domain='edi-alpha.madakethealth.com']//button[#'addOrUpdateSiteButton']"
				itempath=".//button[#'addOrUpdateSiteButton']"
				fullname="madaket_XP001Repository.NewGroupAddress.AddOrUpdateSiteButton"
				id="3e1bad0ab588488f8b31a1ea713f34ce"
				timeout="60000"
				codefile="c:\Users\JohnPloumis\Documents\Ranorex\RanorexStudio Projects\ranorex_testautomation\madaket_XP001\New_Site.UserCode.cs"
				codeline="80"
				itemindex="19"
				loglvl="Info">
			</metainfo>
		</item>
		<item
			timeRelativeToTestSuiteStartTime="00:29.699"
			timeRelativeToTestModuleStartTime="00:29.701"
			timeWallClock="13:04:00"
			time="00:29.699"
			level="Error"
			category="Module"
			errimg=".\New_Site_3744f291_aae54826_trace.jpg"
			errthumb=".\New_Site_3744f291_aae54826_trace_thumb.jpg">
			<message>
				The method or operation is not implemented.
			</message>
			<metainfo
				stacktrace="   at madaket_XP001.New_Site.Duplicate_Site() in c:\Users\JohnPloumis\Documents\Ranorex\RanorexStudio Projects\ranorex_testautomation\madaket_XP001\New_Site.UserCode.cs:line 93
   at madaket_XP001.New_Site.Ranorex.Core.Testing.ITestModule.Run() in c:\Users\JohnPloumis\Documents\Ranorex\RanorexStudio Projects\ranorex_testautomation\madaket_XP001\New_Site.cs:line 85
   at Ranorex.Core.Testing.TestModuleLeaf.RunInternal(DataContext parentDataContext, Int32 iteration, Int32 iterationCount, Boolean skipIteration)"
				codefile="c:\Users\JohnPloumis\Documents\Ranorex\RanorexStudio Projects\ranorex_testautomation\madaket_XP001\New_Site.UserCode.cs"
				codeline="93"
				loglvl="Error">
			</metainfo>
		</item>
	</activity>
</report>
