﻿<?xml version="1.0" encoding="utf-8"?>
<report
	progress="">
	<activity
		result="Failed"
		duration="0ms"
		durationms="0"
		type="root"
		rid="36d0aead6f529335"
		totalerrorcount="1"
		totalwarningcount="0"
		totalsuccesstestcasecount="0"
		totalfailedtestcasecount="0"
		totalblockedtestcasecount="0"
		childsuccesscount="0"
		childfailedcount="0"
		childblockedcount="0"
		totalsuccesscount="0"
		totalfailedcount="0"
		totalblockedcount="0"
		totalmaintenancemodecount="0"
		user="JohnPloumis"
		rxversion="8.3.1.0"
		host="LAPTOP-5EO8DNU1"
		osversion="Windows 10 64bit"
		runtimeversion="4.0.30319.42000"
		procarch="32bit"
		oslanguage="en-US"
		dtnlanguage="en-US"
		screenresolution="1366x768"
		timestamp="12/7/2018 1:36:02 PM"
		timestampiso="2018-12-07T18:36:02"
		endtime="12/7/2018 1:37:40 PM"
		timeoutfactor="1"
		module="New_Excel_Template">
		<detail>
			New_Excel_Template
		</detail>
		<errormessage>
			Failed to find item 'madaket_XP001Repository.ChooseFileToUpload.Text1148'.
		</errormessage>
		<varbindings>
		</varbindings>
		<item
			timeRelativeToTestSuiteStartTime="00:04.770"
			timeRelativeToTestModuleStartTime="00:04.772"
			timeWallClock="13:36:07"
			time="00:04.770"
			level="Info"
			category="Delay">
			<message>
				Waiting for 500ms.
			</message>
			<metainfo
				itemindex="0"
				codefile="c:\Users\JohnPloumis\Documents\Ranorex\RanorexStudio Projects\ranorex_testautomation\madaket_XP001\New_Excel_Template.cs"
				codeline="82"
				loglvl="Info">
			</metainfo>
		</item>
		<item
			timeRelativeToTestSuiteStartTime="00:05.310"
			timeRelativeToTestModuleStartTime="00:05.312"
			timeWallClock="13:36:07"
			time="00:05.310"
			level="Info"
			category="Invoke action">
			<message>
				Invoking Focus() on item 'NewGroupAddress.DivTagPackages'.
			</message>
			<metainfo
				type="repoitem"
				path="/dom[@domain='edi-alpha.madakethealth.com']//nav[#'mainNav']/ul//div[@innertext='Packages']"
				itempath=".//nav[#'mainNav']/ul//div[@innertext='Packages']"
				fullname="madaket_XP001Repository.NewGroupAddress.DivTagPackages"
				id="124d79ad789744ccbe353ba706f5de49"
				timeout="60000"
				codefile="c:\Users\JohnPloumis\Documents\Ranorex\RanorexStudio Projects\ranorex_testautomation\madaket_XP001\New_Excel_Template.cs"
				codeline="85"
				itemindex="1"
				loglvl="Info">
			</metainfo>
		</item>
		<item
			timeRelativeToTestSuiteStartTime="00:09.681"
			timeRelativeToTestModuleStartTime="00:09.683"
			timeWallClock="13:36:12"
			time="00:09.681"
			level="Info"
			category="Mouse">
			<message>
				Mouse Left Click item 'NewGroupAddress.DivTagPackages' at 19;13.
			</message>
			<metainfo
				type="repoitem"
				path="/dom[@domain='edi-alpha.madakethealth.com']//nav[#'mainNav']/ul//div[@innertext='Packages']"
				itempath=".//nav[#'mainNav']/ul//div[@innertext='Packages']"
				fullname="madaket_XP001Repository.NewGroupAddress.DivTagPackages"
				id="124d79ad789744ccbe353ba706f5de49"
				timeout="60000"
				codefile="c:\Users\JohnPloumis\Documents\Ranorex\RanorexStudio Projects\ranorex_testautomation\madaket_XP001\New_Excel_Template.cs"
				codeline="88"
				itemindex="2"
				loglvl="Info">
			</metainfo>
		</item>
		<item
			timeRelativeToTestSuiteStartTime="00:11.596"
			timeRelativeToTestModuleStartTime="00:11.598"
			timeWallClock="13:36:14"
			time="00:11.596"
			level="Info"
			category="Mouse">
			<message>
				Mouse Left Click item 'NewGroupAddress.ExcelFormTemplates' at 42;15.
			</message>
			<metainfo
				type="repoitem"
				path="/dom[@domain='edi-alpha.madakethealth.com']//ul[#'packageNameNav']/?/?/a[@innertext='Excel Form Templates']"
				itempath=".//ul[#'packageNameNav']/?/?/a[@innertext='Excel Form Templates']"
				fullname="madaket_XP001Repository.NewGroupAddress.ExcelFormTemplates"
				id="7aa8e2be4076499eb9311f0291c7e5cf"
				timeout="60000"
				codefile="c:\Users\JohnPloumis\Documents\Ranorex\RanorexStudio Projects\ranorex_testautomation\madaket_XP001\New_Excel_Template.cs"
				codeline="91"
				itemindex="3"
				loglvl="Info">
			</metainfo>
		</item>
		<item
			timeRelativeToTestSuiteStartTime="00:15.403"
			timeRelativeToTestModuleStartTime="00:15.405"
			timeWallClock="13:36:17"
			time="00:15.403"
			level="Info"
			category="Mouse">
			<message>
				Mouse Left Click item 'NewGroupAddress.AddExcelForm' at 38;5.
			</message>
			<metainfo
				type="repoitem"
				path="/dom[@domain='edi-alpha.madakethealth.com']//a[#'addExcelForm']"
				itempath=".//a[#'addExcelForm']"
				fullname="madaket_XP001Repository.NewGroupAddress.AddExcelForm"
				id="4b533e7e84d04ace9d4051c9174f4729"
				timeout="60000"
				codefile="c:\Users\JohnPloumis\Documents\Ranorex\RanorexStudio Projects\ranorex_testautomation\madaket_XP001\New_Excel_Template.cs"
				codeline="94"
				itemindex="4"
				loglvl="Info">
			</metainfo>
		</item>
		<item
			timeRelativeToTestSuiteStartTime="00:21.511"
			timeRelativeToTestModuleStartTime="00:21.513"
			timeWallClock="13:36:24"
			time="00:21.511"
			level="Info"
			category="Delay">
			<message>
				Waiting for 2.5s.
			</message>
			<metainfo
				itemindex="5"
				codefile="c:\Users\JohnPloumis\Documents\Ranorex\RanorexStudio Projects\ranorex_testautomation\madaket_XP001\New_Excel_Template.cs"
				codeline="97"
				loglvl="Info">
			</metainfo>
		</item>
		<item
			timeRelativeToTestSuiteStartTime="00:24.041"
			timeRelativeToTestModuleStartTime="00:24.043"
			timeWallClock="13:36:26"
			time="00:24.041"
			level="Info"
			category="Set value">
			<message>
				Setting attribute Value to 'test_automation' on item 'NewGroupAddress.PayerName'.
			</message>
			<metainfo
				type="repoitem"
				path="/dom[@domain='edi-alpha.madakethealth.com']//input[#'payerName']"
				itempath=".//input[#'payerName']"
				fullname="madaket_XP001Repository.NewGroupAddress.PayerName"
				id="a767467f25994632b1b87222682703fa"
				timeout="60000"
				codefile="c:\Users\JohnPloumis\Documents\Ranorex\RanorexStudio Projects\ranorex_testautomation\madaket_XP001\New_Excel_Template.cs"
				codeline="100"
				itemindex="6"
				loglvl="Info">
			</metainfo>
		</item>
		<item
			timeRelativeToTestSuiteStartTime="00:24.857"
			timeRelativeToTestModuleStartTime="00:24.859"
			timeWallClock="13:36:27"
			time="00:24.857"
			level="Info"
			category="Delay">
			<message>
				Waiting for 2.5s.
			</message>
			<metainfo
				itemindex="7"
				codefile="c:\Users\JohnPloumis\Documents\Ranorex\RanorexStudio Projects\ranorex_testautomation\madaket_XP001\New_Excel_Template.cs"
				codeline="103"
				loglvl="Info">
			</metainfo>
		</item>
		<item
			timeRelativeToTestSuiteStartTime="00:27.382"
			timeRelativeToTestModuleStartTime="00:27.384"
			timeWallClock="13:36:29"
			time="00:27.382"
			level="Info"
			category="Set value">
			<message>
				Setting attribute Value to 'Test_automation_FileName' on item 'NewGroupAddress.FileName'.
			</message>
			<metainfo
				type="repoitem"
				path="/dom[@domain='edi-alpha.madakethealth.com']//input[#'fileName']"
				itempath=".//input[#'fileName']"
				fullname="madaket_XP001Repository.NewGroupAddress.FileName"
				id="c5aa8c09d5a347dd824390528967c79d"
				timeout="60000"
				codefile="c:\Users\JohnPloumis\Documents\Ranorex\RanorexStudio Projects\ranorex_testautomation\madaket_XP001\New_Excel_Template.cs"
				codeline="106"
				itemindex="8"
				loglvl="Info">
			</metainfo>
		</item>
		<item
			timeRelativeToTestSuiteStartTime="00:28.126"
			timeRelativeToTestModuleStartTime="00:28.128"
			timeWallClock="13:36:30"
			time="00:28.126"
			level="Info"
			category="Delay">
			<message>
				Waiting for 2.5s.
			</message>
			<metainfo
				itemindex="9"
				codefile="c:\Users\JohnPloumis\Documents\Ranorex\RanorexStudio Projects\ranorex_testautomation\madaket_XP001\New_Excel_Template.cs"
				codeline="109"
				loglvl="Info">
			</metainfo>
		</item>
		<item
			timeRelativeToTestSuiteStartTime="00:30.655"
			timeRelativeToTestModuleStartTime="00:30.657"
			timeWallClock="13:36:33"
			time="00:30.655"
			level="Info"
			category="Mouse">
			<message>
				Mouse Left Click item 'NewGroupAddress.SelectedFileName' at 20;3.
			</message>
			<metainfo
				type="repoitem"
				path="/dom[@domain='edi-alpha.madakethealth.com']//span[#'selectedFileName']"
				itempath=".//span[#'selectedFileName']"
				fullname="madaket_XP001Repository.NewGroupAddress.SelectedFileName"
				id="0822b18288724a0f9132736aabd6f12a"
				timeout="60000"
				codefile="c:\Users\JohnPloumis\Documents\Ranorex\RanorexStudio Projects\ranorex_testautomation\madaket_XP001\New_Excel_Template.cs"
				codeline="112"
				itemindex="10"
				loglvl="Info">
			</metainfo>
		</item>
		<item
			timeRelativeToTestSuiteStartTime="00:32.762"
			timeRelativeToTestModuleStartTime="00:32.764"
			timeWallClock="13:36:35"
			time="00:32.762"
			level="Info"
			category="Delay">
			<message>
				Waiting for 3.5s.
			</message>
			<metainfo
				itemindex="11"
				codefile="c:\Users\JohnPloumis\Documents\Ranorex\RanorexStudio Projects\ranorex_testautomation\madaket_XP001\New_Excel_Template.cs"
				codeline="115"
				loglvl="Info">
			</metainfo>
		</item>
		<item
			timeRelativeToTestSuiteStartTime="00:36.291"
			timeRelativeToTestModuleStartTime="00:36.293"
			timeWallClock="13:36:38"
			time="00:36.291"
			level="Info"
			category="User"
			errimg=".\New_Exce_f1e92e00_da8874b4_trace.jpg"
			errthumb=".\New_Exce_f1e92e00_da8874b4_trace_thumb.jpg">
			<message>
				C:\Users\JohnPloumis\Documents\Ranorex\RanorexStudio Projects\ranorex_testautomation\madaket_XP001\TestData
			</message>
			<metainfo
				codefile="c:\Users\JohnPloumis\Documents\Ranorex\RanorexStudio Projects\ranorex_testautomation\madaket_XP001\Madaket_Globals.cs"
				codeline="63"
				loglvl="Info">
			</metainfo>
		</item>
		<item
			timeRelativeToTestSuiteStartTime="00:36.491"
			timeRelativeToTestModuleStartTime="00:36.493"
			timeWallClock="13:36:39"
			time="00:36.491"
			level="Info"
			category="Screenshot"
			errimg=".\New_Exce_a9f78d26_rxlog.jpg"
			errthumb=".\New_Exce_a9f78d26_rxlog_thumb.jpg">
			<message>
				
			</message>
			<metainfo
				codefile="c:\Users\JohnPloumis\Documents\Ranorex\RanorexStudio Projects\ranorex_testautomation\madaket_XP001\New_Excel_Template.UserCode.cs"
				codeline="42"
				loglvl="Info">
			</metainfo>
		</item>
		<item
			timeRelativeToTestSuiteStartTime="00:36.613"
			timeRelativeToTestModuleStartTime="00:36.615"
			timeWallClock="13:36:39"
			time="00:36.613"
			level="Info"
			category="Screenshot"
			errimg=".\New_Exce_4c9f01c1_rxlog.jpg"
			errthumb=".\New_Exce_4c9f01c1_rxlog_thumb.jpg">
			<message>
				
			</message>
			<metainfo
				codefile="c:\Users\JohnPloumis\Documents\Ranorex\RanorexStudio Projects\ranorex_testautomation\madaket_XP001\New_Excel_Template.UserCode.cs"
				codeline="44"
				loglvl="Info">
			</metainfo>
		</item>
		<item
			timeRelativeToTestSuiteStartTime="00:36.618"
			timeRelativeToTestModuleStartTime="00:36.620"
			timeWallClock="13:36:39"
			time="00:36.618"
			level="Info"
			category="Mouse"
			errimg=".\New_Exce_f1e92e00_beefe3a7_trace.jpg"
			errthumb=".\New_Exce_f1e92e00_beefe3a7_trace_thumb.jpg">
			<message>
				Mouse Left Click item 'ChooseFileToUpload.Text1148' at 65;6.
			</message>
			<metainfo
				type="repoitem"
				path="/form[@title='Choose File to Upload']/?/?/text[@controlid='1148']"
				itempath="?/?/text[@controlid='1148']"
				fullname="madaket_XP001Repository.ChooseFileToUpload.Text1148"
				id="6a7f179e42cf4e7eb3c4a6023d2aa0de"
				timeout="60000"
				codefile="c:\Users\JohnPloumis\Documents\Ranorex\RanorexStudio Projects\ranorex_testautomation\madaket_XP001\New_Excel_Template.UserCode.cs"
				codeline="45"
				itemindex="6"
				loglvl="Info">
			</metainfo>
		</item>
		<item
			timeRelativeToTestSuiteStartTime="01:37.246"
			timeRelativeToTestModuleStartTime="01:37.248"
			timeWallClock="13:37:39"
			time="01:37.246"
			level="Error"
			category="Module"
			errimg=".\New_Exce_f1e92e00_8bd4d787_trace.jpg"
			errthumb=".\New_Exce_f1e92e00_8bd4d787_trace_thumb.jpg">
			<message>
				Failed to find item 'madaket_XP001Repository.ChooseFileToUpload.Text1148'.<br/>No element found for path '/form[@title='Choose File to Upload']/?/?/text[@controlid='1148']' within 1m.
			</message>
			<metainfo
				stacktrace="   at Ranorex.Core.Repository.RepoItemInfo.FindInternal[T](Boolean findSingle, Boolean throwException, Duration effectiveTimeoutOverride)&#13;&#10;   at Ranorex.Core.Repository.RepoItemInfo.&lt;>c__DisplayClass75_0`1.&lt;Find>b__0()&#13;&#10;   at Ranorex.Core.Testing.Services.NoMaintenanceModeService.HandleElementNotFound[T](Func`1 action, RepoItemInfo entry)&#13;&#10;   at Ranorex.Core.Repository.RepoItemInfo.Find[T](Boolean findSingle, Boolean throwException, Duration effectiveTimeoutOverride)&#13;&#10;   at Ranorex.Core.Repository.RepoItemInfo.CreateAdapter[T](Boolean throwException, Duration waitTimeout)&#13;&#10;   at Ranorex.Core.Repository.RepoItemInfo.CreateAdapter[T](Boolean throwException)&#13;&#10;   at madaket_XP001.madaket_XP001RepositoryFolders.ChooseFileToUploadAppFolder.get_Text1148() in c:\Users\JohnPloumis\Documents\Ranorex\RanorexStudio Projects\ranorex_testautomation\madaket_XP001\madaket_XP001Repository.cs:line 11561&#13;&#10;   at madaket_XP001.New_Excel_Template.Fetch_TestFile_Excel() in c:\Users\JohnPloumis\Documents\Ranorex\RanorexStudio Projects\ranorex_testautomation\madaket_XP001\New_Excel_Template.UserCode.cs:line 46&#13;&#10;   at madaket_XP001.New_Excel_Template.Ranorex.Core.Testing.ITestModule.Run() in c:\Users\JohnPloumis\Documents\Ranorex\RanorexStudio Projects\ranorex_testautomation\madaket_XP001\New_Excel_Template.cs:line 118&#13;&#10;   at Ranorex.Core.Testing.TestModuleLeaf.RunInternal(DataContext parentDataContext, Int32 iteration, Int32 iterationCount, Boolean skipIteration)"
				codefile="c:\Users\JohnPloumis\Documents\Ranorex\RanorexStudio Projects\ranorex_testautomation\madaket_XP001\New_Excel_Template.UserCode.cs"
				codeline="46"
				type="repoitem"
				path="/form[@title='Choose File to Upload']/?/?/text[@controlid='1148']"
				itempath="?/?/text[@controlid='1148']"
				fullname="madaket_XP001Repository.ChooseFileToUpload.Text1148"
				id="6a7f179e42cf4e7eb3c4a6023d2aa0de"
				timeout="60000"
				loglvl="Error"
				itemindex="6">
			</metainfo>
		</item>
	</activity>
</report>
