﻿<?xml version="1.0" encoding="utf-8"?>
<report
	progress="">
	<activity
		result="Failed"
		duration="0ms"
		durationms="0"
		type="root"
		rid="13be92b95022420"
		totalerrorcount="1"
		totalwarningcount="0"
		totalsuccesstestcasecount="0"
		totalfailedtestcasecount="0"
		totalblockedtestcasecount="0"
		childsuccesscount="0"
		childfailedcount="0"
		childblockedcount="0"
		totalsuccesscount="0"
		totalfailedcount="0"
		totalblockedcount="0"
		totalmaintenancemodecount="0"
		user="JohnPloumis"
		rxversion="8.3.1.0"
		host="LAPTOP-5EO8DNU1"
		osversion="Windows 10 64bit"
		runtimeversion="4.0.30319.42000"
		procarch="32bit"
		oslanguage="en-US"
		dtnlanguage="en-US"
		screenresolution="1366x768"
		timestamp="12/7/2018 2:40:46 PM"
		timestampiso="2018-12-07T19:40:46"
		endtime="12/7/2018 2:43:01 PM"
		timeoutfactor="1"
		module="New_Excel_Template">
		<detail>
			New_Excel_Template
		</detail>
		<errormessage>
			Failed to find item 'madaket_XP001Repository.MadaketHealth.filterDropDown'.
		</errormessage>
		<varbindings>
		</varbindings>
		<item
			timeRelativeToTestSuiteStartTime="00:04.778"
			timeRelativeToTestModuleStartTime="00:04.779"
			timeWallClock="14:40:51"
			time="00:04.778"
			level="Info"
			category="Delay">
			<message>
				Waiting for 500ms.
			</message>
			<metainfo
				itemindex="0"
				codefile="c:\Users\JohnPloumis\Documents\Ranorex\RanorexStudio Projects\ranorex_testautomation\madaket_XP001\New_Excel_Template.cs"
				codeline="82"
				loglvl="Info">
			</metainfo>
		</item>
		<item
			timeRelativeToTestSuiteStartTime="00:05.314"
			timeRelativeToTestModuleStartTime="00:05.315"
			timeWallClock="14:40:51"
			time="00:05.314"
			level="Info"
			category="Mouse">
			<message>
				Mouse Left Click item 'NewGroupAddress.DivTagPackages' at 19;13.
			</message>
			<metainfo
				type="repoitem"
				path="/dom[@domain='edi-alpha.madakethealth.com']//nav[#'mainNav']/ul//div[@innertext='Packages']"
				itempath=".//nav[#'mainNav']/ul//div[@innertext='Packages']"
				fullname="madaket_XP001Repository.NewGroupAddress.DivTagPackages"
				id="124d79ad789744ccbe353ba706f5de49"
				timeout="60000"
				codefile="c:\Users\JohnPloumis\Documents\Ranorex\RanorexStudio Projects\ranorex_testautomation\madaket_XP001\New_Excel_Template.cs"
				codeline="85"
				itemindex="1"
				loglvl="Info">
			</metainfo>
		</item>
		<item
			timeRelativeToTestSuiteStartTime="00:10.508"
			timeRelativeToTestModuleStartTime="00:10.509"
			timeWallClock="14:40:56"
			time="00:10.508"
			level="Info"
			category="Mouse">
			<message>
				Mouse Left Click item 'NewGroupAddress.ExcelFormTemplates' at 42;15.
			</message>
			<metainfo
				type="repoitem"
				path="/dom[@domain='edi-alpha.madakethealth.com']//ul[#'packageNameNav']/?/?/a[@innertext='Excel Form Templates']"
				itempath=".//ul[#'packageNameNav']/?/?/a[@innertext='Excel Form Templates']"
				fullname="madaket_XP001Repository.NewGroupAddress.ExcelFormTemplates"
				id="7aa8e2be4076499eb9311f0291c7e5cf"
				timeout="60000"
				codefile="c:\Users\JohnPloumis\Documents\Ranorex\RanorexStudio Projects\ranorex_testautomation\madaket_XP001\New_Excel_Template.cs"
				codeline="88"
				itemindex="2"
				loglvl="Info">
			</metainfo>
		</item>
		<item
			timeRelativeToTestSuiteStartTime="00:13.409"
			timeRelativeToTestModuleStartTime="00:13.410"
			timeWallClock="14:40:59"
			time="00:13.409"
			level="Info"
			category="Mouse">
			<message>
				Mouse Left Click item 'NewGroupAddress.AddExcelForm' at 38;5.
			</message>
			<metainfo
				type="repoitem"
				path="/dom[@domain='edi-alpha.madakethealth.com']//a[#'addExcelForm']"
				itempath=".//a[#'addExcelForm']"
				fullname="madaket_XP001Repository.NewGroupAddress.AddExcelForm"
				id="4b533e7e84d04ace9d4051c9174f4729"
				timeout="60000"
				codefile="c:\Users\JohnPloumis\Documents\Ranorex\RanorexStudio Projects\ranorex_testautomation\madaket_XP001\New_Excel_Template.cs"
				codeline="91"
				itemindex="3"
				loglvl="Info">
			</metainfo>
		</item>
		<item
			timeRelativeToTestSuiteStartTime="00:16.437"
			timeRelativeToTestModuleStartTime="00:16.438"
			timeWallClock="14:41:02"
			time="00:16.437"
			level="Info"
			category="Delay">
			<message>
				Waiting for 2.5s.
			</message>
			<metainfo
				itemindex="4"
				codefile="c:\Users\JohnPloumis\Documents\Ranorex\RanorexStudio Projects\ranorex_testautomation\madaket_XP001\New_Excel_Template.cs"
				codeline="94"
				loglvl="Info">
			</metainfo>
		</item>
		<item
			timeRelativeToTestSuiteStartTime="00:18.964"
			timeRelativeToTestModuleStartTime="00:18.965"
			timeWallClock="14:41:05"
			time="00:18.964"
			level="Info"
			category="Keyboard">
			<message>
				Key sequence 'test_' with focus on 'MadaketHealth.PayerName'.
			</message>
			<metainfo
				type="repoitem"
				path="/dom[@domain='edi-alpha.madakethealth.com']//input[#'payerName']"
				itempath=".//input[#'payerName']"
				fullname="madaket_XP001Repository.MadaketHealth.PayerName"
				id="d13f36e3d9574502a0ea370497446279"
				timeout="60000"
				codefile="c:\Users\JohnPloumis\Documents\Ranorex\RanorexStudio Projects\ranorex_testautomation\madaket_XP001\New_Excel_Template.cs"
				codeline="97"
				itemindex="5"
				loglvl="Info">
			</metainfo>
		</item>
		<item
			timeRelativeToTestSuiteStartTime="00:21.100"
			timeRelativeToTestModuleStartTime="00:21.101"
			timeWallClock="14:41:07"
			time="00:21.100"
			level="Info"
			category="Mouse">
			<message>
				Mouse Left Click item 'NewGroupAddress.TestPayerAutomationXP002' at 81;7.
			</message>
			<metainfo
				type="repoitem"
				path="/dom[@domain='edi-alpha.madakethealth.com']/?/?/ul/?/?/a[@innertext~'^test_payer_automation_XP0']"
				itempath="?/?/ul/?/?/a[@innertext~'^test_payer_automation_XP0']"
				fullname="madaket_XP001Repository.NewGroupAddress.TestPayerAutomationXP002"
				id="efa96f2096d4481283ba4ac9e5a76fb5"
				timeout="60000"
				codefile="c:\Users\JohnPloumis\Documents\Ranorex\RanorexStudio Projects\ranorex_testautomation\madaket_XP001\New_Excel_Template.cs"
				codeline="100"
				itemindex="6"
				loglvl="Info">
			</metainfo>
		</item>
		<item
			timeRelativeToTestSuiteStartTime="00:27.519"
			timeRelativeToTestModuleStartTime="00:27.520"
			timeWallClock="14:41:13"
			time="00:27.519"
			level="Info"
			category="Delay">
			<message>
				Waiting for 2.5s.
			</message>
			<metainfo
				itemindex="7"
				codefile="c:\Users\JohnPloumis\Documents\Ranorex\RanorexStudio Projects\ranorex_testautomation\madaket_XP001\New_Excel_Template.cs"
				codeline="103"
				loglvl="Info">
			</metainfo>
		</item>
		<item
			timeRelativeToTestSuiteStartTime="00:30.048"
			timeRelativeToTestModuleStartTime="00:30.049"
			timeWallClock="14:41:16"
			time="00:30.048"
			level="Info"
			category="Set value">
			<message>
				Setting attribute Value to 'Test_automation_FileName' on item 'NewGroupAddress.FileName'.
			</message>
			<metainfo
				type="repoitem"
				path="/dom[@domain='edi-alpha.madakethealth.com']//input[#'fileName']"
				itempath=".//input[#'fileName']"
				fullname="madaket_XP001Repository.NewGroupAddress.FileName"
				id="c5aa8c09d5a347dd824390528967c79d"
				timeout="60000"
				codefile="c:\Users\JohnPloumis\Documents\Ranorex\RanorexStudio Projects\ranorex_testautomation\madaket_XP001\New_Excel_Template.cs"
				codeline="106"
				itemindex="8"
				loglvl="Info">
			</metainfo>
		</item>
		<item
			timeRelativeToTestSuiteStartTime="00:31.152"
			timeRelativeToTestModuleStartTime="00:31.153"
			timeWallClock="14:41:17"
			time="00:31.152"
			level="Info"
			category="Delay">
			<message>
				Waiting for 2.5s.
			</message>
			<metainfo
				itemindex="9"
				codefile="c:\Users\JohnPloumis\Documents\Ranorex\RanorexStudio Projects\ranorex_testautomation\madaket_XP001\New_Excel_Template.cs"
				codeline="109"
				loglvl="Info">
			</metainfo>
		</item>
		<item
			timeRelativeToTestSuiteStartTime="00:33.669"
			timeRelativeToTestModuleStartTime="00:33.670"
			timeWallClock="14:41:20"
			time="00:33.669"
			level="Info"
			category="Mouse">
			<message>
				Mouse Left Click item 'NewGroupAddress.SelectedFileName' at 20;3.
			</message>
			<metainfo
				type="repoitem"
				path="/dom[@domain='edi-alpha.madakethealth.com']//span[#'selectedFileName']"
				itempath=".//span[#'selectedFileName']"
				fullname="madaket_XP001Repository.NewGroupAddress.SelectedFileName"
				id="0822b18288724a0f9132736aabd6f12a"
				timeout="60000"
				codefile="c:\Users\JohnPloumis\Documents\Ranorex\RanorexStudio Projects\ranorex_testautomation\madaket_XP001\New_Excel_Template.cs"
				codeline="112"
				itemindex="10"
				loglvl="Info">
			</metainfo>
		</item>
		<item
			timeRelativeToTestSuiteStartTime="00:35.804"
			timeRelativeToTestModuleStartTime="00:35.805"
			timeWallClock="14:41:22"
			time="00:35.804"
			level="Info"
			category="Delay">
			<message>
				Waiting for 3.5s.
			</message>
			<metainfo
				itemindex="11"
				codefile="c:\Users\JohnPloumis\Documents\Ranorex\RanorexStudio Projects\ranorex_testautomation\madaket_XP001\New_Excel_Template.cs"
				codeline="115"
				loglvl="Info">
			</metainfo>
		</item>
		<item
			timeRelativeToTestSuiteStartTime="00:39.352"
			timeRelativeToTestModuleStartTime="00:39.353"
			timeWallClock="14:41:25"
			time="00:39.352"
			level="Info"
			category="User">
			<message>
				C:\Users\JohnPloumis\Documents\Ranorex\RanorexStudio Projects\ranorex_testautomation\madaket_XP001\TestData
			</message>
			<metainfo
				codefile="c:\Users\JohnPloumis\Documents\Ranorex\RanorexStudio Projects\ranorex_testautomation\madaket_XP001\Madaket_Globals.cs"
				codeline="63"
				loglvl="Info">
			</metainfo>
		</item>
		<item
			timeRelativeToTestSuiteStartTime="00:39.506"
			timeRelativeToTestModuleStartTime="00:39.507"
			timeWallClock="14:41:25"
			time="00:39.506"
			level="Info"
			category="Screenshot"
			errimg=".\New_Exce_756a9c56_rxlog.jpg"
			errthumb=".\New_Exce_756a9c56_rxlog_thumb.jpg">
			<message>
				
			</message>
			<metainfo
				codefile="c:\Users\JohnPloumis\Documents\Ranorex\RanorexStudio Projects\ranorex_testautomation\madaket_XP001\New_Excel_Template.UserCode.cs"
				codeline="42"
				loglvl="Info">
			</metainfo>
		</item>
		<item
			timeRelativeToTestSuiteStartTime="00:39.612"
			timeRelativeToTestModuleStartTime="00:39.613"
			timeWallClock="14:41:26"
			time="00:39.612"
			level="Info"
			category="Screenshot"
			errimg=".\New_Exce_d2c327bb_rxlog.jpg"
			errthumb=".\New_Exce_d2c327bb_rxlog_thumb.jpg">
			<message>
				
			</message>
			<metainfo
				codefile="c:\Users\JohnPloumis\Documents\Ranorex\RanorexStudio Projects\ranorex_testautomation\madaket_XP001\New_Excel_Template.UserCode.cs"
				codeline="44"
				loglvl="Info">
			</metainfo>
		</item>
		<item
			timeRelativeToTestSuiteStartTime="00:39.615"
			timeRelativeToTestModuleStartTime="00:39.616"
			timeWallClock="14:41:26"
			time="00:39.615"
			level="Info"
			category="Mouse">
			<message>
				Mouse Left Click item 'ChooseFileToUpload.Text1148' at 65;6.
			</message>
			<metainfo
				type="repoitem"
				path="/form[@title='Choose File to Upload']/?/?/text[@controlid='1148']"
				itempath="?/?/text[@controlid='1148']"
				fullname="madaket_XP001Repository.ChooseFileToUpload.Text1148"
				id="6a7f179e42cf4e7eb3c4a6023d2aa0de"
				timeout="60000"
				codefile="c:\Users\JohnPloumis\Documents\Ranorex\RanorexStudio Projects\ranorex_testautomation\madaket_XP001\New_Excel_Template.UserCode.cs"
				codeline="45"
				itemindex="6"
				loglvl="Info">
			</metainfo>
		</item>
		<item
			timeRelativeToTestSuiteStartTime="00:40.963"
			timeRelativeToTestModuleStartTime="00:40.964"
			timeWallClock="14:41:27"
			time="00:40.963"
			level="Info"
			category="Keyboard">
			<message>
				Key sequence 'strTestExcelFile' with focus on 'ChooseFileToUpload.Text1148'.
			</message>
			<metainfo
				type="repoitem"
				path="/form[@title='Choose File to Upload']/?/?/text[@controlid='1148']"
				itempath="?/?/text[@controlid='1148']"
				fullname="madaket_XP001Repository.ChooseFileToUpload.Text1148"
				id="6a7f179e42cf4e7eb3c4a6023d2aa0de"
				timeout="60000"
				codefile="c:\Users\JohnPloumis\Documents\Ranorex\RanorexStudio Projects\ranorex_testautomation\madaket_XP001\New_Excel_Template.UserCode.cs"
				codeline="49"
				itemindex="7"
				loglvl="Info">
			</metainfo>
		</item>
		<item
			timeRelativeToTestSuiteStartTime="00:44.858"
			timeRelativeToTestModuleStartTime="00:44.859"
			timeWallClock="14:41:31"
			time="00:44.858"
			level="Info"
			category="Mouse">
			<message>
				Mouse Left Click item 'ChooseFileToUpload.ButtonOpen' at 32;12.
			</message>
			<metainfo
				type="repoitem"
				path="/form[@title='Choose File to Upload']/button[@text='&amp;Open']"
				itempath="button[@text='&amp;Open']"
				fullname="madaket_XP001Repository.ChooseFileToUpload.ButtonOpen"
				id="2ccbbe64f8d94138ac278189d0239430"
				timeout="60000"
				codefile="c:\Users\JohnPloumis\Documents\Ranorex\RanorexStudio Projects\ranorex_testautomation\madaket_XP001\New_Excel_Template.UserCode.cs"
				codeline="53"
				itemindex="8"
				loglvl="Info">
			</metainfo>
		</item>
		<item
			timeRelativeToTestSuiteStartTime="00:45.086"
			timeRelativeToTestModuleStartTime="00:45.087"
			timeWallClock="14:41:31"
			time="00:45.086"
			level="Info"
			category="Mouse">
			<message>
				Mouse Left Click item 'MadaketHealth.rdoProvider' at Center.
			</message>
			<metainfo
				type="repoitem"
				path="/dom[@domain='edi-alpha.madakethealth.com']//form[#'excelFileForm']//div[@innertext='Provider Upload']/input[@name='packageType']"
				itempath=".//form[#'excelFileForm']//div[@innertext='Provider Upload']/input[@name='packageType']"
				fullname="madaket_XP001Repository.MadaketHealth.rdoProvider"
				id="0eebd4b715fa4531aa10a5adc93d6a42"
				timeout="60000"
				codefile="c:\Users\JohnPloumis\Documents\Ranorex\RanorexStudio Projects\ranorex_testautomation\madaket_XP001\New_Excel_Template.cs"
				codeline="120"
				itemindex="13"
				loglvl="Info">
			</metainfo>
		</item>
		<item
			timeRelativeToTestSuiteStartTime="00:48.813"
			timeRelativeToTestModuleStartTime="00:48.814"
			timeWallClock="14:41:35"
			time="00:48.813"
			level="Info"
			category="Mouse">
			<message>
				Mouse Left Click item 'MadaketHealth.chkDelivery' at 10;12.
			</message>
			<metainfo
				type="repoitem"
				path="/dom[@domain='edi-alpha.madakethealth.com']//form[#'excelFileForm']/div[1]/div/div[11]/?/?/label"
				itempath=".//form[#'excelFileForm']/div[1]/div/div[11]/?/?/label"
				fullname="madaket_XP001Repository.MadaketHealth.chkDelivery"
				id="9db21c9e8c83480f9800f592267b8720"
				timeout="60000"
				codefile="c:\Users\JohnPloumis\Documents\Ranorex\RanorexStudio Projects\ranorex_testautomation\madaket_XP001\New_Excel_Template.cs"
				codeline="123"
				itemindex="14"
				loglvl="Info">
			</metainfo>
		</item>
		<item
			timeRelativeToTestSuiteStartTime="00:51.468"
			timeRelativeToTestModuleStartTime="00:51.469"
			timeWallClock="14:41:37"
			time="00:51.468"
			level="Info"
			category="Mouse">
			<message>
				Mouse Left Click item 'MadaketHealth.SubmitExcelFile' at 42;6.
			</message>
			<metainfo
				type="repoitem"
				path="/dom[@domain='edi-alpha.madakethealth.com']//button[#'submitExcelFile']"
				itempath=".//button[#'submitExcelFile']"
				fullname="madaket_XP001Repository.MadaketHealth.SubmitExcelFile"
				id="5fe9cea693464b7e9981a1f46b441cb9"
				timeout="60000"
				codefile="c:\Users\JohnPloumis\Documents\Ranorex\RanorexStudio Projects\ranorex_testautomation\madaket_XP001\New_Excel_Template.cs"
				codeline="126"
				itemindex="15"
				loglvl="Info">
			</metainfo>
		</item>
		<item
			timeRelativeToTestSuiteStartTime="00:53.451"
			timeRelativeToTestModuleStartTime="00:53.452"
			timeWallClock="14:41:39"
			time="00:53.451"
			level="Info"
			category="Mouse">
			<message>
				Mouse Left Click item 'MadaketHealth.SubmitExcelFile' at 42;11.
			</message>
			<metainfo
				type="repoitem"
				path="/dom[@domain='edi-alpha.madakethealth.com']//button[#'submitExcelFile']"
				itempath=".//button[#'submitExcelFile']"
				fullname="madaket_XP001Repository.MadaketHealth.SubmitExcelFile"
				id="5fe9cea693464b7e9981a1f46b441cb9"
				timeout="60000"
				codefile="c:\Users\JohnPloumis\Documents\Ranorex\RanorexStudio Projects\ranorex_testautomation\madaket_XP001\New_Excel_Template.cs"
				codeline="129"
				itemindex="16"
				loglvl="Info">
			</metainfo>
		</item>
		<item
			timeRelativeToTestSuiteStartTime="00:56.217"
			timeRelativeToTestModuleStartTime="00:56.218"
			timeWallClock="14:41:42"
			time="00:56.217"
			level="Info"
			category="Delay">
			<message>
				Waiting for 4.5s.
			</message>
			<metainfo
				itemindex="17"
				codefile="c:\Users\JohnPloumis\Documents\Ranorex\RanorexStudio Projects\ranorex_testautomation\madaket_XP001\New_Excel_Template.cs"
				codeline="132"
				loglvl="Info">
			</metainfo>
		</item>
		<item
			timeRelativeToTestSuiteStartTime="01:00.798"
			timeRelativeToTestModuleStartTime="01:00.799"
			timeWallClock="14:41:47"
			time="01:00.798"
			level="Info"
			category="Mouse">
			<message>
				Mouse Left Click item 'NewGroupAddress.DivTagPackages' at 26;13.
			</message>
			<metainfo
				type="repoitem"
				path="/dom[@domain='edi-alpha.madakethealth.com']//nav[#'mainNav']/ul//div[@innertext='Packages']"
				itempath=".//nav[#'mainNav']/ul//div[@innertext='Packages']"
				fullname="madaket_XP001Repository.NewGroupAddress.DivTagPackages"
				id="124d79ad789744ccbe353ba706f5de49"
				timeout="60000"
				codefile="c:\Users\JohnPloumis\Documents\Ranorex\RanorexStudio Projects\ranorex_testautomation\madaket_XP001\New_Excel_Template.cs"
				codeline="135"
				itemindex="18"
				loglvl="Info">
			</metainfo>
		</item>
		<item
			timeRelativeToTestSuiteStartTime="01:03.517"
			timeRelativeToTestModuleStartTime="01:03.518"
			timeWallClock="14:41:49"
			time="01:03.517"
			level="Info"
			category="Mouse">
			<message>
				Mouse Left Click item 'NewGroupAddress.ExcelFormTemplates' at 69;14.
			</message>
			<metainfo
				type="repoitem"
				path="/dom[@domain='edi-alpha.madakethealth.com']//ul[#'packageNameNav']/?/?/a[@innertext='Excel Form Templates']"
				itempath=".//ul[#'packageNameNav']/?/?/a[@innertext='Excel Form Templates']"
				fullname="madaket_XP001Repository.NewGroupAddress.ExcelFormTemplates"
				id="7aa8e2be4076499eb9311f0291c7e5cf"
				timeout="60000"
				codefile="c:\Users\JohnPloumis\Documents\Ranorex\RanorexStudio Projects\ranorex_testautomation\madaket_XP001\New_Excel_Template.cs"
				codeline="138"
				itemindex="19"
				loglvl="Info">
			</metainfo>
		</item>
		<item
			timeRelativeToTestSuiteStartTime="01:07.059"
			timeRelativeToTestModuleStartTime="01:07.060"
			timeWallClock="14:41:53"
			time="01:07.059"
			level="Info"
			category="Mouse">
			<message>
				Mouse Left Click item 'MadaketHealth.FilterButtonText' at 41;6.
			</message>
			<metainfo
				type="repoitem"
				path="/dom[@domain='edi-alpha.madakethealth.com']//span[#'filterButtonText']"
				itempath=".//span[#'filterButtonText']"
				fullname="madaket_XP001Repository.MadaketHealth.FilterButtonText"
				id="2c6a4e71fe454238941536dc8f0d5baf"
				timeout="60000"
				codefile="c:\Users\JohnPloumis\Documents\Ranorex\RanorexStudio Projects\ranorex_testautomation\madaket_XP001\New_Excel_Template.cs"
				codeline="141"
				itemindex="20"
				loglvl="Info">
			</metainfo>
		</item>
		<item
			timeRelativeToTestSuiteStartTime="01:11.051"
			timeRelativeToTestModuleStartTime="01:11.052"
			timeWallClock="14:41:57"
			time="01:11.051"
			level="Info"
			category="Mouse"
			errimg=".\New_Exce_7ef0d090_e71abbba_trace.jpg"
			errthumb=".\New_Exce_7ef0d090_e71abbba_trace_thumb.jpg">
			<message>
				Mouse Left Click item 'MadaketHealth.Filter' at 4;3.
			</message>
			<metainfo
				type="repoitem"
				path="/dom[@domain='edi-alpha.madakethealth.com']//img[#'filter']"
				itempath=".//img[#'filter']"
				fullname="madaket_XP001Repository.MadaketHealth.Filter"
				id="89684a8217f44f6ea2a119f297b3b683"
				timeout="60000"
				codefile="c:\Users\JohnPloumis\Documents\Ranorex\RanorexStudio Projects\ranorex_testautomation\madaket_XP001\New_Excel_Template.cs"
				codeline="144"
				itemindex="21"
				loglvl="Info">
			</metainfo>
		</item>
		<item
			timeRelativeToTestSuiteStartTime="01:14.185"
			timeRelativeToTestModuleStartTime="01:14.186"
			timeWallClock="14:42:00"
			time="01:14.185"
			level="Info"
			category="Mouse"
			errimg=".\New_Exce_7ef0d090_28e1b9ff_trace.jpg"
			errthumb=".\New_Exce_7ef0d090_28e1b9ff_trace_thumb.jpg">
			<message>
				Mouse Left Click item 'MadaketHealth.filterDropDown' at 4;10.
			</message>
			<metainfo
				type="repoitem"
				path="/dom[@domain='edi-alpha.madakethealth.com']/body/div[2]/div[2]/?/?/p/?/?/i"
				itempath="body/div[2]/div[2]/?/?/p/?/?/i"
				fullname="madaket_XP001Repository.MadaketHealth.filterDropDown"
				id="50239d8da22a404aa241ca203d01cf75"
				timeout="60000"
				codefile="c:\Users\JohnPloumis\Documents\Ranorex\RanorexStudio Projects\ranorex_testautomation\madaket_XP001\New_Excel_Template.cs"
				codeline="147"
				itemindex="22"
				loglvl="Info">
			</metainfo>
		</item>
		<item
			timeRelativeToTestSuiteStartTime="02:14.974"
			timeRelativeToTestModuleStartTime="02:14.975"
			timeWallClock="14:43:01"
			time="02:14.974"
			level="Error"
			category="Module"
			errimg=".\New_Exce_7ef0d090_4db71a00_trace.jpg"
			errthumb=".\New_Exce_7ef0d090_4db71a00_trace_thumb.jpg">
			<message>
				Failed to find item 'madaket_XP001Repository.MadaketHealth.filterDropDown'.<br/>No element found for path '/dom[@domain='edi-alpha.madakethealth.com']/body/div[2]/div[2]/?/?/p/?/?/i' within 1m.
			</message>
			<metainfo
				stacktrace="   at Ranorex.Core.Repository.RepoItemInfo.FindInternal[T](Boolean findSingle, Boolean throwException, Duration effectiveTimeoutOverride)&#13;&#10;   at Ranorex.Core.Repository.RepoItemInfo.&lt;>c__DisplayClass75_0`1.&lt;Find>b__0()&#13;&#10;   at Ranorex.Core.Testing.Services.NoMaintenanceModeService.HandleElementNotFound[T](Func`1 action, RepoItemInfo entry)&#13;&#10;   at Ranorex.Core.Repository.RepoItemInfo.Find[T](Boolean findSingle, Boolean throwException, Duration effectiveTimeoutOverride)&#13;&#10;   at Ranorex.Core.Repository.RepoItemInfo.CreateAdapter[T](Boolean throwException, Duration waitTimeout)&#13;&#10;   at Ranorex.Core.Repository.RepoItemInfo.CreateAdapter[T](Boolean throwException)&#13;&#10;   at madaket_XP001.madaket_XP001RepositoryFolders.MadaketHealthAppFolder.get_filterDropDown() in c:\Users\JohnPloumis\Documents\Ranorex\RanorexStudio Projects\ranorex_testautomation\madaket_XP001\madaket_XP001Repository.cs:line 3127&#13;&#10;   at madaket_XP001.New_Excel_Template.Ranorex.Core.Testing.ITestModule.Run() in c:\Users\JohnPloumis\Documents\Ranorex\RanorexStudio Projects\ranorex_testautomation\madaket_XP001\New_Excel_Template.cs:line 148&#13;&#10;   at Ranorex.Core.Testing.TestModuleLeaf.RunInternal(DataContext parentDataContext, Int32 iteration, Int32 iterationCount, Boolean skipIteration)"
				codefile="c:\Users\JohnPloumis\Documents\Ranorex\RanorexStudio Projects\ranorex_testautomation\madaket_XP001\New_Excel_Template.cs"
				codeline="148"
				type="repoitem"
				path="/dom[@domain='edi-alpha.madakethealth.com']/body/div[2]/div[2]/?/?/p/?/?/i"
				itempath="body/div[2]/div[2]/?/?/p/?/?/i"
				fullname="madaket_XP001Repository.MadaketHealth.filterDropDown"
				id="50239d8da22a404aa241ca203d01cf75"
				timeout="60000"
				loglvl="Error"
				itemindex="22">
			</metainfo>
		</item>
	</activity>
</report>
