﻿<?xml version="1.0" encoding="utf-8"?>
<report
	progress="">
	<activity
		result="Failed"
		duration="0ms"
		durationms="0"
		type="root"
		rid="158adb991c592028"
		totalerrorcount="1"
		totalwarningcount="1"
		totalsuccesstestcasecount="0"
		totalfailedtestcasecount="0"
		totalblockedtestcasecount="0"
		childsuccesscount="0"
		childfailedcount="0"
		childblockedcount="0"
		totalsuccesscount="0"
		totalfailedcount="0"
		totalblockedcount="0"
		totalmaintenancemodecount="0"
		user="JohnPloumis"
		rxversion="8.2.1.0"
		host="LAPTOP-5EO8DNU1"
		osversion="Windows 10 64bit"
		runtimeversion="4.0.30319.42000"
		procarch="32bit"
		oslanguage="en-US"
		dtnlanguage="en-US"
		screenresolution="1366x768"
		timestamp="11/7/2018 11:46:37 AM"
		timestampiso="2018-11-07T16:46:37"
		endtime="11/7/2018 11:48:27 AM"
		timeoutfactor="1"
		module="New_Site">
		<detail>
			New_Site
		</detail>
		<errormessage>
			Failed to find item 'madaket_XP001Repository.MadaketHealth.DivTag1234567'.
		</errormessage>
		<varbindings>
		</varbindings>
		<item
			timeRelativeToTestSuiteStartTime="00:02.360"
			timeRelativeToTestModuleStartTime="00:02.362"
			timeWallClock="11:46:39"
			time="00:02.360"
			level="Info"
			category="Mouse">
			<message>
				Mouse Left Click item 'NewGroupAddress.DivTagAdmin' at 11;10.
			</message>
			<metainfo
				type="repoitem"
				path="/dom[@domain='edi-alpha.madakethealth.com']//nav[#'mainNav']/ul//div[@innertext='Admin']"
				itempath=".//nav[#'mainNav']/ul//div[@innertext='Admin']"
				fullname="madaket_XP001Repository.NewGroupAddress.DivTagAdmin"
				id="63be45259ced46ffa3254b26b9a5a8c1"
				timeout="60000"
				codefile="c:\Users\JohnPloumis\Documents\Ranorex\RanorexStudio Projects\ranorex_testautomation\madaket_XP001\New_Site.UserCode.cs"
				codeline="38"
				itemindex="0"
				loglvl="Info">
			</metainfo>
		</item>
		<item
			timeRelativeToTestSuiteStartTime="00:06.342"
			timeRelativeToTestModuleStartTime="00:06.344"
			timeWallClock="11:46:43"
			time="00:06.342"
			level="Info"
			category="Mouse">
			<message>
				Mouse Left Click item 'NewGroupAddress.BodyContent.HttpsEdiAlphaMadakethealthComServ6' at 21;14.
			</message>
			<metainfo
				type="repoitem"
				path="/dom[@domain='edi-alpha.madakethealth.com']//div[#'bodyContent']/nav/a[@href~'^https://edi-alpha\.madaket']"
				itempath="nav/a[@href~'^https://edi-alpha\.madaket']"
				fullname="madaket_XP001Repository.NewGroupAddress.BodyContent.HttpsEdiAlphaMadakethealthComServ6"
				id="a6e8ea4421f2406791682617bf1cf253"
				timeout="90000"
				codefile="c:\Users\JohnPloumis\Documents\Ranorex\RanorexStudio Projects\ranorex_testautomation\madaket_XP001\New_Site.UserCode.cs"
				codeline="42"
				itemindex="1"
				loglvl="Info">
			</metainfo>
		</item>
		<item
			timeRelativeToTestSuiteStartTime="00:09.189"
			timeRelativeToTestModuleStartTime="00:09.191"
			timeWallClock="11:46:46"
			time="00:09.189"
			level="Info"
			category="Mouse">
			<message>
				Mouse Left Click item 'NewGroupAddress.Sites' at 177;11.
			</message>
			<metainfo
				type="repoitem"
				path="/dom[@domain='edi-alpha.madakethealth.com']//a[#'admin-sites']/span[@innertext='Sites']"
				itempath=".//a[#'admin-sites']/span[@innertext='Sites']"
				fullname="madaket_XP001Repository.NewGroupAddress.Sites"
				id="845189eea30a4836aaf4b44672aa2ba5"
				timeout="60000"
				codefile="c:\Users\JohnPloumis\Documents\Ranorex\RanorexStudio Projects\ranorex_testautomation\madaket_XP001\New_Site.UserCode.cs"
				codeline="46"
				itemindex="2"
				loglvl="Info">
			</metainfo>
		</item>
		<item
			timeRelativeToTestSuiteStartTime="00:10.503"
			timeRelativeToTestModuleStartTime="00:10.505"
			timeWallClock="11:46:47"
			time="00:10.503"
			level="Info"
			category="Mouse">
			<message>
				Mouse Left Click item 'NewGroupAddress.AddSite' at 31;3.
			</message>
			<metainfo
				type="repoitem"
				path="/dom[@domain='edi-alpha.madakethealth.com']//a[#'addSite']"
				itempath=".//a[#'addSite']"
				fullname="madaket_XP001Repository.NewGroupAddress.AddSite"
				id="b6f79c0996ff45bda8c9c076d7e961b4"
				timeout="60000"
				codefile="c:\Users\JohnPloumis\Documents\Ranorex\RanorexStudio Projects\ranorex_testautomation\madaket_XP001\New_Site.UserCode.cs"
				codeline="50"
				itemindex="3"
				loglvl="Info">
			</metainfo>
		</item>
		<item
			timeRelativeToTestSuiteStartTime="00:12.968"
			timeRelativeToTestModuleStartTime="00:12.970"
			timeWallClock="11:46:50"
			time="00:12.968"
			level="Info"
			category="Mouse">
			<message>
				Mouse Left Click item 'NewGroupAddress.AddOrUpdateSiteButton' at 60;2.
			</message>
			<metainfo
				type="repoitem"
				path="/dom[@domain='edi-alpha.madakethealth.com']//button[#'addOrUpdateSiteButton']"
				itempath=".//button[#'addOrUpdateSiteButton']"
				fullname="madaket_XP001Repository.NewGroupAddress.AddOrUpdateSiteButton"
				id="3e1bad0ab588488f8b31a1ea713f34ce"
				timeout="60000"
				codefile="c:\Users\JohnPloumis\Documents\Ranorex\RanorexStudio Projects\ranorex_testautomation\madaket_XP001\New_Site.UserCode.cs"
				codeline="54"
				itemindex="4"
				loglvl="Info">
			</metainfo>
		</item>
		<item
			timeRelativeToTestSuiteStartTime="00:14.376"
			timeRelativeToTestModuleStartTime="00:14.378"
			timeWallClock="11:46:51"
			time="00:14.376"
			level="Info"
			category="Mouse">
			<message>
				Mouse Left Click item 'NewGroupAddress.EnterSiteName' at 43;6.
			</message>
			<metainfo
				type="repoitem"
				path="/dom[@domain='edi-alpha.madakethealth.com']//div[#'siteAddressSection']//label[@innertext='Enter site name']"
				itempath=".//div[#'siteAddressSection']//label[@innertext='Enter site name']"
				fullname="madaket_XP001Repository.NewGroupAddress.EnterSiteName"
				id="0702a235f803415c8990aaf4679708ff"
				timeout="60000"
				codefile="c:\Users\JohnPloumis\Documents\Ranorex\RanorexStudio Projects\ranorex_testautomation\madaket_XP001\New_Site.UserCode.cs"
				codeline="58"
				itemindex="5"
				loglvl="Info">
			</metainfo>
		</item>
		<item
			timeRelativeToTestSuiteStartTime="00:15.562"
			timeRelativeToTestModuleStartTime="00:15.564"
			timeWallClock="11:46:52"
			time="00:15.562"
			level="Info"
			category="Mouse">
			<message>
				Mouse Left Click item 'NewGroupAddress.EnterSiteID' at 29;9.
			</message>
			<metainfo
				type="repoitem"
				path="/dom[@domain='edi-alpha.madakethealth.com']//div[#'siteAddressSection']//label[@innertext='Enter site ID']"
				itempath=".//div[#'siteAddressSection']//label[@innertext='Enter site ID']"
				fullname="madaket_XP001Repository.NewGroupAddress.EnterSiteID"
				id="5551e4d19c5045188ad80b1cc1359755"
				timeout="60000"
				codefile="c:\Users\JohnPloumis\Documents\Ranorex\RanorexStudio Projects\ranorex_testautomation\madaket_XP001\New_Site.UserCode.cs"
				codeline="62"
				itemindex="6"
				loglvl="Info">
			</metainfo>
		</item>
		<item
			timeRelativeToTestSuiteStartTime="00:16.763"
			timeRelativeToTestModuleStartTime="00:16.765"
			timeWallClock="11:46:53"
			time="00:16.763"
			level="Info"
			category="Mouse">
			<message>
				Mouse Left Click item 'NewGroupAddress.SelectPartner' at 32;7.
			</message>
			<metainfo
				type="repoitem"
				path="/dom[@domain='edi-alpha.madakethealth.com']//label[#'partnerErrorContainer']/label[@innertext='Select partner']"
				itempath=".//label[#'partnerErrorContainer']/label[@innertext='Select partner']"
				fullname="madaket_XP001Repository.NewGroupAddress.SelectPartner"
				id="7cd00c2c1c1e400a849b8fdbb8939e7f"
				timeout="60000"
				codefile="c:\Users\JohnPloumis\Documents\Ranorex\RanorexStudio Projects\ranorex_testautomation\madaket_XP001\New_Site.UserCode.cs"
				codeline="66"
				itemindex="7"
				loglvl="Info">
			</metainfo>
		</item>
		<item
			timeRelativeToTestSuiteStartTime="00:18.082"
			timeRelativeToTestModuleStartTime="00:18.084"
			timeWallClock="11:46:55"
			time="00:18.082"
			level="Info"
			category="Mouse">
			<message>
				Mouse Left Click item 'MadaketHealth.Cancel1' at 36;7.
			</message>
			<metainfo
				type="repoitem"
				path="/dom[@domain='edi-alpha.madakethealth.com']//div[#'addEditSitePopup']//button[@innertext='Cancel']"
				itempath=".//div[#'addEditSitePopup']//button[@innertext='Cancel']"
				fullname="madaket_XP001Repository.MadaketHealth.Cancel1"
				id="4b4d2f78f2c84358812c0a335b7de5c0"
				timeout="60000"
				codefile="c:\Users\JohnPloumis\Documents\Ranorex\RanorexStudio Projects\ranorex_testautomation\madaket_XP001\New_Site.UserCode.cs"
				codeline="70"
				itemindex="8"
				loglvl="Info">
			</metainfo>
		</item>
		<item
			timeRelativeToTestSuiteStartTime="00:19.383"
			timeRelativeToTestModuleStartTime="00:19.385"
			timeWallClock="11:46:56"
			time="00:19.383"
			level="Info"
			category="Mouse">
			<message>
				Mouse Left Click item 'NewGroupAddress.DivTagAdmin' at 7;14.
			</message>
			<metainfo
				type="repoitem"
				path="/dom[@domain='edi-alpha.madakethealth.com']//nav[#'mainNav']/ul//div[@innertext='Admin']"
				itempath=".//nav[#'mainNav']/ul//div[@innertext='Admin']"
				fullname="madaket_XP001Repository.NewGroupAddress.DivTagAdmin"
				id="63be45259ced46ffa3254b26b9a5a8c1"
				timeout="60000"
				codefile="c:\Users\JohnPloumis\Documents\Ranorex\RanorexStudio Projects\ranorex_testautomation\madaket_XP001\New_Site.UserCode.cs"
				codeline="74"
				itemindex="9"
				loglvl="Info">
			</metainfo>
		</item>
		<item
			timeRelativeToTestSuiteStartTime="00:20.790"
			timeRelativeToTestModuleStartTime="00:20.792"
			timeWallClock="11:46:58"
			time="00:20.790"
			level="Info"
			category="Mouse">
			<message>
				Mouse Left Click item 'MadaketHealth.SomeSpanTag' at 4;-4.
			</message>
			<metainfo
				type="repoitem"
				path="/dom[@domain='edi-alpha.madakethealth.com']//div[#'bodyContent']/nav/?/?/span"
				itempath=".//div[#'bodyContent']/nav/?/?/span"
				fullname="madaket_XP001Repository.MadaketHealth.SomeSpanTag"
				id="86c8c277063b43dc869bfdb2b054f141"
				timeout="60000"
				codefile="c:\Users\JohnPloumis\Documents\Ranorex\RanorexStudio Projects\ranorex_testautomation\madaket_XP001\New_Site.UserCode.cs"
				codeline="78"
				itemindex="10"
				loglvl="Info">
			</metainfo>
		</item>
		<item
			timeRelativeToTestSuiteStartTime="00:21.977"
			timeRelativeToTestModuleStartTime="00:21.979"
			timeWallClock="11:46:59"
			time="00:21.977"
			level="Warn"
			category="Click"
			errimg=".\New_Site_e96bc7d4_rxlog.jpg"
			errthumb=".\New_Site_e96bc7d4_rxlog_thumb.jpg">
			<message>
				The mouse action was performed outside the boundaries of the assigned UI element.<br/>
			</message>
			<metainfo
				codefile="c:\Users\JohnPloumis\Documents\Ranorex\RanorexStudio Projects\ranorex_testautomation\madaket_XP001\New_Site.UserCode.cs"
				codeline="79"
				loglvl="Warn">
			</metainfo>
		</item>
		<item
			timeRelativeToTestSuiteStartTime="00:23.530"
			timeRelativeToTestModuleStartTime="00:23.532"
			timeWallClock="11:47:00"
			time="00:23.530"
			level="Info"
			category="Mouse">
			<message>
				Mouse Left Click item 'NewGroupAddress.Sites' at 171;13.
			</message>
			<metainfo
				type="repoitem"
				path="/dom[@domain='edi-alpha.madakethealth.com']//a[#'admin-sites']/span[@innertext='Sites']"
				itempath=".//a[#'admin-sites']/span[@innertext='Sites']"
				fullname="madaket_XP001Repository.NewGroupAddress.Sites"
				id="845189eea30a4836aaf4b44672aa2ba5"
				timeout="60000"
				codefile="c:\Users\JohnPloumis\Documents\Ranorex\RanorexStudio Projects\ranorex_testautomation\madaket_XP001\New_Site.UserCode.cs"
				codeline="82"
				itemindex="11"
				loglvl="Info">
			</metainfo>
		</item>
		<item
			timeRelativeToTestSuiteStartTime="00:24.819"
			timeRelativeToTestModuleStartTime="00:24.821"
			timeWallClock="11:47:02"
			time="00:24.819"
			level="Info"
			category="Mouse">
			<message>
				Mouse Left Click item 'NewGroupAddress.AddSite' at 36;1.
			</message>
			<metainfo
				type="repoitem"
				path="/dom[@domain='edi-alpha.madakethealth.com']//a[#'addSite']"
				itempath=".//a[#'addSite']"
				fullname="madaket_XP001Repository.NewGroupAddress.AddSite"
				id="b6f79c0996ff45bda8c9c076d7e961b4"
				timeout="60000"
				codefile="c:\Users\JohnPloumis\Documents\Ranorex\RanorexStudio Projects\ranorex_testautomation\madaket_XP001\New_Site.UserCode.cs"
				codeline="86"
				itemindex="12"
				loglvl="Info">
			</metainfo>
		</item>
		<item
			timeRelativeToTestSuiteStartTime="00:27.165"
			timeRelativeToTestModuleStartTime="00:27.167"
			timeWallClock="11:47:04"
			time="00:27.165"
			level="Info"
			category="Mouse">
			<message>
				Mouse Left Click item 'NewGroupAddress.SiteName' at 100;12.
			</message>
			<metainfo
				type="repoitem"
				path="/dom[@domain='edi-alpha.madakethealth.com']//input[#'siteName']"
				itempath=".//input[#'siteName']"
				fullname="madaket_XP001Repository.NewGroupAddress.SiteName"
				id="cab675a5044a4a73bc1b4a31b4c87397"
				timeout="60000"
				codefile="c:\Users\JohnPloumis\Documents\Ranorex\RanorexStudio Projects\ranorex_testautomation\madaket_XP001\New_Site.UserCode.cs"
				codeline="90"
				itemindex="13"
				loglvl="Info">
			</metainfo>
		</item>
		<item
			timeRelativeToTestSuiteStartTime="00:31.801"
			timeRelativeToTestModuleStartTime="00:31.803"
			timeWallClock="11:47:09"
			time="00:31.801"
			level="Info"
			category="Mouse">
			<message>
				Mouse Left Click item 'MadaketHealth.SiteId' at 52;10.
			</message>
			<metainfo
				type="repoitem"
				path="/dom[@domain='edi-alpha.madakethealth.com']//input[#'siteId']"
				itempath=".//input[#'siteId']"
				fullname="madaket_XP001Repository.MadaketHealth.SiteId"
				id="d800e804633a43a49e0bf7abdcaae03d"
				timeout="60000"
				codefile="c:\Users\JohnPloumis\Documents\Ranorex\RanorexStudio Projects\ranorex_testautomation\madaket_XP001\New_Site.UserCode.cs"
				codeline="100"
				itemindex="15"
				loglvl="Info">
			</metainfo>
		</item>
		<item
			timeRelativeToTestSuiteStartTime="00:34.134"
			timeRelativeToTestModuleStartTime="00:34.136"
			timeWallClock="11:47:11"
			time="00:34.134"
			level="Info"
			category="Mouse">
			<message>
				Mouse Left Click item 'NewGroupAddress.Partners' at 51;7.
			</message>
			<metainfo
				type="repoitem"
				path="/dom[@domain='edi-alpha.madakethealth.com']//select[#'partners']"
				itempath=".//select[#'partners']"
				fullname="madaket_XP001Repository.NewGroupAddress.Partners"
				id="2ce58ebcfc0f4929a10c21b90580ef70"
				timeout="60000"
				codefile="c:\Users\JohnPloumis\Documents\Ranorex\RanorexStudio Projects\ranorex_testautomation\madaket_XP001\New_Site.UserCode.cs"
				codeline="109"
				itemindex="17"
				loglvl="Info">
			</metainfo>
		</item>
		<item
			timeRelativeToTestSuiteStartTime="00:35.347"
			timeRelativeToTestModuleStartTime="00:35.349"
			timeWallClock="11:47:12"
			time="00:35.347"
			level="Info"
			category="Set value">
			<message>
				Setting attribute TagValue to '5ad1f92c-6405-4169-b914-cb635adb84c2' on item 'NewGroupAddress.Partners'.
			</message>
			<metainfo
				type="repoitem"
				path="/dom[@domain='edi-alpha.madakethealth.com']//select[#'partners']"
				itempath=".//select[#'partners']"
				fullname="madaket_XP001Repository.NewGroupAddress.Partners"
				id="2ce58ebcfc0f4929a10c21b90580ef70"
				timeout="60000"
				codefile="c:\Users\JohnPloumis\Documents\Ranorex\RanorexStudio Projects\ranorex_testautomation\madaket_XP001\New_Site.UserCode.cs"
				codeline="113"
				itemindex="18"
				loglvl="Info">
			</metainfo>
		</item>
		<item
			timeRelativeToTestSuiteStartTime="00:39.074"
			timeRelativeToTestModuleStartTime="00:39.076"
			timeWallClock="11:47:16"
			time="00:39.074"
			level="Info"
			category="Mouse">
			<message>
				Mouse Left Click item 'NewGroupAddress.AddOrUpdateSiteButton' at 48;5.
			</message>
			<metainfo
				type="repoitem"
				path="/dom[@domain='edi-alpha.madakethealth.com']//button[#'addOrUpdateSiteButton']"
				itempath=".//button[#'addOrUpdateSiteButton']"
				fullname="madaket_XP001Repository.NewGroupAddress.AddOrUpdateSiteButton"
				id="3e1bad0ab588488f8b31a1ea713f34ce"
				timeout="60000"
				codefile="c:\Users\JohnPloumis\Documents\Ranorex\RanorexStudio Projects\ranorex_testautomation\madaket_XP001\New_Site.UserCode.cs"
				codeline="118"
				itemindex="19"
				loglvl="Info">
			</metainfo>
		</item>
		<item
			timeRelativeToTestSuiteStartTime="00:42.542"
			timeRelativeToTestModuleStartTime="00:42.544"
			timeWallClock="11:47:19"
			time="00:42.542"
			level="Info"
			category="Mouse">
			<message>
				Mouse Left Click item 'MadaketHealth.EditSiteGeneralDetails' at 20;9.
			</message>
			<metainfo
				type="repoitem"
				path="/dom[@domain='edi-alpha.madakethealth.com']//div[#'editSiteGeneralDetails']"
				itempath=".//div[#'editSiteGeneralDetails']"
				fullname="madaket_XP001Repository.MadaketHealth.EditSiteGeneralDetails"
				id="a9831b9d4ff54e9aaf24d67b1697f1da"
				timeout="60000"
				codefile="c:\Users\JohnPloumis\Documents\Ranorex\RanorexStudio Projects\ranorex_testautomation\madaket_XP001\New_Site.UserCode.cs"
				codeline="126"
				itemindex="20"
				loglvl="Info">
			</metainfo>
		</item>
		<item
			timeRelativeToTestSuiteStartTime="00:44.788"
			timeRelativeToTestModuleStartTime="00:44.790"
			timeWallClock="11:47:22"
			time="00:44.788"
			level="Info"
			category="Mouse">
			<message>
				Mouse Left Click item 'NewGroupAddress.StemOwned' at 7;2.
			</message>
			<metainfo
				type="repoitem"
				path="/dom[@domain='edi-alpha.madakethealth.com']//input[#'stemOwned']"
				itempath=".//input[#'stemOwned']"
				fullname="madaket_XP001Repository.NewGroupAddress.StemOwned"
				id="6a0f0f9b71e94ceebf8cae05b8e88ffa"
				timeout="60000"
				codefile="c:\Users\JohnPloumis\Documents\Ranorex\RanorexStudio Projects\ranorex_testautomation\madaket_XP001\New_Site.UserCode.cs"
				codeline="130"
				itemindex="21"
				loglvl="Info">
			</metainfo>
		</item>
		<item
			timeRelativeToTestSuiteStartTime="00:46.301"
			timeRelativeToTestModuleStartTime="00:46.303"
			timeWallClock="11:47:23"
			time="00:46.301"
			level="Info"
			category="Mouse">
			<message>
				Mouse Left Click item 'NewGroupAddress.AddOrUpdateSiteButton' at 35;9.
			</message>
			<metainfo
				type="repoitem"
				path="/dom[@domain='edi-alpha.madakethealth.com']//button[#'addOrUpdateSiteButton']"
				itempath=".//button[#'addOrUpdateSiteButton']"
				fullname="madaket_XP001Repository.NewGroupAddress.AddOrUpdateSiteButton"
				id="3e1bad0ab588488f8b31a1ea713f34ce"
				timeout="60000"
				codefile="c:\Users\JohnPloumis\Documents\Ranorex\RanorexStudio Projects\ranorex_testautomation\madaket_XP001\New_Site.UserCode.cs"
				codeline="134"
				itemindex="22"
				loglvl="Info">
			</metainfo>
		</item>
		<item
			timeRelativeToTestSuiteStartTime="00:47.546"
			timeRelativeToTestModuleStartTime="00:47.548"
			timeWallClock="11:47:24"
			time="00:47.546"
			level="Info"
			category="Mouse"
			errimg=".\New_Site_7d3f8770_5f1627ca_trace.jpg"
			errthumb=".\New_Site_7d3f8770_5f1627ca_trace_thumb.jpg">
			<message>
				Mouse Left Click item 'NewGroupAddress.TestAutomationSite' at 30;9.
			</message>
			<metainfo
				type="repoitem"
				path="/dom[@domain='edi-alpha.madakethealth.com']//div[#'siteGeneralTable']/?/?/div[@innertext>'test_automation_site_']"
				itempath=".//div[#'siteGeneralTable']/?/?/div[@innertext>'test_automation_site_']"
				fullname="madaket_XP001Repository.NewGroupAddress.TestAutomationSite"
				id="9fd6071ff5404dd681cc48edcbb62298"
				timeout="60000"
				codefile="c:\Users\JohnPloumis\Documents\Ranorex\RanorexStudio Projects\ranorex_testautomation\madaket_XP001\New_Site.UserCode.cs"
				codeline="138"
				itemindex="23"
				loglvl="Info">
			</metainfo>
		</item>
		<item
			timeRelativeToTestSuiteStartTime="00:49.709"
			timeRelativeToTestModuleStartTime="00:49.711"
			timeWallClock="11:47:26"
			time="00:49.709"
			level="Info"
			category="User"
			errimg=".\New_Site_7d3f8770_fc7ab8e7_trace.jpg"
			errthumb=".\New_Site_7d3f8770_fc7ab8e7_trace_thumb.jpg">
			<message>
				Site ID: 9466
			</message>
			<metainfo
				codefile="c:\Users\JohnPloumis\Documents\Ranorex\RanorexStudio Projects\ranorex_testautomation\madaket_XP001\New_Site.UserCode.cs"
				codeline="143"
				loglvl="Info">
			</metainfo>
		</item>
		<item
			timeRelativeToTestSuiteStartTime="01:50.068"
			timeRelativeToTestModuleStartTime="01:50.070"
			timeWallClock="11:48:27"
			time="01:50.068"
			level="Error"
			category="Module"
			errimg=".\New_Site_7d3f8770_a4b288be_trace.jpg"
			errthumb=".\New_Site_7d3f8770_a4b288be_trace_thumb.jpg">
			<message>
				Failed to find item 'madaket_XP001Repository.MadaketHealth.DivTag1234567'.<br/>No element found for path '/dom[@domain='edi-alpha.madakethealth.com']//div[#'siteGeneralTable']/?/?/div[@innertext='24951']' within 1m.
			</message>
			<metainfo
				stacktrace="   at Ranorex.Core.Repository.RepoItemInfo.FindInternal[T](Boolean findSingle, Boolean throwException, Duration effectiveTimeoutOverride)&#13;&#10;   at Ranorex.Core.Repository.RepoItemInfo.&lt;>c__DisplayClass75_0`1.&lt;Find>b__0()&#13;&#10;   at Ranorex.Core.Testing.Services.NoMaintenanceModeService.HandleElementNotFound[T](Func`1 action, RepoItemInfo entry)&#13;&#10;   at Ranorex.Core.Repository.RepoItemInfo.Find[T](Boolean findSingle, Boolean throwException, Duration effectiveTimeoutOverride)&#13;&#10;   at Ranorex.Core.Repository.RepoItemInfo.CreateAdapter[T](Boolean throwException, Duration waitTimeout)&#13;&#10;   at Ranorex.Core.Repository.RepoItemInfo.CreateAdapter[T](Boolean throwException)&#13;&#10;   at madaket_XP001.madaket_XP001RepositoryFolders.MadaketHealthAppFolder.get_DivTag1234567() in c:\Users\JohnPloumis\Documents\Ranorex\RanorexStudio Projects\ranorex_testautomation\madaket_XP001\madaket_XP001Repository.cs:line 3487&#13;&#10;   at madaket_XP001.New_Site.New_Site_Code() in c:\Users\JohnPloumis\Documents\Ranorex\RanorexStudio Projects\ranorex_testautomation\madaket_XP001\New_Site.UserCode.cs:line 144&#13;&#10;   at madaket_XP001.New_Site.Ranorex.Core.Testing.ITestModule.Run() in c:\Users\JohnPloumis\Documents\Ranorex\RanorexStudio Projects\ranorex_testautomation\madaket_XP001\New_Site.cs:line 82&#13;&#10;   at Ranorex.Core.Testing.TestModuleLeaf.RunInternal(DataContext parentDataContext, Int32 iteration, Int32 iterationCount, Boolean skipIteration)"
				codefile="c:\Users\JohnPloumis\Documents\Ranorex\RanorexStudio Projects\ranorex_testautomation\madaket_XP001\New_Site.UserCode.cs"
				codeline="144"
				type="repoitem"
				path="/dom[@domain='edi-alpha.madakethealth.com']//div[#'siteGeneralTable']/?/?/div[@innertext='24951']"
				itempath=".//div[#'siteGeneralTable']/?/?/div[@innertext='24951']"
				fullname="madaket_XP001Repository.MadaketHealth.DivTag1234567"
				id="d65a7dabc3ac47acac77af4f478a9ff4"
				timeout="60000"
				loglvl="Error">
			</metainfo>
		</item>
	</activity>
</report>
