﻿<?xml version="1.0" encoding="utf-8"?>
<report
	progress="">
	<activity
		result="Failed"
		duration="0ms"
		durationms="0"
		type="root"
		rid="1927f7e7b29b39bf"
		totalerrorcount="1"
		totalwarningcount="0"
		totalsuccesstestcasecount="0"
		totalfailedtestcasecount="0"
		totalblockedtestcasecount="0"
		childsuccesscount="0"
		childfailedcount="0"
		childblockedcount="0"
		totalsuccesscount="0"
		totalfailedcount="0"
		totalblockedcount="0"
		totalmaintenancemodecount="0"
		user="JohnPloumis"
		rxversion="8.3.1.0"
		host="LAPTOP-5EO8DNU1"
		osversion="Windows 10 64bit"
		runtimeversion="4.0.30319.42000"
		procarch="32bit"
		oslanguage="en-US"
		dtnlanguage="en-US"
		screenresolution="1366x768"
		timestamp="12/7/2018 2:23:22 PM"
		timestampiso="2018-12-07T19:23:22"
		endtime="12/7/2018 2:25:24 PM"
		timeoutfactor="1"
		module="New_Excel_Template">
		<detail>
			New_Excel_Template
		</detail>
		<errormessage>
			Failed to find item 'madaket_XP001Repository.MadaketHealthInternetExplorer.FrameTabCover'.
		</errormessage>
		<varbindings>
		</varbindings>
		<item
			timeRelativeToTestSuiteStartTime="00:04.580"
			timeRelativeToTestModuleStartTime="00:04.582"
			timeWallClock="14:23:27"
			time="00:04.580"
			level="Info"
			category="Delay">
			<message>
				Waiting for 500ms.
			</message>
			<metainfo
				itemindex="0"
				codefile="c:\Users\JohnPloumis\Documents\Ranorex\RanorexStudio Projects\ranorex_testautomation\madaket_XP001\New_Excel_Template.cs"
				codeline="82"
				loglvl="Info">
			</metainfo>
		</item>
		<item
			timeRelativeToTestSuiteStartTime="00:05.121"
			timeRelativeToTestModuleStartTime="00:05.123"
			timeWallClock="14:23:28"
			time="00:05.121"
			level="Info"
			category="Mouse">
			<message>
				Mouse Left Click item 'NewGroupAddress.DivTagPackages' at 19;13.
			</message>
			<metainfo
				type="repoitem"
				path="/dom[@domain='edi-alpha.madakethealth.com']//nav[#'mainNav']/ul//div[@innertext='Packages']"
				itempath=".//nav[#'mainNav']/ul//div[@innertext='Packages']"
				fullname="madaket_XP001Repository.NewGroupAddress.DivTagPackages"
				id="124d79ad789744ccbe353ba706f5de49"
				timeout="60000"
				codefile="c:\Users\JohnPloumis\Documents\Ranorex\RanorexStudio Projects\ranorex_testautomation\madaket_XP001\New_Excel_Template.cs"
				codeline="85"
				itemindex="1"
				loglvl="Info">
			</metainfo>
		</item>
		<item
			timeRelativeToTestSuiteStartTime="00:10.587"
			timeRelativeToTestModuleStartTime="00:10.589"
			timeWallClock="14:23:33"
			time="00:10.587"
			level="Info"
			category="Mouse">
			<message>
				Mouse Left Click item 'NewGroupAddress.ExcelFormTemplates' at 42;15.
			</message>
			<metainfo
				type="repoitem"
				path="/dom[@domain='edi-alpha.madakethealth.com']//ul[#'packageNameNav']/?/?/a[@innertext='Excel Form Templates']"
				itempath=".//ul[#'packageNameNav']/?/?/a[@innertext='Excel Form Templates']"
				fullname="madaket_XP001Repository.NewGroupAddress.ExcelFormTemplates"
				id="7aa8e2be4076499eb9311f0291c7e5cf"
				timeout="60000"
				codefile="c:\Users\JohnPloumis\Documents\Ranorex\RanorexStudio Projects\ranorex_testautomation\madaket_XP001\New_Excel_Template.cs"
				codeline="88"
				itemindex="2"
				loglvl="Info">
			</metainfo>
		</item>
		<item
			timeRelativeToTestSuiteStartTime="00:14.237"
			timeRelativeToTestModuleStartTime="00:14.239"
			timeWallClock="14:23:37"
			time="00:14.237"
			level="Info"
			category="Mouse">
			<message>
				Mouse Left Click item 'NewGroupAddress.AddExcelForm' at 38;5.
			</message>
			<metainfo
				type="repoitem"
				path="/dom[@domain='edi-alpha.madakethealth.com']//a[#'addExcelForm']"
				itempath=".//a[#'addExcelForm']"
				fullname="madaket_XP001Repository.NewGroupAddress.AddExcelForm"
				id="4b533e7e84d04ace9d4051c9174f4729"
				timeout="60000"
				codefile="c:\Users\JohnPloumis\Documents\Ranorex\RanorexStudio Projects\ranorex_testautomation\madaket_XP001\New_Excel_Template.cs"
				codeline="91"
				itemindex="3"
				loglvl="Info">
			</metainfo>
		</item>
		<item
			timeRelativeToTestSuiteStartTime="00:17.500"
			timeRelativeToTestModuleStartTime="00:17.502"
			timeWallClock="14:23:40"
			time="00:17.500"
			level="Info"
			category="Delay">
			<message>
				Waiting for 2.5s.
			</message>
			<metainfo
				itemindex="4"
				codefile="c:\Users\JohnPloumis\Documents\Ranorex\RanorexStudio Projects\ranorex_testautomation\madaket_XP001\New_Excel_Template.cs"
				codeline="94"
				loglvl="Info">
			</metainfo>
		</item>
		<item
			timeRelativeToTestSuiteStartTime="00:20.044"
			timeRelativeToTestModuleStartTime="00:20.046"
			timeWallClock="14:23:42"
			time="00:20.044"
			level="Info"
			category="Keyboard">
			<message>
				Key sequence 'test_' with focus on 'MadaketHealth.PayerName'.
			</message>
			<metainfo
				type="repoitem"
				path="/dom[@domain='edi-alpha.madakethealth.com']//input[#'payerName']"
				itempath=".//input[#'payerName']"
				fullname="madaket_XP001Repository.MadaketHealth.PayerName"
				id="d13f36e3d9574502a0ea370497446279"
				timeout="60000"
				codefile="c:\Users\JohnPloumis\Documents\Ranorex\RanorexStudio Projects\ranorex_testautomation\madaket_XP001\New_Excel_Template.cs"
				codeline="97"
				itemindex="5"
				loglvl="Info">
			</metainfo>
		</item>
		<item
			timeRelativeToTestSuiteStartTime="00:23.189"
			timeRelativeToTestModuleStartTime="00:23.191"
			timeWallClock="14:23:46"
			time="00:23.189"
			level="Info"
			category="Mouse">
			<message>
				Mouse Left Click item 'NewGroupAddress.TestPayerAutomationXP002' at 81;7.
			</message>
			<metainfo
				type="repoitem"
				path="/dom[@domain='edi-alpha.madakethealth.com']/?/?/ul/?/?/a[@innertext~'^test_payer_automation_XP0']"
				itempath="?/?/ul/?/?/a[@innertext~'^test_payer_automation_XP0']"
				fullname="madaket_XP001Repository.NewGroupAddress.TestPayerAutomationXP002"
				id="efa96f2096d4481283ba4ac9e5a76fb5"
				timeout="60000"
				codefile="c:\Users\JohnPloumis\Documents\Ranorex\RanorexStudio Projects\ranorex_testautomation\madaket_XP001\New_Excel_Template.cs"
				codeline="100"
				itemindex="6"
				loglvl="Info">
			</metainfo>
		</item>
		<item
			timeRelativeToTestSuiteStartTime="00:29.450"
			timeRelativeToTestModuleStartTime="00:29.452"
			timeWallClock="14:23:52"
			time="00:29.450"
			level="Info"
			category="Delay">
			<message>
				Waiting for 2.5s.
			</message>
			<metainfo
				itemindex="7"
				codefile="c:\Users\JohnPloumis\Documents\Ranorex\RanorexStudio Projects\ranorex_testautomation\madaket_XP001\New_Excel_Template.cs"
				codeline="103"
				loglvl="Info">
			</metainfo>
		</item>
		<item
			timeRelativeToTestSuiteStartTime="00:31.978"
			timeRelativeToTestModuleStartTime="00:31.980"
			timeWallClock="14:23:54"
			time="00:31.978"
			level="Info"
			category="Set value">
			<message>
				Setting attribute Value to 'Test_automation_FileName' on item 'NewGroupAddress.FileName'.
			</message>
			<metainfo
				type="repoitem"
				path="/dom[@domain='edi-alpha.madakethealth.com']//input[#'fileName']"
				itempath=".//input[#'fileName']"
				fullname="madaket_XP001Repository.NewGroupAddress.FileName"
				id="c5aa8c09d5a347dd824390528967c79d"
				timeout="60000"
				codefile="c:\Users\JohnPloumis\Documents\Ranorex\RanorexStudio Projects\ranorex_testautomation\madaket_XP001\New_Excel_Template.cs"
				codeline="106"
				itemindex="8"
				loglvl="Info">
			</metainfo>
		</item>
		<item
			timeRelativeToTestSuiteStartTime="00:32.631"
			timeRelativeToTestModuleStartTime="00:32.633"
			timeWallClock="14:23:55"
			time="00:32.631"
			level="Info"
			category="Delay">
			<message>
				Waiting for 2.5s.
			</message>
			<metainfo
				itemindex="9"
				codefile="c:\Users\JohnPloumis\Documents\Ranorex\RanorexStudio Projects\ranorex_testautomation\madaket_XP001\New_Excel_Template.cs"
				codeline="109"
				loglvl="Info">
			</metainfo>
		</item>
		<item
			timeRelativeToTestSuiteStartTime="00:35.151"
			timeRelativeToTestModuleStartTime="00:35.153"
			timeWallClock="14:23:58"
			time="00:35.151"
			level="Info"
			category="Mouse">
			<message>
				Mouse Left Click item 'NewGroupAddress.SelectedFileName' at 20;3.
			</message>
			<metainfo
				type="repoitem"
				path="/dom[@domain='edi-alpha.madakethealth.com']//span[#'selectedFileName']"
				itempath=".//span[#'selectedFileName']"
				fullname="madaket_XP001Repository.NewGroupAddress.SelectedFileName"
				id="0822b18288724a0f9132736aabd6f12a"
				timeout="60000"
				codefile="c:\Users\JohnPloumis\Documents\Ranorex\RanorexStudio Projects\ranorex_testautomation\madaket_XP001\New_Excel_Template.cs"
				codeline="112"
				itemindex="10"
				loglvl="Info">
			</metainfo>
		</item>
		<item
			timeRelativeToTestSuiteStartTime="00:37.041"
			timeRelativeToTestModuleStartTime="00:37.043"
			timeWallClock="14:23:59"
			time="00:37.041"
			level="Info"
			category="Delay">
			<message>
				Waiting for 3.5s.
			</message>
			<metainfo
				itemindex="11"
				codefile="c:\Users\JohnPloumis\Documents\Ranorex\RanorexStudio Projects\ranorex_testautomation\madaket_XP001\New_Excel_Template.cs"
				codeline="115"
				loglvl="Info">
			</metainfo>
		</item>
		<item
			timeRelativeToTestSuiteStartTime="00:40.585"
			timeRelativeToTestModuleStartTime="00:40.587"
			timeWallClock="14:24:03"
			time="00:40.585"
			level="Info"
			category="User">
			<message>
				C:\Users\JohnPloumis\Documents\Ranorex\RanorexStudio Projects\ranorex_testautomation\madaket_XP001\TestData
			</message>
			<metainfo
				codefile="c:\Users\JohnPloumis\Documents\Ranorex\RanorexStudio Projects\ranorex_testautomation\madaket_XP001\Madaket_Globals.cs"
				codeline="63"
				loglvl="Info">
			</metainfo>
		</item>
		<item
			timeRelativeToTestSuiteStartTime="00:40.717"
			timeRelativeToTestModuleStartTime="00:40.718"
			timeWallClock="14:24:03"
			time="00:40.717"
			level="Info"
			category="Screenshot"
			errimg=".\New_Exce_bd265da3_rxlog.jpg"
			errthumb=".\New_Exce_bd265da3_rxlog_thumb.jpg">
			<message>
				
			</message>
			<metainfo
				codefile="c:\Users\JohnPloumis\Documents\Ranorex\RanorexStudio Projects\ranorex_testautomation\madaket_XP001\New_Excel_Template.UserCode.cs"
				codeline="42"
				loglvl="Info">
			</metainfo>
		</item>
		<item
			timeRelativeToTestSuiteStartTime="00:40.797"
			timeRelativeToTestModuleStartTime="00:40.799"
			timeWallClock="14:24:03"
			time="00:40.797"
			level="Info"
			category="Screenshot"
			errimg=".\New_Exce_5fcdd23e_rxlog.jpg"
			errthumb=".\New_Exce_5fcdd23e_rxlog_thumb.jpg">
			<message>
				
			</message>
			<metainfo
				codefile="c:\Users\JohnPloumis\Documents\Ranorex\RanorexStudio Projects\ranorex_testautomation\madaket_XP001\New_Excel_Template.UserCode.cs"
				codeline="44"
				loglvl="Info">
			</metainfo>
		</item>
		<item
			timeRelativeToTestSuiteStartTime="00:40.801"
			timeRelativeToTestModuleStartTime="00:40.803"
			timeWallClock="14:24:03"
			time="00:40.801"
			level="Info"
			category="Mouse">
			<message>
				Mouse Left Click item 'ChooseFileToUpload.Text1148' at 65;6.
			</message>
			<metainfo
				type="repoitem"
				path="/form[@title='Choose File to Upload']/?/?/text[@controlid='1148']"
				itempath="?/?/text[@controlid='1148']"
				fullname="madaket_XP001Repository.ChooseFileToUpload.Text1148"
				id="6a7f179e42cf4e7eb3c4a6023d2aa0de"
				timeout="60000"
				codefile="c:\Users\JohnPloumis\Documents\Ranorex\RanorexStudio Projects\ranorex_testautomation\madaket_XP001\New_Excel_Template.UserCode.cs"
				codeline="45"
				itemindex="6"
				loglvl="Info">
			</metainfo>
		</item>
		<item
			timeRelativeToTestSuiteStartTime="00:42.196"
			timeRelativeToTestModuleStartTime="00:42.198"
			timeWallClock="14:24:05"
			time="00:42.196"
			level="Info"
			category="Keyboard">
			<message>
				Key sequence 'strTestExcelFile' with focus on 'ChooseFileToUpload.Text1148'.
			</message>
			<metainfo
				type="repoitem"
				path="/form[@title='Choose File to Upload']/?/?/text[@controlid='1148']"
				itempath="?/?/text[@controlid='1148']"
				fullname="madaket_XP001Repository.ChooseFileToUpload.Text1148"
				id="6a7f179e42cf4e7eb3c4a6023d2aa0de"
				timeout="60000"
				codefile="c:\Users\JohnPloumis\Documents\Ranorex\RanorexStudio Projects\ranorex_testautomation\madaket_XP001\New_Excel_Template.UserCode.cs"
				codeline="49"
				itemindex="7"
				loglvl="Info">
			</metainfo>
		</item>
		<item
			timeRelativeToTestSuiteStartTime="00:46.445"
			timeRelativeToTestModuleStartTime="00:46.447"
			timeWallClock="14:24:09"
			time="00:46.445"
			level="Info"
			category="Mouse">
			<message>
				Mouse Left Click item 'ChooseFileToUpload.ButtonOpen' at 32;12.
			</message>
			<metainfo
				type="repoitem"
				path="/form[@title='Choose File to Upload']/button[@text='&amp;Open']"
				itempath="button[@text='&amp;Open']"
				fullname="madaket_XP001Repository.ChooseFileToUpload.ButtonOpen"
				id="2ccbbe64f8d94138ac278189d0239430"
				timeout="60000"
				codefile="c:\Users\JohnPloumis\Documents\Ranorex\RanorexStudio Projects\ranorex_testautomation\madaket_XP001\New_Excel_Template.UserCode.cs"
				codeline="53"
				itemindex="8"
				loglvl="Info">
			</metainfo>
		</item>
		<item
			timeRelativeToTestSuiteStartTime="00:46.666"
			timeRelativeToTestModuleStartTime="00:46.668"
			timeWallClock="14:24:09"
			time="00:46.666"
			level="Info"
			category="Mouse">
			<message>
				Mouse Left Click item 'MadaketHealth.rdoProvider' at Center.
			</message>
			<metainfo
				type="repoitem"
				path="/dom[@domain='edi-alpha.madakethealth.com']//form[#'excelFileForm']//div[@innertext='Provider Upload']/input[@name='packageType']"
				itempath=".//form[#'excelFileForm']//div[@innertext='Provider Upload']/input[@name='packageType']"
				fullname="madaket_XP001Repository.MadaketHealth.rdoProvider"
				id="0eebd4b715fa4531aa10a5adc93d6a42"
				timeout="60000"
				codefile="c:\Users\JohnPloumis\Documents\Ranorex\RanorexStudio Projects\ranorex_testautomation\madaket_XP001\New_Excel_Template.cs"
				codeline="120"
				itemindex="13"
				loglvl="Info">
			</metainfo>
		</item>
		<item
			timeRelativeToTestSuiteStartTime="00:49.661"
			timeRelativeToTestModuleStartTime="00:49.663"
			timeWallClock="14:24:12"
			time="00:49.661"
			level="Info"
			category="Mouse">
			<message>
				Mouse Left Click item 'MadaketHealth.chkDelivery' at 10;12.
			</message>
			<metainfo
				type="repoitem"
				path="/dom[@domain='edi-alpha.madakethealth.com']//form[#'excelFileForm']/div[1]/div/div[11]/?/?/label"
				itempath=".//form[#'excelFileForm']/div[1]/div/div[11]/?/?/label"
				fullname="madaket_XP001Repository.MadaketHealth.chkDelivery"
				id="9db21c9e8c83480f9800f592267b8720"
				timeout="60000"
				codefile="c:\Users\JohnPloumis\Documents\Ranorex\RanorexStudio Projects\ranorex_testautomation\madaket_XP001\New_Excel_Template.cs"
				codeline="123"
				itemindex="14"
				loglvl="Info">
			</metainfo>
		</item>
		<item
			timeRelativeToTestSuiteStartTime="00:51.715"
			timeRelativeToTestModuleStartTime="00:51.717"
			timeWallClock="14:24:14"
			time="00:51.715"
			level="Info"
			category="Mouse">
			<message>
				Mouse Left Click item 'MadaketHealth.SubmitExcelFile' at 42;6.
			</message>
			<metainfo
				type="repoitem"
				path="/dom[@domain='edi-alpha.madakethealth.com']//button[#'submitExcelFile']"
				itempath=".//button[#'submitExcelFile']"
				fullname="madaket_XP001Repository.MadaketHealth.SubmitExcelFile"
				id="5fe9cea693464b7e9981a1f46b441cb9"
				timeout="60000"
				codefile="c:\Users\JohnPloumis\Documents\Ranorex\RanorexStudio Projects\ranorex_testautomation\madaket_XP001\New_Excel_Template.cs"
				codeline="126"
				itemindex="15"
				loglvl="Info">
			</metainfo>
		</item>
		<item
			timeRelativeToTestSuiteStartTime="00:53.565"
			timeRelativeToTestModuleStartTime="00:53.567"
			timeWallClock="14:24:16"
			time="00:53.565"
			level="Info"
			category="Mouse">
			<message>
				Mouse Left Click item 'MadaketHealth.SubmitExcelFile' at 42;11.
			</message>
			<metainfo
				type="repoitem"
				path="/dom[@domain='edi-alpha.madakethealth.com']//button[#'submitExcelFile']"
				itempath=".//button[#'submitExcelFile']"
				fullname="madaket_XP001Repository.MadaketHealth.SubmitExcelFile"
				id="5fe9cea693464b7e9981a1f46b441cb9"
				timeout="60000"
				codefile="c:\Users\JohnPloumis\Documents\Ranorex\RanorexStudio Projects\ranorex_testautomation\madaket_XP001\New_Excel_Template.cs"
				codeline="129"
				itemindex="16"
				loglvl="Info">
			</metainfo>
		</item>
		<item
			timeRelativeToTestSuiteStartTime="00:56.117"
			timeRelativeToTestModuleStartTime="00:56.119"
			timeWallClock="14:24:19"
			time="00:56.117"
			level="Info"
			category="Delay"
			errimg=".\New_Exce_4fb172bd_d0cbaf2a_trace.jpg"
			errthumb=".\New_Exce_4fb172bd_d0cbaf2a_trace_thumb.jpg">
			<message>
				Waiting for 4.5s.
			</message>
			<metainfo
				itemindex="17"
				codefile="c:\Users\JohnPloumis\Documents\Ranorex\RanorexStudio Projects\ranorex_testautomation\madaket_XP001\New_Excel_Template.cs"
				codeline="132"
				loglvl="Info">
			</metainfo>
		</item>
		<item
			timeRelativeToTestSuiteStartTime="01:00.643"
			timeRelativeToTestModuleStartTime="01:00.645"
			timeWallClock="14:24:23"
			time="01:00.643"
			level="Info"
			category="Mouse"
			errimg=".\New_Exce_4fb172bd_8f37bbf2_trace.jpg"
			errthumb=".\New_Exce_4fb172bd_8f37bbf2_trace_thumb.jpg">
			<message>
				Mouse Left Click item 'MadaketHealthInternetExplorer.FrameTabCover' at 614;185.
			</message>
			<metainfo
				type="repoitem"
				path="/form[@title~'^Madaket\ Health\ -\ Internet']/element[@class='FrameTab Cover']"
				itempath="element[@class='FrameTab Cover']"
				fullname="madaket_XP001Repository.MadaketHealthInternetExplorer.FrameTabCover"
				id="55c5a14c78ea426497e123add1ec69bd"
				timeout="60000"
				codefile="c:\Users\JohnPloumis\Documents\Ranorex\RanorexStudio Projects\ranorex_testautomation\madaket_XP001\New_Excel_Template.cs"
				codeline="135"
				itemindex="18"
				loglvl="Info">
			</metainfo>
		</item>
		<item
			timeRelativeToTestSuiteStartTime="02:01.366"
			timeRelativeToTestModuleStartTime="02:01.368"
			timeWallClock="14:25:24"
			time="02:01.366"
			level="Error"
			category="Module"
			errimg=".\New_Exce_4fb172bd_72c06e55_trace.jpg"
			errthumb=".\New_Exce_4fb172bd_72c06e55_trace_thumb.jpg">
			<message>
				Failed to find item 'madaket_XP001Repository.MadaketHealthInternetExplorer.FrameTabCover'.<br/>No element found for path '/form[@title~'^Madaket\ Health\ -\ Internet']/element[@class='FrameTab Cover']' within 1m.
			</message>
			<metainfo
				stacktrace="   at Ranorex.Core.Repository.RepoItemInfo.FindInternal[T](Boolean findSingle, Boolean throwException, Duration effectiveTimeoutOverride)&#13;&#10;   at Ranorex.Core.Repository.RepoItemInfo.&lt;>c__DisplayClass75_0`1.&lt;Find>b__0()&#13;&#10;   at Ranorex.Core.Testing.Services.NoMaintenanceModeService.HandleElementNotFound[T](Func`1 action, RepoItemInfo entry)&#13;&#10;   at Ranorex.Core.Repository.RepoItemInfo.Find[T](Boolean findSingle, Boolean throwException, Duration effectiveTimeoutOverride)&#13;&#10;   at Ranorex.Core.Repository.RepoItemInfo.CreateAdapter[T](Boolean throwException, Duration waitTimeout)&#13;&#10;   at Ranorex.Core.Repository.RepoItemInfo.CreateAdapter[T](Boolean throwException)&#13;&#10;   at madaket_XP001.madaket_XP001RepositoryFolders.MadaketHealthInternetExplorerAppFolder.get_FrameTabCover() in c:\Users\JohnPloumis\Documents\Ranorex\RanorexStudio Projects\ranorex_testautomation\madaket_XP001\madaket_XP001Repository.cs:line 6001&#13;&#10;   at madaket_XP001.New_Excel_Template.Ranorex.Core.Testing.ITestModule.Run() in c:\Users\JohnPloumis\Documents\Ranorex\RanorexStudio Projects\ranorex_testautomation\madaket_XP001\New_Excel_Template.cs:line 136&#13;&#10;   at Ranorex.Core.Testing.TestModuleLeaf.RunInternal(DataContext parentDataContext, Int32 iteration, Int32 iterationCount, Boolean skipIteration)"
				codefile="c:\Users\JohnPloumis\Documents\Ranorex\RanorexStudio Projects\ranorex_testautomation\madaket_XP001\New_Excel_Template.cs"
				codeline="136"
				type="repoitem"
				path="/form[@title~'^Madaket\ Health\ -\ Internet']/element[@class='FrameTab Cover']"
				itempath="element[@class='FrameTab Cover']"
				fullname="madaket_XP001Repository.MadaketHealthInternetExplorer.FrameTabCover"
				id="55c5a14c78ea426497e123add1ec69bd"
				timeout="60000"
				loglvl="Error"
				itemindex="18">
			</metainfo>
		</item>
	</activity>
</report>
