﻿<?xml version="1.0" encoding="utf-8"?>
<report
	progress="">
	<activity
		result="Failed"
		duration="0ms"
		durationms="0"
		type="root"
		rid="26dc2394444e12ec"
		totalerrorcount="1"
		totalwarningcount="0"
		totalsuccesstestcasecount="0"
		totalfailedtestcasecount="0"
		totalblockedtestcasecount="0"
		childsuccesscount="0"
		childfailedcount="0"
		childblockedcount="0"
		totalsuccesscount="0"
		totalfailedcount="0"
		totalblockedcount="0"
		totalmaintenancemodecount="0"
		user="JohnPloumis"
		rxversion="8.3.1.0"
		host="LAPTOP-5EO8DNU1"
		osversion="Windows 10 64bit"
		runtimeversion="4.0.30319.42000"
		procarch="32bit"
		oslanguage="en-US"
		dtnlanguage="en-US"
		screenresolution="1366x768"
		timestamp="12/4/2018 5:59:43 PM"
		timestampiso="2018-12-04T22:59:43"
		endtime="12/4/2018 6:01:25 PM"
		timeoutfactor="1"
		module="New_Excel_Template">
		<detail>
			New_Excel_Template
		</detail>
		<errormessage>
			Failed to find item 'madaket_XP001Repository.ChooseFileToUpload.Text1148'.
		</errormessage>
		<varbindings>
		</varbindings>
		<item
			timeRelativeToTestSuiteStartTime="00:09.585"
			timeRelativeToTestModuleStartTime="00:09.587"
			timeWallClock="17:59:53"
			time="00:09.585"
			level="Info"
			category="Mouse">
			<message>
				Mouse Left Click item 'NewGroupAddress.DivTagPackages' at 19;13.
			</message>
			<metainfo
				type="repoitem"
				path="/dom[@domain='edi-alpha.madakethealth.com']//nav[#'mainNav']/ul//div[@innertext='Packages']"
				itempath=".//nav[#'mainNav']/ul//div[@innertext='Packages']"
				fullname="madaket_XP001Repository.NewGroupAddress.DivTagPackages"
				id="124d79ad789744ccbe353ba706f5de49"
				timeout="60000"
				codefile="c:\Users\JohnPloumis\Documents\Ranorex\RanorexStudio Projects\ranorex_testautomation\madaket_XP001\New_Excel_Template.cs"
				codeline="82"
				itemindex="0"
				loglvl="Info">
			</metainfo>
		</item>
		<item
			timeRelativeToTestSuiteStartTime="00:15.055"
			timeRelativeToTestModuleStartTime="00:15.057"
			timeWallClock="17:59:58"
			time="00:15.055"
			level="Info"
			category="Mouse">
			<message>
				Mouse Left Click item 'NewGroupAddress.ExcelFormTemplates' at 42;15.
			</message>
			<metainfo
				type="repoitem"
				path="/dom[@domain='edi-alpha.madakethealth.com']//ul[#'packageNameNav']/?/?/a[@innertext='Excel Form Templates']"
				itempath=".//ul[#'packageNameNav']/?/?/a[@innertext='Excel Form Templates']"
				fullname="madaket_XP001Repository.NewGroupAddress.ExcelFormTemplates"
				id="7aa8e2be4076499eb9311f0291c7e5cf"
				timeout="60000"
				codefile="c:\Users\JohnPloumis\Documents\Ranorex\RanorexStudio Projects\ranorex_testautomation\madaket_XP001\New_Excel_Template.cs"
				codeline="85"
				itemindex="1"
				loglvl="Info">
			</metainfo>
		</item>
		<item
			timeRelativeToTestSuiteStartTime="00:18.705"
			timeRelativeToTestModuleStartTime="00:18.707"
			timeWallClock="18:00:02"
			time="00:18.705"
			level="Info"
			category="Mouse">
			<message>
				Mouse Left Click item 'NewGroupAddress.AddExcelForm' at 38;5.
			</message>
			<metainfo
				type="repoitem"
				path="/dom[@domain='edi-alpha.madakethealth.com']//a[#'addExcelForm']"
				itempath=".//a[#'addExcelForm']"
				fullname="madaket_XP001Repository.NewGroupAddress.AddExcelForm"
				id="4b533e7e84d04ace9d4051c9174f4729"
				timeout="60000"
				codefile="c:\Users\JohnPloumis\Documents\Ranorex\RanorexStudio Projects\ranorex_testautomation\madaket_XP001\New_Excel_Template.cs"
				codeline="88"
				itemindex="2"
				loglvl="Info">
			</metainfo>
		</item>
		<item
			timeRelativeToTestSuiteStartTime="00:24.920"
			timeRelativeToTestModuleStartTime="00:24.922"
			timeWallClock="18:00:08"
			time="00:24.920"
			level="Info"
			category="Delay">
			<message>
				Waiting for 2.5s.
			</message>
			<metainfo
				itemindex="3"
				codefile="c:\Users\JohnPloumis\Documents\Ranorex\RanorexStudio Projects\ranorex_testautomation\madaket_XP001\New_Excel_Template.cs"
				codeline="91"
				loglvl="Info">
			</metainfo>
		</item>
		<item
			timeRelativeToTestSuiteStartTime="00:27.453"
			timeRelativeToTestModuleStartTime="00:27.455"
			timeWallClock="18:00:11"
			time="00:27.453"
			level="Info"
			category="Set value">
			<message>
				Setting attribute Value to 'test_automation' on item 'NewGroupAddress.PayerName'.
			</message>
			<metainfo
				type="repoitem"
				path="/dom[@domain='edi-alpha.madakethealth.com']//input[#'payerName']"
				itempath=".//input[#'payerName']"
				fullname="madaket_XP001Repository.NewGroupAddress.PayerName"
				id="a767467f25994632b1b87222682703fa"
				timeout="60000"
				codefile="c:\Users\JohnPloumis\Documents\Ranorex\RanorexStudio Projects\ranorex_testautomation\madaket_XP001\New_Excel_Template.cs"
				codeline="94"
				itemindex="4"
				loglvl="Info">
			</metainfo>
		</item>
		<item
			timeRelativeToTestSuiteStartTime="00:28.288"
			timeRelativeToTestModuleStartTime="00:28.290"
			timeWallClock="18:00:12"
			time="00:28.288"
			level="Info"
			category="Delay">
			<message>
				Waiting for 2.5s.
			</message>
			<metainfo
				itemindex="5"
				codefile="c:\Users\JohnPloumis\Documents\Ranorex\RanorexStudio Projects\ranorex_testautomation\madaket_XP001\New_Excel_Template.cs"
				codeline="97"
				loglvl="Info">
			</metainfo>
		</item>
		<item
			timeRelativeToTestSuiteStartTime="00:30.816"
			timeRelativeToTestModuleStartTime="00:30.818"
			timeWallClock="18:00:14"
			time="00:30.816"
			level="Info"
			category="Set value">
			<message>
				Setting attribute Value to 'Test_automation_FileName' on item 'NewGroupAddress.FileName'.
			</message>
			<metainfo
				type="repoitem"
				path="/dom[@domain='edi-alpha.madakethealth.com']//input[#'fileName']"
				itempath=".//input[#'fileName']"
				fullname="madaket_XP001Repository.NewGroupAddress.FileName"
				id="c5aa8c09d5a347dd824390528967c79d"
				timeout="60000"
				codefile="c:\Users\JohnPloumis\Documents\Ranorex\RanorexStudio Projects\ranorex_testautomation\madaket_XP001\New_Excel_Template.cs"
				codeline="100"
				itemindex="6"
				loglvl="Info">
			</metainfo>
		</item>
		<item
			timeRelativeToTestSuiteStartTime="00:31.618"
			timeRelativeToTestModuleStartTime="00:31.620"
			timeWallClock="18:00:15"
			time="00:31.618"
			level="Info"
			category="Delay">
			<message>
				Waiting for 2.5s.
			</message>
			<metainfo
				itemindex="7"
				codefile="c:\Users\JohnPloumis\Documents\Ranorex\RanorexStudio Projects\ranorex_testautomation\madaket_XP001\New_Excel_Template.cs"
				codeline="103"
				loglvl="Info">
			</metainfo>
		</item>
		<item
			timeRelativeToTestSuiteStartTime="00:34.146"
			timeRelativeToTestModuleStartTime="00:34.148"
			timeWallClock="18:00:17"
			time="00:34.146"
			level="Info"
			category="Mouse">
			<message>
				Mouse Left Click item 'NewGroupAddress.SelectedFileName' at 20;3.
			</message>
			<metainfo
				type="repoitem"
				path="/dom[@domain='edi-alpha.madakethealth.com']//span[#'selectedFileName']"
				itempath=".//span[#'selectedFileName']"
				fullname="madaket_XP001Repository.NewGroupAddress.SelectedFileName"
				id="0822b18288724a0f9132736aabd6f12a"
				timeout="60000"
				codefile="c:\Users\JohnPloumis\Documents\Ranorex\RanorexStudio Projects\ranorex_testautomation\madaket_XP001\New_Excel_Template.cs"
				codeline="106"
				itemindex="8"
				loglvl="Info">
			</metainfo>
		</item>
		<item
			timeRelativeToTestSuiteStartTime="00:36.306"
			timeRelativeToTestModuleStartTime="00:36.308"
			timeWallClock="18:00:20"
			time="00:36.306"
			level="Info"
			category="Delay">
			<message>
				Waiting for 3.5s.
			</message>
			<metainfo
				itemindex="9"
				codefile="c:\Users\JohnPloumis\Documents\Ranorex\RanorexStudio Projects\ranorex_testautomation\madaket_XP001\New_Excel_Template.cs"
				codeline="109"
				loglvl="Info">
			</metainfo>
		</item>
		<item
			timeRelativeToTestSuiteStartTime="00:39.856"
			timeRelativeToTestModuleStartTime="00:39.858"
			timeWallClock="18:00:23"
			time="00:39.856"
			level="Info"
			category="User"
			errimg=".\New_Exce_c4e400e9_77a8f9f0_trace.jpg"
			errthumb=".\New_Exce_c4e400e9_77a8f9f0_trace_thumb.jpg">
			<message>
				C:\Users\JohnPloumis\Documents\Ranorex\RanorexStudio Projects\ranorex_testautomation\madaket_XP001\TestData
			</message>
			<metainfo
				codefile="c:\Users\JohnPloumis\Documents\Ranorex\RanorexStudio Projects\ranorex_testautomation\madaket_XP001\Madaket_Globals.cs"
				codeline="62"
				loglvl="Info">
			</metainfo>
		</item>
		<item
			timeRelativeToTestSuiteStartTime="00:39.981"
			timeRelativeToTestModuleStartTime="00:39.983"
			timeWallClock="18:00:23"
			time="00:39.981"
			level="Info"
			category="Screenshot"
			errimg=".\New_Exce_5c6ead8f_rxlog.jpg"
			errthumb=".\New_Exce_5c6ead8f_rxlog_thumb.jpg">
			<message>
				
			</message>
			<metainfo
				codefile="c:\Users\JohnPloumis\Documents\Ranorex\RanorexStudio Projects\ranorex_testautomation\madaket_XP001\New_Excel_Template.UserCode.cs"
				codeline="42"
				loglvl="Info">
			</metainfo>
		</item>
		<item
			timeRelativeToTestSuiteStartTime="00:40.063"
			timeRelativeToTestModuleStartTime="00:40.065"
			timeWallClock="18:00:23"
			time="00:40.063"
			level="Info"
			category="Screenshot"
			errimg=".\New_Exce_ff16222a_rxlog.jpg"
			errthumb=".\New_Exce_ff16222a_rxlog_thumb.jpg">
			<message>
				
			</message>
			<metainfo
				codefile="c:\Users\JohnPloumis\Documents\Ranorex\RanorexStudio Projects\ranorex_testautomation\madaket_XP001\New_Excel_Template.UserCode.cs"
				codeline="44"
				loglvl="Info">
			</metainfo>
		</item>
		<item
			timeRelativeToTestSuiteStartTime="00:40.066"
			timeRelativeToTestModuleStartTime="00:40.068"
			timeWallClock="18:00:23"
			time="00:40.066"
			level="Info"
			category="Mouse"
			errimg=".\New_Exce_c4e400e9_2e7511c1_trace.jpg"
			errthumb=".\New_Exce_c4e400e9_2e7511c1_trace_thumb.jpg">
			<message>
				Mouse Left Click item 'ChooseFileToUpload.Text1148' at 65;6.
			</message>
			<metainfo
				type="repoitem"
				path="/form[@title='Choose File to Upload']/?/?/text[@controlid='1148']"
				itempath="?/?/text[@controlid='1148']"
				fullname="madaket_XP001Repository.ChooseFileToUpload.Text1148"
				id="6a7f179e42cf4e7eb3c4a6023d2aa0de"
				timeout="60000"
				codefile="c:\Users\JohnPloumis\Documents\Ranorex\RanorexStudio Projects\ranorex_testautomation\madaket_XP001\New_Excel_Template.UserCode.cs"
				codeline="45"
				itemindex="6"
				loglvl="Info">
			</metainfo>
		</item>
		<item
			timeRelativeToTestSuiteStartTime="01:41.243"
			timeRelativeToTestModuleStartTime="01:41.245"
			timeWallClock="18:01:25"
			time="01:41.243"
			level="Error"
			category="Module"
			errimg=".\New_Exce_c4e400e9_efc0f707_trace.jpg"
			errthumb=".\New_Exce_c4e400e9_efc0f707_trace_thumb.jpg">
			<message>
				Failed to find item 'madaket_XP001Repository.ChooseFileToUpload.Text1148'.<br/>No element found for path '/form[@title='Choose File to Upload']/?/?/text[@controlid='1148']' within 1m.
			</message>
			<metainfo
				stacktrace="   at Ranorex.Core.Repository.RepoItemInfo.FindInternal[T](Boolean findSingle, Boolean throwException, Duration effectiveTimeoutOverride)&#13;&#10;   at Ranorex.Core.Repository.RepoItemInfo.&lt;>c__DisplayClass75_0`1.&lt;Find>b__0()&#13;&#10;   at Ranorex.Core.Testing.Services.NoMaintenanceModeService.HandleElementNotFound[T](Func`1 action, RepoItemInfo entry)&#13;&#10;   at Ranorex.Core.Repository.RepoItemInfo.Find[T](Boolean findSingle, Boolean throwException, Duration effectiveTimeoutOverride)&#13;&#10;   at Ranorex.Core.Repository.RepoItemInfo.CreateAdapter[T](Boolean throwException, Duration waitTimeout)&#13;&#10;   at Ranorex.Core.Repository.RepoItemInfo.CreateAdapter[T](Boolean throwException)&#13;&#10;   at madaket_XP001.madaket_XP001RepositoryFolders.ChooseFileToUploadAppFolder.get_Text1148() in c:\Users\JohnPloumis\Documents\Ranorex\RanorexStudio Projects\ranorex_testautomation\madaket_XP001\madaket_XP001Repository.cs:line 11150&#13;&#10;   at madaket_XP001.New_Excel_Template.Fetch_TestFile_Excel() in c:\Users\JohnPloumis\Documents\Ranorex\RanorexStudio Projects\ranorex_testautomation\madaket_XP001\New_Excel_Template.UserCode.cs:line 46&#13;&#10;   at madaket_XP001.New_Excel_Template.Ranorex.Core.Testing.ITestModule.Run() in c:\Users\JohnPloumis\Documents\Ranorex\RanorexStudio Projects\ranorex_testautomation\madaket_XP001\New_Excel_Template.cs:line 112&#13;&#10;   at Ranorex.Core.Testing.TestModuleLeaf.RunInternal(DataContext parentDataContext, Int32 iteration, Int32 iterationCount, Boolean skipIteration)"
				codefile="c:\Users\JohnPloumis\Documents\Ranorex\RanorexStudio Projects\ranorex_testautomation\madaket_XP001\New_Excel_Template.UserCode.cs"
				codeline="46"
				type="repoitem"
				path="/form[@title='Choose File to Upload']/?/?/text[@controlid='1148']"
				itempath="?/?/text[@controlid='1148']"
				fullname="madaket_XP001Repository.ChooseFileToUpload.Text1148"
				id="6a7f179e42cf4e7eb3c4a6023d2aa0de"
				timeout="60000"
				loglvl="Error"
				itemindex="6">
			</metainfo>
		</item>
	</activity>
</report>
