﻿<?xml version="1.0" encoding="utf-8"?>
<report
	progress="">
	<activity
		result="Success"
		duration="0ms"
		durationms="0"
		type="root"
		rid="107746466f0866c8"
		totalerrorcount="0"
		totalwarningcount="0"
		totalsuccesstestcasecount="0"
		totalfailedtestcasecount="0"
		totalblockedtestcasecount="0"
		childsuccesscount="0"
		childfailedcount="0"
		childblockedcount="0"
		totalsuccesscount="0"
		totalfailedcount="0"
		totalblockedcount="0"
		totalmaintenancemodecount="0"
		user="JohnPloumis"
		rxversion="8.2.1.0"
		host="LAPTOP-5EO8DNU1"
		osversion="Windows 10 64bit"
		runtimeversion="4.0.30319.42000"
		procarch="32bit"
		oslanguage="en-US"
		dtnlanguage="en-US"
		screenresolution="1366x768"
		timestamp="10/15/2018 2:12:24 PM"
		timestampiso="2018-10-15T18:12:24"
		endtime="10/15/2018 2:12:29 PM"
		timeoutfactor="1"
		module="New_MedicalGroup_ValidData">
		<detail>
			New_MedicalGroup_ValidData
		</detail>
		<varbindings>
		</varbindings>
		<item
			timeRelativeToTestSuiteStartTime="00:01.890"
			timeRelativeToTestModuleStartTime="00:01.890"
			timeWallClock="14:12:25"
			time="00:01.890"
			level="Info"
			category="Mouse">
			<message>
				Mouse Left Down item 'MadaketHealth.TabIndex1' at 54;13.
			</message>
			<metainfo
				type="repoitem"
				path="/dom[@caption='Madaket Health']//button[#'tabIndex1']"
				itempath=".//button[#'tabIndex1']"
				fullname="madaket_XP001Repository.MadaketHealth.TabIndex1"
				id="bb35bdcee29f447cb19ad5c688b7e721"
				timeout="60000"
				codefile="c:\Users\JohnPloumis\Documents\Ranorex\RanorexStudio Projects\madaket_XP001\madaket_XP001\New_MedicalGroup_ValidData.cs"
				codeline="82"
				itemindex="33"
				loglvl="Info">
			</metainfo>
		</item>
		<item
			timeRelativeToTestSuiteStartTime="00:04.611"
			timeRelativeToTestModuleStartTime="00:04.611"
			timeWallClock="14:12:28"
			time="00:04.611"
			level="Info"
			category="Mouse">
			<message>
				Mouse Left Up item 'MadaketHealth.TabIndex1' at Center.
			</message>
			<metainfo
				type="repoitem"
				path="/dom[@caption='Madaket Health']//button[#'tabIndex1']"
				itempath=".//button[#'tabIndex1']"
				fullname="madaket_XP001Repository.MadaketHealth.TabIndex1"
				id="bb35bdcee29f447cb19ad5c688b7e721"
				timeout="60000"
				codefile="c:\Users\JohnPloumis\Documents\Ranorex\RanorexStudio Projects\madaket_XP001\madaket_XP001\New_MedicalGroup_ValidData.cs"
				codeline="86"
				itemindex="34"
				loglvl="Info">
			</metainfo>
		</item>
	</activity>
</report>
