﻿<?xml version="1.0" encoding="utf-8"?>
<report
	progress="">
	<activity
		result="Success"
		duration="0ms"
		durationms="0"
		type="root"
		rid="f59f3c848900912"
		totalerrorcount="0"
		totalwarningcount="0"
		totalsuccesstestcasecount="0"
		totalfailedtestcasecount="0"
		totalblockedtestcasecount="0"
		childsuccesscount="0"
		childfailedcount="0"
		childblockedcount="0"
		totalsuccesscount="0"
		totalfailedcount="0"
		totalblockedcount="0"
		totalmaintenancemodecount="0"
		user="JohnPloumis"
		rxversion="8.3.1.0"
		host="LAPTOP-5EO8DNU1"
		osversion="Windows 10 64bit"
		runtimeversion="4.0.30319.42000"
		procarch="32bit"
		oslanguage="en-US"
		dtnlanguage="en-US"
		screenresolution="1366x768"
		timestamp="12/7/2018 12:30:53 PM"
		timestampiso="2018-12-07T17:30:53"
		endtime="12/7/2018 12:31:38 PM"
		timeoutfactor="1"
		module="New_Payer_ValidData">
		<detail>
			New_Payer_ValidData
		</detail>
		<varbindings>
		</varbindings>
		<item
			timeRelativeToTestSuiteStartTime="00:04.590"
			timeRelativeToTestModuleStartTime="00:04.591"
			timeWallClock="12:30:57"
			time="00:04.590"
			level="Info"
			category="Delay">
			<message>
				Waiting for 500ms.
			</message>
			<metainfo
				itemindex="0"
				codefile="c:\Users\JohnPloumis\Documents\Ranorex\RanorexStudio Projects\ranorex_testautomation\madaket_XP001\New_Payer_ValidData.cs"
				codeline="82"
				loglvl="Info">
			</metainfo>
		</item>
		<item
			timeRelativeToTestSuiteStartTime="00:05.132"
			timeRelativeToTestModuleStartTime="00:05.133"
			timeWallClock="12:30:58"
			time="00:05.132"
			level="Info"
			category="Invoke action">
			<message>
				Invoking Focus() on item 'MadaketHealth.DivTagPayers'.
			</message>
			<metainfo
				type="repoitem"
				path="/dom[@domain='edi-alpha.madakethealth.com']//nav[#'mainNav']/ul//div[@innertext='Payers']"
				itempath=".//nav[#'mainNav']/ul//div[@innertext='Payers']"
				fullname="madaket_XP001Repository.MadaketHealth.DivTagPayers"
				id="29cc9e25aab349529ce160a3bd60a2f5"
				timeout="60000"
				codefile="c:\Users\JohnPloumis\Documents\Ranorex\RanorexStudio Projects\ranorex_testautomation\madaket_XP001\New_Payer_ValidData.cs"
				codeline="85"
				itemindex="1"
				loglvl="Info">
			</metainfo>
		</item>
		<item
			timeRelativeToTestSuiteStartTime="00:09.178"
			timeRelativeToTestModuleStartTime="00:09.179"
			timeWallClock="12:31:02"
			time="00:09.178"
			level="Info"
			category="Mouse">
			<message>
				Mouse Left Click item 'MadaketHealth.DivTagPayers' at 16;20.
			</message>
			<metainfo
				type="repoitem"
				path="/dom[@domain='edi-alpha.madakethealth.com']//nav[#'mainNav']/ul//div[@innertext='Payers']"
				itempath=".//nav[#'mainNav']/ul//div[@innertext='Payers']"
				fullname="madaket_XP001Repository.MadaketHealth.DivTagPayers"
				id="29cc9e25aab349529ce160a3bd60a2f5"
				timeout="60000"
				codefile="c:\Users\JohnPloumis\Documents\Ranorex\RanorexStudio Projects\ranorex_testautomation\madaket_XP001\New_Payer_ValidData.cs"
				codeline="88"
				itemindex="2"
				loglvl="Info">
			</metainfo>
		</item>
		<item
			timeRelativeToTestSuiteStartTime="00:11.323"
			timeRelativeToTestModuleStartTime="00:11.324"
			timeWallClock="12:31:04"
			time="00:11.323"
			level="Info"
			category="Invoke action">
			<message>
				Invoking Focus() on item 'MadaketHealth.linkNewPayer'.
			</message>
			<metainfo
				type="repoitem"
				path="/dom[@domain='edi-alpha.madakethealth.com']//a[#'payorClick']"
				itempath=".//a[#'payorClick']"
				fullname="madaket_XP001Repository.MadaketHealth.linkNewPayer"
				id="0e40999c158242618af66e1af1edf093"
				timeout="60000"
				codefile="c:\Users\JohnPloumis\Documents\Ranorex\RanorexStudio Projects\ranorex_testautomation\madaket_XP001\New_Payer_ValidData.cs"
				codeline="91"
				itemindex="3"
				loglvl="Info">
			</metainfo>
		</item>
		<item
			timeRelativeToTestSuiteStartTime="00:13.282"
			timeRelativeToTestModuleStartTime="00:13.283"
			timeWallClock="12:31:06"
			time="00:13.282"
			level="Info"
			category="Mouse">
			<message>
				Mouse Left Click item 'MadaketHealth.linkNewPayer' at 34;13.
			</message>
			<metainfo
				type="repoitem"
				path="/dom[@domain='edi-alpha.madakethealth.com']//a[#'payorClick']"
				itempath=".//a[#'payorClick']"
				fullname="madaket_XP001Repository.MadaketHealth.linkNewPayer"
				id="0e40999c158242618af66e1af1edf093"
				timeout="60000"
				codefile="c:\Users\JohnPloumis\Documents\Ranorex\RanorexStudio Projects\ranorex_testautomation\madaket_XP001\New_Payer_ValidData.cs"
				codeline="94"
				itemindex="4"
				loglvl="Info">
			</metainfo>
		</item>
		<item
			timeRelativeToTestSuiteStartTime="00:15.026"
			timeRelativeToTestModuleStartTime="00:15.027"
			timeWallClock="12:31:08"
			time="00:15.026"
			level="Info"
			category="Invoke action">
			<message>
				Invoking Focus() on item 'MadaketHealth.PayorName'.
			</message>
			<metainfo
				type="repoitem"
				path="/dom[@domain='edi-alpha.madakethealth.com']//input[#'payorName']"
				itempath=".//input[#'payorName']"
				fullname="madaket_XP001Repository.MadaketHealth.PayorName"
				id="c60f64d457204be3b0c571ec0261f3c7"
				timeout="60000"
				codefile="c:\Users\JohnPloumis\Documents\Ranorex\RanorexStudio Projects\ranorex_testautomation\madaket_XP001\New_Payer_ValidData.cs"
				codeline="97"
				itemindex="5"
				loglvl="Info">
			</metainfo>
		</item>
		<item
			timeRelativeToTestSuiteStartTime="00:15.963"
			timeRelativeToTestModuleStartTime="00:15.964"
			timeWallClock="12:31:09"
			time="00:15.963"
			level="Info"
			category="Mouse">
			<message>
				Mouse Left Click item 'MadaketHealth.PayorName' at Center.
			</message>
			<metainfo
				type="repoitem"
				path="/dom[@domain='edi-alpha.madakethealth.com']//input[#'payorName']"
				itempath=".//input[#'payorName']"
				fullname="madaket_XP001Repository.MadaketHealth.PayorName"
				id="c60f64d457204be3b0c571ec0261f3c7"
				timeout="60000"
				codefile="c:\Users\JohnPloumis\Documents\Ranorex\RanorexStudio Projects\ranorex_testautomation\madaket_XP001\New_Payer_ValidData.cs"
				codeline="100"
				itemindex="6"
				loglvl="Info">
			</metainfo>
		</item>
		<item
			timeRelativeToTestSuiteStartTime="00:17.888"
			timeRelativeToTestModuleStartTime="00:17.889"
			timeWallClock="12:31:11"
			time="00:17.888"
			level="Info"
			category="Set value">
			<message>
				Setting attribute Value to 'test_payer_automation_XP002' on item 'MadaketHealth.PayorName'.
			</message>
			<metainfo
				type="repoitem"
				path="/dom[@domain='edi-alpha.madakethealth.com']//input[#'payorName']"
				itempath=".//input[#'payorName']"
				fullname="madaket_XP001Repository.MadaketHealth.PayorName"
				id="c60f64d457204be3b0c571ec0261f3c7"
				timeout="60000"
				codefile="c:\Users\JohnPloumis\Documents\Ranorex\RanorexStudio Projects\ranorex_testautomation\madaket_XP001\New_Payer_ValidData.UserCode.cs"
				codeline="38"
				itemindex="3"
				loglvl="Info">
			</metainfo>
		</item>
		<item
			timeRelativeToTestSuiteStartTime="00:18.739"
			timeRelativeToTestModuleStartTime="00:18.740"
			timeWallClock="12:31:11"
			time="00:18.739"
			level="Info"
			category="Delay">
			<message>
				Waiting for 500ms.
			</message>
			<metainfo
				itemindex="8"
				codefile="c:\Users\JohnPloumis\Documents\Ranorex\RanorexStudio Projects\ranorex_testautomation\madaket_XP001\New_Payer_ValidData.cs"
				codeline="105"
				loglvl="Info">
			</metainfo>
		</item>
		<item
			timeRelativeToTestSuiteStartTime="00:19.272"
			timeRelativeToTestModuleStartTime="00:19.273"
			timeWallClock="12:31:12"
			time="00:19.272"
			level="Info"
			category="Invoke action">
			<message>
				Invoking Focus() on item 'MadaketHealth.PopupScrollContainer'.
			</message>
			<metainfo
				type="repoitem"
				path="/dom[@domain='edi-alpha.madakethealth.com']//div[#'editPayorPopup']/div[2]"
				itempath=".//div[#'editPayorPopup']/div[2]"
				fullname="madaket_XP001Repository.MadaketHealth.PopupScrollContainer"
				id="f53c44ed5bb14893839e2b7cdc4d3ef7"
				timeout="60000"
				codefile="c:\Users\JohnPloumis\Documents\Ranorex\RanorexStudio Projects\ranorex_testautomation\madaket_XP001\New_Payer_ValidData.cs"
				codeline="108"
				itemindex="9"
				loglvl="Info">
			</metainfo>
		</item>
		<item
			timeRelativeToTestSuiteStartTime="00:20.082"
			timeRelativeToTestModuleStartTime="00:20.083"
			timeWallClock="12:31:13"
			time="00:20.082"
			level="Info"
			category="Mouse">
			<message>
				Mouse Left Click item 'MadaketHealth.PopupScrollContainer' at LowerRight.
			</message>
			<metainfo
				type="repoitem"
				path="/dom[@domain='edi-alpha.madakethealth.com']//div[#'editPayorPopup']/div[2]"
				itempath=".//div[#'editPayorPopup']/div[2]"
				fullname="madaket_XP001Repository.MadaketHealth.PopupScrollContainer"
				id="f53c44ed5bb14893839e2b7cdc4d3ef7"
				timeout="60000"
				codefile="c:\Users\JohnPloumis\Documents\Ranorex\RanorexStudio Projects\ranorex_testautomation\madaket_XP001\New_Payer_ValidData.cs"
				codeline="111"
				itemindex="10"
				loglvl="Info">
			</metainfo>
		</item>
		<item
			timeRelativeToTestSuiteStartTime="00:21.755"
			timeRelativeToTestModuleStartTime="00:21.756"
			timeWallClock="12:31:14"
			time="00:21.755"
			level="Info"
			category="Set value">
			<message>
				Setting attribute Value to '101 main street' on item 'MadaketHealth.TxtStreet1'.
			</message>
			<metainfo
				type="repoitem"
				path="/dom[@domain='edi-alpha.madakethealth.com']//input[#'txt_street1']"
				itempath=".//input[#'txt_street1']"
				fullname="madaket_XP001Repository.MadaketHealth.TxtStreet1"
				id="140f920df0e2418ca6177c3fcaa08df8"
				timeout="60000"
				codefile="c:\Users\JohnPloumis\Documents\Ranorex\RanorexStudio Projects\ranorex_testautomation\madaket_XP001\New_Payer_ValidData.cs"
				codeline="114"
				itemindex="11"
				loglvl="Info">
			</metainfo>
		</item>
		<item
			timeRelativeToTestSuiteStartTime="00:22.486"
			timeRelativeToTestModuleStartTime="00:22.487"
			timeWallClock="12:31:15"
			time="00:22.486"
			level="Info"
			category="Mouse">
			<message>
				Mouse Left Click item 'MadaketHealth.TxtCity' at 130;7.
			</message>
			<metainfo
				type="repoitem"
				path="/dom[@domain='edi-alpha.madakethealth.com']//input[#'txt_city']"
				itempath=".//input[#'txt_city']"
				fullname="madaket_XP001Repository.MadaketHealth.TxtCity"
				id="275ef8ae16904ae689a4001c02a10d08"
				timeout="60000"
				codefile="c:\Users\JohnPloumis\Documents\Ranorex\RanorexStudio Projects\ranorex_testautomation\madaket_XP001\New_Payer_ValidData.cs"
				codeline="117"
				itemindex="12"
				loglvl="Info">
			</metainfo>
		</item>
		<item
			timeRelativeToTestSuiteStartTime="00:24.436"
			timeRelativeToTestModuleStartTime="00:24.437"
			timeWallClock="12:31:17"
			time="00:24.436"
			level="Info"
			category="Set value">
			<message>
				Setting attribute Value to 'Boston' on item 'MadaketHealth.TxtCity'.
			</message>
			<metainfo
				type="repoitem"
				path="/dom[@domain='edi-alpha.madakethealth.com']//input[#'txt_city']"
				itempath=".//input[#'txt_city']"
				fullname="madaket_XP001Repository.MadaketHealth.TxtCity"
				id="275ef8ae16904ae689a4001c02a10d08"
				timeout="60000"
				codefile="c:\Users\JohnPloumis\Documents\Ranorex\RanorexStudio Projects\ranorex_testautomation\madaket_XP001\New_Payer_ValidData.cs"
				codeline="120"
				itemindex="13"
				loglvl="Info">
			</metainfo>
		</item>
		<item
			timeRelativeToTestSuiteStartTime="00:25.151"
			timeRelativeToTestModuleStartTime="00:25.152"
			timeWallClock="12:31:18"
			time="00:25.151"
			level="Info"
			category="Set value">
			<message>
				Setting attribute TagValue to 'MA' on item 'MadaketHealth.TxtState'.
			</message>
			<metainfo
				type="repoitem"
				path="/dom[@domain='edi-alpha.madakethealth.com']//select[#'txt_state']"
				itempath=".//select[#'txt_state']"
				fullname="madaket_XP001Repository.MadaketHealth.TxtState"
				id="ebe2033877a44d918170bb47fee05430"
				timeout="60000"
				codefile="c:\Users\JohnPloumis\Documents\Ranorex\RanorexStudio Projects\ranorex_testautomation\madaket_XP001\New_Payer_ValidData.cs"
				codeline="123"
				itemindex="14"
				loglvl="Info">
			</metainfo>
		</item>
		<item
			timeRelativeToTestSuiteStartTime="00:25.857"
			timeRelativeToTestModuleStartTime="00:25.858"
			timeWallClock="12:31:19"
			time="00:25.857"
			level="Info"
			category="Mouse">
			<message>
				Mouse Left Click item 'MadaketHealth.PopupScrollContainer' at LowerRight.
			</message>
			<metainfo
				type="repoitem"
				path="/dom[@domain='edi-alpha.madakethealth.com']//div[#'editPayorPopup']/div[2]"
				itempath=".//div[#'editPayorPopup']/div[2]"
				fullname="madaket_XP001Repository.MadaketHealth.PopupScrollContainer"
				id="f53c44ed5bb14893839e2b7cdc4d3ef7"
				timeout="60000"
				codefile="c:\Users\JohnPloumis\Documents\Ranorex\RanorexStudio Projects\ranorex_testautomation\madaket_XP001\New_Payer_ValidData.cs"
				codeline="126"
				itemindex="15"
				loglvl="Info">
			</metainfo>
		</item>
		<item
			timeRelativeToTestSuiteStartTime="00:27.505"
			timeRelativeToTestModuleStartTime="00:27.506"
			timeWallClock="12:31:20"
			time="00:27.505"
			level="Info"
			category="Mouse">
			<message>
				Mouse Left Click item 'MadaketHealth.FirstName' at 146;8.
			</message>
			<metainfo
				type="repoitem"
				path="/dom[@domain='edi-alpha.madakethealth.com']//input[#'firstName']"
				itempath=".//input[#'firstName']"
				fullname="madaket_XP001Repository.MadaketHealth.FirstName"
				id="d3da3f164ae640b5b1e62605679d50af"
				timeout="60000"
				codefile="c:\Users\JohnPloumis\Documents\Ranorex\RanorexStudio Projects\ranorex_testautomation\madaket_XP001\New_Payer_ValidData.cs"
				codeline="129"
				itemindex="16"
				loglvl="Info">
			</metainfo>
		</item>
		<item
			timeRelativeToTestSuiteStartTime="00:29.340"
			timeRelativeToTestModuleStartTime="00:29.341"
			timeWallClock="12:31:22"
			time="00:29.340"
			level="Info"
			category="Keyboard">
			<message>
				Key sequence 'test{Tab}payer' with focus on 'MadaketHealth.FirstName'.
			</message>
			<metainfo
				type="repoitem"
				path="/dom[@domain='edi-alpha.madakethealth.com']//input[#'firstName']"
				itempath=".//input[#'firstName']"
				fullname="madaket_XP001Repository.MadaketHealth.FirstName"
				id="d3da3f164ae640b5b1e62605679d50af"
				timeout="60000"
				codefile="c:\Users\JohnPloumis\Documents\Ranorex\RanorexStudio Projects\ranorex_testautomation\madaket_XP001\New_Payer_ValidData.cs"
				codeline="132"
				itemindex="17"
				loglvl="Info">
			</metainfo>
		</item>
		<item
			timeRelativeToTestSuiteStartTime="00:31.371"
			timeRelativeToTestModuleStartTime="00:31.372"
			timeWallClock="12:31:24"
			time="00:31.371"
			level="Info"
			category="Keyboard">
			<message>
				Key sequence '{Tab}'.
			</message>
			<metainfo
				itemindex="18"
				codefile="c:\Users\JohnPloumis\Documents\Ranorex\RanorexStudio Projects\ranorex_testautomation\madaket_XP001\New_Payer_ValidData.cs"
				codeline="135"
				loglvl="Info">
			</metainfo>
		</item>
		<item
			timeRelativeToTestSuiteStartTime="00:31.508"
			timeRelativeToTestModuleStartTime="00:31.509"
			timeWallClock="12:31:24"
			time="00:31.508"
			level="Info"
			category="Keyboard">
			<message>
				Key sequence 'test.payer{LShiftKey down}{@ down}{LShiftKey up}payer.com'.
			</message>
			<metainfo
				itemindex="19"
				codefile="c:\Users\JohnPloumis\Documents\Ranorex\RanorexStudio Projects\ranorex_testautomation\madaket_XP001\New_Payer_ValidData.cs"
				codeline="138"
				loglvl="Info">
			</metainfo>
		</item>
		<item
			timeRelativeToTestSuiteStartTime="00:32.102"
			timeRelativeToTestModuleStartTime="00:32.103"
			timeWallClock="12:31:25"
			time="00:32.102"
			level="Info"
			category="Mouse">
			<message>
				Mouse Left Click item 'MadaketHealth.btnSavePayor' at 50;9.
			</message>
			<metainfo
				type="repoitem"
				path="/dom[@domain='edi-alpha.madakethealth.com']//button[#'savePayorButton']"
				itempath=".//button[#'savePayorButton']"
				fullname="madaket_XP001Repository.MadaketHealth.btnSavePayor"
				id="ab96c6bd2749404d82d6f94d5830ab20"
				timeout="60000"
				codefile="c:\Users\JohnPloumis\Documents\Ranorex\RanorexStudio Projects\ranorex_testautomation\madaket_XP001\New_Payer_ValidData.cs"
				codeline="141"
				itemindex="20"
				loglvl="Info">
			</metainfo>
		</item>
		<item
			timeRelativeToTestSuiteStartTime="00:33.770"
			timeRelativeToTestModuleStartTime="00:33.771"
			timeWallClock="12:31:26"
			time="00:33.770"
			level="Info"
			category="Mouse">
			<message>
				Mouse Left Click item 'MadaketHealth.PayerGeneralDetailsDiv.DivTagTestPayerAutomationXP0' at 96;9.
			</message>
			<metainfo
				type="repoitem"
				path="/dom[@domain='edi-alpha.madakethealth.com']//div[#'payerGeneralDetailsDiv']//div[@innertext~'^test_payer_autom']"
				itempath=".//div[@innertext~'^test_payer_autom']"
				fullname="madaket_XP001Repository.MadaketHealth.PayerGeneralDetailsDiv.DivTagTestPayerAutomationXP0"
				id="0e44183f677548639bb83854085d8ec1"
				timeout="90000"
				codefile="c:\Users\JohnPloumis\Documents\Ranorex\RanorexStudio Projects\ranorex_testautomation\madaket_XP001\New_Payer_ValidData.cs"
				codeline="144"
				itemindex="21"
				loglvl="Info">
			</metainfo>
		</item>
		<item
			timeRelativeToTestSuiteStartTime="00:36.785"
			timeRelativeToTestModuleStartTime="00:36.786"
			timeWallClock="12:31:30"
			time="00:36.785"
			level="Info"
			category="Mouse">
			<message>
				Mouse Left Click item 'MadaketHealth.PayerGeneralDetailsDiv.PayerName' at Center.
			</message>
			<metainfo
				type="repoitem"
				path="/dom[@domain='edi-alpha.madakethealth.com']//div[#'payerGeneralDetailsDiv']/div[2]/div[1]/?/?/strong[@innertext='Payer name:']"
				itempath="div[2]/div[1]/?/?/strong[@innertext='Payer name:']"
				fullname="madaket_XP001Repository.MadaketHealth.PayerGeneralDetailsDiv.PayerName"
				id="761d8abaef054dda9ba0c9e8b5cb4084"
				timeout="90000"
				codefile="c:\Users\JohnPloumis\Documents\Ranorex\RanorexStudio Projects\ranorex_testautomation\madaket_XP001\New_Payer_ValidData.cs"
				codeline="147"
				itemindex="22"
				loglvl="Info">
			</metainfo>
		</item>
		<item
			timeRelativeToTestSuiteStartTime="00:38.502"
			timeRelativeToTestModuleStartTime="00:38.503"
			timeWallClock="12:31:31"
			time="00:38.502"
			level="Info"
			category="Mouse">
			<message>
				Mouse Left Click item 'MadaketHealth.PayerGeneralDetailsDiv.Address' at Center.
			</message>
			<metainfo
				type="repoitem"
				path="/dom[@domain='edi-alpha.madakethealth.com']//div[#'payerGeneralDetailsDiv']/div[2]/div[7]/?/?/span[@innertext='Address:']"
				itempath="div[2]/div[7]/?/?/span[@innertext='Address:']"
				fullname="madaket_XP001Repository.MadaketHealth.PayerGeneralDetailsDiv.Address"
				id="14645446fd584bf2a276b1938a1712e1"
				timeout="90000"
				codefile="c:\Users\JohnPloumis\Documents\Ranorex\RanorexStudio Projects\ranorex_testautomation\madaket_XP001\New_Payer_ValidData.cs"
				codeline="150"
				itemindex="23"
				loglvl="Info">
			</metainfo>
		</item>
		<item
			timeRelativeToTestSuiteStartTime="00:40.168"
			timeRelativeToTestModuleStartTime="00:40.169"
			timeWallClock="12:31:33"
			time="00:40.168"
			level="Info"
			category="Mouse">
			<message>
				Mouse Left Click item 'MadaketHealth.PayerGeneralDetailsDiv.DivTag101MainStreetW' at 35;17.
			</message>
			<metainfo
				type="repoitem"
				path="/dom[@domain='edi-alpha.madakethealth.com']//div[#'payerGeneralDetailsDiv']//div[@innertext~'^101\ main\ street']"
				itempath=".//div[@innertext~'^101\ main\ street']"
				fullname="madaket_XP001Repository.MadaketHealth.PayerGeneralDetailsDiv.DivTag101MainStreetW"
				id="6c7e3dd9a6004299ba43a1310c11a174"
				timeout="90000"
				codefile="c:\Users\JohnPloumis\Documents\Ranorex\RanorexStudio Projects\ranorex_testautomation\madaket_XP001\New_Payer_ValidData.cs"
				codeline="153"
				itemindex="24"
				loglvl="Info">
			</metainfo>
		</item>
		<item
			timeRelativeToTestSuiteStartTime="00:41.969"
			timeRelativeToTestModuleStartTime="00:41.970"
			timeWallClock="12:31:35"
			time="00:41.969"
			level="Info"
			category="Mouse">
			<message>
				Mouse Left Click item 'MadaketHealth.PayerGeneralDetailsDiv.Contact' at 32;5.
			</message>
			<metainfo
				type="repoitem"
				path="/dom[@domain='edi-alpha.madakethealth.com']//div[#'payerGeneralDetailsDiv']/div[2]/div[8]/?/?/span[@innertext='Contact:']"
				itempath="div[2]/div[8]/?/?/span[@innertext='Contact:']"
				fullname="madaket_XP001Repository.MadaketHealth.PayerGeneralDetailsDiv.Contact"
				id="f417a5fe94464a708c34508abc60a181"
				timeout="90000"
				codefile="c:\Users\JohnPloumis\Documents\Ranorex\RanorexStudio Projects\ranorex_testautomation\madaket_XP001\New_Payer_ValidData.cs"
				codeline="156"
				itemindex="25"
				loglvl="Info">
			</metainfo>
		</item>
		<item
			timeRelativeToTestSuiteStartTime="00:43.601"
			timeRelativeToTestModuleStartTime="00:43.602"
			timeWallClock="12:31:36"
			time="00:43.601"
			level="Info"
			category="Mouse">
			<message>
				Mouse Left Click item 'MadaketHealth.PayerGeneralDetailsDiv.DivTagTestPayerAtpayerCom' at 59;6.
			</message>
			<metainfo
				type="repoitem"
				path="/dom[@domain='edi-alpha.madakethealth.com']//div[#'payerGeneralDetailsDiv']//div[@innertext~'^test\.payer@payer']"
				itempath=".//div[@innertext~'^test\.payer@payer']"
				fullname="madaket_XP001Repository.MadaketHealth.PayerGeneralDetailsDiv.DivTagTestPayerAtpayerCom"
				id="54203ec5caae40ada0580344cddf82e5"
				timeout="90000"
				codefile="c:\Users\JohnPloumis\Documents\Ranorex\RanorexStudio Projects\ranorex_testautomation\madaket_XP001\New_Payer_ValidData.cs"
				codeline="159"
				itemindex="26"
				loglvl="Info">
			</metainfo>
		</item>
	</activity>
</report>
