﻿<?xml version="1.0" encoding="utf-8"?>
<report
	progress="">
	<activity
		result="Failed"
		duration="26.56s"
		durationms="26563"
		type="root"
		rid="340448d4057914d4"
		totalerrorcount="1"
		totalwarningcount="0"
		totalsuccesstestcasecount="0"
		totalfailedtestcasecount="0"
		totalblockedtestcasecount="0"
		childsuccesscount="0"
		childfailedcount="0"
		childblockedcount="0"
		totalsuccesscount="0"
		totalfailedcount="0"
		totalblockedcount="0"
		totalmaintenancemodecount="0"
		user="JohnPloumis"
		rxversion="8.3.1.0"
		host="LAPTOP-5EO8DNU1"
		osversion="Windows 10 64bit"
		runtimeversion="4.0.30319.42000"
		procarch="32bit"
		oslanguage="en-US"
		dtnlanguage="en-US"
		screenresolution="1366x768"
		timestamp="11/28/2018 3:43:33 PM"
		timestampiso="2018-11-28T20:43:33"
		endtime="11/28/2018 3:43:59 PM"
		timeoutfactor="1"
		module="new_payer_5283">
		<detail>
			new_payer_5283
		</detail>
		<varbindings>
		</varbindings>
		<item
			timeRelativeToTestSuiteStartTime="00:05.647"
			timeRelativeToTestModuleStartTime="00:05.648"
			timeWallClock="15:43:38"
			time="00:05.647"
			level="Info"
			category="Mouse">
			<message>
				Mouse Left Click item 'MadaketHealth.DivTagPayers' at 16;20.
			</message>
			<metainfo
				type="repoitem"
				path="/dom[@domain='edi-alpha.madakethealth.com']//nav[#'mainNav']/ul//div[@innertext='Payers']"
				itempath=".//nav[#'mainNav']/ul//div[@innertext='Payers']"
				fullname="madaket_XP001Repository.MadaketHealth.DivTagPayers"
				id="29cc9e25aab349529ce160a3bd60a2f5"
				timeout="60000"
				codefile="c:\Users\JohnPloumis\Documents\Ranorex\RanorexStudio Projects\ranorex_testautomation\madaket_XP001\new_payer_5283.cs"
				codeline="82"
				itemindex="0"
				loglvl="Info">
			</metainfo>
		</item>
		<item
			timeRelativeToTestSuiteStartTime="00:26.563"
			timeRelativeToTestModuleStartTime="00:26.564"
			timeWallClock="15:43:59"
			time="00:26.563"
			level="Error"
			category="Module">
			<message>
				The test run has been aborted by the user.
			</message>
			<metainfo
				loglvl="Error">
			</metainfo>
		</item>
	</activity>
</report>
