﻿<?xml version="1.0" encoding="utf-8"?>
<report
	progress="">
	<activity
		result="Failed"
		duration="1.7m"
		durationms="101467"
		type="root"
		rid="1b6721d301fc23e4"
		totalerrorcount="1"
		totalwarningcount="2"
		totalsuccesstestcasecount="0"
		totalfailedtestcasecount="0"
		totalblockedtestcasecount="0"
		childsuccesscount="0"
		childfailedcount="0"
		childblockedcount="0"
		totalsuccesscount="0"
		totalfailedcount="0"
		totalblockedcount="0"
		totalmaintenancemodecount="0"
		user="johnc"
		rxversion="8.2.1.0"
		host="LAPTOP-0LK6SCE5"
		osversion="Windows 10 64bit"
		runtimeversion="4.0.30319.42000"
		procarch="32bit"
		oslanguage="en-US"
		dtnlanguage="en-US"
		screenresolution="1366x768"
		timestamp="10/2/2018 3:27:24 PM"
		timestampiso="2018-10-02T19:27:24"
		endtime="10/2/2018 3:29:06 PM"
		timeoutfactor="1"
		module="New_MedicalGroup_ValidData">
		<detail>
			New_MedicalGroup_ValidData
		</detail>
		<varbindings>
		</varbindings>
		<item
			timeRelativeToTestSuiteStartTime="00:01.352"
			timeRelativeToTestModuleStartTime="00:01.352"
			timeWallClock="15:27:26"
			time="00:01.352"
			level="Info"
			category="Mouse">
			<message>
				Mouse Left Click item 'MadaketHealth.DivTagMedicalGroups' at 68;20.
			</message>
			<metainfo
				type="repoitem"
				path="/dom[@caption='Madaket Health']//nav[#'mainNav']/ul//div[@innertext~'^Medical\ Groups']"
				itempath=".//nav[#'mainNav']/ul//div[@innertext~'^Medical\ Groups']"
				fullname="madaket_XP001Repository.MadaketHealth.DivTagMedicalGroups"
				id="b009e8773a4e4780a7cf8148c07c9d21"
				timeout="60000"
				codefile="c:\Users\johnc\OneDrive\Documents\Ranorex\RanorexStudio Projects\madaket_XP001\madaket_XP001\New_MedicalGroup_ValidData.cs"
				codeline="82"
				itemindex="0"
				loglvl="Info">
			</metainfo>
		</item>
		<item
			timeRelativeToTestSuiteStartTime="00:05.162"
			timeRelativeToTestModuleStartTime="00:05.162"
			timeWallClock="15:27:29"
			time="00:05.162"
			level="Info"
			category="Mouse">
			<message>
				Mouse Left Click item 'MadaketHealth.MedicalGroupClickNewFlow' at 58;6.
			</message>
			<metainfo
				type="repoitem"
				path="/dom[@caption='Madaket Health']//a[#'medicalGroupClickNewFlow']"
				itempath=".//a[#'medicalGroupClickNewFlow']"
				fullname="madaket_XP001Repository.MadaketHealth.MedicalGroupClickNewFlow"
				id="1f976bff0a704cffb4e06ee1e8772048"
				timeout="60000"
				codefile="c:\Users\johnc\OneDrive\Documents\Ranorex\RanorexStudio Projects\madaket_XP001\madaket_XP001\New_MedicalGroup_ValidData.cs"
				codeline="85"
				itemindex="1"
				loglvl="Info">
			</metainfo>
		</item>
		<item
			timeRelativeToTestSuiteStartTime="00:07.406"
			timeRelativeToTestModuleStartTime="00:07.406"
			timeWallClock="15:27:32"
			time="00:07.406"
			level="Info"
			category="Mouse">
			<message>
				Mouse Left Click item 'MadaketHealth.GroupName' at 169;18.
			</message>
			<metainfo
				type="repoitem"
				path="/dom[@caption='Madaket Health']//input[#'groupName']"
				itempath=".//input[#'groupName']"
				fullname="madaket_XP001Repository.MadaketHealth.GroupName"
				id="cbe7b5312e134eb1aaf6d6d6657062f4"
				timeout="60000"
				codefile="c:\Users\johnc\OneDrive\Documents\Ranorex\RanorexStudio Projects\madaket_XP001\madaket_XP001\New_MedicalGroup_ValidData.cs"
				codeline="88"
				itemindex="2"
				loglvl="Info">
			</metainfo>
		</item>
		<item
			timeRelativeToTestSuiteStartTime="00:30.992"
			timeRelativeToTestModuleStartTime="00:30.992"
			timeWallClock="15:27:55"
			time="00:30.992"
			level="Info"
			category="Keyboard">
			<message>
				Key sequence 'test{LShiftKey down}_{LShiftKey up}automation{LShiftKey down}_XP{LShiftKey up}001' with focus on 'MadaketHealth.GroupName'.
			</message>
			<metainfo
				type="repoitem"
				path="/dom[@caption='Madaket Health']//input[#'groupName']"
				itempath=".//input[#'groupName']"
				fullname="madaket_XP001Repository.MadaketHealth.GroupName"
				id="cbe7b5312e134eb1aaf6d6d6657062f4"
				timeout="60000"
				codefile="c:\Users\johnc\OneDrive\Documents\Ranorex\RanorexStudio Projects\madaket_XP001\madaket_XP001\New_MedicalGroup_ValidData.cs"
				codeline="91"
				itemindex="3"
				loglvl="Info">
			</metainfo>
		</item>
		<item
			timeRelativeToTestSuiteStartTime="00:32.428"
			timeRelativeToTestModuleStartTime="00:32.428"
			timeWallClock="15:27:57"
			time="00:32.428"
			level="Info"
			category="Mouse">
			<message>
				Mouse Left Click item 'MadaketHealth.SiteId' at 111;10.
			</message>
			<metainfo
				type="repoitem"
				path="/dom[@caption='Madaket Health']//input[#'siteId']"
				itempath=".//input[#'siteId']"
				fullname="madaket_XP001Repository.MadaketHealth.SiteId"
				id="d800e804633a43a49e0bf7abdcaae03d"
				timeout="60000"
				codefile="c:\Users\johnc\OneDrive\Documents\Ranorex\RanorexStudio Projects\madaket_XP001\madaket_XP001\New_MedicalGroup_ValidData.cs"
				codeline="94"
				itemindex="4"
				loglvl="Info">
			</metainfo>
		</item>
		<item
			timeRelativeToTestSuiteStartTime="00:33.208"
			timeRelativeToTestModuleStartTime="00:33.208"
			timeWallClock="15:27:58"
			time="00:33.208"
			level="Info"
			category="Keyboard">
			<message>
				Key sequence 'XP001' with focus on 'MadaketHealth.SiteId'.
			</message>
			<metainfo
				type="repoitem"
				path="/dom[@caption='Madaket Health']//input[#'siteId']"
				itempath=".//input[#'siteId']"
				fullname="madaket_XP001Repository.MadaketHealth.SiteId"
				id="d800e804633a43a49e0bf7abdcaae03d"
				timeout="60000"
				codefile="c:\Users\johnc\OneDrive\Documents\Ranorex\RanorexStudio Projects\madaket_XP001\madaket_XP001\New_MedicalGroup_ValidData.cs"
				codeline="97"
				itemindex="5"
				loglvl="Info">
			</metainfo>
		</item>
		<item
			timeRelativeToTestSuiteStartTime="00:34.074"
			timeRelativeToTestModuleStartTime="00:34.074"
			timeWallClock="15:27:58"
			time="00:34.074"
			level="Info"
			category="Mouse">
			<message>
				Mouse Left Click item 'MadaketHealth.InputTagTin' at 57;15.
			</message>
			<metainfo
				type="repoitem"
				path="/dom[@caption='Madaket Health']//input[#'tin']"
				itempath=".//input[#'tin']"
				fullname="madaket_XP001Repository.MadaketHealth.InputTagTin"
				id="6b2b2218334346e3bce93576672801f7"
				timeout="60000"
				codefile="c:\Users\johnc\OneDrive\Documents\Ranorex\RanorexStudio Projects\madaket_XP001\madaket_XP001\New_MedicalGroup_ValidData.cs"
				codeline="100"
				itemindex="6"
				loglvl="Info">
			</metainfo>
		</item>
		<item
			timeRelativeToTestSuiteStartTime="00:35.260"
			timeRelativeToTestModuleStartTime="00:35.260"
			timeWallClock="15:28:00"
			time="00:35.260"
			level="Info"
			category="Keyboard">
			<message>
				Key sequence '010101' with focus on 'MadaketHealth.InputTagTin'.
			</message>
			<metainfo
				type="repoitem"
				path="/dom[@caption='Madaket Health']//input[#'tin']"
				itempath=".//input[#'tin']"
				fullname="madaket_XP001Repository.MadaketHealth.InputTagTin"
				id="6b2b2218334346e3bce93576672801f7"
				timeout="60000"
				codefile="c:\Users\johnc\OneDrive\Documents\Ranorex\RanorexStudio Projects\madaket_XP001\madaket_XP001\New_MedicalGroup_ValidData.cs"
				codeline="103"
				itemindex="7"
				loglvl="Info">
			</metainfo>
		</item>
		<item
			timeRelativeToTestSuiteStartTime="00:36.640"
			timeRelativeToTestModuleStartTime="00:36.640"
			timeWallClock="15:28:01"
			time="00:36.640"
			level="Info"
			category="Mouse">
			<message>
				Mouse Left Click item 'MadaketHealth.PopupScrollContainer1' at 751;386.
			</message>
			<metainfo
				type="repoitem"
				path="/dom[@caption='Madaket Health']//div[#'addMedicalGroupPopupContainer']/div[3]"
				itempath=".//div[#'addMedicalGroupPopupContainer']/div[3]"
				fullname="madaket_XP001Repository.MadaketHealth.PopupScrollContainer1"
				id="4475c1ec0c3e4350840c3462d5408ab0"
				timeout="60000"
				codefile="c:\Users\johnc\OneDrive\Documents\Ranorex\RanorexStudio Projects\madaket_XP001\madaket_XP001\New_MedicalGroup_ValidData.cs"
				codeline="106"
				itemindex="8"
				loglvl="Info">
			</metainfo>
		</item>
		<item
			timeRelativeToTestSuiteStartTime="00:37.753"
			timeRelativeToTestModuleStartTime="00:37.753"
			timeWallClock="15:28:02"
			time="00:37.753"
			level="Info"
			category="Mouse">
			<message>
				Mouse Left Click item 'MadaketHealth.InputTagTin' at 111;10.
			</message>
			<metainfo
				type="repoitem"
				path="/dom[@caption='Madaket Health']//input[#'tin']"
				itempath=".//input[#'tin']"
				fullname="madaket_XP001Repository.MadaketHealth.InputTagTin"
				id="6b2b2218334346e3bce93576672801f7"
				timeout="60000"
				codefile="c:\Users\johnc\OneDrive\Documents\Ranorex\RanorexStudio Projects\madaket_XP001\madaket_XP001\New_MedicalGroup_ValidData.cs"
				codeline="109"
				itemindex="9"
				loglvl="Info">
			</metainfo>
		</item>
		<item
			timeRelativeToTestSuiteStartTime="00:38.636"
			timeRelativeToTestModuleStartTime="00:38.636"
			timeWallClock="15:28:03"
			time="00:38.636"
			level="Info"
			category="Keyboard">
			<message>
				Key sequence '897644112' with focus on 'MadaketHealth.InputTagTin'.
			</message>
			<metainfo
				type="repoitem"
				path="/dom[@caption='Madaket Health']//input[#'tin']"
				itempath=".//input[#'tin']"
				fullname="madaket_XP001Repository.MadaketHealth.InputTagTin"
				id="6b2b2218334346e3bce93576672801f7"
				timeout="60000"
				codefile="c:\Users\johnc\OneDrive\Documents\Ranorex\RanorexStudio Projects\madaket_XP001\madaket_XP001\New_MedicalGroup_ValidData.cs"
				codeline="112"
				itemindex="10"
				loglvl="Info">
			</metainfo>
		</item>
		<item
			timeRelativeToTestSuiteStartTime="00:39.741"
			timeRelativeToTestModuleStartTime="00:39.741"
			timeWallClock="15:28:04"
			time="00:39.741"
			level="Info"
			category="Mouse">
			<message>
				Mouse Left Click item 'MadaketHealth.PopupScrollContainer1' at 749;379.
			</message>
			<metainfo
				type="repoitem"
				path="/dom[@caption='Madaket Health']//div[#'addMedicalGroupPopupContainer']/div[3]"
				itempath=".//div[#'addMedicalGroupPopupContainer']/div[3]"
				fullname="madaket_XP001Repository.MadaketHealth.PopupScrollContainer1"
				id="4475c1ec0c3e4350840c3462d5408ab0"
				timeout="60000"
				codefile="c:\Users\johnc\OneDrive\Documents\Ranorex\RanorexStudio Projects\madaket_XP001\madaket_XP001\New_MedicalGroup_ValidData.cs"
				codeline="115"
				itemindex="11"
				loglvl="Info">
			</metainfo>
		</item>
		<item
			timeRelativeToTestSuiteStartTime="00:40.646"
			timeRelativeToTestModuleStartTime="00:40.646"
			timeWallClock="15:28:05"
			time="00:40.646"
			level="Info"
			category="Mouse">
			<message>
				Mouse Left Click item 'MadaketHealth.TabIndex0' at 47;11.
			</message>
			<metainfo
				type="repoitem"
				path="/dom[@caption='Madaket Health']//button[#'tabIndex0']"
				itempath=".//button[#'tabIndex0']"
				fullname="madaket_XP001Repository.MadaketHealth.TabIndex0"
				id="ede082c547ae4f43bf3d32d91be01dd8"
				timeout="60000"
				codefile="c:\Users\johnc\OneDrive\Documents\Ranorex\RanorexStudio Projects\madaket_XP001\madaket_XP001\New_MedicalGroup_ValidData.cs"
				codeline="118"
				itemindex="12"
				loglvl="Info">
			</metainfo>
		</item>
		<item
			timeRelativeToTestSuiteStartTime="00:41.542"
			timeRelativeToTestModuleStartTime="00:41.542"
			timeWallClock="15:28:06"
			time="00:41.542"
			level="Info"
			category="Mouse">
			<message>
				Mouse Left Click item 'MadaketHealth.SiteId' at 139;8.
			</message>
			<metainfo
				type="repoitem"
				path="/dom[@caption='Madaket Health']//input[#'siteId']"
				itempath=".//input[#'siteId']"
				fullname="madaket_XP001Repository.MadaketHealth.SiteId"
				id="d800e804633a43a49e0bf7abdcaae03d"
				timeout="60000"
				codefile="c:\Users\johnc\OneDrive\Documents\Ranorex\RanorexStudio Projects\madaket_XP001\madaket_XP001\New_MedicalGroup_ValidData.cs"
				codeline="121"
				itemindex="13"
				loglvl="Info">
			</metainfo>
		</item>
		<item
			timeRelativeToTestSuiteStartTime="00:42.130"
			timeRelativeToTestModuleStartTime="00:42.130"
			timeWallClock="15:28:06"
			time="00:42.130"
			level="Warn"
			category="Click">
			<message>
				The mouse action was performed outside the boundaries of the assigned UI element.<br/>(null)
			</message>
			<metainfo
				codefile="c:\Users\johnc\OneDrive\Documents\Ranorex\RanorexStudio Projects\madaket_XP001\madaket_XP001\New_MedicalGroup_ValidData.cs"
				codeline="122"
				loglvl="Warn">
			</metainfo>
		</item>
		<item
			timeRelativeToTestSuiteStartTime="00:42.589"
			timeRelativeToTestModuleStartTime="00:42.589"
			timeWallClock="15:28:07"
			time="00:42.589"
			level="Info"
			category="Keyboard">
			<message>
				Key sequence '010101' with focus on 'MadaketHealth.SiteId'.
			</message>
			<metainfo
				type="repoitem"
				path="/dom[@caption='Madaket Health']//input[#'siteId']"
				itempath=".//input[#'siteId']"
				fullname="madaket_XP001Repository.MadaketHealth.SiteId"
				id="d800e804633a43a49e0bf7abdcaae03d"
				timeout="60000"
				codefile="c:\Users\johnc\OneDrive\Documents\Ranorex\RanorexStudio Projects\madaket_XP001\madaket_XP001\New_MedicalGroup_ValidData.cs"
				codeline="124"
				itemindex="14"
				loglvl="Info">
			</metainfo>
		</item>
		<item
			timeRelativeToTestSuiteStartTime="00:43.482"
			timeRelativeToTestModuleStartTime="00:43.482"
			timeWallClock="15:28:08"
			time="00:43.482"
			level="Info"
			category="Mouse">
			<message>
				Mouse Left Click item 'MadaketHealth.TabIndex0' at 65;6.
			</message>
			<metainfo
				type="repoitem"
				path="/dom[@caption='Madaket Health']//button[#'tabIndex0']"
				itempath=".//button[#'tabIndex0']"
				fullname="madaket_XP001Repository.MadaketHealth.TabIndex0"
				id="ede082c547ae4f43bf3d32d91be01dd8"
				timeout="60000"
				codefile="c:\Users\johnc\OneDrive\Documents\Ranorex\RanorexStudio Projects\madaket_XP001\madaket_XP001\New_MedicalGroup_ValidData.cs"
				codeline="127"
				itemindex="15"
				loglvl="Info">
			</metainfo>
		</item>
		<item
			timeRelativeToTestSuiteStartTime="00:43.835"
			timeRelativeToTestModuleStartTime="00:43.835"
			timeWallClock="15:28:08"
			time="00:43.835"
			level="Warn"
			category="Click">
			<message>
				The mouse action was performed outside the boundaries of the assigned UI element.<br/>(null)
			</message>
			<metainfo
				codefile="c:\Users\johnc\OneDrive\Documents\Ranorex\RanorexStudio Projects\madaket_XP001\madaket_XP001\New_MedicalGroup_ValidData.cs"
				codeline="128"
				loglvl="Warn">
			</metainfo>
		</item>
		<item
			timeRelativeToTestSuiteStartTime="00:44.296"
			timeRelativeToTestModuleStartTime="00:44.296"
			timeWallClock="15:28:09"
			time="00:44.296"
			level="Info"
			category="Mouse">
			<message>
				Mouse Left Click item 'MadaketHealth.FirstName' at 128;12.
			</message>
			<metainfo
				type="repoitem"
				path="/dom[@caption='Madaket Health']//input[#'firstName']"
				itempath=".//input[#'firstName']"
				fullname="madaket_XP001Repository.MadaketHealth.FirstName"
				id="d3da3f164ae640b5b1e62605679d50af"
				timeout="60000"
				codefile="c:\Users\johnc\OneDrive\Documents\Ranorex\RanorexStudio Projects\madaket_XP001\madaket_XP001\New_MedicalGroup_ValidData.cs"
				codeline="130"
				itemindex="16"
				loglvl="Info">
			</metainfo>
		</item>
		<item
			timeRelativeToTestSuiteStartTime="00:45.151"
			timeRelativeToTestModuleStartTime="00:45.151"
			timeWallClock="15:28:09"
			time="00:45.151"
			level="Info"
			category="Keyboard">
			<message>
				Key sequence 'test{Tab down}' with focus on 'MadaketHealth.FirstName'.
			</message>
			<metainfo
				type="repoitem"
				path="/dom[@caption='Madaket Health']//input[#'firstName']"
				itempath=".//input[#'firstName']"
				fullname="madaket_XP001Repository.MadaketHealth.FirstName"
				id="d3da3f164ae640b5b1e62605679d50af"
				timeout="60000"
				codefile="c:\Users\johnc\OneDrive\Documents\Ranorex\RanorexStudio Projects\madaket_XP001\madaket_XP001\New_MedicalGroup_ValidData.cs"
				codeline="133"
				itemindex="17"
				loglvl="Info">
			</metainfo>
		</item>
		<item
			timeRelativeToTestSuiteStartTime="00:46.026"
			timeRelativeToTestModuleStartTime="00:46.026"
			timeWallClock="15:28:10"
			time="00:46.026"
			level="Info"
			category="Keyboard">
			<message>
				Key 'Tab' Up.
			</message>
			<metainfo
				itemindex="18"
				codefile="c:\Users\johnc\OneDrive\Documents\Ranorex\RanorexStudio Projects\madaket_XP001\madaket_XP001\New_MedicalGroup_ValidData.cs"
				codeline="136"
				loglvl="Info">
			</metainfo>
		</item>
		<item
			timeRelativeToTestSuiteStartTime="00:46.026"
			timeRelativeToTestModuleStartTime="00:46.026"
			timeWallClock="15:28:10"
			time="00:46.026"
			level="Info"
			category="Keyboard">
			<message>
				Key sequence 'automation'.
			</message>
			<metainfo
				itemindex="19"
				codefile="c:\Users\johnc\OneDrive\Documents\Ranorex\RanorexStudio Projects\madaket_XP001\madaket_XP001\New_MedicalGroup_ValidData.cs"
				codeline="139"
				loglvl="Info">
			</metainfo>
		</item>
		<item
			timeRelativeToTestSuiteStartTime="00:46.397"
			timeRelativeToTestModuleStartTime="00:46.397"
			timeWallClock="15:28:11"
			time="00:46.397"
			level="Info"
			category="Mouse">
			<message>
				Mouse Left Click item 'MadaketHealth.Title' at 156;8.
			</message>
			<metainfo
				type="repoitem"
				path="/dom[@caption='Madaket Health']//input[#'title']"
				itempath=".//input[#'title']"
				fullname="madaket_XP001Repository.MadaketHealth.Title"
				id="56842e9fbfcb49fa8de411082716611e"
				timeout="60000"
				codefile="c:\Users\johnc\OneDrive\Documents\Ranorex\RanorexStudio Projects\madaket_XP001\madaket_XP001\New_MedicalGroup_ValidData.cs"
				codeline="142"
				itemindex="20"
				loglvl="Info">
			</metainfo>
		</item>
		<item
			timeRelativeToTestSuiteStartTime="00:47.208"
			timeRelativeToTestModuleStartTime="00:47.208"
			timeWallClock="15:28:12"
			time="00:47.208"
			level="Info"
			category="Keyboard">
			<message>
				Key sequence 'quality' with focus on 'MadaketHealth.Title'.
			</message>
			<metainfo
				type="repoitem"
				path="/dom[@caption='Madaket Health']//input[#'title']"
				itempath=".//input[#'title']"
				fullname="madaket_XP001Repository.MadaketHealth.Title"
				id="56842e9fbfcb49fa8de411082716611e"
				timeout="60000"
				codefile="c:\Users\johnc\OneDrive\Documents\Ranorex\RanorexStudio Projects\madaket_XP001\madaket_XP001\New_MedicalGroup_ValidData.cs"
				codeline="145"
				itemindex="21"
				loglvl="Info">
			</metainfo>
		</item>
		<item
			timeRelativeToTestSuiteStartTime="00:48.174"
			timeRelativeToTestModuleStartTime="00:48.174"
			timeWallClock="15:28:12"
			time="00:48.174"
			level="Info"
			category="Mouse">
			<message>
				Mouse Left Click item 'MadaketHealth.Email' at 107;13.
			</message>
			<metainfo
				type="repoitem"
				path="/dom[@caption='Madaket Health']//input[#'email']"
				itempath=".//input[#'email']"
				fullname="madaket_XP001Repository.MadaketHealth.Email"
				id="a3920f5fc83e40948d79cf6097767a6c"
				timeout="60000"
				codefile="c:\Users\johnc\OneDrive\Documents\Ranorex\RanorexStudio Projects\madaket_XP001\madaket_XP001\New_MedicalGroup_ValidData.cs"
				codeline="148"
				itemindex="22"
				loglvl="Info">
			</metainfo>
		</item>
		<item
			timeRelativeToTestSuiteStartTime="00:48.985"
			timeRelativeToTestModuleStartTime="00:48.985"
			timeWallClock="15:28:13"
			time="00:48.985"
			level="Info"
			category="Keyboard">
			<message>
				Key sequence 'quality{LShiftKey down}{@ down}{LShiftKey up}quality.com' with focus on 'MadaketHealth.Email'.
			</message>
			<metainfo
				type="repoitem"
				path="/dom[@caption='Madaket Health']//input[#'email']"
				itempath=".//input[#'email']"
				fullname="madaket_XP001Repository.MadaketHealth.Email"
				id="a3920f5fc83e40948d79cf6097767a6c"
				timeout="60000"
				codefile="c:\Users\johnc\OneDrive\Documents\Ranorex\RanorexStudio Projects\madaket_XP001\madaket_XP001\New_MedicalGroup_ValidData.cs"
				codeline="151"
				itemindex="23"
				loglvl="Info">
			</metainfo>
		</item>
		<item
			timeRelativeToTestSuiteStartTime="00:50.249"
			timeRelativeToTestModuleStartTime="00:50.249"
			timeWallClock="15:28:15"
			time="00:50.249"
			level="Info"
			category="Mouse">
			<message>
				Mouse Left Click item 'MadaketHealth.Phone' at 94;12.
			</message>
			<metainfo
				type="repoitem"
				path="/dom[@caption='Madaket Health']//input[#'phone']"
				itempath=".//input[#'phone']"
				fullname="madaket_XP001Repository.MadaketHealth.Phone"
				id="c31719291d5f4cba95a957bf572aca50"
				timeout="60000"
				codefile="c:\Users\johnc\OneDrive\Documents\Ranorex\RanorexStudio Projects\madaket_XP001\madaket_XP001\New_MedicalGroup_ValidData.cs"
				codeline="154"
				itemindex="24"
				loglvl="Info">
			</metainfo>
		</item>
		<item
			timeRelativeToTestSuiteStartTime="00:51.056"
			timeRelativeToTestModuleStartTime="00:51.056"
			timeWallClock="15:28:15"
			time="00:51.056"
			level="Info"
			category="Keyboard">
			<message>
				Key sequence '617555432110101' with focus on 'MadaketHealth.Phone'.
			</message>
			<metainfo
				type="repoitem"
				path="/dom[@caption='Madaket Health']//input[#'phone']"
				itempath=".//input[#'phone']"
				fullname="madaket_XP001Repository.MadaketHealth.Phone"
				id="c31719291d5f4cba95a957bf572aca50"
				timeout="60000"
				codefile="c:\Users\johnc\OneDrive\Documents\Ranorex\RanorexStudio Projects\madaket_XP001\madaket_XP001\New_MedicalGroup_ValidData.cs"
				codeline="157"
				itemindex="25"
				loglvl="Info">
			</metainfo>
		</item>
		<item
			timeRelativeToTestSuiteStartTime="00:52.226"
			timeRelativeToTestModuleStartTime="00:52.226"
			timeWallClock="15:28:17"
			time="00:52.226"
			level="Info"
			category="Mouse">
			<message>
				Mouse Left Click item 'MadaketHealth.Street1' at 57;12.
			</message>
			<metainfo
				type="repoitem"
				path="/dom[@caption='Madaket Health']//input[#'street1']"
				itempath=".//input[#'street1']"
				fullname="madaket_XP001Repository.MadaketHealth.Street1"
				id="a7663cf55f2e4afdae9568c52ce4128e"
				timeout="60000"
				codefile="c:\Users\johnc\OneDrive\Documents\Ranorex\RanorexStudio Projects\madaket_XP001\madaket_XP001\New_MedicalGroup_ValidData.cs"
				codeline="160"
				itemindex="26"
				loglvl="Info">
			</metainfo>
		</item>
		<item
			timeRelativeToTestSuiteStartTime="00:53.091"
			timeRelativeToTestModuleStartTime="00:53.091"
			timeWallClock="15:28:17"
			time="00:53.091"
			level="Info"
			category="Keyboard">
			<message>
				Key sequence '1001' with focus on 'MadaketHealth.Street1'.
			</message>
			<metainfo
				type="repoitem"
				path="/dom[@caption='Madaket Health']//input[#'street1']"
				itempath=".//input[#'street1']"
				fullname="madaket_XP001Repository.MadaketHealth.Street1"
				id="a7663cf55f2e4afdae9568c52ce4128e"
				timeout="60000"
				codefile="c:\Users\johnc\OneDrive\Documents\Ranorex\RanorexStudio Projects\madaket_XP001\madaket_XP001\New_MedicalGroup_ValidData.cs"
				codeline="163"
				itemindex="27"
				loglvl="Info">
			</metainfo>
		</item>
		<item
			timeRelativeToTestSuiteStartTime="00:53.982"
			timeRelativeToTestModuleStartTime="00:53.982"
			timeWallClock="15:28:18"
			time="00:53.982"
			level="Info"
			category="Mouse">
			<message>
				Mouse Left Click item 'MadaketHealth.Street1' at 57;12.
			</message>
			<metainfo
				type="repoitem"
				path="/dom[@caption='Madaket Health']//input[#'street1']"
				itempath=".//input[#'street1']"
				fullname="madaket_XP001Repository.MadaketHealth.Street1"
				id="a7663cf55f2e4afdae9568c52ce4128e"
				timeout="60000"
				codefile="c:\Users\johnc\OneDrive\Documents\Ranorex\RanorexStudio Projects\madaket_XP001\madaket_XP001\New_MedicalGroup_ValidData.cs"
				codeline="166"
				itemindex="28"
				loglvl="Info">
			</metainfo>
		</item>
		<item
			timeRelativeToTestSuiteStartTime="00:54.725"
			timeRelativeToTestModuleStartTime="00:54.725"
			timeWallClock="15:28:19"
			time="00:54.725"
			level="Info"
			category="Keyboard">
			<message>
				Key sequence '100 main street' with focus on 'MadaketHealth.Street1'.
			</message>
			<metainfo
				type="repoitem"
				path="/dom[@caption='Madaket Health']//input[#'street1']"
				itempath=".//input[#'street1']"
				fullname="madaket_XP001Repository.MadaketHealth.Street1"
				id="a7663cf55f2e4afdae9568c52ce4128e"
				timeout="60000"
				codefile="c:\Users\johnc\OneDrive\Documents\Ranorex\RanorexStudio Projects\madaket_XP001\madaket_XP001\New_MedicalGroup_ValidData.cs"
				codeline="169"
				itemindex="29"
				loglvl="Info">
			</metainfo>
		</item>
		<item
			timeRelativeToTestSuiteStartTime="00:55.892"
			timeRelativeToTestModuleStartTime="00:55.892"
			timeWallClock="15:28:20"
			time="00:55.892"
			level="Info"
			category="Mouse">
			<message>
				Mouse Left Click item 'MadaketHealth.City' at 37;10.
			</message>
			<metainfo
				type="repoitem"
				path="/dom[@caption='Madaket Health']//input[#'city']"
				itempath=".//input[#'city']"
				fullname="madaket_XP001Repository.MadaketHealth.City"
				id="9e3518c95609497194d0bf4ee213d6d3"
				timeout="60000"
				codefile="c:\Users\johnc\OneDrive\Documents\Ranorex\RanorexStudio Projects\madaket_XP001\madaket_XP001\New_MedicalGroup_ValidData.cs"
				codeline="172"
				itemindex="30"
				loglvl="Info">
			</metainfo>
		</item>
		<item
			timeRelativeToTestSuiteStartTime="00:56.605"
			timeRelativeToTestModuleStartTime="00:56.605"
			timeWallClock="15:28:21"
			time="00:56.605"
			level="Info"
			category="Keyboard">
			<message>
				Key sequence 'boston{Tab down}' with focus on 'MadaketHealth.City'.
			</message>
			<metainfo
				type="repoitem"
				path="/dom[@caption='Madaket Health']//input[#'city']"
				itempath=".//input[#'city']"
				fullname="madaket_XP001Repository.MadaketHealth.City"
				id="9e3518c95609497194d0bf4ee213d6d3"
				timeout="60000"
				codefile="c:\Users\johnc\OneDrive\Documents\Ranorex\RanorexStudio Projects\madaket_XP001\madaket_XP001\New_MedicalGroup_ValidData.cs"
				codeline="175"
				itemindex="31"
				loglvl="Info">
			</metainfo>
		</item>
		<item
			timeRelativeToTestSuiteStartTime="00:57.560"
			timeRelativeToTestModuleStartTime="00:57.560"
			timeWallClock="15:28:22"
			time="00:57.560"
			level="Info"
			category="Mouse">
			<message>
				Mouse Left Click item 'MadaketHealth.State' at 83;12.
			</message>
			<metainfo
				type="repoitem"
				path="/dom[@caption='Madaket Health']//select[#'state']"
				itempath=".//select[#'state']"
				fullname="madaket_XP001Repository.MadaketHealth.State"
				id="7fe63a663f39421eb7f847c8cf550b69"
				timeout="60000"
				codefile="c:\Users\johnc\OneDrive\Documents\Ranorex\RanorexStudio Projects\madaket_XP001\madaket_XP001\New_MedicalGroup_ValidData.cs"
				codeline="178"
				itemindex="32"
				loglvl="Info">
			</metainfo>
		</item>
		<item
			timeRelativeToTestSuiteStartTime="00:58.291"
			timeRelativeToTestModuleStartTime="00:58.291"
			timeWallClock="15:28:23"
			time="00:58.291"
			level="Info"
			category="Mouse">
			<message>
				Mouse Left Click item 'Selectbox.ListItemMA' at 18;9.
			</message>
			<metainfo
				type="repoitem"
				path="/container[@caption='selectbox']/listitem[@accessiblename='MA']"
				itempath="listitem[@accessiblename='MA']"
				fullname="madaket_XP001Repository.Selectbox.ListItemMA"
				id="21a87e5ee2cf4405b19673b5889ccded"
				timeout="60000"
				codefile="c:\Users\johnc\OneDrive\Documents\Ranorex\RanorexStudio Projects\madaket_XP001\madaket_XP001\New_MedicalGroup_ValidData.cs"
				codeline="181"
				itemindex="33"
				loglvl="Info">
			</metainfo>
		</item>
		<item
			timeRelativeToTestSuiteStartTime="00:59.047"
			timeRelativeToTestModuleStartTime="00:59.047"
			timeWallClock="15:28:23"
			time="00:59.047"
			level="Info"
			category="Mouse">
			<message>
				Mouse Left Click item 'MadaketHealth.InputTagZip' at 43;10.
			</message>
			<metainfo
				type="repoitem"
				path="/dom[@caption='Madaket Health']//input[#'zip']"
				itempath=".//input[#'zip']"
				fullname="madaket_XP001Repository.MadaketHealth.InputTagZip"
				id="6a242eb88e6d4f6592e458527898ffdb"
				timeout="60000"
				codefile="c:\Users\johnc\OneDrive\Documents\Ranorex\RanorexStudio Projects\madaket_XP001\madaket_XP001\New_MedicalGroup_ValidData.cs"
				codeline="184"
				itemindex="34"
				loglvl="Info">
			</metainfo>
		</item>
		<item
			timeRelativeToTestSuiteStartTime="00:59.880"
			timeRelativeToTestModuleStartTime="00:59.880"
			timeWallClock="15:28:24"
			time="00:59.880"
			level="Info"
			category="Keyboard">
			<message>
				Key sequence '02111' with focus on 'MadaketHealth.InputTagZip'.
			</message>
			<metainfo
				type="repoitem"
				path="/dom[@caption='Madaket Health']//input[#'zip']"
				itempath=".//input[#'zip']"
				fullname="madaket_XP001Repository.MadaketHealth.InputTagZip"
				id="6a242eb88e6d4f6592e458527898ffdb"
				timeout="60000"
				codefile="c:\Users\johnc\OneDrive\Documents\Ranorex\RanorexStudio Projects\madaket_XP001\madaket_XP001\New_MedicalGroup_ValidData.cs"
				codeline="187"
				itemindex="35"
				loglvl="Info">
			</metainfo>
		</item>
		<item
			timeRelativeToTestSuiteStartTime="01:00.816"
			timeRelativeToTestModuleStartTime="01:00.816"
			timeWallClock="15:28:25"
			time="01:00.816"
			level="Info"
			category="Mouse">
			<message>
				Mouse Left Down item 'MadaketHealth.PopupScrollContainer1' at 747;355.
			</message>
			<metainfo
				type="repoitem"
				path="/dom[@caption='Madaket Health']//div[#'addMedicalGroupPopupContainer']/div[3]"
				itempath=".//div[#'addMedicalGroupPopupContainer']/div[3]"
				fullname="madaket_XP001Repository.MadaketHealth.PopupScrollContainer1"
				id="4475c1ec0c3e4350840c3462d5408ab0"
				timeout="60000"
				codefile="c:\Users\johnc\OneDrive\Documents\Ranorex\RanorexStudio Projects\madaket_XP001\madaket_XP001\New_MedicalGroup_ValidData.cs"
				codeline="190"
				itemindex="36"
				loglvl="Info">
			</metainfo>
		</item>
		<item
			timeRelativeToTestSuiteStartTime="01:01.360"
			timeRelativeToTestModuleStartTime="01:01.360"
			timeWallClock="15:28:26"
			time="01:01.360"
			level="Info"
			category="Mouse">
			<message>
				Mouse Left Up item 'MadaketHealth.PopupScrollContainer1' at 747;355.
			</message>
			<metainfo
				type="repoitem"
				path="/dom[@caption='Madaket Health']//div[#'addMedicalGroupPopupContainer']/div[3]"
				itempath=".//div[#'addMedicalGroupPopupContainer']/div[3]"
				fullname="madaket_XP001Repository.MadaketHealth.PopupScrollContainer1"
				id="4475c1ec0c3e4350840c3462d5408ab0"
				timeout="60000"
				codefile="c:\Users\johnc\OneDrive\Documents\Ranorex\RanorexStudio Projects\madaket_XP001\madaket_XP001\New_MedicalGroup_ValidData.cs"
				codeline="194"
				itemindex="37"
				loglvl="Info">
			</metainfo>
		</item>
		<item
			timeRelativeToTestSuiteStartTime="01:02.034"
			timeRelativeToTestModuleStartTime="01:02.034"
			timeWallClock="15:28:26"
			time="01:02.034"
			level="Info"
			category="Mouse">
			<message>
				Mouse Left Down item 'MadaketHealth.TabIndex1' at 54;13.
			</message>
			<metainfo
				type="repoitem"
				path="/dom[@caption='Madaket Health']//button[#'tabIndex1']"
				itempath=".//button[#'tabIndex1']"
				fullname="madaket_XP001Repository.MadaketHealth.TabIndex1"
				id="bb35bdcee29f447cb19ad5c688b7e721"
				timeout="60000"
				codefile="c:\Users\johnc\OneDrive\Documents\Ranorex\RanorexStudio Projects\madaket_XP001\madaket_XP001\New_MedicalGroup_ValidData.cs"
				codeline="198"
				itemindex="38"
				loglvl="Info">
			</metainfo>
		</item>
		<item
			timeRelativeToTestSuiteStartTime="01:02.634"
			timeRelativeToTestModuleStartTime="01:02.634"
			timeWallClock="15:28:27"
			time="01:02.634"
			level="Info"
			category="Mouse">
			<message>
				Mouse Left Up item 'MadaketHealth.TabIndex1' at 54;13.
			</message>
			<metainfo
				type="repoitem"
				path="/dom[@caption='Madaket Health']//button[#'tabIndex1']"
				itempath=".//button[#'tabIndex1']"
				fullname="madaket_XP001Repository.MadaketHealth.TabIndex1"
				id="bb35bdcee29f447cb19ad5c688b7e721"
				timeout="60000"
				codefile="c:\Users\johnc\OneDrive\Documents\Ranorex\RanorexStudio Projects\madaket_XP001\madaket_XP001\New_MedicalGroup_ValidData.cs"
				codeline="202"
				itemindex="39"
				loglvl="Info">
			</metainfo>
		</item>
		<item
			timeRelativeToTestSuiteStartTime="01:03.228"
			timeRelativeToTestModuleStartTime="01:03.228"
			timeWallClock="15:28:28"
			time="01:03.228"
			level="Info"
			category="Mouse">
			<message>
				Mouse Left Click item 'MadaketHealth.SignatureName' at 172;17.
			</message>
			<metainfo
				type="repoitem"
				path="/dom[@caption='Madaket Health']//input[#'signatureName']"
				itempath=".//input[#'signatureName']"
				fullname="madaket_XP001Repository.MadaketHealth.SignatureName"
				id="76ab4449b7f24a34b5906861262fc4ac"
				timeout="60000"
				codefile="c:\Users\johnc\OneDrive\Documents\Ranorex\RanorexStudio Projects\madaket_XP001\madaket_XP001\New_MedicalGroup_ValidData.cs"
				codeline="206"
				itemindex="40"
				loglvl="Info">
			</metainfo>
		</item>
		<item
			timeRelativeToTestSuiteStartTime="01:04.222"
			timeRelativeToTestModuleStartTime="01:04.222"
			timeWallClock="15:28:29"
			time="01:04.222"
			level="Info"
			category="Keyboard">
			<message>
				Key sequence 'test automation' with focus on 'MadaketHealth.SignatureName'.
			</message>
			<metainfo
				type="repoitem"
				path="/dom[@caption='Madaket Health']//input[#'signatureName']"
				itempath=".//input[#'signatureName']"
				fullname="madaket_XP001Repository.MadaketHealth.SignatureName"
				id="76ab4449b7f24a34b5906861262fc4ac"
				timeout="60000"
				codefile="c:\Users\johnc\OneDrive\Documents\Ranorex\RanorexStudio Projects\madaket_XP001\madaket_XP001\New_MedicalGroup_ValidData.cs"
				codeline="209"
				itemindex="41"
				loglvl="Info">
			</metainfo>
		</item>
		<item
			timeRelativeToTestSuiteStartTime="01:05.387"
			timeRelativeToTestModuleStartTime="01:05.387"
			timeWallClock="15:28:30"
			time="01:05.387"
			level="Info"
			category="Mouse">
			<message>
				Mouse Left Down item 'MadaketHealth.PopupScrollContainer1' at 748;370.
			</message>
			<metainfo
				type="repoitem"
				path="/dom[@caption='Madaket Health']//div[#'addMedicalGroupPopupContainer']/div[3]"
				itempath=".//div[#'addMedicalGroupPopupContainer']/div[3]"
				fullname="madaket_XP001Repository.MadaketHealth.PopupScrollContainer1"
				id="4475c1ec0c3e4350840c3462d5408ab0"
				timeout="60000"
				codefile="c:\Users\johnc\OneDrive\Documents\Ranorex\RanorexStudio Projects\madaket_XP001\madaket_XP001\New_MedicalGroup_ValidData.cs"
				codeline="212"
				itemindex="42"
				loglvl="Info">
			</metainfo>
		</item>
		<item
			timeRelativeToTestSuiteStartTime="01:05.961"
			timeRelativeToTestModuleStartTime="01:05.961"
			timeWallClock="15:28:30"
			time="01:05.961"
			level="Info"
			category="Mouse">
			<message>
				Mouse Left Up item 'MadaketHealth.PopupScrollContainer1' at 748;370.
			</message>
			<metainfo
				type="repoitem"
				path="/dom[@caption='Madaket Health']//div[#'addMedicalGroupPopupContainer']/div[3]"
				itempath=".//div[#'addMedicalGroupPopupContainer']/div[3]"
				fullname="madaket_XP001Repository.MadaketHealth.PopupScrollContainer1"
				id="4475c1ec0c3e4350840c3462d5408ab0"
				timeout="60000"
				codefile="c:\Users\johnc\OneDrive\Documents\Ranorex\RanorexStudio Projects\madaket_XP001\madaket_XP001\New_MedicalGroup_ValidData.cs"
				codeline="216"
				itemindex="43"
				loglvl="Info">
			</metainfo>
		</item>
		<item
			timeRelativeToTestSuiteStartTime="01:06.567"
			timeRelativeToTestModuleStartTime="01:06.567"
			timeWallClock="15:28:31"
			time="01:06.567"
			level="Info"
			category="Mouse">
			<message>
				Mouse Left Down item 'MadaketHealth.EDISelect' at 5;5.
			</message>
			<metainfo
				type="repoitem"
				path="/dom[@caption='Madaket Health']//input[#'EDISelect']"
				itempath=".//input[#'EDISelect']"
				fullname="madaket_XP001Repository.MadaketHealth.EDISelect"
				id="3464b4fb73e5464081d13bc091dbeebc"
				timeout="60000"
				codefile="c:\Users\johnc\OneDrive\Documents\Ranorex\RanorexStudio Projects\madaket_XP001\madaket_XP001\New_MedicalGroup_ValidData.cs"
				codeline="220"
				itemindex="44"
				loglvl="Info">
			</metainfo>
		</item>
		<item
			timeRelativeToTestSuiteStartTime="01:07.239"
			timeRelativeToTestModuleStartTime="01:07.239"
			timeWallClock="15:28:32"
			time="01:07.239"
			level="Info"
			category="Mouse">
			<message>
				Mouse Left Up item 'MadaketHealth.EDISelect' at 5;5.
			</message>
			<metainfo
				type="repoitem"
				path="/dom[@caption='Madaket Health']//input[#'EDISelect']"
				itempath=".//input[#'EDISelect']"
				fullname="madaket_XP001Repository.MadaketHealth.EDISelect"
				id="3464b4fb73e5464081d13bc091dbeebc"
				timeout="60000"
				codefile="c:\Users\johnc\OneDrive\Documents\Ranorex\RanorexStudio Projects\madaket_XP001\madaket_XP001\New_MedicalGroup_ValidData.cs"
				codeline="224"
				itemindex="45"
				loglvl="Info">
			</metainfo>
		</item>
		<item
			timeRelativeToTestSuiteStartTime="01:07.807"
			timeRelativeToTestModuleStartTime="01:07.807"
			timeWallClock="15:28:32"
			time="01:07.807"
			level="Info"
			category="Mouse">
			<message>
				Mouse Left Click item 'MadaketHealth.Finish' at 56;7.
			</message>
			<metainfo
				type="repoitem"
				path="/dom[@caption='Madaket Health']//div[#'transactions']/?/?/button[@innertext='Finish']"
				itempath=".//div[#'transactions']/?/?/button[@innertext='Finish']"
				fullname="madaket_XP001Repository.MadaketHealth.Finish"
				id="1b5a1beda57149a09e52e5d641994717"
				timeout="60000"
				codefile="c:\Users\johnc\OneDrive\Documents\Ranorex\RanorexStudio Projects\madaket_XP001\madaket_XP001\New_MedicalGroup_ValidData.cs"
				codeline="228"
				itemindex="46"
				loglvl="Info">
			</metainfo>
		</item>
		<item
			timeRelativeToTestSuiteStartTime="01:08.583"
			timeRelativeToTestModuleStartTime="01:08.583"
			timeWallClock="15:28:33"
			time="01:08.583"
			level="Info"
			category="Mouse">
			<message>
				Mouse Left Down item 'MadaketHealth.MedicalGroupDetailsSection.TestAutomationXP001' at 63;12.
			</message>
			<metainfo
				type="repoitem"
				path="/dom[@caption='Madaket Health']//div[#'medicalGroupDetailsSection']//div[@innertext='test_automation_XP001']"
				itempath=".//div[@innertext='test_automation_XP001']"
				fullname="madaket_XP001Repository.MadaketHealth.MedicalGroupDetailsSection.TestAutomationXP001"
				id="aceffa46dc474762a82f20598044c84c"
				timeout="90000"
				codefile="c:\Users\johnc\OneDrive\Documents\Ranorex\RanorexStudio Projects\madaket_XP001\madaket_XP001\New_MedicalGroup_ValidData.cs"
				codeline="231"
				itemindex="47"
				loglvl="Info">
			</metainfo>
		</item>
		<item
			timeRelativeToTestSuiteStartTime="01:11.117"
			timeRelativeToTestModuleStartTime="01:11.117"
			timeWallClock="15:28:35"
			time="01:11.117"
			level="Info"
			category="Mouse">
			<message>
				Mouse Left Up item 'MadaketHealth.MedicalGroupDetailsSection.TestAutomationXP001' at 63;12.
			</message>
			<metainfo
				type="repoitem"
				path="/dom[@caption='Madaket Health']//div[#'medicalGroupDetailsSection']//div[@innertext='test_automation_XP001']"
				itempath=".//div[@innertext='test_automation_XP001']"
				fullname="madaket_XP001Repository.MadaketHealth.MedicalGroupDetailsSection.TestAutomationXP001"
				id="aceffa46dc474762a82f20598044c84c"
				timeout="90000"
				codefile="c:\Users\johnc\OneDrive\Documents\Ranorex\RanorexStudio Projects\madaket_XP001\madaket_XP001\New_MedicalGroup_ValidData.cs"
				codeline="235"
				itemindex="48"
				loglvl="Info">
			</metainfo>
		</item>
		<item
			timeRelativeToTestSuiteStartTime="01:11.749"
			timeRelativeToTestModuleStartTime="01:11.749"
			timeWallClock="15:28:36"
			time="01:11.749"
			level="Info"
			category="Mouse">
			<message>
				Mouse Left Down item 'MadaketHealth.MedicalGroupDetailsSection.DivTagNameLegal' at 89;12.
			</message>
			<metainfo
				type="repoitem"
				path="/dom[@caption='Madaket Health']//div[#'medicalGroupDetailsSection']//div[@innertext~'^Name\(legal\)']"
				itempath=".//div[@innertext~'^Name\(legal\)']"
				fullname="madaket_XP001Repository.MadaketHealth.MedicalGroupDetailsSection.DivTagNameLegal"
				id="8c82e3085a0a43d2865b5e47c2f4c6ad"
				timeout="90000"
				codefile="c:\Users\johnc\OneDrive\Documents\Ranorex\RanorexStudio Projects\madaket_XP001\madaket_XP001\New_MedicalGroup_ValidData.cs"
				codeline="239"
				itemindex="49"
				loglvl="Info">
			</metainfo>
		</item>
		<item
			timeRelativeToTestSuiteStartTime="01:12.373"
			timeRelativeToTestModuleStartTime="01:12.373"
			timeWallClock="15:28:37"
			time="01:12.373"
			level="Info"
			category="Mouse">
			<message>
				Mouse Left Up item 'MadaketHealth.MedicalGroupDetailsSection.DivTagNameLegal' at 89;12.
			</message>
			<metainfo
				type="repoitem"
				path="/dom[@caption='Madaket Health']//div[#'medicalGroupDetailsSection']//div[@innertext~'^Name\(legal\)']"
				itempath=".//div[@innertext~'^Name\(legal\)']"
				fullname="madaket_XP001Repository.MadaketHealth.MedicalGroupDetailsSection.DivTagNameLegal"
				id="8c82e3085a0a43d2865b5e47c2f4c6ad"
				timeout="90000"
				codefile="c:\Users\johnc\OneDrive\Documents\Ranorex\RanorexStudio Projects\madaket_XP001\madaket_XP001\New_MedicalGroup_ValidData.cs"
				codeline="243"
				itemindex="50"
				loglvl="Info">
			</metainfo>
		</item>
		<item
			timeRelativeToTestSuiteStartTime="01:12.976"
			timeRelativeToTestModuleStartTime="01:12.976"
			timeWallClock="15:28:37"
			time="01:12.976"
			level="Info"
			category="Mouse">
			<message>
				Mouse Left Down item 'MadaketHealth.TableLayoutPrimaryEnrollmentAddress.BTagTestAutomation' at 34;5.
			</message>
			<metainfo
				type="repoitem"
				path="/dom[@caption='Madaket Health']//div[#'contactContainer']/table//span[@innertext='            quality']/b[@innertext=' test automation']"
				itempath=".//span[@innertext='            quality']/b[@innertext=' test automation']"
				fullname="madaket_XP001Repository.MadaketHealth.TableLayoutPrimaryEnrollmentAddress.BTagTestAutomation"
				id="d402a00850ed4d718e12c26775a16bbf"
				timeout="90000"
				codefile="c:\Users\johnc\OneDrive\Documents\Ranorex\RanorexStudio Projects\madaket_XP001\madaket_XP001\New_MedicalGroup_ValidData.cs"
				codeline="247"
				itemindex="51"
				loglvl="Info">
			</metainfo>
		</item>
		<item
			timeRelativeToTestSuiteStartTime="01:13.645"
			timeRelativeToTestModuleStartTime="01:13.645"
			timeWallClock="15:28:38"
			time="01:13.645"
			level="Info"
			category="Mouse">
			<message>
				Mouse Left Up item 'MadaketHealth.TableLayoutPrimaryEnrollmentAddress.BTagTestAutomation' at 34;5.
			</message>
			<metainfo
				type="repoitem"
				path="/dom[@caption='Madaket Health']//div[#'contactContainer']/table//span[@innertext='            quality']/b[@innertext=' test automation']"
				itempath=".//span[@innertext='            quality']/b[@innertext=' test automation']"
				fullname="madaket_XP001Repository.MadaketHealth.TableLayoutPrimaryEnrollmentAddress.BTagTestAutomation"
				id="d402a00850ed4d718e12c26775a16bbf"
				timeout="90000"
				codefile="c:\Users\johnc\OneDrive\Documents\Ranorex\RanorexStudio Projects\madaket_XP001\madaket_XP001\New_MedicalGroup_ValidData.cs"
				codeline="251"
				itemindex="52"
				loglvl="Info">
			</metainfo>
		</item>
		<item
			timeRelativeToTestSuiteStartTime="01:14.226"
			timeRelativeToTestModuleStartTime="01:14.226"
			timeWallClock="15:28:39"
			time="01:14.226"
			level="Info"
			category="Mouse">
			<message>
				Mouse Left Click item 'MadaketHealth.TableLayoutPrimaryEnrollmentAddress.DivTag6175554321E' at 72;8.
			</message>
			<metainfo
				type="repoitem"
				path="/dom[@caption='Madaket Health']//div[#'contactContainer']/table/?/?/tr/td[1]//div[@innertext~'^\ \ \ \ \ \ \ \ \ \ \ \ \ \ \ \(617\)\ 5']"
				itempath="?/?/tr/td[1]//div[@innertext~'^\ \ \ \ \ \ \ \ \ \ \ \ \ \ \ \(617\)\ 5']"
				fullname="madaket_XP001Repository.MadaketHealth.TableLayoutPrimaryEnrollmentAddress.DivTag6175554321E"
				id="0acd97e9ba774fafa3a910a232700416"
				timeout="90000"
				codefile="c:\Users\johnc\OneDrive\Documents\Ranorex\RanorexStudio Projects\madaket_XP001\madaket_XP001\New_MedicalGroup_ValidData.cs"
				codeline="255"
				itemindex="53"
				loglvl="Info">
			</metainfo>
		</item>
		<item
			timeRelativeToTestSuiteStartTime="01:14.949"
			timeRelativeToTestModuleStartTime="01:14.949"
			timeWallClock="15:28:39"
			time="01:14.949"
			level="Info"
			category="Mouse">
			<message>
				Mouse Left Down item 'MadaketHealth.TableLayoutPrimaryEnrollmentAddress.DivTag100MainStreet' at 15;9.
			</message>
			<metainfo
				type="repoitem"
				path="/dom[@caption='Madaket Health']//div[#'contactContainer']/table/?/?/tr/td[2]/?/?/div[@innertext='100 main street']"
				itempath="?/?/tr/td[2]/?/?/div[@innertext='100 main street']"
				fullname="madaket_XP001Repository.MadaketHealth.TableLayoutPrimaryEnrollmentAddress.DivTag100MainStreet"
				id="db9e2720f7a24a6580b1403a81a87119"
				timeout="90000"
				codefile="c:\Users\johnc\OneDrive\Documents\Ranorex\RanorexStudio Projects\madaket_XP001\madaket_XP001\New_MedicalGroup_ValidData.cs"
				codeline="258"
				itemindex="54"
				loglvl="Info">
			</metainfo>
		</item>
		<item
			timeRelativeToTestSuiteStartTime="01:41.467"
			timeRelativeToTestModuleStartTime="01:41.467"
			timeWallClock="15:29:06"
			time="01:41.467"
			level="Error"
			category="Module">
			<message>
				The test run has been aborted by the user.
			</message>
			<metainfo
				loglvl="Error">
			</metainfo>
		</item>
	</activity>
</report>
