﻿<?xml version="1.0" encoding="utf-8"?>
<report
	progress="">
	<activity
		result="Success"
		duration="0ms"
		durationms="0"
		type="root"
		rid="1a27799a942b60c0"
		totalerrorcount="0"
		totalwarningcount="1"
		totalsuccesstestcasecount="0"
		totalfailedtestcasecount="0"
		totalblockedtestcasecount="0"
		childsuccesscount="0"
		childfailedcount="0"
		childblockedcount="0"
		totalsuccesscount="0"
		totalfailedcount="0"
		totalblockedcount="0"
		totalmaintenancemodecount="0"
		user="JohnPloumis"
		rxversion="8.2.1.0"
		host="LAPTOP-5EO8DNU1"
		osversion="Windows 10 64bit"
		runtimeversion="4.0.30319.42000"
		procarch="32bit"
		oslanguage="en-US"
		dtnlanguage="en-US"
		screenresolution="1366x768"
		timestamp="10/17/2018 1:33:39 PM"
		timestampiso="2018-10-17T17:33:39"
		endtime="10/17/2018 1:33:56 PM"
		timeoutfactor="1"
		module="Sandbox">
		<detail>
			Sandbox
		</detail>
		<varbindings>
		</varbindings>
		<item
			timeRelativeToTestSuiteStartTime="00:10.856"
			timeRelativeToTestModuleStartTime="00:10.858"
			timeWallClock="13:33:50"
			time="00:10.856"
			level="Success"
			category="Validation">
			<message>
				Element for item 'TestAutomation' does exist.
			</message>
			<metainfo
				type="repoitem"
				path="/dom[@domain='edi-alpha.madakethealth.com']/?/?/ul/?/?/a[@innertext='test_automation']"
				itempath="?/?/ul/?/?/a[@innertext='test_automation']"
				fullname="madaket_XP001Repository.NewGroupAddress.TestAutomation"
				id="58a43febbcb4400d898952530013d95d"
				timeout="60000"
				codefile="c:\Users\JohnPloumis\Documents\Ranorex\RanorexStudio Projects\madaket_XP001\madaket_XP001\Sandbox.UserCode.cs"
				codeline="72"
				loglvl="Success">
			</metainfo>
		</item>
		<item
			timeRelativeToTestSuiteStartTime="00:16.126"
			timeRelativeToTestModuleStartTime="00:16.128"
			timeWallClock="13:33:55"
			time="00:16.126"
			level="Warn"
			category="Click">
			<message>
				The mouse action was performed outside the boundaries of the assigned UI element.<br/>(null)
			</message>
			<metainfo
				codefile="c:\Users\JohnPloumis\Documents\Ranorex\RanorexStudio Projects\madaket_XP001\madaket_XP001\Sandbox.UserCode.cs"
				codeline="86"
				loglvl="Warn">
			</metainfo>
		</item>
	</activity>
</report>
