﻿<?xml version="1.0" encoding="utf-8"?>
<report
	progress="">
	<activity
		result="Failed"
		duration="0ms"
		durationms="0"
		type="root"
		rid="29f6877fa88e559c"
		totalerrorcount="1"
		totalwarningcount="6"
		totalsuccesstestcasecount="0"
		totalfailedtestcasecount="0"
		totalblockedtestcasecount="0"
		childsuccesscount="0"
		childfailedcount="0"
		childblockedcount="0"
		totalsuccesscount="0"
		totalfailedcount="0"
		totalblockedcount="0"
		totalmaintenancemodecount="0"
		user="JohnPloumis"
		rxversion="8.2.1.0"
		host="LAPTOP-5EO8DNU1"
		osversion="Windows 10 64bit"
		runtimeversion="4.0.30319.42000"
		procarch="32bit"
		oslanguage="en-US"
		dtnlanguage="en-US"
		screenresolution="1366x768"
		timestamp="10/26/2018 1:31:52 PM"
		timestampiso="2018-10-26T17:31:52"
		endtime="10/26/2018 1:34:05 PM"
		timeoutfactor="1"
		module="Sandbox">
		<detail>
			Sandbox
		</detail>
		<errormessage>
			Element for item 'TestAutomation' does not exist (Failed to find item 'madaket_XP001Repository.NewGroupAddress.TestAutomation'. No element found for path '/dom[@domain='edi-alpha.madakethealth.com']/?/?/ul/?/?/a[@innertext='test_automation']' within 1m.).
		</errormessage>
		<varbindings>
		</varbindings>
		<item
			timeRelativeToTestSuiteStartTime="00:09.283"
			timeRelativeToTestModuleStartTime="00:09.285"
			timeWallClock="13:32:01"
			time="00:09.283"
			level="Success"
			category="Validation">
			<message>
				Element for item 'TestAutomation' does exist.
			</message>
			<metainfo
				type="repoitem"
				path="/dom[@domain='edi-alpha.madakethealth.com']/?/?/ul/?/?/a[@innertext='test_automation']"
				itempath="?/?/ul/?/?/a[@innertext='test_automation']"
				fullname="madaket_XP001Repository.NewGroupAddress.TestAutomation"
				id="58a43febbcb4400d898952530013d95d"
				timeout="60000"
				codefile="c:\Users\JohnPloumis\Documents\Ranorex\RanorexStudio Projects\ranorex_testautomation\madaket_XP001\Sandbox.UserCode.cs"
				codeline="74"
				loglvl="Success">
			</metainfo>
		</item>
		<item
			timeRelativeToTestSuiteStartTime="00:13.962"
			timeRelativeToTestModuleStartTime="00:13.964"
			timeWallClock="13:32:05"
			time="00:13.962"
			level="Warn"
			category="Click">
			<message>
				The mouse action was performed outside the boundaries of the assigned UI element.<br/>(null)
			</message>
			<metainfo
				codefile="c:\Users\JohnPloumis\Documents\Ranorex\RanorexStudio Projects\ranorex_testautomation\madaket_XP001\Sandbox.UserCode.cs"
				codeline="88"
				loglvl="Warn">
			</metainfo>
		</item>
		<item
			timeRelativeToTestSuiteStartTime="00:19.727"
			timeRelativeToTestModuleStartTime="00:19.729"
			timeWallClock="13:32:11"
			time="00:19.727"
			level="Success"
			category="Validation">
			<message>
				Element for item 'TestAutomation' does exist.
			</message>
			<metainfo
				type="repoitem"
				path="/dom[@domain='edi-alpha.madakethealth.com']/?/?/ul/?/?/a[@innertext='test_automation']"
				itempath="?/?/ul/?/?/a[@innertext='test_automation']"
				fullname="madaket_XP001Repository.NewGroupAddress.TestAutomation"
				id="58a43febbcb4400d898952530013d95d"
				timeout="60000"
				codefile="c:\Users\JohnPloumis\Documents\Ranorex\RanorexStudio Projects\ranorex_testautomation\madaket_XP001\Sandbox.UserCode.cs"
				codeline="74"
				loglvl="Success">
			</metainfo>
		</item>
		<item
			timeRelativeToTestSuiteStartTime="00:24.548"
			timeRelativeToTestModuleStartTime="00:24.550"
			timeWallClock="13:32:16"
			time="00:24.548"
			level="Warn"
			category="Click">
			<message>
				The mouse action was performed outside the boundaries of the assigned UI element.<br/>(null)
			</message>
			<metainfo
				codefile="c:\Users\JohnPloumis\Documents\Ranorex\RanorexStudio Projects\ranorex_testautomation\madaket_XP001\Sandbox.UserCode.cs"
				codeline="88"
				loglvl="Warn">
			</metainfo>
		</item>
		<item
			timeRelativeToTestSuiteStartTime="00:30.509"
			timeRelativeToTestModuleStartTime="00:30.511"
			timeWallClock="13:32:22"
			time="00:30.509"
			level="Success"
			category="Validation">
			<message>
				Element for item 'TestAutomation' does exist.
			</message>
			<metainfo
				type="repoitem"
				path="/dom[@domain='edi-alpha.madakethealth.com']/?/?/ul/?/?/a[@innertext='test_automation']"
				itempath="?/?/ul/?/?/a[@innertext='test_automation']"
				fullname="madaket_XP001Repository.NewGroupAddress.TestAutomation"
				id="58a43febbcb4400d898952530013d95d"
				timeout="60000"
				codefile="c:\Users\JohnPloumis\Documents\Ranorex\RanorexStudio Projects\ranorex_testautomation\madaket_XP001\Sandbox.UserCode.cs"
				codeline="74"
				loglvl="Success">
			</metainfo>
		</item>
		<item
			timeRelativeToTestSuiteStartTime="00:35.262"
			timeRelativeToTestModuleStartTime="00:35.264"
			timeWallClock="13:32:27"
			time="00:35.262"
			level="Warn"
			category="Click">
			<message>
				The mouse action was performed outside the boundaries of the assigned UI element.<br/>(null)
			</message>
			<metainfo
				codefile="c:\Users\JohnPloumis\Documents\Ranorex\RanorexStudio Projects\ranorex_testautomation\madaket_XP001\Sandbox.UserCode.cs"
				codeline="88"
				loglvl="Warn">
			</metainfo>
		</item>
		<item
			timeRelativeToTestSuiteStartTime="00:41.229"
			timeRelativeToTestModuleStartTime="00:41.231"
			timeWallClock="13:32:33"
			time="00:41.229"
			level="Success"
			category="Validation">
			<message>
				Element for item 'TestAutomation' does exist.
			</message>
			<metainfo
				type="repoitem"
				path="/dom[@domain='edi-alpha.madakethealth.com']/?/?/ul/?/?/a[@innertext='test_automation']"
				itempath="?/?/ul/?/?/a[@innertext='test_automation']"
				fullname="madaket_XP001Repository.NewGroupAddress.TestAutomation"
				id="58a43febbcb4400d898952530013d95d"
				timeout="60000"
				codefile="c:\Users\JohnPloumis\Documents\Ranorex\RanorexStudio Projects\ranorex_testautomation\madaket_XP001\Sandbox.UserCode.cs"
				codeline="74"
				loglvl="Success">
			</metainfo>
		</item>
		<item
			timeRelativeToTestSuiteStartTime="00:46.076"
			timeRelativeToTestModuleStartTime="00:46.078"
			timeWallClock="13:32:38"
			time="00:46.076"
			level="Warn"
			category="Click">
			<message>
				The mouse action was performed outside the boundaries of the assigned UI element.<br/>(null)
			</message>
			<metainfo
				codefile="c:\Users\JohnPloumis\Documents\Ranorex\RanorexStudio Projects\ranorex_testautomation\madaket_XP001\Sandbox.UserCode.cs"
				codeline="88"
				loglvl="Warn">
			</metainfo>
		</item>
		<item
			timeRelativeToTestSuiteStartTime="00:51.999"
			timeRelativeToTestModuleStartTime="00:52.001"
			timeWallClock="13:32:44"
			time="00:51.999"
			level="Success"
			category="Validation">
			<message>
				Element for item 'TestAutomation' does exist.
			</message>
			<metainfo
				type="repoitem"
				path="/dom[@domain='edi-alpha.madakethealth.com']/?/?/ul/?/?/a[@innertext='test_automation']"
				itempath="?/?/ul/?/?/a[@innertext='test_automation']"
				fullname="madaket_XP001Repository.NewGroupAddress.TestAutomation"
				id="58a43febbcb4400d898952530013d95d"
				timeout="60000"
				codefile="c:\Users\JohnPloumis\Documents\Ranorex\RanorexStudio Projects\ranorex_testautomation\madaket_XP001\Sandbox.UserCode.cs"
				codeline="74"
				loglvl="Success">
			</metainfo>
		</item>
		<item
			timeRelativeToTestSuiteStartTime="00:56.856"
			timeRelativeToTestModuleStartTime="00:56.858"
			timeWallClock="13:32:48"
			time="00:56.856"
			level="Warn"
			category="Click">
			<message>
				The mouse action was performed outside the boundaries of the assigned UI element.<br/>(null)
			</message>
			<metainfo
				codefile="c:\Users\JohnPloumis\Documents\Ranorex\RanorexStudio Projects\ranorex_testautomation\madaket_XP001\Sandbox.UserCode.cs"
				codeline="88"
				loglvl="Warn">
			</metainfo>
		</item>
		<item
			timeRelativeToTestSuiteStartTime="01:02.621"
			timeRelativeToTestModuleStartTime="01:02.623"
			timeWallClock="13:32:54"
			time="01:02.621"
			level="Success"
			category="Validation"
			errimg=".\Sandbox2_9e715c2f_89c560dd_trace.jpg"
			errthumb=".\Sandbox2_9e715c2f_89c560dd_trace_thumb.jpg">
			<message>
				Element for item 'TestAutomation' does exist.
			</message>
			<metainfo
				type="repoitem"
				path="/dom[@domain='edi-alpha.madakethealth.com']/?/?/ul/?/?/a[@innertext='test_automation']"
				itempath="?/?/ul/?/?/a[@innertext='test_automation']"
				fullname="madaket_XP001Repository.NewGroupAddress.TestAutomation"
				id="58a43febbcb4400d898952530013d95d"
				timeout="60000"
				codefile="c:\Users\JohnPloumis\Documents\Ranorex\RanorexStudio Projects\ranorex_testautomation\madaket_XP001\Sandbox.UserCode.cs"
				codeline="74"
				loglvl="Success">
			</metainfo>
		</item>
		<item
			timeRelativeToTestSuiteStartTime="01:07.512"
			timeRelativeToTestModuleStartTime="01:07.514"
			timeWallClock="13:32:59"
			time="01:07.512"
			level="Warn"
			category="Click">
			<message>
				The mouse action was performed outside the boundaries of the assigned UI element.<br/>(null)
			</message>
			<metainfo
				codefile="c:\Users\JohnPloumis\Documents\Ranorex\RanorexStudio Projects\ranorex_testautomation\madaket_XP001\Sandbox.UserCode.cs"
				codeline="88"
				loglvl="Warn">
			</metainfo>
		</item>
		<item
			timeRelativeToTestSuiteStartTime="02:13.347"
			timeRelativeToTestModuleStartTime="02:13.349"
			timeWallClock="13:34:05"
			time="02:13.347"
			level="Failure"
			category="Validation"
			errimg=".\Sandbox2_9e715c2f_3f32dfce_trace.jpg"
			errthumb=".\Sandbox2_9e715c2f_3f32dfce_trace_thumb.jpg">
			<message>
				Element for item 'TestAutomation' does not exist (Failed to find item 'madaket_XP001Repository.NewGroupAddress.TestAutomation'. No element found for path '/dom[@domain='edi-alpha.madakethealth.com']/?/?/ul/?/?/a[@innertext='test_automation']' within 1m.).
			</message>
			<metainfo
				type="repoitem"
				path="/dom[@domain='edi-alpha.madakethealth.com']/?/?/ul/?/?/a[@innertext='test_automation']"
				itempath="?/?/ul/?/?/a[@innertext='test_automation']"
				fullname="madaket_XP001Repository.NewGroupAddress.TestAutomation"
				id="58a43febbcb4400d898952530013d95d"
				timeout="60000"
				codefile="c:\Users\JohnPloumis\Documents\Ranorex\RanorexStudio Projects\ranorex_testautomation\madaket_XP001\Sandbox.UserCode.cs"
				codeline="74"
				loglvl="Failure">
			</metainfo>
		</item>
		<item
			timeRelativeToTestSuiteStartTime="02:13.361"
			timeRelativeToTestModuleStartTime="02:13.363"
			timeWallClock="13:34:05"
			time="02:13.361"
			level="Error"
			category="Module"
			errimg=".\Sandbox2_9e715c2f_3f32dfce_trace.jpg"
			errthumb=".\Sandbox2_9e715c2f_3f32dfce_trace_thumb.jpg">
			<message>
				Module execution was aborted because a validation step has failed. Element for item 'TestAutomation' does not exist (Failed to find item 'madaket_XP001Repository.NewGroupAddress.TestAutomation'. No element found for path '/dom[@domain='edi-alpha.madakethealth.com']/?/?/ul/?/?/a[@innertext='test_automation']' within 1m.).<br/>Failed to find item 'madaket_XP001Repository.NewGroupAddress.TestAutomation'.<br/>No element found for path '/dom[@domain='edi-alpha.madakethealth.com']/?/?/ul/?/?/a[@innertext='test_automation']' within 1m.
			</message>
			<metainfo
				stacktrace="   at Ranorex.Validate.ThrowValidationException(RepoItemInfo itemInfo, ValidationException ex)
   at Ranorex.Validate.IsTrueInternal(Boolean condition, String message, Options options, RepoItemInfo itemInfo, RanorexException innerException)
   at Ranorex.Validate.Exists(RepoItemInfo itemInfo, String message, Options options)
   at Ranorex.Validate.Exists(RepoItemInfo itemInfo)
   at madaket_XP001.Sandbox.CleanUp() in c:\Users\JohnPloumis\Documents\Ranorex\RanorexStudio Projects\ranorex_testautomation\madaket_XP001\Sandbox.UserCode.cs:line 74
   at madaket_XP001.Sandbox.Ranorex.Core.Testing.ITestModule.Run() in c:\Users\JohnPloumis\Documents\Ranorex\RanorexStudio Projects\ranorex_testautomation\madaket_XP001\Sandbox.cs:line 82
   at Ranorex.Core.Testing.TestModuleLeaf.RunInternal(DataContext parentDataContext, Int32 iteration, Int32 iterationCount, Boolean skipIteration)"
				codefile="c:\Users\JohnPloumis\Documents\Ranorex\RanorexStudio Projects\ranorex_testautomation\madaket_XP001\Sandbox.UserCode.cs"
				codeline="74"
				type="repoitem"
				path="/dom[@domain='edi-alpha.madakethealth.com']/?/?/ul/?/?/a[@innertext='test_automation']"
				itempath="?/?/ul/?/?/a[@innertext='test_automation']"
				fullname="madaket_XP001Repository.NewGroupAddress.TestAutomation"
				id="58a43febbcb4400d898952530013d95d"
				timeout="60000"
				loglvl="Error">
			</metainfo>
		</item>
	</activity>
</report>
