﻿<?xml version="1.0" encoding="utf-8"?>
<report
	progress="">
	<activity
		result="Failed"
		duration="0ms"
		durationms="0"
		type="root"
		rid="eaac221304dbe"
		totalerrorcount="1"
		totalwarningcount="0"
		totalsuccesstestcasecount="0"
		totalfailedtestcasecount="0"
		totalblockedtestcasecount="0"
		childsuccesscount="0"
		childfailedcount="0"
		childblockedcount="0"
		totalsuccesscount="0"
		totalfailedcount="0"
		totalblockedcount="0"
		totalmaintenancemodecount="0"
		user="JohnPloumis"
		rxversion="8.2.1.0"
		host="LAPTOP-5EO8DNU1"
		osversion="Windows 10 64bit"
		runtimeversion="4.0.30319.42000"
		procarch="32bit"
		oslanguage="en-US"
		dtnlanguage="en-US"
		screenresolution="1366x768"
		timestamp="10/3/2018 3:40:13 PM"
		timestampiso="2018-10-03T19:40:13"
		endtime="10/3/2018 3:40:16 PM"
		timeoutfactor="1"
		module="Sandbox">
		<detail>
			Sandbox
		</detail>
		<errormessage>
			The SMTP server requires a secure connection or the client was not authenticated. The server response was: 5.5.1 Authentication Required. Learn more at
		</errormessage>
		<varbindings>
		</varbindings>
		<item
			timeRelativeToTestSuiteStartTime="00:02.495"
			timeRelativeToTestModuleStartTime="00:02.495"
			timeWallClock="15:40:16"
			time="00:02.495"
			level="Error"
			category="Module"
			errimg=".\Sandbox2_7aeda459_7c3fd1bd_trace.jpg"
			errthumb=".\Sandbox2_7aeda459_7c3fd1bd_trace_thumb.jpg">
			<message>
				The SMTP server requires a secure connection or the client was not authenticated. The server response was: 5.5.1 Authentication Required. Learn more at
			</message>
			<metainfo
				stacktrace="   at System.Net.Mail.MailCommand.CheckResponse(SmtpStatusCode statusCode, String response)&#13;&#10;   at System.Net.Mail.MailCommand.Send(SmtpConnection conn, Byte[] command, MailAddress from, Boolean allowUnicode)&#13;&#10;   at System.Net.Mail.SmtpTransport.SendMail(MailAddress sender, MailAddressCollection recipients, String deliveryNotify, Boolean allowUnicode, SmtpFailedRecipientException&amp; exception)&#13;&#10;   at System.Net.Mail.SmtpClient.Send(MailMessage message)&#13;&#10;   at madaket_XP001.Sandbox.Send_Email() in c:\Users\JohnPloumis\Documents\Ranorex\RanorexStudio Projects\madaket_XP001\madaket_XP001\Sandbox.UserCode.cs:line 66&#13;&#10;   at madaket_XP001.Sandbox.Ranorex.Core.Testing.ITestModule.Run() in c:\Users\JohnPloumis\Documents\Ranorex\RanorexStudio Projects\madaket_XP001\madaket_XP001\Sandbox.cs:line 82&#13;&#10;   at Ranorex.Core.Testing.TestModuleLeaf.RunInternal(DataContext parentDataContext, Int32 iteration, Int32 iterationCount, Boolean skipIteration)"
				codefile="c:\Users\JohnPloumis\Documents\Ranorex\RanorexStudio Projects\madaket_XP001\madaket_XP001\Sandbox.UserCode.cs"
				codeline="66"
				loglvl="Error">
			</metainfo>
		</item>
	</activity>
</report>
