﻿<?xml version="1.0" encoding="utf-8"?>
<report
	progress="">
	<activity
		result="Failed"
		duration="0ms"
		durationms="0"
		type="root"
		rid="27004725a4bcd0f0"
		totalerrorcount="1"
		totalwarningcount="0"
		totalsuccesstestcasecount="0"
		totalfailedtestcasecount="0"
		totalblockedtestcasecount="0"
		childsuccesscount="0"
		childfailedcount="0"
		childblockedcount="0"
		totalsuccesscount="0"
		totalfailedcount="0"
		totalblockedcount="0"
		totalmaintenancemodecount="0"
		user="JohnPloumis"
		rxversion="8.2.1.0"
		host="LAPTOP-5EO8DNU1"
		osversion="Windows 10 64bit"
		runtimeversion="4.0.30319.42000"
		procarch="32bit"
		oslanguage="en-US"
		dtnlanguage="en-US"
		screenresolution="1366x768"
		timestamp="11/7/2018 4:39:59 PM"
		timestampiso="2018-11-07T21:39:59"
		endtime="11/7/2018 4:40:14 PM"
		timeoutfactor="1"
		module="Sandbox">
		<detail>
			Sandbox
		</detail>
		<errormessage>
			No element found for path 'dom[@domain='edi-alpha.madakethealth.com']//table[#'siteListTable']/tbody/tr/td[1]/a[@innertext='test_automation_site_1886']'.
		</errormessage>
		<varbindings>
		</varbindings>
		<item
			timeRelativeToTestSuiteStartTime="00:15.039"
			timeRelativeToTestModuleStartTime="00:15.040"
			timeWallClock="16:40:14"
			time="00:15.039"
			level="Error"
			category="Module"
			errimg=".\Sandbox2_f96460f0_479212a1_trace.jpg"
			errthumb=".\Sandbox2_f96460f0_479212a1_trace_thumb.jpg">
			<message>
				No element found for path 'dom[@domain='edi-alpha.madakethealth.com']//table[#'siteListTable']/tbody/tr/td[1]/a[@innertext='test_automation_site_1886']'.
			</message>
			<metainfo
				stacktrace="   at Ranorex.Core.Element.FindSingle(RxPath path)
   at Ranorex.Adapter.FindSingle(RxPath path)
   at madaket_XP001.Sandbox.Sites_Filters() in c:\Users\JohnPloumis\Documents\Ranorex\RanorexStudio Projects\ranorex_testautomation\madaket_XP001\Sandbox.UserCode.cs:line 124
   at madaket_XP001.Sandbox.Ranorex.Core.Testing.ITestModule.Run() in c:\Users\JohnPloumis\Documents\Ranorex\RanorexStudio Projects\ranorex_testautomation\madaket_XP001\Sandbox.cs:line 82
   at Ranorex.Core.Testing.TestModuleLeaf.RunInternal(DataContext parentDataContext, Int32 iteration, Int32 iterationCount, Boolean skipIteration)"
				codefile="c:\Users\JohnPloumis\Documents\Ranorex\RanorexStudio Projects\ranorex_testautomation\madaket_XP001\Sandbox.UserCode.cs"
				codeline="124"
				loglvl="Error">
			</metainfo>
		</item>
	</activity>
</report>
