﻿<?xml version="1.0" encoding="utf-8"?>
<report
	progress="">
	<activity
		result="Success"
		duration="0ms"
		durationms="0"
		type="root"
		rid="1a155921f5f02482"
		totalerrorcount="0"
		totalwarningcount="4"
		totalsuccesstestcasecount="0"
		totalfailedtestcasecount="0"
		totalblockedtestcasecount="0"
		childsuccesscount="0"
		childfailedcount="0"
		childblockedcount="0"
		totalsuccesscount="0"
		totalfailedcount="0"
		totalblockedcount="0"
		totalmaintenancemodecount="0"
		user="JohnPloumis"
		rxversion="8.2.1.0"
		host="LAPTOP-5EO8DNU1"
		osversion="Windows 10 64bit"
		runtimeversion="4.0.30319.42000"
		procarch="32bit"
		oslanguage="en-US"
		dtnlanguage="en-US"
		screenresolution="1366x768"
		timestamp="10/24/2018 11:49:35 AM"
		timestampiso="2018-10-24T15:49:35"
		endtime="10/24/2018 11:50:50 AM"
		timeoutfactor="1"
		module="Sandbox">
		<detail>
			Sandbox
		</detail>
		<varbindings>
		</varbindings>
		<item
			timeRelativeToTestSuiteStartTime="00:09.130"
			timeRelativeToTestModuleStartTime="00:09.130"
			timeWallClock="11:49:44"
			time="00:09.130"
			level="Success"
			category="Validation">
			<message>
				Element for item 'TestAutomation' does exist.
			</message>
			<metainfo
				type="repoitem"
				path="/dom[@domain='edi-alpha.madakethealth.com']/?/?/ul/?/?/a[@innertext='test_automation']"
				itempath="?/?/ul/?/?/a[@innertext='test_automation']"
				fullname="madaket_XP001Repository.NewGroupAddress.TestAutomation"
				id="58a43febbcb4400d898952530013d95d"
				timeout="60000"
				codefile="c:\Users\JohnPloumis\Documents\Ranorex\RanorexStudio Projects\ranorex_testautomation\madaket_XP001\Sandbox.UserCode.cs"
				codeline="74"
				loglvl="Success">
			</metainfo>
		</item>
		<item
			timeRelativeToTestSuiteStartTime="00:14.512"
			timeRelativeToTestModuleStartTime="00:14.512"
			timeWallClock="11:49:50"
			time="00:14.512"
			level="Warn"
			category="Click">
			<message>
				The mouse action was performed outside the boundaries of the assigned UI element.<br/>(null)
			</message>
			<metainfo
				codefile="c:\Users\JohnPloumis\Documents\Ranorex\RanorexStudio Projects\ranorex_testautomation\madaket_XP001\Sandbox.UserCode.cs"
				codeline="88"
				loglvl="Warn">
			</metainfo>
		</item>
		<item
			timeRelativeToTestSuiteStartTime="00:20.874"
			timeRelativeToTestModuleStartTime="00:20.874"
			timeWallClock="11:49:56"
			time="00:20.874"
			level="Success"
			category="Validation">
			<message>
				Element for item 'TestAutomation' does exist.
			</message>
			<metainfo
				type="repoitem"
				path="/dom[@domain='edi-alpha.madakethealth.com']/?/?/ul/?/?/a[@innertext='test_automation']"
				itempath="?/?/ul/?/?/a[@innertext='test_automation']"
				fullname="madaket_XP001Repository.NewGroupAddress.TestAutomation"
				id="58a43febbcb4400d898952530013d95d"
				timeout="60000"
				codefile="c:\Users\JohnPloumis\Documents\Ranorex\RanorexStudio Projects\ranorex_testautomation\madaket_XP001\Sandbox.UserCode.cs"
				codeline="74"
				loglvl="Success">
			</metainfo>
		</item>
		<item
			timeRelativeToTestSuiteStartTime="00:26.183"
			timeRelativeToTestModuleStartTime="00:26.183"
			timeWallClock="11:50:01"
			time="00:26.183"
			level="Warn"
			category="Click">
			<message>
				The mouse action was performed outside the boundaries of the assigned UI element.<br/>(null)
			</message>
			<metainfo
				codefile="c:\Users\JohnPloumis\Documents\Ranorex\RanorexStudio Projects\ranorex_testautomation\madaket_XP001\Sandbox.UserCode.cs"
				codeline="88"
				loglvl="Warn">
			</metainfo>
		</item>
		<item
			timeRelativeToTestSuiteStartTime="00:32.466"
			timeRelativeToTestModuleStartTime="00:32.466"
			timeWallClock="11:50:08"
			time="00:32.466"
			level="Success"
			category="Validation">
			<message>
				Element for item 'TestAutomation' does exist.
			</message>
			<metainfo
				type="repoitem"
				path="/dom[@domain='edi-alpha.madakethealth.com']/?/?/ul/?/?/a[@innertext='test_automation']"
				itempath="?/?/ul/?/?/a[@innertext='test_automation']"
				fullname="madaket_XP001Repository.NewGroupAddress.TestAutomation"
				id="58a43febbcb4400d898952530013d95d"
				timeout="60000"
				codefile="c:\Users\JohnPloumis\Documents\Ranorex\RanorexStudio Projects\ranorex_testautomation\madaket_XP001\Sandbox.UserCode.cs"
				codeline="74"
				loglvl="Success">
			</metainfo>
		</item>
		<item
			timeRelativeToTestSuiteStartTime="00:37.770"
			timeRelativeToTestModuleStartTime="00:37.770"
			timeWallClock="11:50:13"
			time="00:37.770"
			level="Warn"
			category="Click">
			<message>
				The mouse action was performed outside the boundaries of the assigned UI element.<br/>(null)
			</message>
			<metainfo
				codefile="c:\Users\JohnPloumis\Documents\Ranorex\RanorexStudio Projects\ranorex_testautomation\madaket_XP001\Sandbox.UserCode.cs"
				codeline="88"
				loglvl="Warn">
			</metainfo>
		</item>
		<item
			timeRelativeToTestSuiteStartTime="00:44.168"
			timeRelativeToTestModuleStartTime="00:44.168"
			timeWallClock="11:50:19"
			time="00:44.168"
			level="Success"
			category="Validation">
			<message>
				Element for item 'TestAutomation' does exist.
			</message>
			<metainfo
				type="repoitem"
				path="/dom[@domain='edi-alpha.madakethealth.com']/?/?/ul/?/?/a[@innertext='test_automation']"
				itempath="?/?/ul/?/?/a[@innertext='test_automation']"
				fullname="madaket_XP001Repository.NewGroupAddress.TestAutomation"
				id="58a43febbcb4400d898952530013d95d"
				timeout="60000"
				codefile="c:\Users\JohnPloumis\Documents\Ranorex\RanorexStudio Projects\ranorex_testautomation\madaket_XP001\Sandbox.UserCode.cs"
				codeline="74"
				loglvl="Success">
			</metainfo>
		</item>
		<item
			timeRelativeToTestSuiteStartTime="00:49.546"
			timeRelativeToTestModuleStartTime="00:49.546"
			timeWallClock="11:50:25"
			time="00:49.546"
			level="Warn"
			category="Click">
			<message>
				The mouse action was performed outside the boundaries of the assigned UI element.<br/>(null)
			</message>
			<metainfo
				codefile="c:\Users\JohnPloumis\Documents\Ranorex\RanorexStudio Projects\ranorex_testautomation\madaket_XP001\Sandbox.UserCode.cs"
				codeline="88"
				loglvl="Warn">
			</metainfo>
		</item>
		<item
			timeRelativeToTestSuiteStartTime="00:55.847"
			timeRelativeToTestModuleStartTime="00:55.847"
			timeWallClock="11:50:31"
			time="00:55.847"
			level="Success"
			category="Validation">
			<message>
				Element for item 'TestAutomation' does exist.
			</message>
			<metainfo
				type="repoitem"
				path="/dom[@domain='edi-alpha.madakethealth.com']/?/?/ul/?/?/a[@innertext='test_automation']"
				itempath="?/?/ul/?/?/a[@innertext='test_automation']"
				fullname="madaket_XP001Repository.NewGroupAddress.TestAutomation"
				id="58a43febbcb4400d898952530013d95d"
				timeout="60000"
				codefile="c:\Users\JohnPloumis\Documents\Ranorex\RanorexStudio Projects\ranorex_testautomation\madaket_XP001\Sandbox.UserCode.cs"
				codeline="74"
				loglvl="Success">
			</metainfo>
		</item>
		<item
			timeRelativeToTestSuiteStartTime="01:07.727"
			timeRelativeToTestModuleStartTime="01:07.727"
			timeWallClock="11:50:43"
			time="01:07.727"
			level="Success"
			category="Validation">
			<message>
				Element for item 'TestAutomation' does exist.
			</message>
			<metainfo
				type="repoitem"
				path="/dom[@domain='edi-alpha.madakethealth.com']/?/?/ul/?/?/a[@innertext='test_automation']"
				itempath="?/?/ul/?/?/a[@innertext='test_automation']"
				fullname="madaket_XP001Repository.NewGroupAddress.TestAutomation"
				id="58a43febbcb4400d898952530013d95d"
				timeout="60000"
				codefile="c:\Users\JohnPloumis\Documents\Ranorex\RanorexStudio Projects\ranorex_testautomation\madaket_XP001\Sandbox.UserCode.cs"
				codeline="74"
				loglvl="Success">
			</metainfo>
		</item>
	</activity>
</report>
