﻿<?xml version="1.0" encoding="utf-8"?>
<report
	progress="">
	<activity
		result="Failed"
		duration="2.5m"
		durationms="148939"
		type="root"
		rid="a1496966cb010a"
		totalerrorcount="1"
		totalwarningcount="3"
		totalsuccesstestcasecount="0"
		totalfailedtestcasecount="0"
		totalblockedtestcasecount="0"
		childsuccesscount="0"
		childfailedcount="0"
		childblockedcount="0"
		totalsuccesscount="0"
		totalfailedcount="0"
		totalblockedcount="0"
		totalmaintenancemodecount="0"
		user="JohnPloumis"
		rxversion="8.2.1.0"
		host="LAPTOP-5EO8DNU1"
		osversion="Windows 10 64bit"
		runtimeversion="4.0.30319.42000"
		procarch="32bit"
		oslanguage="en-US"
		dtnlanguage="en-US"
		screenresolution="1366x768"
		timestamp="11/9/2018 12:25:48 PM"
		timestampiso="2018-11-09T17:25:48"
		endtime="11/9/2018 12:28:17 PM"
		timeoutfactor="1"
		module="Sandbox">
		<detail>
			Sandbox
		</detail>
		<varbindings>
		</varbindings>
		<item
			timeRelativeToTestSuiteStartTime="00:16.727"
			timeRelativeToTestModuleStartTime="00:16.727"
			timeWallClock="12:26:04"
			time="00:16.727"
			level="Warn"
			category="Click">
			<message>
				The mouse action was performed outside the boundaries of the assigned UI element.<br/>(null)
			</message>
			<metainfo
				codefile="c:\Users\JohnPloumis\Documents\Ranorex\RanorexStudio Projects\ranorex_testautomation\madaket_XP001\Sandbox.UserCode.cs"
				codeline="84"
				loglvl="Warn">
			</metainfo>
		</item>
		<item
			timeRelativeToTestSuiteStartTime="00:33.557"
			timeRelativeToTestModuleStartTime="00:33.557"
			timeWallClock="12:26:21"
			time="00:33.557"
			level="Warn"
			category="Click"
			errimg=".\Sandbox2_a65646ac_rxlog.jpg"
			errthumb=".\Sandbox2_a65646ac_rxlog_thumb.jpg">
			<message>
				The mouse action was performed outside the boundaries of the assigned UI element.<br/>
			</message>
			<metainfo
				codefile="c:\Users\JohnPloumis\Documents\Ranorex\RanorexStudio Projects\ranorex_testautomation\madaket_XP001\Sandbox.UserCode.cs"
				codeline="84"
				loglvl="Warn">
			</metainfo>
		</item>
		<item
			timeRelativeToTestSuiteStartTime="01:08.152"
			timeRelativeToTestModuleStartTime="01:08.152"
			timeWallClock="12:26:56"
			time="01:08.152"
			level="Warn"
			category="Click"
			errimg=".\Sandbox2_31bb46ac_rxlog.jpg"
			errthumb=".\Sandbox2_31bb46ac_rxlog_thumb.jpg">
			<message>
				The mouse action was performed outside the boundaries of the assigned UI element.<br/>
			</message>
			<metainfo
				codefile="c:\Users\JohnPloumis\Documents\Ranorex\RanorexStudio Projects\ranorex_testautomation\madaket_XP001\Sandbox.UserCode.cs"
				codeline="84"
				loglvl="Warn">
			</metainfo>
		</item>
		<item
			timeRelativeToTestSuiteStartTime="02:28.939"
			timeRelativeToTestModuleStartTime="02:28.939"
			timeWallClock="12:28:17"
			time="02:28.939"
			level="Error"
			category="Module">
			<message>
				The test run has been aborted by the user.
			</message>
			<metainfo
				loglvl="Error">
			</metainfo>
		</item>
	</activity>
</report>
