﻿<?xml version="1.0" encoding="utf-8"?>
<report
	progress="">
	<activity
		result="Failed"
		duration="0ms"
		durationms="0"
		type="root"
		rid="8e6d84a05fbb4c"
		totalerrorcount="1"
		totalwarningcount="6"
		totalsuccesstestcasecount="0"
		totalfailedtestcasecount="0"
		totalblockedtestcasecount="0"
		childsuccesscount="0"
		childfailedcount="0"
		childblockedcount="0"
		totalsuccesscount="0"
		totalfailedcount="0"
		totalblockedcount="0"
		totalmaintenancemodecount="0"
		user="JohnPloumis"
		rxversion="8.2.1.0"
		host="LAPTOP-5EO8DNU1"
		osversion="Windows 10 64bit"
		runtimeversion="4.0.30319.42000"
		procarch="32bit"
		oslanguage="en-US"
		dtnlanguage="en-US"
		screenresolution="1366x768"
		timestamp="10/29/2018 2:05:16 PM"
		timestampiso="2018-10-29T18:05:16"
		endtime="10/29/2018 2:07:28 PM"
		timeoutfactor="1"
		module="Sandbox">
		<detail>
			Sandbox
		</detail>
		<errormessage>
			Element for item 'TestAutomation' does not exist (Failed to find item 'madaket_XP001Repository.NewGroupAddress.TestAutomation'. No element found for path '/dom[@domain='edi-alpha.madakethealth.com']/?/?/ul/?/?/a[@innertext='test_automation']' within 1m.).
		</errormessage>
		<varbindings>
		</varbindings>
		<item
			timeRelativeToTestSuiteStartTime="00:08.418"
			timeRelativeToTestModuleStartTime="00:08.434"
			timeWallClock="14:05:25"
			time="00:08.418"
			level="Success"
			category="Validation">
			<message>
				Element for item 'TestAutomation' does exist.
			</message>
			<metainfo
				type="repoitem"
				path="/dom[@domain='edi-alpha.madakethealth.com']/?/?/ul/?/?/a[@innertext='test_automation']"
				itempath="?/?/ul/?/?/a[@innertext='test_automation']"
				fullname="madaket_XP001Repository.NewGroupAddress.TestAutomation"
				id="58a43febbcb4400d898952530013d95d"
				timeout="60000"
				codefile="c:\Users\JohnPloumis\Documents\Ranorex\RanorexStudio Projects\ranorex_testautomation\madaket_XP001\Sandbox.UserCode.cs"
				codeline="74"
				loglvl="Success">
			</metainfo>
		</item>
		<item
			timeRelativeToTestSuiteStartTime="00:13.163"
			timeRelativeToTestModuleStartTime="00:13.178"
			timeWallClock="14:05:30"
			time="00:13.163"
			level="Warn"
			category="Click">
			<message>
				The mouse action was performed outside the boundaries of the assigned UI element.<br/>(null)
			</message>
			<metainfo
				codefile="c:\Users\JohnPloumis\Documents\Ranorex\RanorexStudio Projects\ranorex_testautomation\madaket_XP001\Sandbox.UserCode.cs"
				codeline="88"
				loglvl="Warn">
			</metainfo>
		</item>
		<item
			timeRelativeToTestSuiteStartTime="00:18.768"
			timeRelativeToTestModuleStartTime="00:18.784"
			timeWallClock="14:05:35"
			time="00:18.768"
			level="Success"
			category="Validation">
			<message>
				Element for item 'TestAutomation' does exist.
			</message>
			<metainfo
				type="repoitem"
				path="/dom[@domain='edi-alpha.madakethealth.com']/?/?/ul/?/?/a[@innertext='test_automation']"
				itempath="?/?/ul/?/?/a[@innertext='test_automation']"
				fullname="madaket_XP001Repository.NewGroupAddress.TestAutomation"
				id="58a43febbcb4400d898952530013d95d"
				timeout="60000"
				codefile="c:\Users\JohnPloumis\Documents\Ranorex\RanorexStudio Projects\ranorex_testautomation\madaket_XP001\Sandbox.UserCode.cs"
				codeline="74"
				loglvl="Success">
			</metainfo>
		</item>
		<item
			timeRelativeToTestSuiteStartTime="00:23.510"
			timeRelativeToTestModuleStartTime="00:23.541"
			timeWallClock="14:05:40"
			time="00:23.510"
			level="Warn"
			category="Click">
			<message>
				The mouse action was performed outside the boundaries of the assigned UI element.<br/>(null)
			</message>
			<metainfo
				codefile="c:\Users\JohnPloumis\Documents\Ranorex\RanorexStudio Projects\ranorex_testautomation\madaket_XP001\Sandbox.UserCode.cs"
				codeline="88"
				loglvl="Warn">
			</metainfo>
		</item>
		<item
			timeRelativeToTestSuiteStartTime="00:29.171"
			timeRelativeToTestModuleStartTime="00:29.187"
			timeWallClock="14:05:46"
			time="00:29.171"
			level="Success"
			category="Validation">
			<message>
				Element for item 'TestAutomation' does exist.
			</message>
			<metainfo
				type="repoitem"
				path="/dom[@domain='edi-alpha.madakethealth.com']/?/?/ul/?/?/a[@innertext='test_automation']"
				itempath="?/?/ul/?/?/a[@innertext='test_automation']"
				fullname="madaket_XP001Repository.NewGroupAddress.TestAutomation"
				id="58a43febbcb4400d898952530013d95d"
				timeout="60000"
				codefile="c:\Users\JohnPloumis\Documents\Ranorex\RanorexStudio Projects\ranorex_testautomation\madaket_XP001\Sandbox.UserCode.cs"
				codeline="74"
				loglvl="Success">
			</metainfo>
		</item>
		<item
			timeRelativeToTestSuiteStartTime="00:33.847"
			timeRelativeToTestModuleStartTime="00:33.863"
			timeWallClock="14:05:50"
			time="00:33.847"
			level="Warn"
			category="Click">
			<message>
				The mouse action was performed outside the boundaries of the assigned UI element.<br/>(null)
			</message>
			<metainfo
				codefile="c:\Users\JohnPloumis\Documents\Ranorex\RanorexStudio Projects\ranorex_testautomation\madaket_XP001\Sandbox.UserCode.cs"
				codeline="88"
				loglvl="Warn">
			</metainfo>
		</item>
		<item
			timeRelativeToTestSuiteStartTime="00:39.584"
			timeRelativeToTestModuleStartTime="00:39.599"
			timeWallClock="14:05:56"
			time="00:39.584"
			level="Success"
			category="Validation">
			<message>
				Element for item 'TestAutomation' does exist.
			</message>
			<metainfo
				type="repoitem"
				path="/dom[@domain='edi-alpha.madakethealth.com']/?/?/ul/?/?/a[@innertext='test_automation']"
				itempath="?/?/ul/?/?/a[@innertext='test_automation']"
				fullname="madaket_XP001Repository.NewGroupAddress.TestAutomation"
				id="58a43febbcb4400d898952530013d95d"
				timeout="60000"
				codefile="c:\Users\JohnPloumis\Documents\Ranorex\RanorexStudio Projects\ranorex_testautomation\madaket_XP001\Sandbox.UserCode.cs"
				codeline="74"
				loglvl="Success">
			</metainfo>
		</item>
		<item
			timeRelativeToTestSuiteStartTime="00:44.383"
			timeRelativeToTestModuleStartTime="00:44.399"
			timeWallClock="14:06:01"
			time="00:44.383"
			level="Warn"
			category="Click">
			<message>
				The mouse action was performed outside the boundaries of the assigned UI element.<br/>(null)
			</message>
			<metainfo
				codefile="c:\Users\JohnPloumis\Documents\Ranorex\RanorexStudio Projects\ranorex_testautomation\madaket_XP001\Sandbox.UserCode.cs"
				codeline="88"
				loglvl="Warn">
			</metainfo>
		</item>
		<item
			timeRelativeToTestSuiteStartTime="00:50.193"
			timeRelativeToTestModuleStartTime="00:50.209"
			timeWallClock="14:06:07"
			time="00:50.193"
			level="Success"
			category="Validation">
			<message>
				Element for item 'TestAutomation' does exist.
			</message>
			<metainfo
				type="repoitem"
				path="/dom[@domain='edi-alpha.madakethealth.com']/?/?/ul/?/?/a[@innertext='test_automation']"
				itempath="?/?/ul/?/?/a[@innertext='test_automation']"
				fullname="madaket_XP001Repository.NewGroupAddress.TestAutomation"
				id="58a43febbcb4400d898952530013d95d"
				timeout="60000"
				codefile="c:\Users\JohnPloumis\Documents\Ranorex\RanorexStudio Projects\ranorex_testautomation\madaket_XP001\Sandbox.UserCode.cs"
				codeline="74"
				loglvl="Success">
			</metainfo>
		</item>
		<item
			timeRelativeToTestSuiteStartTime="00:55.036"
			timeRelativeToTestModuleStartTime="00:55.051"
			timeWallClock="14:06:11"
			time="00:55.036"
			level="Warn"
			category="Click">
			<message>
				The mouse action was performed outside the boundaries of the assigned UI element.<br/>(null)
			</message>
			<metainfo
				codefile="c:\Users\JohnPloumis\Documents\Ranorex\RanorexStudio Projects\ranorex_testautomation\madaket_XP001\Sandbox.UserCode.cs"
				codeline="88"
				loglvl="Warn">
			</metainfo>
		</item>
		<item
			timeRelativeToTestSuiteStartTime="01:00.822"
			timeRelativeToTestModuleStartTime="01:00.838"
			timeWallClock="14:06:17"
			time="01:00.822"
			level="Success"
			category="Validation"
			errimg=".\Sandbox2_7149a20a_244a3daf_trace.jpg"
			errthumb=".\Sandbox2_7149a20a_244a3daf_trace_thumb.jpg">
			<message>
				Element for item 'TestAutomation' does exist.
			</message>
			<metainfo
				type="repoitem"
				path="/dom[@domain='edi-alpha.madakethealth.com']/?/?/ul/?/?/a[@innertext='test_automation']"
				itempath="?/?/ul/?/?/a[@innertext='test_automation']"
				fullname="madaket_XP001Repository.NewGroupAddress.TestAutomation"
				id="58a43febbcb4400d898952530013d95d"
				timeout="60000"
				codefile="c:\Users\JohnPloumis\Documents\Ranorex\RanorexStudio Projects\ranorex_testautomation\madaket_XP001\Sandbox.UserCode.cs"
				codeline="74"
				loglvl="Success">
			</metainfo>
		</item>
		<item
			timeRelativeToTestSuiteStartTime="01:05.694"
			timeRelativeToTestModuleStartTime="01:05.710"
			timeWallClock="14:06:22"
			time="01:05.694"
			level="Warn"
			category="Click">
			<message>
				The mouse action was performed outside the boundaries of the assigned UI element.<br/>(null)
			</message>
			<metainfo
				codefile="c:\Users\JohnPloumis\Documents\Ranorex\RanorexStudio Projects\ranorex_testautomation\madaket_XP001\Sandbox.UserCode.cs"
				codeline="88"
				loglvl="Warn">
			</metainfo>
		</item>
		<item
			timeRelativeToTestSuiteStartTime="02:11.657"
			timeRelativeToTestModuleStartTime="02:11.673"
			timeWallClock="14:07:28"
			time="02:11.657"
			level="Failure"
			category="Validation"
			errimg=".\Sandbox2_7149a20a_cf53370c_trace.jpg"
			errthumb=".\Sandbox2_7149a20a_cf53370c_trace_thumb.jpg">
			<message>
				Element for item 'TestAutomation' does not exist (Failed to find item 'madaket_XP001Repository.NewGroupAddress.TestAutomation'. No element found for path '/dom[@domain='edi-alpha.madakethealth.com']/?/?/ul/?/?/a[@innertext='test_automation']' within 1m.).
			</message>
			<metainfo
				type="repoitem"
				path="/dom[@domain='edi-alpha.madakethealth.com']/?/?/ul/?/?/a[@innertext='test_automation']"
				itempath="?/?/ul/?/?/a[@innertext='test_automation']"
				fullname="madaket_XP001Repository.NewGroupAddress.TestAutomation"
				id="58a43febbcb4400d898952530013d95d"
				timeout="60000"
				codefile="c:\Users\JohnPloumis\Documents\Ranorex\RanorexStudio Projects\ranorex_testautomation\madaket_XP001\Sandbox.UserCode.cs"
				codeline="74"
				loglvl="Failure">
			</metainfo>
		</item>
		<item
			timeRelativeToTestSuiteStartTime="02:11.673"
			timeRelativeToTestModuleStartTime="02:11.688"
			timeWallClock="14:07:28"
			time="02:11.673"
			level="Error"
			category="Module"
			errimg=".\Sandbox2_7149a20a_cf53370c_trace.jpg"
			errthumb=".\Sandbox2_7149a20a_cf53370c_trace_thumb.jpg">
			<message>
				Module execution was aborted because a validation step has failed. Element for item 'TestAutomation' does not exist (Failed to find item 'madaket_XP001Repository.NewGroupAddress.TestAutomation'. No element found for path '/dom[@domain='edi-alpha.madakethealth.com']/?/?/ul/?/?/a[@innertext='test_automation']' within 1m.).<br/>Failed to find item 'madaket_XP001Repository.NewGroupAddress.TestAutomation'.<br/>No element found for path '/dom[@domain='edi-alpha.madakethealth.com']/?/?/ul/?/?/a[@innertext='test_automation']' within 1m.
			</message>
			<metainfo
				stacktrace="   at Ranorex.Validate.ThrowValidationException(RepoItemInfo itemInfo, ValidationException ex)
   at Ranorex.Validate.IsTrueInternal(Boolean condition, String message, Options options, RepoItemInfo itemInfo, RanorexException innerException)
   at Ranorex.Validate.Exists(RepoItemInfo itemInfo, String message, Options options)
   at Ranorex.Validate.Exists(RepoItemInfo itemInfo)
   at madaket_XP001.Sandbox.CleanUp() in c:\Users\JohnPloumis\Documents\Ranorex\RanorexStudio Projects\ranorex_testautomation\madaket_XP001\Sandbox.UserCode.cs:line 74
   at madaket_XP001.Sandbox.Ranorex.Core.Testing.ITestModule.Run() in c:\Users\JohnPloumis\Documents\Ranorex\RanorexStudio Projects\ranorex_testautomation\madaket_XP001\Sandbox.cs:line 82
   at Ranorex.Core.Testing.TestModuleLeaf.RunInternal(DataContext parentDataContext, Int32 iteration, Int32 iterationCount, Boolean skipIteration)"
				codefile="c:\Users\JohnPloumis\Documents\Ranorex\RanorexStudio Projects\ranorex_testautomation\madaket_XP001\Sandbox.UserCode.cs"
				codeline="74"
				type="repoitem"
				path="/dom[@domain='edi-alpha.madakethealth.com']/?/?/ul/?/?/a[@innertext='test_automation']"
				itempath="?/?/ul/?/?/a[@innertext='test_automation']"
				fullname="madaket_XP001Repository.NewGroupAddress.TestAutomation"
				id="58a43febbcb4400d898952530013d95d"
				timeout="60000"
				loglvl="Error">
			</metainfo>
		</item>
	</activity>
</report>
