﻿<?xml version="1.0" encoding="utf-8"?>
<report
	progress="">
	<activity
		result="Success"
		duration="0ms"
		durationms="0"
		type="root"
		rid="48732afa44d2b5a"
		totalerrorcount="0"
		totalwarningcount="6"
		totalsuccesstestcasecount="0"
		totalfailedtestcasecount="0"
		totalblockedtestcasecount="0"
		childsuccesscount="0"
		childfailedcount="0"
		childblockedcount="0"
		totalsuccesscount="0"
		totalfailedcount="0"
		totalblockedcount="0"
		totalmaintenancemodecount="0"
		user="JohnPloumis"
		rxversion="8.2.1.0"
		host="LAPTOP-5EO8DNU1"
		osversion="Windows 10 64bit"
		runtimeversion="4.0.30319.42000"
		procarch="32bit"
		oslanguage="en-US"
		dtnlanguage="en-US"
		screenresolution="1366x768"
		timestamp="10/25/2018 8:28:16 AM"
		timestampiso="2018-10-25T12:28:16"
		endtime="10/25/2018 8:29:36 AM"
		timeoutfactor="1"
		module="Sandbox">
		<detail>
			Sandbox
		</detail>
		<varbindings>
		</varbindings>
		<item
			timeRelativeToTestSuiteStartTime="00:10.953"
			timeRelativeToTestModuleStartTime="00:10.969"
			timeWallClock="08:28:27"
			time="00:10.953"
			level="Success"
			category="Validation">
			<message>
				Element for item 'TestAutomation' does exist.
			</message>
			<metainfo
				type="repoitem"
				path="/dom[@domain='edi-alpha.madakethealth.com']/?/?/ul/?/?/a[@innertext='test_automation']"
				itempath="?/?/ul/?/?/a[@innertext='test_automation']"
				fullname="madaket_XP001Repository.NewGroupAddress.TestAutomation"
				id="58a43febbcb4400d898952530013d95d"
				timeout="60000"
				codefile="c:\Users\JohnPloumis\Documents\Ranorex\RanorexStudio Projects\ranorex_testautomation\madaket_XP001\Sandbox.UserCode.cs"
				codeline="74"
				loglvl="Success">
			</metainfo>
		</item>
		<item
			timeRelativeToTestSuiteStartTime="00:16.969"
			timeRelativeToTestModuleStartTime="00:16.985"
			timeWallClock="08:28:33"
			time="00:16.969"
			level="Warn"
			category="Click">
			<message>
				The mouse action was performed outside the boundaries of the assigned UI element.<br/>(null)
			</message>
			<metainfo
				codefile="c:\Users\JohnPloumis\Documents\Ranorex\RanorexStudio Projects\ranorex_testautomation\madaket_XP001\Sandbox.UserCode.cs"
				codeline="88"
				loglvl="Warn">
			</metainfo>
		</item>
		<item
			timeRelativeToTestSuiteStartTime="00:23.673"
			timeRelativeToTestModuleStartTime="00:23.688"
			timeWallClock="08:28:39"
			time="00:23.673"
			level="Success"
			category="Validation">
			<message>
				Element for item 'TestAutomation' does exist.
			</message>
			<metainfo
				type="repoitem"
				path="/dom[@domain='edi-alpha.madakethealth.com']/?/?/ul/?/?/a[@innertext='test_automation']"
				itempath="?/?/ul/?/?/a[@innertext='test_automation']"
				fullname="madaket_XP001Repository.NewGroupAddress.TestAutomation"
				id="58a43febbcb4400d898952530013d95d"
				timeout="60000"
				codefile="c:\Users\JohnPloumis\Documents\Ranorex\RanorexStudio Projects\ranorex_testautomation\madaket_XP001\Sandbox.UserCode.cs"
				codeline="74"
				loglvl="Success">
			</metainfo>
		</item>
		<item
			timeRelativeToTestSuiteStartTime="00:29.492"
			timeRelativeToTestModuleStartTime="00:29.508"
			timeWallClock="08:28:45"
			time="00:29.492"
			level="Warn"
			category="Click">
			<message>
				The mouse action was performed outside the boundaries of the assigned UI element.<br/>(null)
			</message>
			<metainfo
				codefile="c:\Users\JohnPloumis\Documents\Ranorex\RanorexStudio Projects\ranorex_testautomation\madaket_XP001\Sandbox.UserCode.cs"
				codeline="88"
				loglvl="Warn">
			</metainfo>
		</item>
		<item
			timeRelativeToTestSuiteStartTime="00:36.382"
			timeRelativeToTestModuleStartTime="00:36.397"
			timeWallClock="08:28:52"
			time="00:36.382"
			level="Success"
			category="Validation">
			<message>
				Element for item 'TestAutomation' does exist.
			</message>
			<metainfo
				type="repoitem"
				path="/dom[@domain='edi-alpha.madakethealth.com']/?/?/ul/?/?/a[@innertext='test_automation']"
				itempath="?/?/ul/?/?/a[@innertext='test_automation']"
				fullname="madaket_XP001Repository.NewGroupAddress.TestAutomation"
				id="58a43febbcb4400d898952530013d95d"
				timeout="60000"
				codefile="c:\Users\JohnPloumis\Documents\Ranorex\RanorexStudio Projects\ranorex_testautomation\madaket_XP001\Sandbox.UserCode.cs"
				codeline="74"
				loglvl="Success">
			</metainfo>
		</item>
		<item
			timeRelativeToTestSuiteStartTime="00:42.442"
			timeRelativeToTestModuleStartTime="00:42.458"
			timeWallClock="08:28:58"
			time="00:42.442"
			level="Warn"
			category="Click">
			<message>
				The mouse action was performed outside the boundaries of the assigned UI element.<br/>(null)
			</message>
			<metainfo
				codefile="c:\Users\JohnPloumis\Documents\Ranorex\RanorexStudio Projects\ranorex_testautomation\madaket_XP001\Sandbox.UserCode.cs"
				codeline="88"
				loglvl="Warn">
			</metainfo>
		</item>
		<item
			timeRelativeToTestSuiteStartTime="00:49.224"
			timeRelativeToTestModuleStartTime="00:49.240"
			timeWallClock="08:29:05"
			time="00:49.224"
			level="Success"
			category="Validation">
			<message>
				Element for item 'TestAutomation' does exist.
			</message>
			<metainfo
				type="repoitem"
				path="/dom[@domain='edi-alpha.madakethealth.com']/?/?/ul/?/?/a[@innertext='test_automation']"
				itempath="?/?/ul/?/?/a[@innertext='test_automation']"
				fullname="madaket_XP001Repository.NewGroupAddress.TestAutomation"
				id="58a43febbcb4400d898952530013d95d"
				timeout="60000"
				codefile="c:\Users\JohnPloumis\Documents\Ranorex\RanorexStudio Projects\ranorex_testautomation\madaket_XP001\Sandbox.UserCode.cs"
				codeline="74"
				loglvl="Success">
			</metainfo>
		</item>
		<item
			timeRelativeToTestSuiteStartTime="00:54.912"
			timeRelativeToTestModuleStartTime="00:54.927"
			timeWallClock="08:29:11"
			time="00:54.912"
			level="Warn"
			category="Click">
			<message>
				The mouse action was performed outside the boundaries of the assigned UI element.<br/>(null)
			</message>
			<metainfo
				codefile="c:\Users\JohnPloumis\Documents\Ranorex\RanorexStudio Projects\ranorex_testautomation\madaket_XP001\Sandbox.UserCode.cs"
				codeline="88"
				loglvl="Warn">
			</metainfo>
		</item>
		<item
			timeRelativeToTestSuiteStartTime="01:01.378"
			timeRelativeToTestModuleStartTime="01:01.394"
			timeWallClock="08:29:17"
			time="01:01.378"
			level="Success"
			category="Validation">
			<message>
				Element for item 'TestAutomation' does exist.
			</message>
			<metainfo
				type="repoitem"
				path="/dom[@domain='edi-alpha.madakethealth.com']/?/?/ul/?/?/a[@innertext='test_automation']"
				itempath="?/?/ul/?/?/a[@innertext='test_automation']"
				fullname="madaket_XP001Repository.NewGroupAddress.TestAutomation"
				id="58a43febbcb4400d898952530013d95d"
				timeout="60000"
				codefile="c:\Users\JohnPloumis\Documents\Ranorex\RanorexStudio Projects\ranorex_testautomation\madaket_XP001\Sandbox.UserCode.cs"
				codeline="74"
				loglvl="Success">
			</metainfo>
		</item>
		<item
			timeRelativeToTestSuiteStartTime="01:06.816"
			timeRelativeToTestModuleStartTime="01:06.831"
			timeWallClock="08:29:23"
			time="01:06.816"
			level="Warn"
			category="Click">
			<message>
				The mouse action was performed outside the boundaries of the assigned UI element.<br/>(null)
			</message>
			<metainfo
				codefile="c:\Users\JohnPloumis\Documents\Ranorex\RanorexStudio Projects\ranorex_testautomation\madaket_XP001\Sandbox.UserCode.cs"
				codeline="88"
				loglvl="Warn">
			</metainfo>
		</item>
		<item
			timeRelativeToTestSuiteStartTime="01:13.129"
			timeRelativeToTestModuleStartTime="01:13.144"
			timeWallClock="08:29:29"
			time="01:13.129"
			level="Success"
			category="Validation">
			<message>
				Element for item 'TestAutomation' does exist.
			</message>
			<metainfo
				type="repoitem"
				path="/dom[@domain='edi-alpha.madakethealth.com']/?/?/ul/?/?/a[@innertext='test_automation']"
				itempath="?/?/ul/?/?/a[@innertext='test_automation']"
				fullname="madaket_XP001Repository.NewGroupAddress.TestAutomation"
				id="58a43febbcb4400d898952530013d95d"
				timeout="60000"
				codefile="c:\Users\JohnPloumis\Documents\Ranorex\RanorexStudio Projects\ranorex_testautomation\madaket_XP001\Sandbox.UserCode.cs"
				codeline="74"
				loglvl="Success">
			</metainfo>
		</item>
		<item
			timeRelativeToTestSuiteStartTime="01:18.754"
			timeRelativeToTestModuleStartTime="01:18.770"
			timeWallClock="08:29:35"
			time="01:18.754"
			level="Warn"
			category="Click">
			<message>
				The mouse action was performed outside the boundaries of the assigned UI element.<br/>(null)
			</message>
			<metainfo
				codefile="c:\Users\JohnPloumis\Documents\Ranorex\RanorexStudio Projects\ranorex_testautomation\madaket_XP001\Sandbox.UserCode.cs"
				codeline="88"
				loglvl="Warn">
			</metainfo>
		</item>
	</activity>
</report>
