﻿<?xml version="1.0" encoding="utf-8"?>
<report
	progress="">
	<activity
		result="Failed"
		duration="1.1m"
		durationms="66427"
		type="root"
		rid="11ba471d557a5f73"
		totalerrorcount="1"
		totalwarningcount="0"
		totalsuccesstestcasecount="0"
		totalfailedtestcasecount="0"
		totalblockedtestcasecount="0"
		childsuccesscount="0"
		childfailedcount="0"
		childblockedcount="0"
		totalsuccesscount="0"
		totalfailedcount="0"
		totalblockedcount="0"
		totalmaintenancemodecount="0"
		user="JohnPloumis"
		rxversion="8.3.1.0"
		host="LAPTOP-5EO8DNU1"
		osversion="Windows 10 64bit"
		runtimeversion="4.0.30319.42000"
		procarch="32bit"
		oslanguage="en-US"
		dtnlanguage="en-US"
		screenresolution="1366x768"
		timestamp="11/29/2018 2:11:42 PM"
		timestampiso="2018-11-29T19:11:42"
		endtime="11/29/2018 2:12:49 PM"
		timeoutfactor="1"
		module="TestCase_5283_new_library_form">
		<detail>
			TestCase_5283_new_library_form
		</detail>
		<varbindings>
		</varbindings>
		<item
			timeRelativeToTestSuiteStartTime="00:04.240"
			timeRelativeToTestModuleStartTime="00:04.241"
			timeWallClock="14:11:46"
			time="00:04.240"
			level="Info"
			category="Mouse">
			<message>
				Mouse Left Click item 'NewGroupAddress.DivTagLibrary' at 24;16.
			</message>
			<metainfo
				type="repoitem"
				path="/dom[@domain='edi-alpha.madakethealth.com']//nav[#'mainNav']/ul//div[@innertext='Library']"
				itempath=".//nav[#'mainNav']/ul//div[@innertext='Library']"
				fullname="madaket_XP001Repository.NewGroupAddress.DivTagLibrary"
				id="517bbb2e0d5e430e828e1db2df1c849c"
				timeout="60000"
				codefile="c:\Users\JohnPloumis\Documents\Ranorex\RanorexStudio Projects\ranorex_testautomation\madaket_XP001\TestCase_5283_new_library_form.cs"
				codeline="82"
				itemindex="0"
				loglvl="Info">
			</metainfo>
		</item>
		<item
			timeRelativeToTestSuiteStartTime="00:10.122"
			timeRelativeToTestModuleStartTime="00:10.123"
			timeWallClock="14:11:52"
			time="00:10.122"
			level="Info"
			category="Mouse">
			<message>
				Mouse Left Click item 'NewGroupAddress.NewLibraryFile' at 47;6.
			</message>
			<metainfo
				type="repoitem"
				path="/dom[@domain='edi-alpha.madakethealth.com']//a[#'newLibraryFile']"
				itempath=".//a[#'newLibraryFile']"
				fullname="madaket_XP001Repository.NewGroupAddress.NewLibraryFile"
				id="027d7bec465d4af4a87812c98d405059"
				timeout="60000"
				codefile="c:\Users\JohnPloumis\Documents\Ranorex\RanorexStudio Projects\ranorex_testautomation\madaket_XP001\TestCase_5283_new_library_form.cs"
				codeline="85"
				itemindex="1"
				loglvl="Info">
			</metainfo>
		</item>
		<item
			timeRelativeToTestSuiteStartTime="00:12.921"
			timeRelativeToTestModuleStartTime="00:12.922"
			timeWallClock="14:11:55"
			time="00:12.921"
			level="Info"
			category="Mouse">
			<message>
				Mouse Left Click item 'MadaketHealth.PayerName' at 167;21.
			</message>
			<metainfo
				type="repoitem"
				path="/dom[@domain='edi-alpha.madakethealth.com']//input[#'payerName']"
				itempath=".//input[#'payerName']"
				fullname="madaket_XP001Repository.MadaketHealth.PayerName"
				id="d13f36e3d9574502a0ea370497446279"
				timeout="60000"
				codefile="c:\Users\JohnPloumis\Documents\Ranorex\RanorexStudio Projects\ranorex_testautomation\madaket_XP001\TestCase_5283_new_library_form.cs"
				codeline="88"
				itemindex="2"
				loglvl="Info">
			</metainfo>
		</item>
		<item
			timeRelativeToTestSuiteStartTime="00:15.018"
			timeRelativeToTestModuleStartTime="00:15.019"
			timeWallClock="14:11:57"
			time="00:15.018"
			level="Info"
			category="Keyboard">
			<message>
				Key sequence 'test' with focus on 'MadaketHealth.PayerName'.
			</message>
			<metainfo
				type="repoitem"
				path="/dom[@domain='edi-alpha.madakethealth.com']//input[#'payerName']"
				itempath=".//input[#'payerName']"
				fullname="madaket_XP001Repository.MadaketHealth.PayerName"
				id="d13f36e3d9574502a0ea370497446279"
				timeout="60000"
				codefile="c:\Users\JohnPloumis\Documents\Ranorex\RanorexStudio Projects\ranorex_testautomation\madaket_XP001\TestCase_5283_new_library_form.cs"
				codeline="91"
				itemindex="3"
				loglvl="Info">
			</metainfo>
		</item>
		<item
			timeRelativeToTestSuiteStartTime="00:17.028"
			timeRelativeToTestModuleStartTime="00:17.029"
			timeWallClock="14:11:59"
			time="00:17.028"
			level="Info"
			category="Mouse">
			<message>
				Mouse Left Click item 'NewGroupAddress.TestPayerAutomation5283' at 140;14.
			</message>
			<metainfo
				type="repoitem"
				path="/dom[@domain='edi-alpha.madakethealth.com']/?/?/ul/?/?/a[@innertext~'^test_payer_automation_528']"
				itempath="?/?/ul/?/?/a[@innertext~'^test_payer_automation_528']"
				fullname="madaket_XP001Repository.NewGroupAddress.TestPayerAutomation5283"
				id="5ec5ec51eebe41adb8d9637a6b21ed28"
				timeout="60000"
				codefile="c:\Users\JohnPloumis\Documents\Ranorex\RanorexStudio Projects\ranorex_testautomation\madaket_XP001\TestCase_5283_new_library_form.cs"
				codeline="94"
				itemindex="4"
				loglvl="Info">
			</metainfo>
		</item>
		<item
			timeRelativeToTestSuiteStartTime="00:23.802"
			timeRelativeToTestModuleStartTime="00:23.803"
			timeWallClock="14:12:06"
			time="00:23.802"
			level="Info"
			category="Mouse">
			<message>
				Mouse Left Click item 'NewGroupAddress.FileName' at 114;19.
			</message>
			<metainfo
				type="repoitem"
				path="/dom[@domain='edi-alpha.madakethealth.com']//input[#'fileName']"
				itempath=".//input[#'fileName']"
				fullname="madaket_XP001Repository.NewGroupAddress.FileName"
				id="c5aa8c09d5a347dd824390528967c79d"
				timeout="60000"
				codefile="c:\Users\JohnPloumis\Documents\Ranorex\RanorexStudio Projects\ranorex_testautomation\madaket_XP001\TestCase_5283_new_library_form.cs"
				codeline="97"
				itemindex="5"
				loglvl="Info">
			</metainfo>
		</item>
		<item
			timeRelativeToTestSuiteStartTime="00:26.038"
			timeRelativeToTestModuleStartTime="00:26.039"
			timeWallClock="14:12:08"
			time="00:26.038"
			level="Info"
			category="Keyboard">
			<message>
				Key sequence 'new_test_library_file_5283' with focus on 'NewGroupAddress.FileName'.
			</message>
			<metainfo
				type="repoitem"
				path="/dom[@domain='edi-alpha.madakethealth.com']//input[#'fileName']"
				itempath=".//input[#'fileName']"
				fullname="madaket_XP001Repository.NewGroupAddress.FileName"
				id="c5aa8c09d5a347dd824390528967c79d"
				timeout="60000"
				codefile="c:\Users\JohnPloumis\Documents\Ranorex\RanorexStudio Projects\ranorex_testautomation\madaket_XP001\TestCase_5283_new_library_form.cs"
				codeline="100"
				itemindex="6"
				loglvl="Info">
			</metainfo>
		</item>
		<item
			timeRelativeToTestSuiteStartTime="00:28.965"
			timeRelativeToTestModuleStartTime="00:28.966"
			timeWallClock="14:12:11"
			time="00:28.965"
			level="Info"
			category="Mouse">
			<message>
				Mouse Left Click item 'NewGroupAddress.TableLayoutPaddedTables.EnterDescription1' at 98;16.
			</message>
			<metainfo
				type="repoitem"
				path="/dom[@domain='edi-alpha.madakethealth.com']//form[#'libraryFileForm']/div[1]/div/div[7]/?/?/textarea[@placeholder='Enter description']"
				itempath="div[7]/?/?/textarea[@placeholder='Enter description']"
				fullname="madaket_XP001Repository.NewGroupAddress.TableLayoutPaddedTables.EnterDescription1"
				id="c07c0460096b4b01ba61fbaaa01c2c65"
				timeout="90000"
				codefile="c:\Users\JohnPloumis\Documents\Ranorex\RanorexStudio Projects\ranorex_testautomation\madaket_XP001\TestCase_5283_new_library_form.cs"
				codeline="103"
				itemindex="7"
				loglvl="Info">
			</metainfo>
		</item>
		<item
			timeRelativeToTestSuiteStartTime="00:31.198"
			timeRelativeToTestModuleStartTime="00:31.199"
			timeWallClock="14:12:13"
			time="00:31.198"
			level="Info"
			category="Keyboard">
			<message>
				Key sequence 'new test library file' with focus on 'NewGroupAddress.TableLayoutPaddedTables.EnterDescription1'.
			</message>
			<metainfo
				type="repoitem"
				path="/dom[@domain='edi-alpha.madakethealth.com']//form[#'libraryFileForm']/div[1]/div/div[7]/?/?/textarea[@placeholder='Enter description']"
				itempath="div[7]/?/?/textarea[@placeholder='Enter description']"
				fullname="madaket_XP001Repository.NewGroupAddress.TableLayoutPaddedTables.EnterDescription1"
				id="c07c0460096b4b01ba61fbaaa01c2c65"
				timeout="90000"
				codefile="c:\Users\JohnPloumis\Documents\Ranorex\RanorexStudio Projects\ranorex_testautomation\madaket_XP001\TestCase_5283_new_library_form.cs"
				codeline="106"
				itemindex="8"
				loglvl="Info">
			</metainfo>
		</item>
		<item
			timeRelativeToTestSuiteStartTime="00:33.646"
			timeRelativeToTestModuleStartTime="00:33.647"
			timeWallClock="14:12:16"
			time="00:33.646"
			level="Info"
			category="Mouse">
			<message>
				Mouse Left Click item 'NewGroupAddress.CSISelect' at 5;9.
			</message>
			<metainfo
				type="repoitem"
				path="/dom[@domain='edi-alpha.madakethealth.com']//div[#'transactiontypeComboMasterList']/?/?/input[@name='transactions[1]']"
				itempath=".//div[#'transactiontypeComboMasterList']/?/?/input[@name='transactions[1]']"
				fullname="madaket_XP001Repository.NewGroupAddress.CSISelect"
				id="245d3614300d4924956102ea8b2fdea3"
				timeout="60000"
				codefile="c:\Users\JohnPloumis\Documents\Ranorex\RanorexStudio Projects\ranorex_testautomation\madaket_XP001\TestCase_5283_new_library_form.cs"
				codeline="109"
				itemindex="9"
				loglvl="Info">
			</metainfo>
		</item>
		<item
			timeRelativeToTestSuiteStartTime="00:35.882"
			timeRelativeToTestModuleStartTime="00:35.883"
			timeWallClock="14:12:18"
			time="00:35.882"
			level="Info"
			category="Mouse">
			<message>
				Mouse Left Click item 'NewGroupAddress.SelectedFileName' at 45;7.
			</message>
			<metainfo
				type="repoitem"
				path="/dom[@domain='edi-alpha.madakethealth.com']//span[#'selectedFileName']"
				itempath=".//span[#'selectedFileName']"
				fullname="madaket_XP001Repository.NewGroupAddress.SelectedFileName"
				id="0822b18288724a0f9132736aabd6f12a"
				timeout="60000"
				codefile="c:\Users\JohnPloumis\Documents\Ranorex\RanorexStudio Projects\ranorex_testautomation\madaket_XP001\TestCase_5283_new_library_form.cs"
				codeline="112"
				itemindex="10"
				loglvl="Info">
			</metainfo>
		</item>
		<item
			timeRelativeToTestSuiteStartTime="00:37.918"
			timeRelativeToTestModuleStartTime="00:37.919"
			timeWallClock="14:12:20"
			time="00:37.918"
			level="Info"
			category="Delay">
			<message>
				Waiting for 500ms.
			</message>
			<metainfo
				itemindex="11"
				codefile="c:\Users\JohnPloumis\Documents\Ranorex\RanorexStudio Projects\ranorex_testautomation\madaket_XP001\TestCase_5283_new_library_form.cs"
				codeline="115"
				loglvl="Info">
			</metainfo>
		</item>
		<item
			timeRelativeToTestSuiteStartTime="00:38.454"
			timeRelativeToTestModuleStartTime="00:38.455"
			timeWallClock="14:12:21"
			time="00:38.454"
			level="Info"
			category="User">
			<message>
				C:\Users\JohnPloumis\Documents\Ranorex\RanorexStudio Projects\ranorex_testautomation\madaket_XP001\TestData
			</message>
			<metainfo
				codefile="c:\Users\JohnPloumis\Documents\Ranorex\RanorexStudio Projects\ranorex_testautomation\madaket_XP001\TestCase_5283_new_library_form.UserCode.cs"
				codeline="42"
				loglvl="Info">
			</metainfo>
		</item>
		<item
			timeRelativeToTestSuiteStartTime="01:06.427"
			timeRelativeToTestModuleStartTime="01:06.428"
			timeWallClock="14:12:49"
			time="01:06.427"
			level="Error"
			category="Module">
			<message>
				The test run has been aborted by the user.
			</message>
			<metainfo
				loglvl="Error">
			</metainfo>
		</item>
	</activity>
</report>
