﻿<?xml version="1.0" encoding="utf-8"?>
<report
	progress="">
	<activity
		result="Success"
		duration="0ms"
		durationms="0"
		type="root"
		rid="2ed861c7c2f4601d"
		totalerrorcount="0"
		totalwarningcount="0"
		totalsuccesstestcasecount="0"
		totalfailedtestcasecount="0"
		totalblockedtestcasecount="0"
		childsuccesscount="0"
		childfailedcount="0"
		childblockedcount="0"
		totalsuccesscount="0"
		totalfailedcount="0"
		totalblockedcount="0"
		totalmaintenancemodecount="0"
		user="JohnPloumis"
		rxversion="8.3.1.0"
		host="LAPTOP-5EO8DNU1"
		osversion="Windows 10 64bit"
		runtimeversion="4.0.30319.42000"
		procarch="32bit"
		oslanguage="en-US"
		dtnlanguage="en-US"
		screenresolution="1366x768"
		timestamp="11/30/2018 11:12:25 AM"
		timestampiso="2018-11-30T16:12:25"
		endtime="11/30/2018 11:13:43 AM"
		timeoutfactor="1"
		module="TestCase_5283_new_plan">
		<detail>
			TestCase_5283_new_plan
		</detail>
		<varbindings>
		</varbindings>
		<item
			timeRelativeToTestSuiteStartTime="00:04.596"
			timeRelativeToTestModuleStartTime="00:04.599"
			timeWallClock="11:12:30"
			time="00:04.596"
			level="Info"
			category="Mouse">
			<message>
				Mouse Left Click item 'MadaketHealth.DivTagPlans' at 9;16.
			</message>
			<metainfo
				type="repoitem"
				path="/dom[@domain='edi-alpha.madakethealth.com']//nav[#'mainNav']/ul//div[@innertext='Plans']"
				itempath=".//nav[#'mainNav']/ul//div[@innertext='Plans']"
				fullname="madaket_XP001Repository.MadaketHealth.DivTagPlans"
				id="4245ea03cf1f44b2977e9e08c91a4768"
				timeout="60000"
				codefile="c:\Users\JohnPloumis\Documents\Ranorex\RanorexStudio Projects\ranorex_testautomation\madaket_XP001\TestCase_5283_new_plan.cs"
				codeline="82"
				itemindex="0"
				loglvl="Info">
			</metainfo>
		</item>
		<item
			timeRelativeToTestSuiteStartTime="00:11.700"
			timeRelativeToTestModuleStartTime="00:11.703"
			timeWallClock="11:12:37"
			time="00:11.700"
			level="Info"
			category="Delay">
			<message>
				Waiting for 4.5s.
			</message>
			<metainfo
				itemindex="1"
				codefile="c:\Users\JohnPloumis\Documents\Ranorex\RanorexStudio Projects\ranorex_testautomation\madaket_XP001\TestCase_5283_new_plan.cs"
				codeline="86"
				loglvl="Info">
			</metainfo>
		</item>
		<item
			timeRelativeToTestSuiteStartTime="00:16.231"
			timeRelativeToTestModuleStartTime="00:16.234"
			timeWallClock="11:12:41"
			time="00:16.231"
			level="Info"
			category="Mouse">
			<message>
				Mouse Left Click item 'MadaketHealth.DataTablesScrollBody1' at LowerCenter.
			</message>
			<metainfo
				type="repoitem"
				path="/dom[@domain='edi-alpha.madakethealth.com']//div[#'planList_wrapper']/div[3]/div[2]"
				itempath=".//div[#'planList_wrapper']/div[3]/div[2]"
				fullname="madaket_XP001Repository.MadaketHealth.DataTablesScrollBody1"
				id="24641ab377e1414199910c7a5ef0efc6"
				timeout="60000"
				codefile="c:\Users\JohnPloumis\Documents\Ranorex\RanorexStudio Projects\ranorex_testautomation\madaket_XP001\TestCase_5283_new_plan.cs"
				codeline="89"
				itemindex="2"
				loglvl="Info">
			</metainfo>
		</item>
		<item
			timeRelativeToTestSuiteStartTime="00:18.828"
			timeRelativeToTestModuleStartTime="00:18.831"
			timeWallClock="11:12:44"
			time="00:18.828"
			level="Info"
			category="Mouse">
			<message>
				Mouse Left Click item 'MadaketHealth.AddPlan' at 36;7.
			</message>
			<metainfo
				type="repoitem"
				path="/dom[@domain='edi-alpha.madakethealth.com']//a[#'addPlan']"
				itempath=".//a[#'addPlan']"
				fullname="madaket_XP001Repository.MadaketHealth.AddPlan"
				id="66c0eee316bd4ab080f4ac6fb9d08a52"
				timeout="60000"
				codefile="c:\Users\JohnPloumis\Documents\Ranorex\RanorexStudio Projects\ranorex_testautomation\madaket_XP001\TestCase_5283_new_plan.cs"
				codeline="93"
				itemindex="3"
				loglvl="Info">
			</metainfo>
		</item>
		<item
			timeRelativeToTestSuiteStartTime="00:21.100"
			timeRelativeToTestModuleStartTime="00:21.103"
			timeWallClock="11:12:46"
			time="00:21.100"
			level="Info"
			category="Mouse">
			<message>
				Mouse Left Click item 'MadaketHealth.PopupScrollContainer4' at 679;399.
			</message>
			<metainfo
				type="repoitem"
				path="/dom[@domain='edi-alpha.madakethealth.com']//div[#'addOrUpdatePlanPopup']/div[2]"
				itempath=".//div[#'addOrUpdatePlanPopup']/div[2]"
				fullname="madaket_XP001Repository.MadaketHealth.PopupScrollContainer4"
				id="acb01864dd9f45ab9b8c227267ba503f"
				timeout="60000"
				codefile="c:\Users\JohnPloumis\Documents\Ranorex\RanorexStudio Projects\ranorex_testautomation\madaket_XP001\TestCase_5283_new_plan.cs"
				codeline="97"
				itemindex="4"
				loglvl="Info">
			</metainfo>
		</item>
		<item
			timeRelativeToTestSuiteStartTime="00:23.525"
			timeRelativeToTestModuleStartTime="00:23.528"
			timeWallClock="11:12:49"
			time="00:23.525"
			level="Info"
			category="Mouse">
			<message>
				Mouse Left Click item 'MadaketHealth.SavePlan' at Center.
			</message>
			<metainfo
				type="repoitem"
				path="/dom[@domain='edi-alpha.madakethealth.com']//button[#'savePlan']"
				itempath=".//button[#'savePlan']"
				fullname="madaket_XP001Repository.MadaketHealth.SavePlan"
				id="88eec87dc8ff49e59ec19c60ea9b94ae"
				timeout="60000"
				codefile="c:\Users\JohnPloumis\Documents\Ranorex\RanorexStudio Projects\ranorex_testautomation\madaket_XP001\TestCase_5283_new_plan.cs"
				codeline="101"
				itemindex="5"
				loglvl="Info">
			</metainfo>
		</item>
		<item
			timeRelativeToTestSuiteStartTime="00:25.730"
			timeRelativeToTestModuleStartTime="00:25.733"
			timeWallClock="11:12:51"
			time="00:25.730"
			level="Info"
			category="Mouse">
			<message>
				Mouse Left Click item 'MadaketHealth.PleaseEnterName' at 36;5.
			</message>
			<metainfo
				type="repoitem"
				path="/dom[@domain='edi-alpha.madakethealth.com']//div[#'planNameErrorContainer']/label[@innertext='Please enter name']"
				itempath=".//div[#'planNameErrorContainer']/label[@innertext='Please enter name']"
				fullname="madaket_XP001Repository.MadaketHealth.PleaseEnterName"
				id="a35ce17d1bb94f41bb4af13050eb2d6d"
				timeout="60000"
				codefile="c:\Users\JohnPloumis\Documents\Ranorex\RanorexStudio Projects\ranorex_testautomation\madaket_XP001\TestCase_5283_new_plan.cs"
				codeline="105"
				itemindex="6"
				loglvl="Info">
			</metainfo>
		</item>
		<item
			timeRelativeToTestSuiteStartTime="00:28.447"
			timeRelativeToTestModuleStartTime="00:28.450"
			timeWallClock="11:12:54"
			time="00:28.447"
			level="Info"
			category="Mouse">
			<message>
				Mouse Left Click item 'MadaketHealth.PleaseEnterPlanId' at 39;8.
			</message>
			<metainfo
				type="repoitem"
				path="/dom[@domain='edi-alpha.madakethealth.com']//div[#'customPayerIdErrorContainer']/label[@innertext='Please enter plan id']"
				itempath=".//div[#'customPayerIdErrorContainer']/label[@innertext='Please enter plan id']"
				fullname="madaket_XP001Repository.MadaketHealth.PleaseEnterPlanId"
				id="4b5a463c7d3049de966697275ba8c410"
				timeout="60000"
				codefile="c:\Users\JohnPloumis\Documents\Ranorex\RanorexStudio Projects\ranorex_testautomation\madaket_XP001\TestCase_5283_new_plan.cs"
				codeline="109"
				itemindex="7"
				loglvl="Info">
			</metainfo>
		</item>
		<item
			timeRelativeToTestSuiteStartTime="00:31.331"
			timeRelativeToTestModuleStartTime="00:31.334"
			timeWallClock="11:12:56"
			time="00:31.331"
			level="Info"
			category="Mouse">
			<message>
				Mouse Left Click item 'MadaketHealth.PleaseEnterPayerName' at 45;9.
			</message>
			<metainfo
				type="repoitem"
				path="/dom[@domain='edi-alpha.madakethealth.com']//div[#'payerErrorContainer']/label[@innertext~'^Please\ select\ payer\ from\ ']"
				itempath=".//div[#'payerErrorContainer']/label[@innertext~'^Please\ select\ payer\ from\ ']"
				fullname="madaket_XP001Repository.MadaketHealth.PleaseEnterPayerName"
				id="4c9893c40305426a8e1fb0914be576b5"
				timeout="60000"
				codefile="c:\Users\JohnPloumis\Documents\Ranorex\RanorexStudio Projects\ranorex_testautomation\madaket_XP001\TestCase_5283_new_plan.cs"
				codeline="113"
				itemindex="8"
				loglvl="Info">
			</metainfo>
		</item>
		<item
			timeRelativeToTestSuiteStartTime="00:34.063"
			timeRelativeToTestModuleStartTime="00:34.066"
			timeWallClock="11:12:59"
			time="00:34.063"
			level="Info"
			category="Mouse">
			<message>
				Mouse Left Click item 'MadaketHealth.PleaseSelectPartnerAdmin' at 83;6.
			</message>
			<metainfo
				type="repoitem"
				path="/dom[@domain='edi-alpha.madakethealth.com']//div[#'partnerAdminGUIDErrorContainer']/label[@innertext~'^Please\ select\ partner\ adm']"
				itempath=".//div[#'partnerAdminGUIDErrorContainer']/label[@innertext~'^Please\ select\ partner\ adm']"
				fullname="madaket_XP001Repository.MadaketHealth.PleaseSelectPartnerAdmin"
				id="b203cbe7dc924ce09d1503d069095d64"
				timeout="60000"
				codefile="c:\Users\JohnPloumis\Documents\Ranorex\RanorexStudio Projects\ranorex_testautomation\madaket_XP001\TestCase_5283_new_plan.cs"
				codeline="117"
				itemindex="9"
				loglvl="Info">
			</metainfo>
		</item>
		<item
			timeRelativeToTestSuiteStartTime="00:36.694"
			timeRelativeToTestModuleStartTime="00:36.697"
			timeWallClock="11:13:02"
			time="00:36.694"
			level="Info"
			category="Set value">
			<message>
				Setting attribute Value to 'test_aumation_uniqueID_5283' on item 'MadaketHealth.UniquePlanId'.
			</message>
			<metainfo
				type="repoitem"
				path="/dom[@domain='edi-alpha.madakethealth.com']//input[#'uniquePlanId']"
				itempath=".//input[#'uniquePlanId']"
				fullname="madaket_XP001Repository.MadaketHealth.UniquePlanId"
				id="cfd1d67bd70d45a6a108acd7ba0153cd"
				timeout="60000"
				codefile="c:\Users\JohnPloumis\Documents\Ranorex\RanorexStudio Projects\ranorex_testautomation\madaket_XP001\TestCase_5283_new_plan.cs"
				codeline="121"
				itemindex="10"
				loglvl="Info">
			</metainfo>
		</item>
		<item
			timeRelativeToTestSuiteStartTime="00:37.650"
			timeRelativeToTestModuleStartTime="00:37.653"
			timeWallClock="11:13:03"
			time="00:37.650"
			level="Info"
			category="Mouse">
			<message>
				Mouse Left Click item 'MadaketHealth.UniquePlanId' at LowerRight.
			</message>
			<metainfo
				type="repoitem"
				path="/dom[@domain='edi-alpha.madakethealth.com']//input[#'uniquePlanId']"
				itempath=".//input[#'uniquePlanId']"
				fullname="madaket_XP001Repository.MadaketHealth.UniquePlanId"
				id="cfd1d67bd70d45a6a108acd7ba0153cd"
				timeout="60000"
				codefile="c:\Users\JohnPloumis\Documents\Ranorex\RanorexStudio Projects\ranorex_testautomation\madaket_XP001\TestCase_5283_new_plan.cs"
				codeline="125"
				itemindex="11"
				loglvl="Info">
			</metainfo>
		</item>
		<item
			timeRelativeToTestSuiteStartTime="00:40.566"
			timeRelativeToTestModuleStartTime="00:40.569"
			timeWallClock="11:13:06"
			time="00:40.566"
			level="Info"
			category="Mouse">
			<message>
				Mouse Left Click item 'NewGroupAddress.PlanContainer' at 10;138.
			</message>
			<metainfo
				type="repoitem"
				path="/dom[@domain='edi-alpha.madakethealth.com']//form[#'planForm']/div/fieldset[1]"
				itempath=".//form[#'planForm']/div/fieldset[1]"
				fullname="madaket_XP001Repository.NewGroupAddress.PlanContainer"
				id="53bacd46d26541ceb49888f220832121"
				timeout="60000"
				codefile="c:\Users\JohnPloumis\Documents\Ranorex\RanorexStudio Projects\ranorex_testautomation\madaket_XP001\TestCase_5283_new_plan.cs"
				codeline="129"
				itemindex="12"
				loglvl="Info">
			</metainfo>
		</item>
		<item
			timeRelativeToTestSuiteStartTime="00:43.312"
			timeRelativeToTestModuleStartTime="00:43.315"
			timeWallClock="11:13:08"
			time="00:43.312"
			level="Info"
			category="Set value">
			<message>
				Setting attribute Value to 'test_payer_automation_5283' on item 'MadaketHealth.Name'.
			</message>
			<metainfo
				type="repoitem"
				path="/dom[@domain='edi-alpha.madakethealth.com']//input[#'name']"
				itempath=".//input[#'name']"
				fullname="madaket_XP001Repository.MadaketHealth.Name"
				id="d469a389ded14e77a9e3a1bb2cdd2837"
				timeout="60000"
				codefile="c:\Users\JohnPloumis\Documents\Ranorex\RanorexStudio Projects\ranorex_testautomation\madaket_XP001\TestCase_5283_new_plan.cs"
				codeline="133"
				itemindex="13"
				loglvl="Info">
			</metainfo>
		</item>
		<item
			timeRelativeToTestSuiteStartTime="00:44.190"
			timeRelativeToTestModuleStartTime="00:44.193"
			timeWallClock="11:13:09"
			time="00:44.190"
			level="Info"
			category="Mouse">
			<message>
				Mouse Left Click item 'MadaketHealth.Name' at LowerRight.
			</message>
			<metainfo
				type="repoitem"
				path="/dom[@domain='edi-alpha.madakethealth.com']//input[#'name']"
				itempath=".//input[#'name']"
				fullname="madaket_XP001Repository.MadaketHealth.Name"
				id="d469a389ded14e77a9e3a1bb2cdd2837"
				timeout="60000"
				codefile="c:\Users\JohnPloumis\Documents\Ranorex\RanorexStudio Projects\ranorex_testautomation\madaket_XP001\TestCase_5283_new_plan.cs"
				codeline="137"
				itemindex="14"
				loglvl="Info">
			</metainfo>
		</item>
		<item
			timeRelativeToTestSuiteStartTime="00:46.897"
			timeRelativeToTestModuleStartTime="00:46.900"
			timeWallClock="11:13:12"
			time="00:46.897"
			level="Info"
			category="Mouse">
			<message>
				Mouse Left Click item 'NewGroupAddress.PlanContainer' at 10;138.
			</message>
			<metainfo
				type="repoitem"
				path="/dom[@domain='edi-alpha.madakethealth.com']//form[#'planForm']/div/fieldset[1]"
				itempath=".//form[#'planForm']/div/fieldset[1]"
				fullname="madaket_XP001Repository.NewGroupAddress.PlanContainer"
				id="53bacd46d26541ceb49888f220832121"
				timeout="60000"
				codefile="c:\Users\JohnPloumis\Documents\Ranorex\RanorexStudio Projects\ranorex_testautomation\madaket_XP001\TestCase_5283_new_plan.cs"
				codeline="141"
				itemindex="15"
				loglvl="Info">
			</metainfo>
		</item>
		<item
			timeRelativeToTestSuiteStartTime="00:49.328"
			timeRelativeToTestModuleStartTime="00:49.331"
			timeWallClock="11:13:14"
			time="00:49.328"
			level="Info"
			category="Set value">
			<message>
				Setting attribute Value to '9876543210' on item 'MadaketHealth.CustomPayerId'.
			</message>
			<metainfo
				type="repoitem"
				path="/dom[@domain='edi-alpha.madakethealth.com']//input[#'customPayerId']"
				itempath=".//input[#'customPayerId']"
				fullname="madaket_XP001Repository.MadaketHealth.CustomPayerId"
				id="96deed58e0594100a0dff142430fd737"
				timeout="60000"
				codefile="c:\Users\JohnPloumis\Documents\Ranorex\RanorexStudio Projects\ranorex_testautomation\madaket_XP001\TestCase_5283_new_plan.cs"
				codeline="145"
				itemindex="16"
				loglvl="Info">
			</metainfo>
		</item>
		<item
			timeRelativeToTestSuiteStartTime="00:50.199"
			timeRelativeToTestModuleStartTime="00:50.202"
			timeWallClock="11:13:15"
			time="00:50.199"
			level="Info"
			category="Mouse">
			<message>
				Mouse Left Click item 'MadaketHealth.CustomPayerId' at LowerRight.
			</message>
			<metainfo
				type="repoitem"
				path="/dom[@domain='edi-alpha.madakethealth.com']//input[#'customPayerId']"
				itempath=".//input[#'customPayerId']"
				fullname="madaket_XP001Repository.MadaketHealth.CustomPayerId"
				id="96deed58e0594100a0dff142430fd737"
				timeout="60000"
				codefile="c:\Users\JohnPloumis\Documents\Ranorex\RanorexStudio Projects\ranorex_testautomation\madaket_XP001\TestCase_5283_new_plan.cs"
				codeline="149"
				itemindex="17"
				loglvl="Info">
			</metainfo>
		</item>
		<item
			timeRelativeToTestSuiteStartTime="00:53.011"
			timeRelativeToTestModuleStartTime="00:53.014"
			timeWallClock="11:13:18"
			time="00:53.011"
			level="Info"
			category="Mouse">
			<message>
				Mouse Left Click item 'NewGroupAddress.PlanContainer' at 10;138.
			</message>
			<metainfo
				type="repoitem"
				path="/dom[@domain='edi-alpha.madakethealth.com']//form[#'planForm']/div/fieldset[1]"
				itempath=".//form[#'planForm']/div/fieldset[1]"
				fullname="madaket_XP001Repository.NewGroupAddress.PlanContainer"
				id="53bacd46d26541ceb49888f220832121"
				timeout="60000"
				codefile="c:\Users\JohnPloumis\Documents\Ranorex\RanorexStudio Projects\ranorex_testautomation\madaket_XP001\TestCase_5283_new_plan.cs"
				codeline="153"
				itemindex="18"
				loglvl="Info">
			</metainfo>
		</item>
		<item
			timeRelativeToTestSuiteStartTime="00:55.509"
			timeRelativeToTestModuleStartTime="00:55.512"
			timeWallClock="11:13:21"
			time="00:55.509"
			level="Info"
			category="Keyboard">
			<message>
				Key sequence 'test_payer_automation_5283' with focus on 'MadaketHealth.PayerName'.
			</message>
			<metainfo
				type="repoitem"
				path="/dom[@domain='edi-alpha.madakethealth.com']//input[#'payerName']"
				itempath=".//input[#'payerName']"
				fullname="madaket_XP001Repository.MadaketHealth.PayerName"
				id="d13f36e3d9574502a0ea370497446279"
				timeout="60000"
				codefile="c:\Users\JohnPloumis\Documents\Ranorex\RanorexStudio Projects\ranorex_testautomation\madaket_XP001\TestCase_5283_new_plan.cs"
				codeline="161"
				itemindex="20"
				loglvl="Info">
			</metainfo>
		</item>
		<item
			timeRelativeToTestSuiteStartTime="01:00.334"
			timeRelativeToTestModuleStartTime="01:00.337"
			timeWallClock="11:13:25"
			time="01:00.334"
			level="Info"
			category="Mouse">
			<message>
				Mouse Left Click item 'NewGroupAddress.TestPayerAutomation5283' at 107;10.
			</message>
			<metainfo
				type="repoitem"
				path="/dom[@domain='edi-alpha.madakethealth.com']/?/?/ul/?/?/a[@innertext~'^test_payer_automation_528']"
				itempath="?/?/ul/?/?/a[@innertext~'^test_payer_automation_528']"
				fullname="madaket_XP001Repository.NewGroupAddress.TestPayerAutomation5283"
				id="5ec5ec51eebe41adb8d9637a6b21ed28"
				timeout="60000"
				codefile="c:\Users\JohnPloumis\Documents\Ranorex\RanorexStudio Projects\ranorex_testautomation\madaket_XP001\TestCase_5283_new_plan.cs"
				codeline="165"
				itemindex="21"
				loglvl="Info">
			</metainfo>
		</item>
		<item
			timeRelativeToTestSuiteStartTime="01:03.369"
			timeRelativeToTestModuleStartTime="01:03.372"
			timeWallClock="11:13:29"
			time="01:03.369"
			level="Info"
			category="Mouse">
			<message>
				Mouse Left Click item 'MadaketHealth.PayerName' at LowerRight.
			</message>
			<metainfo
				type="repoitem"
				path="/dom[@domain='edi-alpha.madakethealth.com']//input[#'payerName']"
				itempath=".//input[#'payerName']"
				fullname="madaket_XP001Repository.MadaketHealth.PayerName"
				id="d13f36e3d9574502a0ea370497446279"
				timeout="60000"
				codefile="c:\Users\JohnPloumis\Documents\Ranorex\RanorexStudio Projects\ranorex_testautomation\madaket_XP001\TestCase_5283_new_plan.cs"
				codeline="169"
				itemindex="22"
				loglvl="Info">
			</metainfo>
		</item>
		<item
			timeRelativeToTestSuiteStartTime="01:06.031"
			timeRelativeToTestModuleStartTime="01:06.034"
			timeWallClock="11:13:31"
			time="01:06.031"
			level="Info"
			category="Mouse">
			<message>
				Mouse Left Click item 'NewGroupAddress.PlanContainer' at 10;138.
			</message>
			<metainfo
				type="repoitem"
				path="/dom[@domain='edi-alpha.madakethealth.com']//form[#'planForm']/div/fieldset[1]"
				itempath=".//form[#'planForm']/div/fieldset[1]"
				fullname="madaket_XP001Repository.NewGroupAddress.PlanContainer"
				id="53bacd46d26541ceb49888f220832121"
				timeout="60000"
				codefile="c:\Users\JohnPloumis\Documents\Ranorex\RanorexStudio Projects\ranorex_testautomation\madaket_XP001\TestCase_5283_new_plan.cs"
				codeline="173"
				itemindex="23"
				loglvl="Info">
			</metainfo>
		</item>
		<item
			timeRelativeToTestSuiteStartTime="01:08.662"
			timeRelativeToTestModuleStartTime="01:08.665"
			timeWallClock="11:13:34"
			time="01:08.662"
			level="Info"
			category="Set value">
			<message>
				Setting attribute TagValue to '8a94a6c3-40c0-4889-8405-d3ecd18daaaa' on item 'MadaketHealth.PartnerAdminGUID'.
			</message>
			<metainfo
				type="repoitem"
				path="/dom[@domain='edi-alpha.madakethealth.com']//select[#'partnerAdminGUID']"
				itempath=".//select[#'partnerAdminGUID']"
				fullname="madaket_XP001Repository.MadaketHealth.PartnerAdminGUID"
				id="cf7ef1bb123d4aee98d7cc3411cdd0bc"
				timeout="60000"
				codefile="c:\Users\JohnPloumis\Documents\Ranorex\RanorexStudio Projects\ranorex_testautomation\madaket_XP001\TestCase_5283_new_plan.cs"
				codeline="177"
				itemindex="24"
				loglvl="Info">
			</metainfo>
		</item>
		<item
			timeRelativeToTestSuiteStartTime="01:09.614"
			timeRelativeToTestModuleStartTime="01:09.617"
			timeWallClock="11:13:35"
			time="01:09.614"
			level="Info"
			category="Mouse">
			<message>
				Mouse Left Click item 'MadaketHealth.SomeLabelTag' at 12;3.
			</message>
			<metainfo
				type="repoitem"
				path="/dom[@domain='edi-alpha.madakethealth.com']//div[#'ttServiceTypeTable']/div[3]//label"
				itempath=".//div[#'ttServiceTypeTable']/div[3]//label"
				fullname="madaket_XP001Repository.MadaketHealth.SomeLabelTag"
				id="e3c1d996bcda44718c7f6b5a3533b399"
				timeout="60000"
				codefile="c:\Users\JohnPloumis\Documents\Ranorex\RanorexStudio Projects\ranorex_testautomation\madaket_XP001\TestCase_5283_new_plan.cs"
				codeline="181"
				itemindex="25"
				loglvl="Info">
			</metainfo>
		</item>
		<item
			timeRelativeToTestSuiteStartTime="01:12.304"
			timeRelativeToTestModuleStartTime="01:12.307"
			timeWallClock="11:13:37"
			time="01:12.304"
			level="Info"
			category="Mouse">
			<message>
				Mouse Left Click item 'MadaketHealth.PopupScrollContainer4' at 677;397.
			</message>
			<metainfo
				type="repoitem"
				path="/dom[@domain='edi-alpha.madakethealth.com']//div[#'addOrUpdatePlanPopup']/div[2]"
				itempath=".//div[#'addOrUpdatePlanPopup']/div[2]"
				fullname="madaket_XP001Repository.MadaketHealth.PopupScrollContainer4"
				id="acb01864dd9f45ab9b8c227267ba503f"
				timeout="60000"
				codefile="c:\Users\JohnPloumis\Documents\Ranorex\RanorexStudio Projects\ranorex_testautomation\madaket_XP001\TestCase_5283_new_plan.cs"
				codeline="185"
				itemindex="26"
				loglvl="Info">
			</metainfo>
		</item>
		<item
			timeRelativeToTestSuiteStartTime="01:14.454"
			timeRelativeToTestModuleStartTime="01:14.457"
			timeWallClock="11:13:40"
			time="01:14.454"
			level="Info"
			category="Invoke action">
			<message>
				Invoking Focus() on item 'MadaketHealth.SavePlan'.
			</message>
			<metainfo
				type="repoitem"
				path="/dom[@domain='edi-alpha.madakethealth.com']//button[#'savePlan']"
				itempath=".//button[#'savePlan']"
				fullname="madaket_XP001Repository.MadaketHealth.SavePlan"
				id="88eec87dc8ff49e59ec19c60ea9b94ae"
				timeout="60000"
				codefile="c:\Users\JohnPloumis\Documents\Ranorex\RanorexStudio Projects\ranorex_testautomation\madaket_XP001\TestCase_5283_new_plan.cs"
				codeline="189"
				itemindex="27"
				loglvl="Info">
			</metainfo>
		</item>
		<item
			timeRelativeToTestSuiteStartTime="01:15.208"
			timeRelativeToTestModuleStartTime="01:15.211"
			timeWallClock="11:13:40"
			time="01:15.208"
			level="Info"
			category="Mouse">
			<message>
				Mouse Left Click item 'MadaketHealth.SavePlan' at Center.
			</message>
			<metainfo
				type="repoitem"
				path="/dom[@domain='edi-alpha.madakethealth.com']//button[#'savePlan']"
				itempath=".//button[#'savePlan']"
				fullname="madaket_XP001Repository.MadaketHealth.SavePlan"
				id="88eec87dc8ff49e59ec19c60ea9b94ae"
				timeout="60000"
				codefile="c:\Users\JohnPloumis\Documents\Ranorex\RanorexStudio Projects\ranorex_testautomation\madaket_XP001\TestCase_5283_new_plan.cs"
				codeline="193"
				itemindex="28"
				loglvl="Info">
			</metainfo>
		</item>
	</activity>
</report>
