﻿<?xml version="1.0" encoding="utf-8"?>
<report
	progress="">
	<activity
		result="Failed"
		duration="0ms"
		durationms="0"
		type="root"
		rid="aa3148d1d5c384f"
		totalerrorcount="1"
		totalwarningcount="0"
		totalsuccesstestcasecount="0"
		totalfailedtestcasecount="0"
		totalblockedtestcasecount="0"
		childsuccesscount="0"
		childfailedcount="0"
		childblockedcount="0"
		totalsuccesscount="0"
		totalfailedcount="0"
		totalblockedcount="0"
		totalmaintenancemodecount="0"
		user="JohnPloumis"
		rxversion="8.2.1.0"
		host="LAPTOP-5EO8DNU1"
		osversion="Windows 10 64bit"
		runtimeversion="4.0.30319.42000"
		procarch="32bit"
		oslanguage="en-US"
		dtnlanguage="en-US"
		screenresolution="1366x768"
		timestamp="11/8/2018 11:51:57 AM"
		timestampiso="2018-11-08T16:51:57"
		endtime="11/8/2018 11:53:32 AM"
		timeoutfactor="1"
		module="Verify_Site_via_MedicalGroup">
		<detail>
			Verify_Site_via_MedicalGroup
		</detail>
		<errormessage>
			Failed to find item 'madaket_XP001Repository.Selectbox.ListItem000NewPartner'.
		</errormessage>
		<varbindings>
		</varbindings>
		<item
			timeRelativeToTestSuiteStartTime="00:02.422"
			timeRelativeToTestModuleStartTime="00:02.423"
			timeWallClock="11:52:00"
			time="00:02.422"
			level="Info"
			category="Mouse">
			<message>
				Mouse Left Click item 'MadaketHealth.DivTagMedicalGroups' at 26;12.
			</message>
			<metainfo
				type="repoitem"
				path="/dom[@domain='edi-alpha.madakethealth.com']//nav[#'mainNav']/ul//div[@innertext~'^Medical\ Groups']"
				itempath=".//nav[#'mainNav']/ul//div[@innertext~'^Medical\ Groups']"
				fullname="madaket_XP001Repository.MadaketHealth.DivTagMedicalGroups"
				id="b009e8773a4e4780a7cf8148c07c9d21"
				timeout="60000"
				codefile="c:\Users\JohnPloumis\Documents\Ranorex\RanorexStudio Projects\ranorex_testautomation\madaket_XP001\Verify_Site_via_MedicalGroup.cs"
				codeline="82"
				itemindex="0"
				loglvl="Info">
			</metainfo>
		</item>
		<item
			timeRelativeToTestSuiteStartTime="00:06.447"
			timeRelativeToTestModuleStartTime="00:06.448"
			timeWallClock="11:52:04"
			time="00:06.447"
			level="Info"
			category="Mouse">
			<message>
				Mouse Left Click item 'MadaketHealth.MedicalGroupClickNewFlow' at 40;8.
			</message>
			<metainfo
				type="repoitem"
				path="/dom[@domain='edi-alpha.madakethealth.com']//a[#'medicalGroupClickNewFlow']"
				itempath=".//a[#'medicalGroupClickNewFlow']"
				fullname="madaket_XP001Repository.MadaketHealth.MedicalGroupClickNewFlow"
				id="1f976bff0a704cffb4e06ee1e8772048"
				timeout="60000"
				codefile="c:\Users\JohnPloumis\Documents\Ranorex\RanorexStudio Projects\ranorex_testautomation\madaket_XP001\Verify_Site_via_MedicalGroup.cs"
				codeline="86"
				itemindex="1"
				loglvl="Info">
			</metainfo>
		</item>
		<item
			timeRelativeToTestSuiteStartTime="00:08.950"
			timeRelativeToTestModuleStartTime="00:08.951"
			timeWallClock="11:52:06"
			time="00:08.950"
			level="Info"
			category="Set value"
			errimg=".\Verify_S_617dda3a_5b47c0cb_trace.jpg"
			errthumb=".\Verify_S_617dda3a_5b47c0cb_trace_thumb.jpg">
			<message>
				Setting attribute TagValue to '1' on item 'MadaketHealth.PartnerAdmin'.
			</message>
			<metainfo
				type="repoitem"
				path="/dom[@domain='edi-alpha.madakethealth.com']//select[#'partnerAdmin']"
				itempath=".//select[#'partnerAdmin']"
				fullname="madaket_XP001Repository.MadaketHealth.PartnerAdmin"
				id="365950f055ff49b69f9fd697eace236b"
				timeout="60000"
				codefile="c:\Users\JohnPloumis\Documents\Ranorex\RanorexStudio Projects\ranorex_testautomation\madaket_XP001\Verify_Site_via_MedicalGroup.cs"
				codeline="90"
				itemindex="2"
				loglvl="Info">
			</metainfo>
		</item>
		<item
			timeRelativeToTestSuiteStartTime="00:34.076"
			timeRelativeToTestModuleStartTime="00:34.077"
			timeWallClock="11:52:31"
			time="00:34.076"
			level="Info"
			category="Mouse"
			errimg=".\Verify_S_617dda3a_89a1c61b_trace.jpg"
			errthumb=".\Verify_S_617dda3a_89a1c61b_trace_thumb.jpg">
			<message>
				Mouse Left Click item 'Selectbox.ListItem000NewPartner' at 81;5.
			</message>
			<metainfo
				type="repoitem"
				path="/container[@caption='selectbox']/listitem[@accessiblename='000 New Partner']"
				itempath="listitem[@accessiblename='000 New Partner']"
				fullname="madaket_XP001Repository.Selectbox.ListItem000NewPartner"
				id="d07e1e473b654021b97230f1eb3b027f"
				timeout="60000"
				codefile="c:\Users\JohnPloumis\Documents\Ranorex\RanorexStudio Projects\ranorex_testautomation\madaket_XP001\Verify_Site_via_MedicalGroup.cs"
				codeline="94"
				itemindex="3"
				loglvl="Info">
			</metainfo>
		</item>
		<item
			timeRelativeToTestSuiteStartTime="01:34.544"
			timeRelativeToTestModuleStartTime="01:34.545"
			timeWallClock="11:53:32"
			time="01:34.544"
			level="Error"
			category="Module"
			errimg=".\Verify_S_617dda3a_8bf902cc_trace.jpg"
			errthumb=".\Verify_S_617dda3a_8bf902cc_trace_thumb.jpg">
			<message>
				Failed to find item 'madaket_XP001Repository.Selectbox.ListItem000NewPartner'.<br/>No element found for path '/container[@caption='selectbox']/listitem[@accessiblename='000 New Partner']' within 1m.
			</message>
			<metainfo
				stacktrace="   at Ranorex.Core.Repository.RepoItemInfo.FindInternal[T](Boolean findSingle, Boolean throwException, Duration effectiveTimeoutOverride)&#13;&#10;   at Ranorex.Core.Repository.RepoItemInfo.&lt;>c__DisplayClass75_0`1.&lt;Find>b__0()&#13;&#10;   at Ranorex.Core.Testing.Services.NoMaintenanceModeService.HandleElementNotFound[T](Func`1 action, RepoItemInfo entry)&#13;&#10;   at Ranorex.Core.Repository.RepoItemInfo.Find[T](Boolean findSingle, Boolean throwException, Duration effectiveTimeoutOverride)&#13;&#10;   at Ranorex.Core.Repository.RepoItemInfo.CreateAdapter[T](Boolean throwException, Duration waitTimeout)&#13;&#10;   at Ranorex.Core.Repository.RepoItemInfo.CreateAdapter[T](Boolean throwException)&#13;&#10;   at madaket_XP001.madaket_XP001RepositoryFolders.SelectboxAppFolder.get_ListItem000NewPartner() in c:\Users\JohnPloumis\Documents\Ranorex\RanorexStudio Projects\ranorex_testautomation\madaket_XP001\madaket_XP001Repository.cs:line 10633&#13;&#10;   at madaket_XP001.Verify_Site_via_MedicalGroup.Ranorex.Core.Testing.ITestModule.Run() in c:\Users\JohnPloumis\Documents\Ranorex\RanorexStudio Projects\ranorex_testautomation\madaket_XP001\Verify_Site_via_MedicalGroup.cs:line 95&#13;&#10;   at Ranorex.Core.Testing.TestModuleLeaf.RunInternal(DataContext parentDataContext, Int32 iteration, Int32 iterationCount, Boolean skipIteration)"
				codefile="c:\Users\JohnPloumis\Documents\Ranorex\RanorexStudio Projects\ranorex_testautomation\madaket_XP001\Verify_Site_via_MedicalGroup.cs"
				codeline="95"
				type="repoitem"
				path="/container[@caption='selectbox']/listitem[@accessiblename='000 New Partner']"
				itempath="listitem[@accessiblename='000 New Partner']"
				fullname="madaket_XP001Repository.Selectbox.ListItem000NewPartner"
				id="d07e1e473b654021b97230f1eb3b027f"
				timeout="60000"
				loglvl="Error"
				itemindex="3">
			</metainfo>
		</item>
	</activity>
</report>
