﻿<?xml version="1.0" encoding="utf-8"?>
<report
	progress="">
	<activity
		result="Success"
		duration="0ms"
		durationms="0"
		type="root"
		rid="1d65f9505a89ccbe"
		totalerrorcount="0"
		totalwarningcount="0"
		totalsuccesstestcasecount="0"
		totalfailedtestcasecount="0"
		totalblockedtestcasecount="0"
		childsuccesscount="0"
		childfailedcount="0"
		childblockedcount="0"
		totalsuccesscount="0"
		totalfailedcount="0"
		totalblockedcount="0"
		totalmaintenancemodecount="0"
		user="JohnPloumis"
		rxversion="8.2.1.0"
		host="LAPTOP-5EO8DNU1"
		osversion="Windows 10 64bit"
		runtimeversion="4.0.30319.42000"
		procarch="32bit"
		oslanguage="en-US"
		dtnlanguage="en-US"
		screenresolution="1366x768"
		timestamp="11/8/2018 12:45:45 PM"
		timestampiso="2018-11-08T17:45:45"
		endtime="11/8/2018 12:45:51 PM"
		timeoutfactor="1"
		module="Verify_Site_via_MedicalGroup">
		<detail>
			Verify_Site_via_MedicalGroup
		</detail>
		<varbindings>
		</varbindings>
		<item
			timeRelativeToTestSuiteStartTime="00:02.330"
			timeRelativeToTestModuleStartTime="00:02.332"
			timeWallClock="12:45:47"
			time="00:02.330"
			level="Info"
			category="Mouse">
			<message>
				Mouse Left Click item 'MadaketHealth.PartnerAdmin' at Center.
			</message>
			<metainfo
				type="repoitem"
				path="/dom[@domain='edi-alpha.madakethealth.com']//select[#'partnerAdmin']"
				itempath=".//select[#'partnerAdmin']"
				fullname="madaket_XP001Repository.MadaketHealth.PartnerAdmin"
				id="365950f055ff49b69f9fd697eace236b"
				timeout="60000"
				codefile="c:\Users\JohnPloumis\Documents\Ranorex\RanorexStudio Projects\ranorex_testautomation\madaket_XP001\Verify_Site_via_MedicalGroup.cs"
				codeline="82"
				itemindex="3"
				loglvl="Info">
			</metainfo>
		</item>
	</activity>
</report>
